{
  "spinsys": {
    "euler": {
      "alpha": 0,
      "beta": 0,
      "gamma": 0
    },
    "interactions": [
      {
        "name": "csa",
        "id": 0,
        "entries": {
          "x": 0,
          "y": 0,
          "z": 0,
          "id": 3,
          "euler": {
            "alpha": 0,
            "beta": 0,
            "gamma": 0
          }
        }
      },
      {
        "name": "dipole",
        "id": 2,
        "entries": {
          "id1": 1,
          "id2": 2
        }
      },
      {
        "name": "hyperfine",
        "id": 4,
        "entries": {
          "id1": 1,
          "id2": 3
        }
      },
      {
        "name": "shielding",
        "id": 6,
        "entries": {
          "x": 2.0094,
          "y": 2.006,
          "z": 2.0017,
          "id": 1,
          "euler": {
            "alpha": 0,
            "beta": 0,
            "gamma": 0
          }
        }
      },
      {
        "name": "shielding",
        "id": 8,
        "entries": {
          "x": 2.0094,
          "y": 2.006,
          "z": 2.0017,
          "id": 2,
          "euler": {
            "alpha": 0,
            "beta": 1.0471975511965976,
            "gamma": 2.6179938779914944
          }
        }
      }
    ],
    "spins": {
      "1": {
        "type": "e",
        "x": 0,
        "y": 0,
        "z": 0,
        "t1": 0.0003,
        "t2": 0.000001
      },
      "2": {
        "type": "e",
        "x": 6.64,
        "y": 0,
        "z": -3.85,
        "t1": 0.0003,
        "t2": 0.000001
      },
      "3": {
        "type": "H",
        "x": -2,
        "y": 2,
        "z": 1,
        "t1": 4,
        "t2": 0.0002
      }
    },
    "irradiation": [
      "e"
    ]
  },
  "pulseseq": {
    "name": "CW",
    "increment": 1e-9,
    "components": {
      "emr1": {
        "e": {
          "frequency": 1000000,
          "phase": 0,
          "offset": 0
        }
      }
    },
    "sections": {
      "p": {
        "type": "Pulse",
        "size": 2000000000,
        "names": [
          "emr1"
        ],
        "params": {}
      }
    },
    "sequence": [
      "p"
    ]
  },
  "settings": {
    "euler": {
      "alpha": 0,
      "beta": 0,
      "gamma": 0
    },
    "ncores": 5,
    "acq": "H1",
    "Magnet": {
      "b0": 9.393
    },
    "Gyrotron": {
      "em_frequency": 263450000000
    },
    "Probe": {
      "mas_frequency": 8000,
      "temperature": 80,
      "mas_increment": 4e-8
    },
    "task": "PowderIntensity",
    "euler_scheme": {
      "zcw": 4,
      "sphere": 0
    }
  }
}