{
  "spinsys": {
    "euler": {
      "alpha": 0,
      "beta": 0,
      "gamma": 0
    },
    "interactions": [
      {
        "name": "shielding",
        "id": 0,
        "entries": {
          "x": 2.0094,
          "y": 2.006,
          "z": 2.0017,
          "id": 1,
          "euler": {
            "alpha": 0,
            "beta": 0,
            "gamma": 0
          }
        }
      },
      {
        "name": "shielding",
        "id": 1,
        "entries": {
          "x": 2.0094,
          "y": 2.006,
          "z": 2.0017,
          "id": 2,
          "euler": {
            "alpha": -2.1642082724729685,
            "beta": -1.8849555921538759,
            "gamma": -1.8675022996339325
          }
        }
      },
      {
        "name": "csa",
        "id": 2,
        "entries": {
          "x": 0,
          "y": 0,
          "z": 0,
          "id": 5,
          "euler": {
            "alpha": 0,
            "beta": 0,
            "gamma": 0
          }
        }
      },
      {
        "name": "hyperfine",
        "id": 3,
        "entries": {
          "id1": 1,
          "id2": 5
        }
      },
      {
        "name": "csa",
        "id": 4,
        "entries": {
          "x": 0,
          "y": 0,
          "z": 0,
          "id": 6,
          "euler": {
            "alpha": 0,
            "beta": 0,
            "gamma": 0
          }
        }
      },
      {
        "name": "hyperfine",
        "id": 5,
        "entries": {
          "id1": 1,
          "id2": 6
        }
      },
      {
        "name": "csa",
        "id": 6,
        "entries": {
          "x": 0,
          "y": 0,
          "z": 0,
          "id": 7,
          "euler": {
            "alpha": 0,
            "beta": 0,
            "gamma": 0
          }
        }
      },
      {
        "name": "hyperfine",
        "id": 7,
        "entries": {
          "id1": 1,
          "id2": 7
        }
      },
      {
        "name": "csa",
        "id": 8,
        "entries": {
          "x": 0,
          "y": 0,
          "z": 0,
          "id": 8,
          "euler": {
            "alpha": 0,
            "beta": 0,
            "gamma": 0
          }
        }
      },
      {
        "name": "hyperfine",
        "id": 9,
        "entries": {
          "id1": 1,
          "id2": 8
        }
      },
      {
        "name": "csa",
        "id": 10,
        "entries": {
          "x": 0,
          "y": 0,
          "z": 0,
          "id": 9,
          "euler": {
            "alpha": 0,
            "beta": 0,
            "gamma": 0
          }
        }
      },
      {
        "name": "hyperfine",
        "id": 11,
        "entries": {
          "id1": 1,
          "id2": 9
        }
      },
      {
        "name": "csa",
        "id": 12,
        "entries": {
          "x": 0,
          "y": 0,
          "z": 0,
          "id": 10,
          "euler": {
            "alpha": 0,
            "beta": 0,
            "gamma": 0
          }
        }
      },
      {
        "name": "hyperfine",
        "id": 13,
        "entries": {
          "id1": 1,
          "id2": 10
        }
      },
      {
        "name": "csa",
        "id": 14,
        "entries": {
          "x": 0,
          "y": 0,
          "z": 0,
          "id": 11,
          "euler": {
            "alpha": 0,
            "beta": 0,
            "gamma": 0
          }
        }
      },
      {
        "name": "hyperfine",
        "id": 15,
        "entries": {
          "id1": 1,
          "id2": 11
        }
      },
      {
        "name": "csa",
        "id": 16,
        "entries": {
          "x": 0,
          "y": 0,
          "z": 0,
          "id": 12,
          "euler": {
            "alpha": 0,
            "beta": 0,
            "gamma": 0
          }
        }
      },
      {
        "name": "hyperfine",
        "id": 17,
        "entries": {
          "id1": 1,
          "id2": 12
        }
      },
      {
        "name": "csa",
        "id": 18,
        "entries": {
          "x": 0,
          "y": 0,
          "z": 0,
          "id": 13,
          "euler": {
            "alpha": 0,
            "beta": 0,
            "gamma": 0
          }
        }
      },
      {
        "name": "hyperfine",
        "id": 19,
        "entries": {
          "id1": 1,
          "id2": 13
        }
      },
      {
        "name": "csa",
        "id": 20,
        "entries": {
          "x": 0,
          "y": 0,
          "z": 0,
          "id": 14,
          "euler": {
            "alpha": 0,
            "beta": 0,
            "gamma": 0
          }
        }
      },
      {
        "name": "hyperfine",
        "id": 21,
        "entries": {
          "id1": 1,
          "id2": 14
        }
      },
      {
        "name": "csa",
        "id": 22,
        "entries": {
          "x": 0,
          "y": 0,
          "z": 0,
          "id": 15,
          "euler": {
            "alpha": 0,
            "beta": 0,
            "gamma": 0
          }
        }
      },
      {
        "name": "hyperfine",
        "id": 23,
        "entries": {
          "id1": 1,
          "id2": 15
        }
      }
    ],
    "spins": {
      "1": {
        "type": "e",
        "x": 0,
        "y": 0,
        "z": 0,
        "t1": 0.0003,
        "t2": 0.000001
      },
      "2": {
        "type": "e",
        "x": -4.503,
        "y": 5.975,
        "z": -0.523,
        "t1": 0.0003,
        "t2": 0.000001
      },
      "5": {
        "type": "H1",
        "x": -0.534,
        "y": 1.69,
        "z": 1.99,
        "t1": 2,
        "t2": 0.0002
      },
      "6": {
        "type": "H1",
        "x": 0.856,
        "y": 2.32,
        "z": 1.12,
        "t1": 2,
        "t2": 0.0002
      },
      "7": {
        "type": "H1",
        "x": -0.354,
        "y": 1.45,
        "z": -2.37,
        "t1": 2,
        "t2": 0.0002
      },
      "8": {
        "type": "H1",
        "x": -0.534,
        "y": -1.69,
        "z": 1.99,
        "t1": 2,
        "t2": 0.0002
      },
      "9": {
        "type": "H1",
        "x": 0.857,
        "y": -2.32,
        "z": 1.12,
        "t1": 2,
        "t2": 0.0002
      },
      "10": {
        "type": "H1",
        "x": -0.354,
        "y": -1.45,
        "z": -2.37,
        "t1": 2,
        "t2": 0.0002
      },
      "11": {
        "type": "H1",
        "x": 0.989,
        "y": -2.13,
        "z": -1.45,
        "t1": 2,
        "t2": 0.0002
      },
      "12": {
        "type": "H1",
        "x": 0.989,
        "y": 2.13,
        "z": -1.45,
        "t1": 2,
        "t2": 0.0002
      },
      "13": {
        "type": "H1",
        "x": -2.639,
        "y": 1.29,
        "z": 0.774,
        "t1": 2,
        "t2": 0.0002
      },
      "14": {
        "type": "H1",
        "x": -2.639,
        "y": -1.295,
        "z": 0.774,
        "t1": 2,
        "t2": 0.0002
      },
      "15": {
        "type": "H1",
        "x": -2.552,
        "y": -0.0003885,
        "z": -1.978,
        "t1": 2,
        "t2": 0.0002
      }
    },
    "irradiation": [
      "e"
    ],
    "spin-groups": [
      [
        1,
        8
      ]
    ]
  },
  "pulseseq": {
    "name": "CW",
    "increment": 1e-9,
    "components": {
      "emr1": {
        "e": {
          "frequency": 1000000,
          "phase": 0,
          "offset": 0
        }
      }
    },
    "sections": {
      "p": {
        "type": "Pulse",
        "size": 3000000000,
        "names": [
          "emr1"
        ],
        "params": {}
      }
    },
    "sequence": [
      "p"
    ]
  },
  "settings": {
    "euler": {
      "alpha": 0,
      "beta": 1.7453292519943295,
      "gamma": 5.410520681182422
    },
    "ncores": 1,
    "acq": "H1",
    "Magnet": {
      "b0": 9.394638
    },
    "Gyrotron": {
      "em_frequency": 263450000000
    },
    "Probe": {
      "mas_frequency": 0,
      "temperature": 80,
      "mas_increment": 5.0000000000000004e-8
    },
    "task": "FieldProfile",
    "euler_scheme": {
      "zcw": 2,
      "sphere": 0
    },
    "field range": {
      "begin": 9.36,
      "end": 9.41,
      "step": 0.00125
    }
  }
}
