# scan1d:
0,-7.1816680598071638
500000,-10.546643282059437
1000000,-14.006751275273407
1500000,-17.378928489619437
2000000,-20.307544908401049
2500000,-22.528197614133113
3000000,-24.269449160647589
3500000,-26.543480190761603
4000000,-30.987682522093834
4500000,-39.10346029192705
5000000,-51.272241678074693
5500000,-66.255092158403627
6000000,-81.450831424390927
6500000,-93.550268436976936
7000000,-99.204645522945356
7500000,-95.842321301615357
8000000,-83.351974970593133
8500000,-67.255289077428642
9000000,-60.809240977075667
9500000,-78.064002662220147
10000000,-119.80671109271181
10500000,-173.39547900949441
11000000,-226.01745005959208
11500000,-271.24408312071949
12000000,-307.40186391329428
12500000,-334.85998729338115
13000000,-354.59416846657967
13500000,-367.65288156566982
14000000,-374.97210276713128
14500000,-377.27479653915594
15000000,-374.97768955610263
15500000,-368.10103319776942
16000000,-356.19169577898771
16500000,-338.26382547951977
17000000,-312.76059668678454
17500000,-277.58338260340912
18000000,-230.4242242916967
18500000,-170.22174021914438
19000000,-101.65338900836859
19500000,-43.236910732101244
20000000,-25.368312115433696
20500000,-57.380074208935483
21000000,-110.33956857259012
21500000,-154.07657916072301
22000000,-177.98960611781683
22500000,-182.17260522868077
23000000,-168.83195687234263
23500000,-139.99777054611252
24000000,-98.733407337947455
24500000,-52.596929907125279
25000000,-16.892511945792076
25500000,-8.9598374482404779
26000000,-31.089793348496972
26500000,-66.938198279098714
27000000,-98.940372536278886
27500000,-118.60578816319567
28000000,-124.02554064136564
28500000,-115.74277067002703
29000000,-95.18053012434244
29500000,-65.27944799247912
30000000,-32.562925460632215
30500000,-8.3593124873029669
31000000,-3.9868583350856759
31500000,-20.492229901518986
32000000,-47.189776146993331
32500000,-71.937497484021506
33000000,-87.94138321951695
33500000,-93.017956725378681
34000000,-87.154937382626002
34500000,-71.408754951735062
35000000,-48.314490250345465
35500000,-23.258379652103983
36000000,-5.0096417543045684
36500000,-1.9463400026752278
37000000,-14.899116825810101
37500000,-36.111378712220464
38000000,-56.285953546591443
38500000,-69.756531223334662
39000000,-74.402484935398448
39500000,-69.996117415276657
40000000,-57.358380995070817
40500000,-38.640375819841118
41000000,-18.3218826958237
41500000,-3.4984419695394551
42000000,-0.89838473032024502
42500000,-11.389519122720674
43000000,-28.980023015579128
43500000,-46.088211761912881
44000000,-57.806888489065557
44500000,-62.131624893639916
45000000,-58.736821899404291
45500000,-48.27787225329822
46000000,-32.585011150118717
46500000,-15.437682354151303
47000000,-2.7691419233949883
47500000,-0.27449451641791595
48000000,-8.9343507934137563
48500000,-23.948612298872341
49000000,-38.878649497876921
49500000,-49.347939368457936
50000000,-53.458090223420271
50500000,-50.830246138721122
