# scan1d:
20,-128.04249748565459
40,-206.19261657221611
60,-254.70046793549028
80,-285.63286537655426
100,-305.97913869665513
120,-319.82770753005684
140,-329.59857789622185
160,-336.74457362029187
180,-342.15254008448341
200,-346.3744073597843
220,-349.76130302105526
240,-352.5421081314957
260,-354.86996626084988
280,-356.85016394300277
300,-358.55708499675842
320,-360.04468940521957
340,-361.35310830359504
360,-362.51287751222503
380,-363.54771313853166
400,-364.47637172111496
420,-365.31392490553299
440,-366.07265233226627
460,-366.76268047923213
480,-367.39244896469427
500,-367.96905726809052
520,-368.49852692918756
540,-368.98600288238907
560,-369.43591019162744
580,-369.85207757555094
600,-370.23783583883863
620,-370.59609708822086
640,-370.92941905652333
660,-371.24005775896302
680,-371.53001091751378
700,-371.80105401471889
720,-372.05477041493316
740,-372.29257667449474
760,-372.51574392331423
780,-372.72541601802118
800,-372.92262502625914
820,-373.10830449252711
840,-373.28330085033895
860,-373.44838327805348
880,-373.60425224200009
900,-373.75154692752847
920,-373.89085172428963
940,-374.02270190379448
960,-374.14758860489087
980,-374.26596322396261
1000,-374.37824129143701
1020,-374.48480590377181
1040,-374.58601076926357
1060,-374.68218291778891
1080,-374.77362511693201
1100,-374.8606180311109
1120,-374.94342215509897
1140,-375.02227954898609
1160,-375.09741539808664
1180,-375.1690394179443
1200,-375.23734712230487
1220,-375.30252096918747
1240,-375.36473139871453
1260,-375.42413777424474
1280,-375.48088923741147
1300,-375.5351254858233
1320,-375.58697748167003
1340,-375.63656809822317
1360,-375.68401271041063
1380,-375.72941973512286
1400,-375.77289112609657
1420,-375.8145228277952
1440,-375.85440519210169
1460,-375.89262336142502
1480,-375.92925762129823
1500,-375.96438372515081
1520,-375.9980731939458
1540,-376.03039359274823
1560,-376.0614087863359
1580,-376.09117917571746
1600,-376.11976191705037
1620,-376.14721112460484
1640,-376.17357805901361
1660,-376.19891130205752
1680,-376.22325691907423
1700,-376.24665861003069
1720,-376.26915785011767
1740,-376.29079402064917
1760,-376.31160453125165
1780,-376.33162493364568
1800,-376.35088902801681
1820,-376.36942896236451
1840,-376.38727532532403
1860,-376.40445723305697
1880,-376.42100241056312
1900,-376.43693726789354
1920,-376.45228697149361
1940,-376.46707551121921
1960,-376.48132576315868
1980,-376.49505954864253
2000,-376.50829768968561
2020,-376.52106006111131
2040,-376.5333656395577
2060,-376.54523254963726
2080,-376.55667810733934
2100,-376.56771886093287
2120,-376.5783706296055
2140,-376.58864853973927
2160,-376.59856705928814
2180,-376.60814003012695
2200,-376.61738069859837
2220,-376.62630174447941
2240,-376.63491530821716
2260,-376.64323301675836
2280,-376.65126600799255
2300,-376.65902495384017
2320,-376.66652008212571
2340,-376.6737611973046
2360,-376.6807577001282
2380,-376.68751860618505
2400,-376.69405256359306
2420,-376.70036786971338
2440,-376.70647248706547
2460,-376.71237405830772
2480,-376.71807992068699
2500,-376.72359711951623
2520,-376.72893242113622
2540,-376.7340923252271
2560,-376.73908307637322
2580,-376.74391067534663
2600,-376.74858088943648
2620,-376.75309926273917
2640,-376.75747112556519
2660,-376.76170160361517
2680,-376.76579562664313
2700,-376.76975793673233
2720,-376.77359309621954
2740,-376.77730549511568
2760,-376.78089935836186
2780,-376.78437875264399
2800,-376.78774759286841
2820,-376.79100964843258
2840,-376.79416854915257
2860,-376.79722779093476
2880,-376.80019074121691
2900,-376.80306064408353
2920,-376.80584062530448
2940,-376.80853369694779
2960,-376.81114276202237
2980,-376.81367061866308
3000,-376.81611996441819
3020,-376.81849340004561
3040,-376.8207934334078
3060,-376.82302248304291
3080,-376.82518288162828
3100,-376.82727687935204
3120,-376.82930664696181
3140,-376.83127427899603
3160,-376.83318179648904
3180,-376.83503114994176
3200,-376.8368242218977
3220,-376.83856282953872
3240,-376.84024872712632
3260,-376.84188360841591
3280,-376.84346910881857
3300,-376.84500680766109
3320,-376.84649823025649
3340,-376.84794484984195
3360,-376.84934808954347
3380,-376.8507093242319
3400,-376.85202988223915
3420,-376.85331104708848
3440,-376.85455405911091
3460,-376.85576011702153
3480,-376.85693037941599
3500,-376.85806596619489
3520,-376.85916795999128
3540,-376.86023740748897
3560,-376.86127532067502
3580,-376.86228267810708
3600,-376.86326042609215
3620,-376.86420947982293
3640,-376.86513072447099
3660,-376.86602501624054
3680,-376.86689318341718
3700,-376.86773602725179
3720,-376.86855432301678
3740,-376.86934882082761
3760,-376.87012024656724
3780,-376.87086930264928
3800,-376.87159666892393
3820,-376.87230300336893
3840,-376.87298894288222
3860,-376.87365510400861
3880,-376.87430208357245
3900,-376.87493045946081
3920,-376.87554079115159
3940,-376.87613362034563
3960,-376.87670947168476
3980,-376.87726885318597
4000,-376.87781225687183
4020,-376.87834015928468
4040,-376.87885302202807
4060,-376.87935129221813
4080,-376.87983540301076
4100,-376.88030577402264
4120,-376.88076281184675
4140,-376.8812069103796
4160,-376.88163845134579
4180,-376.88205780460203
4200,-376.8824653286261
4220,-376.88286137078359
4240,-376.88324626779939
4260,-376.88362034597355
4280,-376.88398392167954
4300,-376.88433730153014
4320,-376.88468078275844
4340,-376.88501465360287
4360,-376.88533919343161
4380,-376.88565467317466
4400,-376.88596135549528
4420,-376.88625949514108
4440,-376.88654933907486
4460,-376.88683112687761
4480,-376.88710509081153
4500,-376.88737145626891
4520,-376.88763044174777
4540,-376.88788225923628
4560,-376.88812711438152
4580,-376.888365206657
4600,-376.8885967295609
4620,-376.88882187085881
4640,-376.8890408126901
4660,-376.88925373180132
4680,-376.88946079966996
4700,-376.88966218267961
4720,-376.88985804230498
4740,-376.89004853527223
4760,-376.89023381365217
4780,-376.89041402499578
4800,-376.8905893125737
4820,-376.89075981541947
4840,-376.89092566849536
4860,-376.89108700278746
4880,-376.89124394545615
4900,-376.89139661995324
4920,-376.89154514610465
4940,-376.89168964029528
4960,-376.89183021544051
4980,-376.89196698126852
5000,-376.89210004419817
5020,-376.89222950770858
5040,-376.89235547216271
5060,-376.89247803507641
5080,-376.8925972911556
5100,-376.89271333233989
5120,-376.892826247936
5140,-376.89293612469356
5160,-376.89304304684742
5180,-376.89314709621414
5200,-376.89324835230559
5220,-376.89334689230139
5240,-376.89344279119513
5260,-376.89353612186801
5280,-376.89362695505895
5300,-376.89371535955547
5320,-376.89380140216053
5340,-376.89388514776084
5360,-376.89396665940552
5380,-376.89404599839901
5400,-376.89412322423834
5420,-376.89419839480826
5440,-376.89427156628381
5460,-376.8943427933192
5480,-376.89441212899112
5500,-376.89447962489561
5520,-376.89454533113383
5540,-376.89460929648686
5560,-376.89467156830415
5580,-376.89473219258463
5600,-376.89479121408482
5620,-376.89484867627709
5640,-376.89490462149979
5660,-376.89495909076714
5680,-376.89501212404423
5700,-376.89506376018215
5720,-376.89511403688232
5740,-376.89516299090093
5760,-376.89521065786698
5780,-376.89525707249732
5800,-376.89530226849121
5820,-376.89534627865777
5840,-376.89538913489389
5860,-376.89543086815848
5880,-376.89547150863444
5900,-376.89551108561284
5920,-376.89554962759991
5940,-376.89558716230601
5960,-376.89562371669894
5980,-376.89565931698689
6000,-376.89569398863136
6020,-376.89572775647986
6040,-376.89576064463
6060,-376.89579267648122
6080,-376.89582387490259
6100,-376.89585426207356
6120,-376.89588385955034
6140,-376.89591268832834
6160,-376.89594076881258
6180,-376.89596812090218
6200,-376.89599476384916
6220,-376.89602071651854
6240,-376.89604599716881
6260,-376.89607062357618
6280,-376.89609461303138
6300,-376.89611798240031
6320,-376.89614074804859
6340,-376.89616292588516
6360,-376.89618453144669
6380,-376.89620557980129
6400,-376.89622608564463
6420,-376.89624606321263
6440,-376.89626552644438
6460,-376.89628448885117
6480,-376.89630296358069
6500,-376.8963209634274
6520,-376.89633850085471
6540,-376.89635558798926
6560,-376.89637223665898
6580,-376.8963884583091
6600,-376.89640426412126
6620,-376.89641966492178
6640,-376.89643467140388
6660,-376.8964492937734
6680,-376.89646354211953
6700,-376.89647742613386
6720,-376.89649095536981
6740,-376.89650413905281
6760,-376.89651698617411
6780,-376.89652950549242
6800,-376.89654170554923
6820,-376.8965535946204
6840,-376.89656518082836
6860,-376.89657647196964
6880,-376.896587475731
6900,-376.896598199594
6920,-376.89660865076803
6940,-376.89661883633767
6960,-376.89662876316959
6980,-376.89663843796126
7000,-376.89664786721829
7020,-376.89665705731124
7040,-376.89666601440524
7060,-376.89667474449124
7080,-376.89668325348129
7100,-376.89669154702881
7120,-376.89669963068025
7140,-376.8967075098949
7160,-376.89671518985443
7180,-376.89672267577328
7200,-376.89672997259282
7220,-376.89673708516995
7240,-376.89674401822464
7260,-376.89675077643403
7280,-376.89675736422834
7300,-376.89676378597255
7320,-376.8967700459412
7340,-376.89677614829884
7360,-376.89678209703271
7380,-376.89678789613811
7400,-376.89679354935151
7420,-376.89679906050083
7440,-376.89680443317661
7460,-376.89680967090129
7480,-376.89681477715914
7500,-376.89681975523752
7520,-376.89682460845114
7540,-376.89682933999421
7560,-376.89683395294111
7580,-376.89683845033062
7600,-376.89684283508905
7620,-376.89684711006504
7640,-376.8968512780836
7660,-376.89685534186793
7680,-376.89685930406324
7700,-376.89686316720309
7720,-376.89686693385624
7740,-376.89687060645036
7760,-376.89687418735423
7780,-376.89687767891002
7800,-376.89688108340408
7820,-376.89688440302143
7840,-376.89688763985396
7860,-376.8968907960874
7880,-376.89689387370299
7900,-376.8968968747364
7920,-376.89689980108005
7940,-376.89690265462161
7960,-376.89690543718643
7980,-376.89690815061704
8000,-376.89691079662373
8020,-376.89691337690425
8040,-376.89691589310473
8060,-376.8969183468875
8080,-376.89692073979273
8100,-376.89692307333064
8120,-376.89692534903531
8140,-376.89692756832898
8160,-376.89692973264141
8180,-376.89693184336693
8200,-376.89693390182771
8220,-376.89693590932836
8240,-376.89693786720898
8260,-376.89693977661801
8280,-376.89694163889385
8300,-376.89694345510162
8320,-376.8969452264821
8340,-376.89694695408917
8360,-376.89694863907755
8380,-376.89695028244546
8400,-376.89695188527025
8420,-376.89695344861576
8440,-376.89695497336737
8460,-376.89695646056367
8480,-376.89695791112069
8500,-376.89695932597351
8520,-376.89696070595096
8540,-376.89696205201216
8560,-376.89696336490636
8580,-376.89696464555999
8600,-376.89696589473937
8620,-376.89696711313127
8640,-376.89696830161972
8660,-376.89696946096075
8680,-376.89697059177735
8700,-376.89697169490086
8720,-376.89697277091494
8740,-376.89697382050275
8760,-376.89697484441655
8780,-376.89697584318742
8800,-376.8969768174735
8820,-376.89697776788779
8840,-376.89697869504761
8860,-376.89697959951923
8880,-376.89698048182163
8900,-376.89698134250688
8920,-376.89698218222577
8940,-376.89698300132329
8960,-376.89698380043836
8980,-376.89698458001988
9000,-376.89698534055759
9020,-376.89698608250364
9040,-376.89698680633069
9060,-376.89698751249756
9080,-376.89698820139796
9100,-376.89698887355115
9120,-376.89698952927762
9140,-376.89699016903313
9160,-376.89699079318905
9180,-376.89699140212849
9200,-376.89699199622135
9220,-376.89699257587796
9240,-376.89699314140177
9260,-376.89699369314349
9280,-376.8969942315058
9300,-376.89699475673694
9320,-376.89699526919185
9340,-376.89699576917212
9360,-376.89699625706442
9380,-376.89699673304295
9400,-376.89699719748739
9420,-376.89699765062369
9440,-376.8969980928203
9460,-376.89699852424826
9480,-376.89699894519708
9500,-376.89699935595479
9520,-376.89699975673233
9540,-376.89700014780789
9560,-376.89700052937764
9580,-376.89700090174853
9600,-376.89700126503476
9620,-376.89700161960718
9640,-376.89700196551348
9660,-376.8970023031012
9680,-376.89700263249995
9700,-376.89700295392305
9720,-376.89700326760277
9740,-376.89700357365808
9760,-376.89700387229448
9780,-376.89700416375803
9800,-376.89700444816123
9820,-376.89700472570405
9840,-376.89700499651769
9860,-376.89700526083953
9880,-376.89700551874586
9900,-376.89700577044175
9920,-376.8970060160629
9940,-376.89700625575335
9960,-376.89700648964174
9980,-376.89700671795265
