# Field Profile:
0.34300000000000003,-3.3466002661158289
0.34305000000000002,-5.4734076893925039
0.34310000000000002,-6.3410545940714975
0.34315000000000001,-3.2388901409986461
0.34320000000000001,-1.8035955144925031
0.34325,-4.2187121119284186
0.34329999999999999,-4.3156122107674584
0.34334999999999999,-0.62687637950193775
0.34339999999999998,0.32647199313028757
0.34344999999999998,-2.2050008690045755
0.34349999999999997,-1.611805994045171
0.34354999999999997,2.0714091143942941
0.34359999999999996,2.3458229995893118
0.34364999999999996,-0.13349745876354185
0.34369999999999995,0.7392991665207882
0.34374999999999994,3.7494911728927538
0.34379999999999994,3.3623755058504043
0.34384999999999993,1.0212615653018839
0.34389999999999993,1.4789340293035513
0.34394999999999992,3.2575897979763204
0.34399999999999992,2.4954086035773755
0.34404999999999991,0.23643946834993668
0.34409999999999991,-0.57554845099908969
0.3441499999999999,-0.27716345520064078
0.34419999999999989,-0.88527732972218953
0.34424999999999989,-3.2553158792909502
0.34429999999999988,-6.1389928382264767
0.34434999999999988,-7.1539215182593754
0.34439999999999987,-6.8867542568941671
0.34444999999999987,-9.6253674442606858
0.34449999999999986,-15.124923452753228
0.34454999999999986,-16.869968675136839
0.34459999999999985,-14.904122985603086
0.34464999999999985,-18.212496889207038
0.34469999999999984,-26.495293349391101
0.34474999999999983,-28.106955139017892
0.34479999999999983,-23.610793410975461
0.34484999999999982,-27.519189629075441
0.34489999999999982,-38.373220984714457
0.34494999999999981,-38.964087654291284
0.34499999999999981,-31.173942005452858
0.3450499999999998,-35.420890004168484
0.3450999999999998,-48.486558291841632
0.34514999999999979,-47.374903231324538
0.34519999999999978,-35.62619207065341
0.34524999999999978,-39.712372519061724
0.34529999999999977,-54.585486855928743
0.34534999999999977,-51.674598034776345
0.34539999999999976,-35.505058512629738
0.34544999999999976,-38.419478155192316
0.34549999999999975,-55.078267868979353
0.34554999999999975,-51.164976570028891
0.34559999999999974,-30.381731835011443
0.34564999999999974,-30.589792353275364
0.34569999999999973,-49.226820883475966
0.34574999999999972,-46.844866314426383
0.34579999999999972,-22.743948609113438
0.34584999999999971,-17.726742283275879
0.34589999999999971,-37.999802192699271
0.3459499999999997,-42.725758228226994
0.3459999999999997,-21.866988184264045
0.34604999999999969,-11.069544321622386
0.34609999999999969,-28.502354098482115
0.34614999999999968,-46.050505823914072
0.34619999999999967,-46.932531030830077
0.34624999999999967,-50.412851245262026
0.34629999999999966,-65.982505891043161
0.34634999999999966,-79.947503054771403
0.34639999999999965,-93.404287438846026
0.34644999999999965,-134.67776820330809
0.34649999999999964,-199.98189965497394
0.34654999999999964,-261.65623295542792
0.34659999999999963,-308.33612608730431
0.34664999999999963,-340.52130922205271
0.34669999999999962,-361.30163032459382
0.34674999999999961,-373.20741578528674
0.34679999999999961,-378.14711893756441
0.3468499999999996,-377.73390091924898
0.3468999999999996,-372.86250468687842
0.34694999999999959,-363.10828519912263
0.34699999999999959,-346.98807966643716
0.34704999999999958,-322.0728096061535
0.34709999999999958,-286.49979666087762
0.34714999999999957,-239.45129443781653
0.34719999999999956,-182.74319210632513
0.34724999999999956,-122.85452664700018
0.34729999999999955,-67.062044924057219
0.34734999999999955,-25.748213622703933
0.34739999999999954,2.8762831631361889
0.34744999999999954,34.301242832350781
0.34749999999999953,62.288440581391626
0.34754999999999953,72.372543337213486
0.34759999999999952,66.171919577087152
0.34764999999999951,73.0849087223922
0.34769999999999951,101.97538681169455
0.3477499999999995,116.17781411339571
0.3477999999999995,100.34606335083529
0.34784999999999949,82.270896648059718
0.34789999999999949,96.115185491507773
0.34794999999999948,114.49619631442685
0.34799999999999948,104.32932379007514
0.34804999999999947,79.446198431406472
0.34809999999999947,79.054088534567228
0.34814999999999946,94.823394707004667
0.34819999999999945,89.887292739311988
0.34824999999999945,66.957177497219533
0.34829999999999944,59.515364420674118
0.34834999999999944,69.676096841118564
0.34839999999999943,67.609895511994822
0.34844999999999943,49.595331029386422
0.34849999999999942,40.140031213014787
0.34854999999999942,45.320187884972448
0.34859999999999941,44.487285375272116
0.3486499999999994,31.908356913519807
0.3486999999999994,23.322098399962229
0.34874999999999939,24.984825684262095
0.34879999999999939,24.910286622695605
0.34884999999999938,17.503157448707807
0.34889999999999938,10.785300349317135
0.34894999999999937,10.352480640262563
0.34899999999999937,11.192115377517011
0.34904999999999936,8.1228603861915509
0.34909999999999936,3.227517970703734
0.34914999999999935,1.7562605318691553
0.34919999999999934,3.7524736862558443
0.34924999999999934,3.8801052806128529
0.34929999999999933,0.22978440588330823
0.34934999999999933,-1.5469726981802914
0.34939999999999932,1.6186395067529373
0.34944999999999932,3.6724718060859343
0.34949999999999931,0.62039323211931952
0.34954999999999931,-1.0317344119785068
0.3495999999999993,3.0494710501546987
0.34964999999999929,5.8349030107670892
0.34969999999999929,2.8936746114779202
0.34974999999999928,1.5927133764104078
0.34979999999999928,6.1027875986850306
0.34984999999999927,8.6945667166116518
0.34989999999999927,5.631626619740393
0.34994999999999926,4.7185735764156167
0.34999999999999926,9.1139107959809262
