# Field Profile:
9785000000,130.10194539192742
9785500000,189.8822764273734
9786000000,241.98370615267601
9786500000,276.78486548579241
9787000000,290.80075169796174
9787500000,296.15322203635844
9788000000,293.26090392562929
9788500000,282.66430288379553
9789000000,266.85008414366416
9789500000,244.99425237337624
9790000000,220.66794125687414
9790500000,196.56896251267781
9791000000,169.93377647563622
9791500000,139.73522017250929
9792000000,109.16340858500541
9792500000,84.023754732956121
9793000000,68.886243951588142
9793500000,64.510943786623486
9794000000,66.200520476542337
9794500000,71.035085526021973
9795000000,81.619889283853325
9795500000,96.572018092482466
9796000000,114.09969513775246
9796500000,147.02986797079188
9797000000,188.78652616401791
9797500000,226.47781224135386
9798000000,256.33283258744871
9798500000,272.94406107473048
9799000000,273.18685349071581
9799500000,263.83393245711585
9800000000,249.57353177962776
9800500000,231.71674336336815
9801000000,210.72905980457998
9801500000,186.40725133893756
9802000000,160.00927058969171
9802500000,126.90178921059562
9803000000,82.548529680070473
9803500000,32.089468843019603
9804000000,-15.140844486875553
9804500000,-50.912739199951631
9805000000,-74.719522567961192
9805500000,-85.93441678393161
9806000000,-87.863809912998121
9806500000,-81.716383915694621
9807000000,-66.055619205746041
9807500000,-45.069026848521219
9808000000,-18.544678995523089
9808500000,23.813291799573992
9809000000,74.835479007428276
9809500000,123.24607280565056
9810000000,162.05902326918272
9810500000,184.64388650923243
9811000000,191.1102804207529
9811500000,187.78303067830245
9812000000,178.97369825179084
9812500000,166.78761465504937
9813000000,150.51349049220156
9813500000,126.45887086534184
9814000000,91.195533013591685
9814500000,45.732598255236738
9815000000,-5.5097037917520613
9815500000,-59.426259042752967
9816000000,-105.26054063591897
9816500000,-135.94588304495164
9817000000,-159.27754605659135
9817500000,-174.55922860408938
9818000000,-180.4774630163069
9818500000,-180.75435444807115
9819000000,-175.58633668541282
9819500000,-164.81231365933562
9820000000,-145.70131421119564
9820500000,-112.19526859194256
9821000000,-65.276189722471145
9821500000,-15.333455991954146
9822000000,25.604924572273106
9822500000,52.846542122293414
9823000000,70.093028140359806
9823500000,80.864730006472826
9824000000,85.163183858701956
9824500000,82.072279676762648
9825000000,72.578375709021586
9825500000,51.088527099790745
9826000000,11.87380617067889
9826500000,-37.068168500205104
9827000000,-90.439558835901735
9827500000,-143.00584991186821
9828000000,-181.16669914554089
9828500000,-204.25676364294918
9829000000,-225.0374494095534
9829500000,-239.42478604588305
9830000000,-246.21683133687887
9830500000,-249.5308628074248
9831000000,-247.51993105303887
9831500000,-239.42444245279415
9832000000,-226.73135746287676
9832500000,-207.66120926144183
9833000000,-180.91482294756733
9833500000,-150.15787334237029
9834000000,-121.92111100492249
9834500000,-100.66822889093625
9835000000,-85.581325290450124
9835500000,-73.36461380976877
9836000000,-64.306239870699159
9836500000,-59.006117821010072
9837000000,-57.908433278165809
9837500000,-65.752885152264255
9838000000,-96.727160887822706
9838500000,-141.30807651423865
9839000000,-188.37351086465833
9839500000,-229.5569507431498
9840000000,-255.39950098929603
9840500000,-269.70395149734929
9841000000,-282.02802653484798
9841500000,-287.52155172171001
9842000000,-286.48219388422837
9842500000,-279.05827061024007
9843000000,-263.95437091443443
9843500000,-243.22979531223905
9844000000,-215.10359469604043
9844500000,-175.12660488771328
