%!PS-Adobe-3.0
%%DocumentPaperSizes: letter
%%Pages: 1
%%Title: assets/NOVEL/eH_NOVEL_xband_scan_d.ps
%%Creator: matplotlib version 3.2.2, http://matplotlib.org/
%%CreationDate: Sun Sep 27 22:00:23 2020
%%Orientation: portrait
%%BoundingBox: 18.0 180.0 594.0 612.0
%%EndComments
%%BeginProlog
/mpldict 9 dict def
mpldict begin
/m { moveto } bind def
/l { lineto } bind def
/r { rlineto } bind def
/c { curveto } bind def
/cl { closepath } bind def
/box {
m
1 index 0 r
0 exch r
neg 0 r
cl
} bind def
/clipbox {
box
clip
newpath
} bind def
%!PS-Adobe-3.0 Resource-Font
%%Title: DejaVu Sans
%%Copyright: Copyright (c) 2003 by Bitstream, Inc. All Rights Reserved. Copyright (c) 2006 by Tavmjong Bah. All Rights Reserved. DejaVu changes are in public domain 
%%Creator: Converted from TrueType to type 3 by PPR
25 dict begin
/_d{bind def}bind def
/_m{moveto}_d
/_l{lineto}_d
/_cl{closepath eofill}_d
/_c{curveto}_d
/_sc{7 -1 roll{setcachedevice}{pop pop pop pop pop pop}ifelse}_d
/_e{exec}_d
/FontName /DejaVuSans def
/PaintType 0 def
/FontMatrix[.001 0 0 .001 0 0]def
/FontBBox[-1021 -463 1793 1232]def
/FontType 3 def
/Encoding [ /space /parenleft /parenright /period /zero /one /two /three /four /five /A /D /E /U /a /c /e /h /l /m /n /s /t /y ] def
/FontInfo 10 dict dup begin
/FamilyName (DejaVu Sans) def
/FullName (DejaVu Sans) def
/Notice (Copyright (c) 2003 by Bitstream, Inc. All Rights Reserved. Copyright (c) 2006 by Tavmjong Bah. All Rights Reserved. DejaVu changes are in public domain ) def
/Weight (Book) def
/Version (Version 2.35) def
/ItalicAngle 0.0 def
/isFixedPitch false def
/UnderlinePosition -130 def
/UnderlineThickness 90 def
end readonly def
/CharStrings 25 dict dup begin
/.notdef 0 def
/space{318 0 0 0 0 0 _sc
}_d
/parenleft{390 0 86 -131 310 759 _sc
310 759 _m
266 683 234 609 213 536 _c
191 463 181 389 181 314 _c
181 238 191 164 213 91 _c
234 17 266 -56 310 -131 _c
232 -131 _l
183 -54 146 20 122 94 _c
98 168 86 241 86 314 _c
86 386 98 459 122 533 _c
146 607 182 682 232 759 _c
310 759 _l
_cl}_d
/parenright{390 0 80 -131 304 759 _sc
80 759 _m
158 759 _l
206 682 243 607 267 533 _c
291 459 304 386 304 314 _c
304 241 291 168 267 94 _c
243 20 206 -54 158 -131 _c
80 -131 _l
123 -56 155 17 177 91 _c
198 164 209 238 209 314 _c
209 389 198 463 177 536 _c
155 609 123 683 80 759 _c
_cl}_d
/period{318 0 107 0 210 124 _sc
107 124 _m
210 124 _l
210 0 _l
107 0 _l
107 124 _l
_cl}_d
/zero{636 0 66 -13 570 742 _sc
318 664 _m
267 664 229 639 203 589 _c
177 539 165 464 165 364 _c
165 264 177 189 203 139 _c
229 89 267 64 318 64 _c
369 64 407 89 433 139 _c
458 189 471 264 471 364 _c
471 464 458 539 433 589 _c
407 639 369 664 318 664 _c
318 742 _m
399 742 461 709 505 645 _c
548 580 570 486 570 364 _c
570 241 548 147 505 83 _c
461 19 399 -13 318 -13 _c
236 -13 173 19 130 83 _c
87 147 66 241 66 364 _c
66 486 87 580 130 645 _c
173 709 236 742 318 742 _c
_cl}_d
/one{636 0 110 0 544 729 _sc
124 83 _m
285 83 _l
285 639 _l
110 604 _l
110 694 _l
284 729 _l
383 729 _l
383 83 _l
544 83 _l
544 0 _l
124 0 _l
124 83 _l
_cl}_d
/two{{636 0 73 0 536 742 _sc
192 83 _m
536 83 _l
536 0 _l
73 0 _l
73 83 _l
110 121 161 173 226 239 _c
290 304 331 346 348 365 _c
380 400 402 430 414 455 _c
426 479 433 504 433 528 _c
433 566 419 598 392 622 _c
365 646 330 659 286 659 _c
255 659 222 653 188 643 _c
154 632 117 616 78 594 _c
78 694 _l
118 710 155 722 189 730 _c
223 738 255 742 284 742 _c
}_e{359 742 419 723 464 685 _c
509 647 532 597 532 534 _c
532 504 526 475 515 449 _c
504 422 484 390 454 354 _c
446 344 420 317 376 272 _c
332 227 271 164 192 83 _c
_cl}_e}_d
/three{{636 0 76 -13 556 742 _sc
406 393 _m
453 383 490 362 516 330 _c
542 298 556 258 556 212 _c
556 140 531 84 482 45 _c
432 6 362 -13 271 -13 _c
240 -13 208 -10 176 -4 _c
144 1 110 10 76 22 _c
76 117 _l
103 101 133 89 166 81 _c
198 73 232 69 268 69 _c
330 69 377 81 409 105 _c
441 129 458 165 458 212 _c
458 254 443 288 413 312 _c
383 336 341 349 287 349 _c
}_e{202 349 _l
202 430 _l
291 430 _l
339 430 376 439 402 459 _c
428 478 441 506 441 543 _c
441 580 427 609 401 629 _c
374 649 336 659 287 659 _c
260 659 231 656 200 650 _c
169 644 135 635 98 623 _c
98 711 _l
135 721 170 729 203 734 _c
235 739 266 742 296 742 _c
370 742 429 725 473 691 _c
517 657 539 611 539 553 _c
539 513 527 479 504 451 _c
481 423 448 403 406 393 _c
_cl}_e}_d
/four{636 0 49 0 580 729 _sc
378 643 _m
129 254 _l
378 254 _l
378 643 _l
352 729 _m
476 729 _l
476 254 _l
580 254 _l
580 172 _l
476 172 _l
476 0 _l
378 0 _l
378 172 _l
49 172 _l
49 267 _l
352 729 _l
_cl}_d
/five{{636 0 77 -13 549 729 _sc
108 729 _m
495 729 _l
495 646 _l
198 646 _l
198 467 _l
212 472 227 476 241 478 _c
255 480 270 482 284 482 _c
365 482 429 459 477 415 _c
525 370 549 310 549 234 _c
549 155 524 94 475 51 _c
426 8 357 -13 269 -13 _c
238 -13 207 -10 175 -6 _c
143 -1 111 6 77 17 _c
77 116 _l
106 100 136 88 168 80 _c
199 72 232 69 267 69 _c
}_e{323 69 368 83 401 113 _c
433 143 450 183 450 234 _c
450 284 433 324 401 354 _c
368 384 323 399 267 399 _c
241 399 214 396 188 390 _c
162 384 135 375 108 363 _c
108 729 _l
_cl}_e}_d
/A{684 0 8 0 676 729 _sc
342 632 _m
208 269 _l
476 269 _l
342 632 _l
286 729 _m
398 729 _l
676 0 _l
573 0 _l
507 187 _l
178 187 _l
112 0 _l
8 0 _l
286 729 _l
_cl}_d
/D{770 0 98 0 711 729 _sc
197 648 _m
197 81 _l
316 81 _l
416 81 490 103 537 149 _c
583 195 607 267 607 365 _c
607 463 583 534 537 580 _c
490 625 416 648 316 648 _c
197 648 _l
98 729 _m
301 729 _l
442 729 546 699 612 641 _c
678 582 711 490 711 365 _c
711 239 677 147 611 88 _c
545 29 441 0 301 0 _c
98 0 _l
98 729 _l
_cl}_d
/E{632 0 98 0 568 729 _sc
98 729 _m
559 729 _l
559 646 _l
197 646 _l
197 430 _l
544 430 _l
544 347 _l
197 347 _l
197 83 _l
568 83 _l
568 0 _l
98 0 _l
98 729 _l
_cl}_d
/U{732 0 87 -13 645 729 _sc
87 729 _m
186 729 _l
186 286 _l
186 208 200 151 228 117 _c
256 83 302 66 366 66 _c
429 66 475 83 503 117 _c
531 151 546 208 546 286 _c
546 729 _l
645 729 _l
645 274 _l
645 178 621 107 574 59 _c
527 11 458 -13 366 -13 _c
274 -13 204 11 157 59 _c
110 107 87 178 87 274 _c
87 729 _l
_cl}_d
/a{{613 0 60 -13 522 560 _sc
343 275 _m
270 275 220 266 192 250 _c
164 233 150 205 150 165 _c
150 133 160 107 181 89 _c
202 70 231 61 267 61 _c
317 61 357 78 387 114 _c
417 149 432 196 432 255 _c
432 275 _l
343 275 _l
522 312 _m
522 0 _l
432 0 _l
432 83 _l
411 49 385 25 355 10 _c
325 -5 287 -13 243 -13 _c
187 -13 142 2 109 33 _c
76 64 60 106 60 159 _c
}_e{60 220 80 266 122 298 _c
163 329 224 345 306 345 _c
432 345 _l
432 354 _l
432 395 418 427 391 450 _c
364 472 326 484 277 484 _c
245 484 215 480 185 472 _c
155 464 127 453 100 439 _c
100 522 _l
132 534 164 544 195 550 _c
226 556 256 560 286 560 _c
365 560 424 539 463 498 _c
502 457 522 395 522 312 _c
_cl}_e}_d
/c{{550 0 55 -13 488 560 _sc
488 526 _m
488 442 _l
462 456 437 466 411 473 _c
385 480 360 484 334 484 _c
276 484 230 465 198 428 _c
166 391 150 339 150 273 _c
150 206 166 154 198 117 _c
230 80 276 62 334 62 _c
360 62 385 65 411 72 _c
437 79 462 90 488 104 _c
488 21 _l
462 9 436 0 410 -5 _c
383 -10 354 -13 324 -13 _c
242 -13 176 12 128 64 _c
}_e{79 115 55 185 55 273 _c
55 362 79 432 128 483 _c
177 534 244 560 330 560 _c
358 560 385 557 411 551 _c
437 545 463 537 488 526 _c
_cl}_e}_d
/e{{615 0 55 -13 562 560 _sc
562 296 _m
562 252 _l
149 252 _l
153 190 171 142 205 110 _c
238 78 284 62 344 62 _c
378 62 412 66 444 74 _c
476 82 509 95 541 113 _c
541 28 _l
509 14 476 3 442 -3 _c
408 -9 373 -13 339 -13 _c
251 -13 182 12 131 62 _c
80 112 55 181 55 268 _c
55 357 79 428 127 481 _c
175 533 241 560 323 560 _c
397 560 455 536 498 489 _c
}_e{540 441 562 377 562 296 _c
472 322 _m
471 371 457 410 431 440 _c
404 469 368 484 324 484 _c
274 484 234 469 204 441 _c
174 413 156 373 152 322 _c
472 322 _l
_cl}_e}_d
/h{634 0 91 0 549 760 _sc
549 330 _m
549 0 _l
459 0 _l
459 327 _l
459 379 448 417 428 443 _c
408 469 378 482 338 482 _c
289 482 251 466 223 435 _c
195 404 181 362 181 309 _c
181 0 _l
91 0 _l
91 760 _l
181 760 _l
181 462 _l
202 494 227 519 257 535 _c
286 551 320 560 358 560 _c
420 560 468 540 500 501 _c
532 462 549 405 549 330 _c
_cl}_d
/l{278 0 94 0 184 760 _sc
94 760 _m
184 760 _l
184 0 _l
94 0 _l
94 760 _l
_cl}_d
/m{{974 0 91 0 889 560 _sc
520 442 _m
542 482 569 511 600 531 _c
631 550 668 560 711 560 _c
767 560 811 540 842 500 _c
873 460 889 403 889 330 _c
889 0 _l
799 0 _l
799 327 _l
799 379 789 418 771 444 _c
752 469 724 482 686 482 _c
639 482 602 466 575 435 _c
548 404 535 362 535 309 _c
535 0 _l
445 0 _l
445 327 _l
445 379 435 418 417 444 _c
398 469 369 482 331 482 _c
}_e{285 482 248 466 221 435 _c
194 404 181 362 181 309 _c
181 0 _l
91 0 _l
91 547 _l
181 547 _l
181 462 _l
201 495 226 520 255 536 _c
283 552 317 560 357 560 _c
397 560 430 550 458 530 _c
486 510 506 480 520 442 _c
_cl}_e}_d
/n{634 0 91 0 549 560 _sc
549 330 _m
549 0 _l
459 0 _l
459 327 _l
459 379 448 417 428 443 _c
408 469 378 482 338 482 _c
289 482 251 466 223 435 _c
195 404 181 362 181 309 _c
181 0 _l
91 0 _l
91 547 _l
181 547 _l
181 462 _l
202 494 227 519 257 535 _c
286 551 320 560 358 560 _c
420 560 468 540 500 501 _c
532 462 549 405 549 330 _c
_cl}_d
/s{{521 0 54 -13 472 560 _sc
443 531 _m
443 446 _l
417 458 391 468 364 475 _c
336 481 308 485 279 485 _c
234 485 200 478 178 464 _c
156 450 145 430 145 403 _c
145 382 153 366 169 354 _c
185 342 217 330 265 320 _c
296 313 _l
360 299 405 279 432 255 _c
458 230 472 195 472 151 _c
472 100 452 60 412 31 _c
372 1 316 -13 246 -13 _c
216 -13 186 -10 154 -5 _c
}_e{122 0 89 8 54 20 _c
54 113 _l
87 95 120 82 152 74 _c
184 65 216 61 248 61 _c
290 61 323 68 346 82 _c
368 96 380 117 380 144 _c
380 168 371 187 355 200 _c
339 213 303 226 247 238 _c
216 245 _l
160 257 119 275 95 299 _c
70 323 58 356 58 399 _c
58 450 76 490 112 518 _c
148 546 200 560 268 560 _c
301 560 332 557 362 552 _c
391 547 418 540 443 531 _c
}_e{_cl}_e}_d
/t{392 0 27 0 368 702 _sc
183 702 _m
183 547 _l
368 547 _l
368 477 _l
183 477 _l
183 180 _l
183 135 189 106 201 94 _c
213 81 238 75 276 75 _c
368 75 _l
368 0 _l
276 0 _l
206 0 158 13 132 39 _c
106 65 93 112 93 180 _c
93 477 _l
27 477 _l
27 547 _l
93 547 _l
93 702 _l
183 702 _l
_cl}_d
/y{592 0 30 -207 562 547 _sc
322 -50 _m
296 -114 271 -157 247 -177 _c
223 -197 191 -207 151 -207 _c
79 -207 _l
79 -132 _l
132 -132 _l
156 -132 175 -126 189 -114 _c
203 -102 218 -75 235 -31 _c
251 9 _l
30 547 _l
125 547 _l
296 119 _l
467 547 _l
562 547 _l
322 -50 _l
_cl}_d
end readonly def

/BuildGlyph
 {exch begin
 CharStrings exch
 2 copy known not{pop /.notdef}if
 true 3 1 roll get exec
 end}_d

/BuildChar {
 1 index /Encoding get exch get
 1 index /BuildGlyph get exec
}_d

FontName currentdict end definefont pop
%!PS-Adobe-3.0 Resource-Font
%%Title: DejaVu Sans Oblique
%%Copyright: Copyright (c) 2003 by Bitstream, Inc. All Rights Reserved. Copyright (c) 2006 by Tavmjong Bah. All Rights Reserved. DejaVu changes are in public domain 
%%Creator: Converted from TrueType to type 3 by PPR
25 dict begin
/_d{bind def}bind def
/_m{moveto}_d
/_l{lineto}_d
/_cl{closepath eofill}_d
/_c{curveto}_d
/_sc{7 -1 roll{setcachedevice}{pop pop pop pop pop pop}ifelse}_d
/_e{exec}_d
/FontName /DejaVuSans-Oblique def
/PaintType 0 def
/FontMatrix[.001 0 0 .001 0 0]def
/FontBBox[-1016 -350 1659 1068]def
/FontType 3 def
/Encoding [ /mu /uni03BC ] def
/FontInfo 10 dict dup begin
/FamilyName (DejaVu Sans) def
/FullName (DejaVu Sans Oblique) def
/Notice (Copyright (c) 2003 by Bitstream, Inc. All Rights Reserved. Copyright (c) 2006 by Tavmjong Bah. All Rights Reserved. DejaVu changes are in public domain ) def
/Weight (Oblique) def
/Version (Version 2.35) def
/ItalicAngle -11.0 def
/isFixedPitch false def
/UnderlinePosition -130 def
/UnderlineThickness 90 def
end readonly def
/CharStrings 3 dict dup begin
/.notdef 0 def
/mu{{636 0 -12 -207 592 547 _sc
-12 -207 _m
134 547 _l
224 547 _l
158 207 _l
156 199 155 191 154 183 _c
153 175 153 166 153 158 _c
153 128 162 104 181 88 _c
200 72 227 64 263 64 _c
311 64 349 77 379 105 _c
409 132 429 173 440 228 _c
502 547 _l
592 547 _l
510 126 _l
508 120 507 114 507 110 _c
507 106 507 102 507 98 _c
507 88 509 80 513 76 _c
517 71 523 69 532 69 _c
}_e{535 69 539 69 545 71 _c
551 73 559 76 570 80 _c
556 8 _l
542 1 528 -3 515 -7 _c
502 -11 489 -13 477 -13 _c
455 -13 438 -6 426 7 _c
414 20 408 39 408 63 _c
390 37 368 17 343 5 _c
317 -7 288 -13 254 -13 _c
223 -13 196 -6 174 7 _c
152 21 137 39 130 62 _c
77 -207 _l
-12 -207 _l
_cl}_e}_d
/uni03BC{636 0 -12 -207 592 547 _sc
false CharStrings /mu get exec
}_d
end readonly def

/BuildGlyph
 {exch begin
 CharStrings exch
 2 copy known not{pop /.notdef}if
 true 3 1 roll get exec
 end}_d

/BuildChar {
 1 index /Encoding get exch get
 1 index /BuildGlyph get exec
}_d

FontName currentdict end definefont pop
end
%%EndProlog
%%Page: 1 1
mpldict begin
18 180 translate
576 432 0 0 clipbox
gsave
0 0 m
576 0 l
576 432 l
0 432 l
cl
1.000 setgray
fill
grestore
gsave
72 54 m
518.4 54 l
518.4 380.16 l
72 380.16 l
cl
1.000 setgray
fill
grestore
0.800 setlinewidth
1 setlinejoin
0 setlinecap
[] 0 setdash
0.000 setgray
gsave
/o {
gsave
newpath
translate
0.8 setlinewidth
1 setlinejoin
0 setlinecap
0 0 m
0 -3.5 l

gsave
0.000 setgray
fill
grestore
stroke
grestore
} bind def
88.1709 54 o
grestore
/DejaVuSans findfont
10.000 scalefont
setfont
gsave
84.991240 39.406250 translate
0.000000 rotate
0.000000 0 m /zero glyphshow
grestore
gsave
/o {
gsave
newpath
translate
0.8 setlinewidth
1 setlinejoin
0 setlinecap
0 0 m
0 -3.5 l

gsave
0.000 setgray
fill
grestore
stroke
grestore
} bind def
139.671 54 o
grestore
gsave
133.311322 39.406250 translate
0.000000 rotate
0.000000 0 m /five glyphshow
6.362305 0 m /zero glyphshow
grestore
gsave
/o {
gsave
newpath
translate
0.8 setlinewidth
1 setlinejoin
0 setlinecap
0 0 m
0 -3.5 l

gsave
0.000 setgray
fill
grestore
stroke
grestore
} bind def
191.17 54 o
grestore
gsave
181.631404 39.406250 translate
0.000000 rotate
0.000000 0 m /one glyphshow
6.362305 0 m /zero glyphshow
12.724609 0 m /zero glyphshow
grestore
gsave
/o {
gsave
newpath
translate
0.8 setlinewidth
1 setlinejoin
0 setlinecap
0 0 m
0 -3.5 l

gsave
0.000 setgray
fill
grestore
stroke
grestore
} bind def
242.67 54 o
grestore
gsave
233.131173 39.406250 translate
0.000000 rotate
0.000000 0 m /one glyphshow
6.362305 0 m /five glyphshow
12.724609 0 m /zero glyphshow
grestore
gsave
/o {
gsave
newpath
translate
0.8 setlinewidth
1 setlinejoin
0 setlinecap
0 0 m
0 -3.5 l

gsave
0.000 setgray
fill
grestore
stroke
grestore
} bind def
294.17 54 o
grestore
gsave
284.630942 39.406250 translate
0.000000 rotate
0.000000 0 m /two glyphshow
6.362305 0 m /zero glyphshow
12.724609 0 m /zero glyphshow
grestore
gsave
/o {
gsave
newpath
translate
0.8 setlinewidth
1 setlinejoin
0 setlinecap
0 0 m
0 -3.5 l

gsave
0.000 setgray
fill
grestore
stroke
grestore
} bind def
345.67 54 o
grestore
gsave
336.130711 39.406250 translate
0.000000 rotate
0.000000 0 m /two glyphshow
6.362305 0 m /five glyphshow
12.724609 0 m /zero glyphshow
grestore
gsave
/o {
gsave
newpath
translate
0.8 setlinewidth
1 setlinejoin
0 setlinecap
0 0 m
0 -3.5 l

gsave
0.000 setgray
fill
grestore
stroke
grestore
} bind def
397.17 54 o
grestore
gsave
387.630481 39.406250 translate
0.000000 rotate
0.000000 0 m /three glyphshow
6.362305 0 m /zero glyphshow
12.724609 0 m /zero glyphshow
grestore
gsave
/o {
gsave
newpath
translate
0.8 setlinewidth
1 setlinejoin
0 setlinecap
0 0 m
0 -3.5 l

gsave
0.000 setgray
fill
grestore
stroke
grestore
} bind def
448.669 54 o
grestore
gsave
439.130250 39.406250 translate
0.000000 rotate
0.000000 0 m /three glyphshow
6.362305 0 m /five glyphshow
12.724609 0 m /zero glyphshow
grestore
gsave
/o {
gsave
newpath
translate
0.8 setlinewidth
1 setlinejoin
0 setlinecap
0 0 m
0 -3.5 l

gsave
0.000 setgray
fill
grestore
stroke
grestore
} bind def
500.169 54 o
grestore
gsave
490.630019 39.406250 translate
0.000000 rotate
0.000000 0 m /four glyphshow
6.362305 0 m /zero glyphshow
12.724609 0 m /zero glyphshow
grestore
gsave
269.200000 25.328125 translate
0.000000 rotate
/DejaVuSans findfont
10.0 scalefont
setfont
0.000000 0.406250 moveto
/D glyphshow
7.700195 0.406250 moveto
/e glyphshow
13.852539 0.406250 moveto
/l glyphshow
16.630859 0.406250 moveto
/a glyphshow
22.758789 0.406250 moveto
/y glyphshow
28.676758 0.406250 moveto
/space glyphshow
31.855469 0.406250 moveto
/parenleft glyphshow
/DejaVuSans-Oblique findfont
10.0 scalefont
setfont
35.756836 0.406250 moveto
/uni03BC glyphshow
/DejaVuSans findfont
10.0 scalefont
setfont
42.119141 0.406250 moveto
/s glyphshow
47.329102 0.406250 moveto
/parenright glyphshow

grestore
gsave
/o {
gsave
newpath
translate
0.8 setlinewidth
1 setlinejoin
0 setlinecap
0 0 m
-3.5 0 l

gsave
0.000 setgray
fill
grestore
stroke
grestore
} bind def
72 83.1969 o
grestore
gsave
52.281250 79.400022 translate
0.000000 rotate
0.000000 0 m /five glyphshow
6.362305 0 m /zero glyphshow
grestore
gsave
/o {
gsave
newpath
translate
0.8 setlinewidth
1 setlinejoin
0 setlinecap
0 0 m
-3.5 0 l

gsave
0.000 setgray
fill
grestore
stroke
grestore
} bind def
72 131.24 o
grestore
gsave
45.921875 127.443338 translate
0.000000 rotate
0.000000 0 m /one glyphshow
6.362305 0 m /zero glyphshow
12.724609 0 m /zero glyphshow
grestore
gsave
/o {
gsave
newpath
translate
0.8 setlinewidth
1 setlinejoin
0 setlinecap
0 0 m
-3.5 0 l

gsave
0.000 setgray
fill
grestore
stroke
grestore
} bind def
72 179.284 o
grestore
gsave
45.921875 175.486653 translate
0.000000 rotate
0.000000 0 m /one glyphshow
6.362305 0 m /five glyphshow
12.724609 0 m /zero glyphshow
grestore
gsave
/o {
gsave
newpath
translate
0.8 setlinewidth
1 setlinejoin
0 setlinecap
0 0 m
-3.5 0 l

gsave
0.000 setgray
fill
grestore
stroke
grestore
} bind def
72 227.327 o
grestore
gsave
45.921875 223.529968 translate
0.000000 rotate
0.000000 0 m /two glyphshow
6.362305 0 m /zero glyphshow
12.724609 0 m /zero glyphshow
grestore
gsave
/o {
gsave
newpath
translate
0.8 setlinewidth
1 setlinejoin
0 setlinecap
0 0 m
-3.5 0 l

gsave
0.000 setgray
fill
grestore
stroke
grestore
} bind def
72 275.37 o
grestore
gsave
45.921875 271.573283 translate
0.000000 rotate
0.000000 0 m /two glyphshow
6.362305 0 m /five glyphshow
12.724609 0 m /zero glyphshow
grestore
gsave
/o {
gsave
newpath
translate
0.8 setlinewidth
1 setlinejoin
0 setlinecap
0 0 m
-3.5 0 l

gsave
0.000 setgray
fill
grestore
stroke
grestore
} bind def
72 323.413 o
grestore
gsave
45.921875 319.616599 translate
0.000000 rotate
0.000000 0 m /three glyphshow
6.362305 0 m /zero glyphshow
12.724609 0 m /zero glyphshow
grestore
gsave
/o {
gsave
newpath
translate
0.8 setlinewidth
1 setlinejoin
0 setlinecap
0 0 m
-3.5 0 l

gsave
0.000 setgray
fill
grestore
stroke
grestore
} bind def
72 371.457 o
grestore
gsave
45.921875 367.659914 translate
0.000000 rotate
0.000000 0 m /three glyphshow
6.362305 0 m /five glyphshow
12.724609 0 m /zero glyphshow
grestore
gsave
39.843750 166.720625 translate
90.000000 rotate
0.000000 0 m /E glyphshow
6.318359 0 m /n glyphshow
12.656250 0 m /h glyphshow
18.994141 0 m /a glyphshow
25.122070 0 m /n glyphshow
31.459961 0 m /c glyphshow
36.958008 0 m /e glyphshow
43.110352 0 m /m glyphshow
52.851562 0 m /e glyphshow
59.003906 0 m /n glyphshow
65.341797 0 m /t glyphshow
69.262695 0 m /space glyphshow
72.441406 0 m /parenleft glyphshow
76.342773 0 m /A glyphshow
83.058594 0 m /period glyphshow
86.237305 0 m /U glyphshow
93.556641 0 m /period glyphshow
96.735352 0 m /parenright glyphshow
grestore
1.500 setlinewidth
2 setlinecap
0.000 0.000 1.000 setrgbcolor
gsave
446.4 326.2 72 54 clipbox
92.290909 68.825455 m
96.410891 99.173263 l
100.530872 126.49521 l
102.590863 139.144111 l
104.650854 151.09222 l
108.770835 173.10708 l
112.890817 193.385743 l
117.010798 211.678058 l
121.13078 228.386788 l
125.250761 243.560909 l
129.370743 257.1744 l
133.490725 269.44311 l
137.610706 280.429907 l
141.730688 290.347897 l
145.850669 299.332678 l
149.970651 307.618881 l
154.090632 315.147192 l
158.210614 321.819331 l
162.330595 327.587922 l
164.390586 330.30877 l
168.510568 335.191805 l
172.630549 339.567584 l
176.750531 343.538519 l
180.870512 347.010617 l
184.990494 350.029389 l
189.110475 352.742394 l
193.230457 355.131841 l
197.350438 357.172916 l
201.47042 358.880777 l
207.650392 361.026404 l
211.770374 362.198032 l
215.890355 363.130622 l
220.010337 363.889295 l
226.190309 364.652642 l
230.310291 365.014225 l
236.490263 365.29245 l
242.670235 365.303421 l
248.850208 365.118836 l
255.03018 364.74018 l
263.270143 363.934174 l
271.510106 362.905277 l
281.81006 361.358316 l
292.110014 359.573682 l
304.469958 357.196183 l
320.949885 353.76551 l
345.669774 348.320103 l
411.589479 333.526767 l
438.369359 327.743154 l
465.149239 322.161013 l
493.989109 316.384863 l
498.109091 315.579329 l
498.109091 315.579329 l
stroke
grestore
1.000 setlinewidth
0 setlinecap
gsave
446.4 326.2 72 54 clipbox
/o {
gsave
newpath
translate
1.0 setlinewidth
1 setlinejoin
0 setlinecap
0 -3 m
0.795609 -3 1.55874 -2.683901 2.12132 -2.12132 c
2.683901 -1.55874 3 -0.795609 3 0 c
3 0.795609 2.683901 1.55874 2.12132 2.12132 c
1.55874 2.683901 0.795609 3 0 3 c
-0.795609 3 -1.55874 2.683901 -2.12132 2.12132 c
-2.683901 1.55874 -3 0.795609 -3 0 c
-3 -0.795609 -2.683901 -1.55874 -2.12132 -2.12132 c
-1.55874 -2.683901 -0.795609 -3 0 -3 c
cl

gsave
grestore
stroke
grestore
} bind def
92.2909 68.8255 o
94.3509 84.3479 o
96.4109 99.1733 o
98.4709 113.208 o
100.531 126.495 o
102.591 139.144 o
104.651 151.092 o
106.711 162.326 o
108.771 173.107 o
110.831 183.442 o
112.891 193.386 o
114.951 202.754 o
117.011 211.678 o
119.071 220.221 o
121.131 228.387 o
123.191 236.176 o
125.251 243.561 o
127.311 250.553 o
129.371 257.174 o
131.431 263.402 o
133.491 269.443 o
135.551 275.015 o
137.611 280.43 o
139.671 285.478 o
141.731 290.348 o
143.791 294.971 o
145.851 299.333 o
147.911 303.534 o
149.971 307.619 o
152.031 311.481 o
154.091 315.147 o
156.151 318.552 o
158.211 321.819 o
160.271 324.763 o
162.331 327.588 o
164.391 330.309 o
166.451 332.761 o
168.511 335.192 o
170.571 337.45 o
172.631 339.568 o
174.691 341.628 o
176.751 343.539 o
178.811 345.337 o
180.871 347.011 o
182.931 348.557 o
184.99 350.029 o
187.05 351.44 o
189.11 352.742 o
191.17 353.986 o
193.23 355.132 o
195.29 356.181 o
197.35 357.173 o
199.41 358.041 o
201.47 358.881 o
203.53 359.632 o
205.59 360.347 o
207.65 361.026 o
209.71 361.622 o
211.77 362.198 o
213.83 362.698 o
215.89 363.131 o
217.95 363.546 o
220.01 363.889 o
222.07 364.174 o
224.13 364.448 o
226.19 364.653 o
228.25 364.855 o
230.31 365.014 o
232.37 365.135 o
234.43 365.23 o
236.49 365.292 o
238.55 365.329 o
240.61 365.335 o
242.67 365.303 o
244.73 365.273 o
246.79 365.205 o
248.85 365.119 o
250.91 365.02 o
252.97 364.884 o
255.03 364.74 o
257.09 364.565 o
259.15 364.363 o
261.21 364.159 o
263.27 363.934 o
265.33 363.693 o
267.39 363.453 o
269.45 363.187 o
271.51 362.905 o
273.57 362.613 o
275.63 362.315 o
277.69 362.006 o
279.75 361.686 o
281.81 361.358 o
283.87 361.019 o
285.93 360.674 o
287.99 360.319 o
290.05 359.948 o
292.11 359.574 o
294.17 359.194 o
296.23 358.805 o
298.29 358.408 o
300.35 358.01 o
302.41 357.608 o
304.47 357.196 o
306.53 356.779 o
308.59 356.365 o
310.65 355.945 o
312.71 355.518 o
314.77 355.084 o
316.83 354.642 o
318.89 354.205 o
320.95 353.766 o
323.01 353.32 o
325.07 352.883 o
327.13 352.437 o
329.19 351.985 o
331.25 351.534 o
333.31 351.078 o
335.37 350.619 o
337.43 350.161 o
339.49 349.705 o
341.55 349.243 o
343.61 348.779 o
345.67 348.32 o
347.73 347.855 o
349.79 347.39 o
351.85 346.925 o
353.91 346.456 o
355.97 345.992 o
358.03 345.527 o
360.09 345.059 o
362.15 344.595 o
364.21 344.13 o
366.27 343.666 o
368.33 343.199 o
370.39 342.731 o
372.45 342.264 o
374.51 341.8 o
376.57 341.335 o
378.63 340.872 o
380.69 340.409 o
382.75 339.944 o
384.81 339.481 o
386.87 339.017 o
388.93 338.554 o
390.99 338.095 o
393.05 337.633 o
395.11 337.172 o
397.17 336.713 o
399.23 336.256 o
401.29 335.799 o
403.35 335.342 o
405.41 334.888 o
407.469 334.434 o
409.529 333.978 o
411.589 333.527 o
413.649 333.074 o
415.709 332.622 o
417.769 332.174 o
419.829 331.728 o
421.889 331.282 o
423.949 330.836 o
426.009 330.39 o
428.069 329.946 o
430.129 329.504 o
432.189 329.062 o
434.249 328.62 o
436.309 328.181 o
438.369 327.743 o
440.429 327.306 o
442.489 326.87 o
444.549 326.436 o
446.609 326.004 o
448.669 325.572 o
450.729 325.141 o
452.789 324.713 o
454.849 324.284 o
456.909 323.857 o
458.969 323.431 o
461.029 323.006 o
463.089 322.583 o
465.149 322.161 o
467.209 321.74 o
469.269 321.322 o
471.329 320.903 o
473.389 320.485 o
475.449 320.07 o
477.509 319.655 o
479.569 319.242 o
481.629 318.83 o
483.689 318.42 o
485.749 318.01 o
487.809 317.602 o
489.869 317.195 o
491.929 316.789 o
493.989 316.385 o
496.049 315.981 o
498.109 315.579 o
grestore
0.800 setlinewidth
0 setlinejoin
2 setlinecap
[] 0 setdash
0.000 setgray
gsave
72 54 m
72 380.16 l
stroke
grestore
gsave
518.4 54 m
518.4 380.16 l
stroke
grestore
gsave
72 54 m
518.4 54 l
stroke
grestore
gsave
72 380.16 m
518.4 380.16 l
stroke
grestore

end
showpage
%%EOF
