%!PS-Adobe-3.0
%%DocumentPaperSizes: letter
%%Pages: 1
%%Title: assets/NOVEL/eH_NOVEL_xband_scan_gammaB1.ps
%%Creator: matplotlib version 3.2.2, http://matplotlib.org/
%%CreationDate: Sun Sep 27 22:00:55 2020
%%Orientation: portrait
%%BoundingBox: 18.0 180.0 594.0 612.0
%%EndComments
%%BeginProlog
/mpldict 9 dict def
mpldict begin
/m { moveto } bind def
/l { lineto } bind def
/r { rlineto } bind def
/c { curveto } bind def
/cl { closepath } bind def
/box {
m
1 index 0 r
0 exch r
neg 0 r
cl
} bind def
/clipbox {
box
clip
newpath
} bind def
%!PS-Adobe-3.0 Resource-Font
%%Title: DejaVu Sans
%%Copyright: Copyright (c) 2003 by Bitstream, Inc. All Rights Reserved. Copyright (c) 2006 by Tavmjong Bah. All Rights Reserved. DejaVu changes are in public domain 
%%Creator: Converted from TrueType to type 3 by PPR
25 dict begin
/_d{bind def}bind def
/_m{moveto}_d
/_l{lineto}_d
/_cl{closepath eofill}_d
/_c{curveto}_d
/_sc{7 -1 roll{setcachedevice}{pop pop pop pop pop pop}ifelse}_d
/_e{exec}_d
/FontName /DejaVuSans def
/PaintType 0 def
/FontMatrix[.001 0 0 .001 0 0]def
/FontBBox[-1021 -463 1793 1232]def
/FontType 3 def
/Encoding [ /space /parenleft /parenright /period /zero /one /two /three /four /five /A /E /H /M /U /a /c /e /h /m /n /t /z ] def
/FontInfo 10 dict dup begin
/FamilyName (DejaVu Sans) def
/FullName (DejaVu Sans) def
/Notice (Copyright (c) 2003 by Bitstream, Inc. All Rights Reserved. Copyright (c) 2006 by Tavmjong Bah. All Rights Reserved. DejaVu changes are in public domain ) def
/Weight (Book) def
/Version (Version 2.35) def
/ItalicAngle 0.0 def
/isFixedPitch false def
/UnderlinePosition -130 def
/UnderlineThickness 90 def
end readonly def
/CharStrings 24 dict dup begin
/.notdef 0 def
/space{318 0 0 0 0 0 _sc
}_d
/parenleft{390 0 86 -131 310 759 _sc
310 759 _m
266 683 234 609 213 536 _c
191 463 181 389 181 314 _c
181 238 191 164 213 91 _c
234 17 266 -56 310 -131 _c
232 -131 _l
183 -54 146 20 122 94 _c
98 168 86 241 86 314 _c
86 386 98 459 122 533 _c
146 607 182 682 232 759 _c
310 759 _l
_cl}_d
/parenright{390 0 80 -131 304 759 _sc
80 759 _m
158 759 _l
206 682 243 607 267 533 _c
291 459 304 386 304 314 _c
304 241 291 168 267 94 _c
243 20 206 -54 158 -131 _c
80 -131 _l
123 -56 155 17 177 91 _c
198 164 209 238 209 314 _c
209 389 198 463 177 536 _c
155 609 123 683 80 759 _c
_cl}_d
/period{318 0 107 0 210 124 _sc
107 124 _m
210 124 _l
210 0 _l
107 0 _l
107 124 _l
_cl}_d
/zero{636 0 66 -13 570 742 _sc
318 664 _m
267 664 229 639 203 589 _c
177 539 165 464 165 364 _c
165 264 177 189 203 139 _c
229 89 267 64 318 64 _c
369 64 407 89 433 139 _c
458 189 471 264 471 364 _c
471 464 458 539 433 589 _c
407 639 369 664 318 664 _c
318 742 _m
399 742 461 709 505 645 _c
548 580 570 486 570 364 _c
570 241 548 147 505 83 _c
461 19 399 -13 318 -13 _c
236 -13 173 19 130 83 _c
87 147 66 241 66 364 _c
66 486 87 580 130 645 _c
173 709 236 742 318 742 _c
_cl}_d
/one{636 0 110 0 544 729 _sc
124 83 _m
285 83 _l
285 639 _l
110 604 _l
110 694 _l
284 729 _l
383 729 _l
383 83 _l
544 83 _l
544 0 _l
124 0 _l
124 83 _l
_cl}_d
/two{{636 0 73 0 536 742 _sc
192 83 _m
536 83 _l
536 0 _l
73 0 _l
73 83 _l
110 121 161 173 226 239 _c
290 304 331 346 348 365 _c
380 400 402 430 414 455 _c
426 479 433 504 433 528 _c
433 566 419 598 392 622 _c
365 646 330 659 286 659 _c
255 659 222 653 188 643 _c
154 632 117 616 78 594 _c
78 694 _l
118 710 155 722 189 730 _c
223 738 255 742 284 742 _c
}_e{359 742 419 723 464 685 _c
509 647 532 597 532 534 _c
532 504 526 475 515 449 _c
504 422 484 390 454 354 _c
446 344 420 317 376 272 _c
332 227 271 164 192 83 _c
_cl}_e}_d
/three{{636 0 76 -13 556 742 _sc
406 393 _m
453 383 490 362 516 330 _c
542 298 556 258 556 212 _c
556 140 531 84 482 45 _c
432 6 362 -13 271 -13 _c
240 -13 208 -10 176 -4 _c
144 1 110 10 76 22 _c
76 117 _l
103 101 133 89 166 81 _c
198 73 232 69 268 69 _c
330 69 377 81 409 105 _c
441 129 458 165 458 212 _c
458 254 443 288 413 312 _c
383 336 341 349 287 349 _c
}_e{202 349 _l
202 430 _l
291 430 _l
339 430 376 439 402 459 _c
428 478 441 506 441 543 _c
441 580 427 609 401 629 _c
374 649 336 659 287 659 _c
260 659 231 656 200 650 _c
169 644 135 635 98 623 _c
98 711 _l
135 721 170 729 203 734 _c
235 739 266 742 296 742 _c
370 742 429 725 473 691 _c
517 657 539 611 539 553 _c
539 513 527 479 504 451 _c
481 423 448 403 406 393 _c
_cl}_e}_d
/four{636 0 49 0 580 729 _sc
378 643 _m
129 254 _l
378 254 _l
378 643 _l
352 729 _m
476 729 _l
476 254 _l
580 254 _l
580 172 _l
476 172 _l
476 0 _l
378 0 _l
378 172 _l
49 172 _l
49 267 _l
352 729 _l
_cl}_d
/five{{636 0 77 -13 549 729 _sc
108 729 _m
495 729 _l
495 646 _l
198 646 _l
198 467 _l
212 472 227 476 241 478 _c
255 480 270 482 284 482 _c
365 482 429 459 477 415 _c
525 370 549 310 549 234 _c
549 155 524 94 475 51 _c
426 8 357 -13 269 -13 _c
238 -13 207 -10 175 -6 _c
143 -1 111 6 77 17 _c
77 116 _l
106 100 136 88 168 80 _c
199 72 232 69 267 69 _c
}_e{323 69 368 83 401 113 _c
433 143 450 183 450 234 _c
450 284 433 324 401 354 _c
368 384 323 399 267 399 _c
241 399 214 396 188 390 _c
162 384 135 375 108 363 _c
108 729 _l
_cl}_e}_d
/A{684 0 8 0 676 729 _sc
342 632 _m
208 269 _l
476 269 _l
342 632 _l
286 729 _m
398 729 _l
676 0 _l
573 0 _l
507 187 _l
178 187 _l
112 0 _l
8 0 _l
286 729 _l
_cl}_d
/E{632 0 98 0 568 729 _sc
98 729 _m
559 729 _l
559 646 _l
197 646 _l
197 430 _l
544 430 _l
544 347 _l
197 347 _l
197 83 _l
568 83 _l
568 0 _l
98 0 _l
98 729 _l
_cl}_d
/H{752 0 98 0 654 729 _sc
98 729 _m
197 729 _l
197 430 _l
555 430 _l
555 729 _l
654 729 _l
654 0 _l
555 0 _l
555 347 _l
197 347 _l
197 0 _l
98 0 _l
98 729 _l
_cl}_d
/M{863 0 98 0 765 729 _sc
98 729 _m
245 729 _l
431 233 _l
618 729 _l
765 729 _l
765 0 _l
669 0 _l
669 640 _l
481 140 _l
382 140 _l
194 640 _l
194 0 _l
98 0 _l
98 729 _l
_cl}_d
/U{732 0 87 -13 645 729 _sc
87 729 _m
186 729 _l
186 286 _l
186 208 200 151 228 117 _c
256 83 302 66 366 66 _c
429 66 475 83 503 117 _c
531 151 546 208 546 286 _c
546 729 _l
645 729 _l
645 274 _l
645 178 621 107 574 59 _c
527 11 458 -13 366 -13 _c
274 -13 204 11 157 59 _c
110 107 87 178 87 274 _c
87 729 _l
_cl}_d
/a{{613 0 60 -13 522 560 _sc
343 275 _m
270 275 220 266 192 250 _c
164 233 150 205 150 165 _c
150 133 160 107 181 89 _c
202 70 231 61 267 61 _c
317 61 357 78 387 114 _c
417 149 432 196 432 255 _c
432 275 _l
343 275 _l
522 312 _m
522 0 _l
432 0 _l
432 83 _l
411 49 385 25 355 10 _c
325 -5 287 -13 243 -13 _c
187 -13 142 2 109 33 _c
76 64 60 106 60 159 _c
}_e{60 220 80 266 122 298 _c
163 329 224 345 306 345 _c
432 345 _l
432 354 _l
432 395 418 427 391 450 _c
364 472 326 484 277 484 _c
245 484 215 480 185 472 _c
155 464 127 453 100 439 _c
100 522 _l
132 534 164 544 195 550 _c
226 556 256 560 286 560 _c
365 560 424 539 463 498 _c
502 457 522 395 522 312 _c
_cl}_e}_d
/c{{550 0 55 -13 488 560 _sc
488 526 _m
488 442 _l
462 456 437 466 411 473 _c
385 480 360 484 334 484 _c
276 484 230 465 198 428 _c
166 391 150 339 150 273 _c
150 206 166 154 198 117 _c
230 80 276 62 334 62 _c
360 62 385 65 411 72 _c
437 79 462 90 488 104 _c
488 21 _l
462 9 436 0 410 -5 _c
383 -10 354 -13 324 -13 _c
242 -13 176 12 128 64 _c
}_e{79 115 55 185 55 273 _c
55 362 79 432 128 483 _c
177 534 244 560 330 560 _c
358 560 385 557 411 551 _c
437 545 463 537 488 526 _c
_cl}_e}_d
/e{{615 0 55 -13 562 560 _sc
562 296 _m
562 252 _l
149 252 _l
153 190 171 142 205 110 _c
238 78 284 62 344 62 _c
378 62 412 66 444 74 _c
476 82 509 95 541 113 _c
541 28 _l
509 14 476 3 442 -3 _c
408 -9 373 -13 339 -13 _c
251 -13 182 12 131 62 _c
80 112 55 181 55 268 _c
55 357 79 428 127 481 _c
175 533 241 560 323 560 _c
397 560 455 536 498 489 _c
}_e{540 441 562 377 562 296 _c
472 322 _m
471 371 457 410 431 440 _c
404 469 368 484 324 484 _c
274 484 234 469 204 441 _c
174 413 156 373 152 322 _c
472 322 _l
_cl}_e}_d
/h{634 0 91 0 549 760 _sc
549 330 _m
549 0 _l
459 0 _l
459 327 _l
459 379 448 417 428 443 _c
408 469 378 482 338 482 _c
289 482 251 466 223 435 _c
195 404 181 362 181 309 _c
181 0 _l
91 0 _l
91 760 _l
181 760 _l
181 462 _l
202 494 227 519 257 535 _c
286 551 320 560 358 560 _c
420 560 468 540 500 501 _c
532 462 549 405 549 330 _c
_cl}_d
/m{{974 0 91 0 889 560 _sc
520 442 _m
542 482 569 511 600 531 _c
631 550 668 560 711 560 _c
767 560 811 540 842 500 _c
873 460 889 403 889 330 _c
889 0 _l
799 0 _l
799 327 _l
799 379 789 418 771 444 _c
752 469 724 482 686 482 _c
639 482 602 466 575 435 _c
548 404 535 362 535 309 _c
535 0 _l
445 0 _l
445 327 _l
445 379 435 418 417 444 _c
398 469 369 482 331 482 _c
}_e{285 482 248 466 221 435 _c
194 404 181 362 181 309 _c
181 0 _l
91 0 _l
91 547 _l
181 547 _l
181 462 _l
201 495 226 520 255 536 _c
283 552 317 560 357 560 _c
397 560 430 550 458 530 _c
486 510 506 480 520 442 _c
_cl}_e}_d
/n{634 0 91 0 549 560 _sc
549 330 _m
549 0 _l
459 0 _l
459 327 _l
459 379 448 417 428 443 _c
408 469 378 482 338 482 _c
289 482 251 466 223 435 _c
195 404 181 362 181 309 _c
181 0 _l
91 0 _l
91 547 _l
181 547 _l
181 462 _l
202 494 227 519 257 535 _c
286 551 320 560 358 560 _c
420 560 468 540 500 501 _c
532 462 549 405 549 330 _c
_cl}_d
/t{392 0 27 0 368 702 _sc
183 702 _m
183 547 _l
368 547 _l
368 477 _l
183 477 _l
183 180 _l
183 135 189 106 201 94 _c
213 81 238 75 276 75 _c
368 75 _l
368 0 _l
276 0 _l
206 0 158 13 132 39 _c
106 65 93 112 93 180 _c
93 477 _l
27 477 _l
27 547 _l
93 547 _l
93 702 _l
183 702 _l
_cl}_d
/z{525 0 43 0 482 547 _sc
55 547 _m
482 547 _l
482 465 _l
144 72 _l
482 72 _l
482 0 _l
43 0 _l
43 82 _l
381 475 _l
55 475 _l
55 547 _l
_cl}_d
end readonly def

/BuildGlyph
 {exch begin
 CharStrings exch
 2 copy known not{pop /.notdef}if
 true 3 1 roll get exec
 end}_d

/BuildChar {
 1 index /Encoding get exch get
 1 index /BuildGlyph get exec
}_d

FontName currentdict end definefont pop
%!PS-Adobe-3.0 Resource-Font
%%Title: DejaVu Sans Oblique
%%Copyright: Copyright (c) 2003 by Bitstream, Inc. All Rights Reserved. Copyright (c) 2006 by Tavmjong Bah. All Rights Reserved. DejaVu changes are in public domain 
%%Creator: Converted from TrueType to type 3 by PPR
25 dict begin
/_d{bind def}bind def
/_m{moveto}_d
/_l{lineto}_d
/_cl{closepath eofill}_d
/_c{curveto}_d
/_sc{7 -1 roll{setcachedevice}{pop pop pop pop pop pop}ifelse}_d
/_e{exec}_d
/FontName /DejaVuSans-Oblique def
/PaintType 0 def
/FontMatrix[.001 0 0 .001 0 0]def
/FontBBox[-1016 -350 1659 1068]def
/FontType 3 def
/Encoding [ /s /omega ] def
/FontInfo 10 dict dup begin
/FamilyName (DejaVu Sans) def
/FullName (DejaVu Sans Oblique) def
/Notice (Copyright (c) 2003 by Bitstream, Inc. All Rights Reserved. Copyright (c) 2006 by Tavmjong Bah. All Rights Reserved. DejaVu changes are in public domain ) def
/Weight (Oblique) def
/Version (Version 2.35) def
/ItalicAngle -11.0 def
/isFixedPitch false def
/UnderlinePosition -130 def
/UnderlineThickness 90 def
end readonly def
/CharStrings 3 dict dup begin
/.notdef 0 def
/s{{521 0 11 -13 500 560 _sc
500 531 _m
483 446 _l
459 458 433 468 407 475 _c
381 481 354 485 326 485 _c
278 485 241 477 214 461 _c
187 445 174 423 174 395 _c
174 363 205 338 269 321 _c
273 319 277 318 279 318 _c
308 309 _l
368 292 408 274 428 256 _c
448 238 458 213 458 182 _c
458 124 435 77 389 41 _c
343 5 282 -13 208 -13 _c
179 -13 149 -10 117 -5 _c
}_e{85 0 49 8 11 20 _c
29 113 _l
61 95 94 82 126 74 _c
158 65 188 61 218 61 _c
262 61 297 70 325 89 _c
352 108 366 132 366 161 _c
366 192 330 217 258 237 _c
249 239 _l
218 247 _l
172 259 138 274 117 294 _c
96 314 86 339 86 370 _c
86 428 107 475 151 509 _c
195 543 254 560 330 560 _c
360 560 389 557 417 552 _c
445 547 472 540 500 531 _c
_cl}_e}_d
/omega{{837 0 68 -13 771 547 _sc
214 -13 _m
78 -13 30 83 68 276 _c
82 352 125 443 196 547 _c
293 547 _l
225 443 184 351 170 273 _c
142 132 164 62 237 62 _c
304 62 354 149 387 325 _c
470 325 _l
434 149 450 61 518 62 _c
590 62 640 133 668 273 _c
682 351 677 443 651 547 _c
748 547 _l
778 443 785 352 771 276 _c
733 82 647 -13 512 -13 _c
423 -13 383 35 391 132 _c
}_e{359 35 300 -13 214 -13 _c
_cl}_e}_d
end readonly def

/BuildGlyph
 {exch begin
 CharStrings exch
 2 copy known not{pop /.notdef}if
 true 3 1 roll get exec
 end}_d

/BuildChar {
 1 index /Encoding get exch get
 1 index /BuildGlyph get exec
}_d

FontName currentdict end definefont pop
end
%%EndProlog
%%Page: 1 1
mpldict begin
18 180 translate
576 432 0 0 clipbox
gsave
0 0 m
576 0 l
576 432 l
0 432 l
cl
1.000 setgray
fill
grestore
gsave
72 54 m
518.4 54 l
518.4 380.16 l
72 380.16 l
cl
1.000 setgray
fill
grestore
0.800 setlinewidth
1 setlinejoin
0 setlinecap
[] 0 setdash
0.000 setgray
gsave
/o {
gsave
newpath
translate
0.8 setlinewidth
1 setlinejoin
0 setlinecap
0 0 m
0 -3.5 l

gsave
0.000 setgray
fill
grestore
stroke
grestore
} bind def
88.2327 54 o
grestore
/DejaVuSans findfont
10.000 scalefont
setfont
gsave
85.053040 39.406250 translate
0.000000 rotate
0.000000 0 m /zero glyphshow
grestore
gsave
/o {
gsave
newpath
translate
0.8 setlinewidth
1 setlinejoin
0 setlinecap
0 0 m
0 -3.5 l

gsave
0.000 setgray
fill
grestore
stroke
grestore
} bind def
169.396 54 o
grestore
gsave
163.036989 39.406250 translate
0.000000 rotate
0.000000 0 m /one glyphshow
6.362305 0 m /zero glyphshow
grestore
gsave
/o {
gsave
newpath
translate
0.8 setlinewidth
1 setlinejoin
0 setlinecap
0 0 m
0 -3.5 l

gsave
0.000 setgray
fill
grestore
stroke
grestore
} bind def
250.56 54 o
grestore
gsave
244.200625 39.406250 translate
0.000000 rotate
0.000000 0 m /two glyphshow
6.362305 0 m /zero glyphshow
grestore
gsave
/o {
gsave
newpath
translate
0.8 setlinewidth
1 setlinejoin
0 setlinecap
0 0 m
0 -3.5 l

gsave
0.000 setgray
fill
grestore
stroke
grestore
} bind def
331.724 54 o
grestore
gsave
325.364261 39.406250 translate
0.000000 rotate
0.000000 0 m /three glyphshow
6.362305 0 m /zero glyphshow
grestore
gsave
/o {
gsave
newpath
translate
0.8 setlinewidth
1 setlinejoin
0 setlinecap
0 0 m
0 -3.5 l

gsave
0.000 setgray
fill
grestore
stroke
grestore
} bind def
412.887 54 o
grestore
gsave
406.527898 39.406250 translate
0.000000 rotate
0.000000 0 m /four glyphshow
6.362305 0 m /zero glyphshow
grestore
gsave
/o {
gsave
newpath
translate
0.8 setlinewidth
1 setlinejoin
0 setlinecap
0 0 m
0 -3.5 l

gsave
0.000 setgray
fill
grestore
stroke
grestore
} bind def
494.051 54 o
grestore
gsave
487.691534 39.406250 translate
0.000000 rotate
0.000000 0 m /five glyphshow
6.362305 0 m /zero glyphshow
grestore
gsave
270.200000 25.406250 translate
0.000000 rotate
/DejaVuSans-Oblique findfont
10.0 scalefont
setfont
0.000000 0.406250 moveto
/omega glyphshow
/DejaVuSans findfont
7.0 scalefont
setfont
8.374023 -1.234375 moveto
/one glyphshow
/DejaVuSans-Oblique findfont
7.0 scalefont
setfont
12.827637 -1.234375 moveto
/s glyphshow
/DejaVuSans findfont
10.0 scalefont
setfont
16.748047 0.406250 moveto
/space glyphshow
19.926758 0.406250 moveto
/parenleft glyphshow
23.828125 0.406250 moveto
/M glyphshow
32.456055 0.406250 moveto
/H glyphshow
39.975586 0.406250 moveto
/z glyphshow
45.224609 0.406250 moveto
/parenright glyphshow

grestore
gsave
/o {
gsave
newpath
translate
0.8 setlinewidth
1 setlinejoin
0 setlinecap
0 0 m
-3.5 0 l

gsave
0.000 setgray
fill
grestore
stroke
grestore
} bind def
72 69.2147 o
grestore
gsave
58.640625 65.417777 translate
0.000000 rotate
0.000000 0 m /zero glyphshow
grestore
gsave
/o {
gsave
newpath
translate
0.8 setlinewidth
1 setlinejoin
0 setlinecap
0 0 m
-3.5 0 l

gsave
0.000 setgray
fill
grestore
stroke
grestore
} bind def
72 112.491 o
grestore
gsave
52.281250 108.694412 translate
0.000000 rotate
0.000000 0 m /five glyphshow
6.362305 0 m /zero glyphshow
grestore
gsave
/o {
gsave
newpath
translate
0.8 setlinewidth
1 setlinejoin
0 setlinecap
0 0 m
-3.5 0 l

gsave
0.000 setgray
fill
grestore
stroke
grestore
} bind def
72 155.768 o
grestore
gsave
45.921875 151.971047 translate
0.000000 rotate
0.000000 0 m /one glyphshow
6.362305 0 m /zero glyphshow
12.724609 0 m /zero glyphshow
grestore
gsave
/o {
gsave
newpath
translate
0.8 setlinewidth
1 setlinejoin
0 setlinecap
0 0 m
-3.5 0 l

gsave
0.000 setgray
fill
grestore
stroke
grestore
} bind def
72 199.045 o
grestore
gsave
45.921875 195.247682 translate
0.000000 rotate
0.000000 0 m /one glyphshow
6.362305 0 m /five glyphshow
12.724609 0 m /zero glyphshow
grestore
gsave
/o {
gsave
newpath
translate
0.8 setlinewidth
1 setlinejoin
0 setlinecap
0 0 m
-3.5 0 l

gsave
0.000 setgray
fill
grestore
stroke
grestore
} bind def
72 242.321 o
grestore
gsave
45.921875 238.524318 translate
0.000000 rotate
0.000000 0 m /two glyphshow
6.362305 0 m /zero glyphshow
12.724609 0 m /zero glyphshow
grestore
gsave
/o {
gsave
newpath
translate
0.8 setlinewidth
1 setlinejoin
0 setlinecap
0 0 m
-3.5 0 l

gsave
0.000 setgray
fill
grestore
stroke
grestore
} bind def
72 285.598 o
grestore
gsave
45.921875 281.800953 translate
0.000000 rotate
0.000000 0 m /two glyphshow
6.362305 0 m /five glyphshow
12.724609 0 m /zero glyphshow
grestore
gsave
/o {
gsave
newpath
translate
0.8 setlinewidth
1 setlinejoin
0 setlinecap
0 0 m
-3.5 0 l

gsave
0.000 setgray
fill
grestore
stroke
grestore
} bind def
72 328.874 o
grestore
gsave
45.921875 325.077588 translate
0.000000 rotate
0.000000 0 m /three glyphshow
6.362305 0 m /zero glyphshow
12.724609 0 m /zero glyphshow
grestore
gsave
/o {
gsave
newpath
translate
0.8 setlinewidth
1 setlinejoin
0 setlinecap
0 0 m
-3.5 0 l

gsave
0.000 setgray
fill
grestore
stroke
grestore
} bind def
72 372.151 o
grestore
gsave
45.921875 368.354223 translate
0.000000 rotate
0.000000 0 m /three glyphshow
6.362305 0 m /five glyphshow
12.724609 0 m /zero glyphshow
grestore
gsave
39.843750 166.720625 translate
90.000000 rotate
0.000000 0 m /E glyphshow
6.318359 0 m /n glyphshow
12.656250 0 m /h glyphshow
18.994141 0 m /a glyphshow
25.122070 0 m /n glyphshow
31.459961 0 m /c glyphshow
36.958008 0 m /e glyphshow
43.110352 0 m /m glyphshow
52.851562 0 m /e glyphshow
59.003906 0 m /n glyphshow
65.341797 0 m /t glyphshow
69.262695 0 m /space glyphshow
72.441406 0 m /parenleft glyphshow
76.342773 0 m /A glyphshow
83.058594 0 m /period glyphshow
86.237305 0 m /U glyphshow
93.556641 0 m /period glyphshow
96.735352 0 m /parenright glyphshow
grestore
1.500 setlinewidth
2 setlinecap
0.000 0.000 1.000 setrgbcolor
gsave
446.4 326.2 72 54 clipbox
92.290909 72.290875 m
96.349091 73.51628 l
100.407273 74.716841 l
104.465455 75.756814 l
108.523636 76.537974 l
112.581818 77.150669 l
116.64 77.98384 l
120.698182 79.690629 l
124.756364 82.953431 l
128.814545 88.111253 l
132.872727 94.834081 l
136.930909 102.031634 l
140.989091 108.053207 l
145.047273 111.118574 l
149.105455 109.944761 l
153.163636 104.648011 l
157.221818 97.929398 l
161.28 95.790933 l
165.338182 105.733419 l
169.396364 131.640301 l
173.454545 170.155972 l
177.512727 213.479501 l
181.570909 254.678668 l
185.629091 289.943157 l
189.687273 317.993735 l
193.745455 338.901337 l
197.803636 353.283677 l
201.861818 361.88196 l
205.92 365.334545 l
209.978182 364.034675 l
214.036364 358.031837 l
218.094545 346.97015 l
222.152727 330.070431 l
226.210909 306.182501 l
230.269091 273.998053 l
234.327273 232.682795 l
238.385455 183.478115 l
242.443636 132.720836 l
246.501818 94.088421 l
250.56 82.397874 l
254.618182 98.55385 l
258.676364 127.466956 l
262.734545 153.322235 l
266.792727 168.364483 l
270.850909 170.885544 l
274.909091 161.753034 l
278.967273 143.055828 l
283.025455 118.390583 l
287.083636 93.62725 l
291.141818 76.39234 l
295.2 72.599315 l
299.258182 82.063725 l
303.316364 98.62473 l
307.374545 114.835423 l
311.432727 125.628833 l
315.490909 128.800893 l
319.549091 124.152871 l
323.607273 112.897398 l
327.665455 97.633992 l
331.723636 82.437393 l
335.781818 72.154193 l
339.84 70.311698 l
343.898182 76.872274 l
347.956364 88.279803 l
352.014545 99.844172 l
356.072727 107.944559 l
360.130909 110.696648 l
364.189091 107.705352 l
368.247273 99.774481 l
372.305455 88.853538 l
376.363636 77.980669 l
380.421818 70.673919 l
384.48 69.470263 l
388.538182 74.432729 l
392.596364 83.122763 l
396.654545 92.127298 l
400.712727 98.626702 l
404.770909 101.022306 l
408.829091 98.886803 l
412.887273 92.800409 l
416.945455 84.299744 l
421.003636 75.789334 l
425.061818 70.037291 l
429.12 69.061524 l
433.178182 72.997357 l
437.236364 80.018084 l
441.294545 87.433563 l
445.352727 92.916509 l
449.410909 95.074465 l
453.469091 93.481174 l
457.527273 88.573801 l
461.585455 81.606995 l
465.643636 74.563101 l
469.701818 69.733895 l
473.76 68.825455 l
477.818182 72.03218 l
481.876364 77.917616 l
485.934545 84.25662 l
489.992727 89.05101 l
494.050909 91.055931 l
498.109091 89.851107 l
stroke
grestore
1.000 setlinewidth
0 setlinecap
gsave
446.4 326.2 72 54 clipbox
/o {
gsave
newpath
translate
1.0 setlinewidth
1 setlinejoin
0 setlinecap
0 -3 m
0.795609 -3 1.55874 -2.683901 2.12132 -2.12132 c
2.683901 -1.55874 3 -0.795609 3 0 c
3 0.795609 2.683901 1.55874 2.12132 2.12132 c
1.55874 2.683901 0.795609 3 0 3 c
-0.795609 3 -1.55874 2.683901 -2.12132 2.12132 c
-2.683901 1.55874 -3 0.795609 -3 0 c
-3 -0.795609 -2.683901 -1.55874 -2.12132 -2.12132 c
-1.55874 -2.683901 -0.795609 -3 0 -3 c
cl

gsave
grestore
stroke
grestore
} bind def
92.2909 72.2909 o
96.3491 73.5163 o
100.407 74.7168 o
104.465 75.7568 o
108.524 76.538 o
112.582 77.1507 o
116.64 77.9838 o
120.698 79.6906 o
124.756 82.9534 o
128.815 88.1113 o
132.873 94.8341 o
136.931 102.032 o
140.989 108.053 o
145.047 111.119 o
149.105 109.945 o
153.164 104.648 o
157.222 97.9294 o
161.28 95.7909 o
165.338 105.733 o
169.396 131.64 o
173.455 170.156 o
177.513 213.48 o
181.571 254.679 o
185.629 289.943 o
189.687 317.994 o
193.745 338.901 o
197.804 353.284 o
201.862 361.882 o
205.92 365.335 o
209.978 364.035 o
214.036 358.032 o
218.095 346.97 o
222.153 330.07 o
226.211 306.183 o
230.269 273.998 o
234.327 232.683 o
238.385 183.478 o
242.444 132.721 o
246.502 94.0884 o
250.56 82.3979 o
254.618 98.5539 o
258.676 127.467 o
262.735 153.322 o
266.793 168.364 o
270.851 170.886 o
274.909 161.753 o
278.967 143.056 o
283.025 118.391 o
287.084 93.6273 o
291.142 76.3923 o
295.2 72.5993 o
299.258 82.0637 o
303.316 98.6247 o
307.375 114.835 o
311.433 125.629 o
315.491 128.801 o
319.549 124.153 o
323.607 112.897 o
327.665 97.634 o
331.724 82.4374 o
335.782 72.1542 o
339.84 70.3117 o
343.898 76.8723 o
347.956 88.2798 o
352.015 99.8442 o
356.073 107.945 o
360.131 110.697 o
364.189 107.705 o
368.247 99.7745 o
372.305 88.8535 o
376.364 77.9807 o
380.422 70.6739 o
384.48 69.4703 o
388.538 74.4327 o
392.596 83.1228 o
396.655 92.1273 o
400.713 98.6267 o
404.771 101.022 o
408.829 98.8868 o
412.887 92.8004 o
416.945 84.2997 o
421.004 75.7893 o
425.062 70.0373 o
429.12 69.0615 o
433.178 72.9974 o
437.236 80.0181 o
441.295 87.4336 o
445.353 92.9165 o
449.411 95.0745 o
453.469 93.4812 o
457.527 88.5738 o
461.585 81.607 o
465.644 74.5631 o
469.702 69.7339 o
473.76 68.8255 o
477.818 72.0322 o
481.876 77.9176 o
485.935 84.2566 o
489.993 89.051 o
494.051 91.0559 o
498.109 89.8511 o
grestore
0.800 setlinewidth
0 setlinejoin
2 setlinecap
[] 0 setdash
0.000 setgray
gsave
72 54 m
72 380.16 l
stroke
grestore
gsave
518.4 54 m
518.4 380.16 l
stroke
grestore
gsave
72 54 m
518.4 54 l
stroke
grestore
gsave
72 380.16 m
518.4 380.16 l
stroke
grestore

end
showpage
%%EOF
