%!PS-Adobe-3.0
%%DocumentPaperSizes: letter
%%Pages: 1
%%Title: assets/NOVEL/eH_NOVEL_xband_scan_loop.ps
%%Creator: matplotlib version 3.2.2, http://matplotlib.org/
%%CreationDate: Sun Sep 27 22:00:40 2020
%%Orientation: portrait
%%BoundingBox: 18.0 252.0 594.0 540.0
%%EndComments
%%BeginProlog
/mpldict 8 dict def
mpldict begin
/m { moveto } bind def
/l { lineto } bind def
/r { rlineto } bind def
/c { curveto } bind def
/cl { closepath } bind def
/box {
m
1 index 0 r
0 exch r
neg 0 r
cl
} bind def
/clipbox {
box
clip
newpath
} bind def
%!PS-Adobe-3.0 Resource-Font
%%Title: DejaVu Sans
%%Copyright: Copyright (c) 2003 by Bitstream, Inc. All Rights Reserved. Copyright (c) 2006 by Tavmjong Bah. All Rights Reserved. DejaVu changes are in public domain 
%%Creator: Converted from TrueType to type 3 by PPR
25 dict begin
/_d{bind def}bind def
/_m{moveto}_d
/_l{lineto}_d
/_cl{closepath eofill}_d
/_c{curveto}_d
/_sc{7 -1 roll{setcachedevice}{pop pop pop pop pop pop}ifelse}_d
/_e{exec}_d
/FontName /DejaVuSans def
/PaintType 0 def
/FontMatrix[.001 0 0 .001 0 0]def
/FontBBox[-1021 -463 1793 1232]def
/FontType 3 def
/Encoding [ /space /parenleft /parenright /period /zero /one /two /three /four /five /six /seven /eight /A /C /E /L /U /a /c /e /h /m /n /o /p /t /u ] def
/FontInfo 10 dict dup begin
/FamilyName (DejaVu Sans) def
/FullName (DejaVu Sans) def
/Notice (Copyright (c) 2003 by Bitstream, Inc. All Rights Reserved. Copyright (c) 2006 by Tavmjong Bah. All Rights Reserved. DejaVu changes are in public domain ) def
/Weight (Book) def
/Version (Version 2.35) def
/ItalicAngle 0.0 def
/isFixedPitch false def
/UnderlinePosition -130 def
/UnderlineThickness 90 def
end readonly def
/CharStrings 29 dict dup begin
/.notdef 0 def
/space{318 0 0 0 0 0 _sc
}_d
/parenleft{390 0 86 -131 310 759 _sc
310 759 _m
266 683 234 609 213 536 _c
191 463 181 389 181 314 _c
181 238 191 164 213 91 _c
234 17 266 -56 310 -131 _c
232 -131 _l
183 -54 146 20 122 94 _c
98 168 86 241 86 314 _c
86 386 98 459 122 533 _c
146 607 182 682 232 759 _c
310 759 _l
_cl}_d
/parenright{390 0 80 -131 304 759 _sc
80 759 _m
158 759 _l
206 682 243 607 267 533 _c
291 459 304 386 304 314 _c
304 241 291 168 267 94 _c
243 20 206 -54 158 -131 _c
80 -131 _l
123 -56 155 17 177 91 _c
198 164 209 238 209 314 _c
209 389 198 463 177 536 _c
155 609 123 683 80 759 _c
_cl}_d
/period{318 0 107 0 210 124 _sc
107 124 _m
210 124 _l
210 0 _l
107 0 _l
107 124 _l
_cl}_d
/zero{636 0 66 -13 570 742 _sc
318 664 _m
267 664 229 639 203 589 _c
177 539 165 464 165 364 _c
165 264 177 189 203 139 _c
229 89 267 64 318 64 _c
369 64 407 89 433 139 _c
458 189 471 264 471 364 _c
471 464 458 539 433 589 _c
407 639 369 664 318 664 _c
318 742 _m
399 742 461 709 505 645 _c
548 580 570 486 570 364 _c
570 241 548 147 505 83 _c
461 19 399 -13 318 -13 _c
236 -13 173 19 130 83 _c
87 147 66 241 66 364 _c
66 486 87 580 130 645 _c
173 709 236 742 318 742 _c
_cl}_d
/one{636 0 110 0 544 729 _sc
124 83 _m
285 83 _l
285 639 _l
110 604 _l
110 694 _l
284 729 _l
383 729 _l
383 83 _l
544 83 _l
544 0 _l
124 0 _l
124 83 _l
_cl}_d
/two{{636 0 73 0 536 742 _sc
192 83 _m
536 83 _l
536 0 _l
73 0 _l
73 83 _l
110 121 161 173 226 239 _c
290 304 331 346 348 365 _c
380 400 402 430 414 455 _c
426 479 433 504 433 528 _c
433 566 419 598 392 622 _c
365 646 330 659 286 659 _c
255 659 222 653 188 643 _c
154 632 117 616 78 594 _c
78 694 _l
118 710 155 722 189 730 _c
223 738 255 742 284 742 _c
}_e{359 742 419 723 464 685 _c
509 647 532 597 532 534 _c
532 504 526 475 515 449 _c
504 422 484 390 454 354 _c
446 344 420 317 376 272 _c
332 227 271 164 192 83 _c
_cl}_e}_d
/three{{636 0 76 -13 556 742 _sc
406 393 _m
453 383 490 362 516 330 _c
542 298 556 258 556 212 _c
556 140 531 84 482 45 _c
432 6 362 -13 271 -13 _c
240 -13 208 -10 176 -4 _c
144 1 110 10 76 22 _c
76 117 _l
103 101 133 89 166 81 _c
198 73 232 69 268 69 _c
330 69 377 81 409 105 _c
441 129 458 165 458 212 _c
458 254 443 288 413 312 _c
383 336 341 349 287 349 _c
}_e{202 349 _l
202 430 _l
291 430 _l
339 430 376 439 402 459 _c
428 478 441 506 441 543 _c
441 580 427 609 401 629 _c
374 649 336 659 287 659 _c
260 659 231 656 200 650 _c
169 644 135 635 98 623 _c
98 711 _l
135 721 170 729 203 734 _c
235 739 266 742 296 742 _c
370 742 429 725 473 691 _c
517 657 539 611 539 553 _c
539 513 527 479 504 451 _c
481 423 448 403 406 393 _c
_cl}_e}_d
/four{636 0 49 0 580 729 _sc
378 643 _m
129 254 _l
378 254 _l
378 643 _l
352 729 _m
476 729 _l
476 254 _l
580 254 _l
580 172 _l
476 172 _l
476 0 _l
378 0 _l
378 172 _l
49 172 _l
49 267 _l
352 729 _l
_cl}_d
/five{{636 0 77 -13 549 729 _sc
108 729 _m
495 729 _l
495 646 _l
198 646 _l
198 467 _l
212 472 227 476 241 478 _c
255 480 270 482 284 482 _c
365 482 429 459 477 415 _c
525 370 549 310 549 234 _c
549 155 524 94 475 51 _c
426 8 357 -13 269 -13 _c
238 -13 207 -10 175 -6 _c
143 -1 111 6 77 17 _c
77 116 _l
106 100 136 88 168 80 _c
199 72 232 69 267 69 _c
}_e{323 69 368 83 401 113 _c
433 143 450 183 450 234 _c
450 284 433 324 401 354 _c
368 384 323 399 267 399 _c
241 399 214 396 188 390 _c
162 384 135 375 108 363 _c
108 729 _l
_cl}_e}_d
/six{{636 0 70 -13 573 742 _sc
330 404 _m
286 404 251 388 225 358 _c
199 328 186 286 186 234 _c
186 181 199 139 225 109 _c
251 79 286 64 330 64 _c
374 64 409 79 435 109 _c
461 139 474 181 474 234 _c
474 286 461 328 435 358 _c
409 388 374 404 330 404 _c
526 713 _m
526 623 _l
501 635 476 644 451 650 _c
425 656 400 659 376 659 _c
310 659 260 637 226 593 _c
}_e{192 549 172 482 168 394 _c
187 422 211 444 240 459 _c
269 474 301 482 336 482 _c
409 482 467 459 509 415 _c
551 371 573 310 573 234 _c
573 159 550 99 506 54 _c
462 9 403 -13 330 -13 _c
246 -13 181 19 137 83 _c
92 147 70 241 70 364 _c
70 479 97 571 152 639 _c
206 707 280 742 372 742 _c
396 742 421 739 447 735 _c
472 730 498 723 526 713 _c
_cl}_e}_d
/seven{636 0 82 0 551 729 _sc
82 729 _m
551 729 _l
551 687 _l
286 0 _l
183 0 _l
432 646 _l
82 646 _l
82 729 _l
_cl}_d
/eight{{636 0 68 -13 568 742 _sc
318 346 _m
271 346 234 333 207 308 _c
180 283 167 249 167 205 _c
167 161 180 126 207 101 _c
234 76 271 64 318 64 _c
364 64 401 76 428 102 _c
455 127 469 161 469 205 _c
469 249 455 283 429 308 _c
402 333 365 346 318 346 _c
219 388 _m
177 398 144 418 120 447 _c
96 476 85 511 85 553 _c
85 611 105 657 147 691 _c
188 725 245 742 318 742 _c
}_e{390 742 447 725 489 691 _c
530 657 551 611 551 553 _c
551 511 539 476 515 447 _c
491 418 459 398 417 388 _c
464 377 501 355 528 323 _c
554 291 568 251 568 205 _c
568 134 546 80 503 43 _c
459 5 398 -13 318 -13 _c
237 -13 175 5 132 43 _c
89 80 68 134 68 205 _c
68 251 81 291 108 323 _c
134 355 171 377 219 388 _c
183 544 _m
183 506 194 476 218 455 _c
}_e{242 434 275 424 318 424 _c
360 424 393 434 417 455 _c
441 476 453 506 453 544 _c
453 582 441 611 417 632 _c
393 653 360 664 318 664 _c
275 664 242 653 218 632 _c
194 611 183 582 183 544 _c
_cl}_e}_d
/A{684 0 8 0 676 729 _sc
342 632 _m
208 269 _l
476 269 _l
342 632 _l
286 729 _m
398 729 _l
676 0 _l
573 0 _l
507 187 _l
178 187 _l
112 0 _l
8 0 _l
286 729 _l
_cl}_d
/C{{698 0 56 -13 644 742 _sc
644 673 _m
644 569 _l
610 599 575 622 537 638 _c
499 653 460 661 418 661 _c
334 661 270 635 226 584 _c
182 533 160 460 160 364 _c
160 268 182 194 226 143 _c
270 92 334 67 418 67 _c
460 67 499 74 537 90 _c
575 105 610 128 644 159 _c
644 56 _l
609 32 572 15 534 4 _c
496 -7 455 -13 412 -13 _c
302 -13 215 20 151 87 _c
}_e{87 154 56 246 56 364 _c
56 481 87 573 151 641 _c
215 708 302 742 412 742 _c
456 742 497 736 535 725 _c
573 713 610 696 644 673 _c
_cl}_e}_d
/E{632 0 98 0 568 729 _sc
98 729 _m
559 729 _l
559 646 _l
197 646 _l
197 430 _l
544 430 _l
544 347 _l
197 347 _l
197 83 _l
568 83 _l
568 0 _l
98 0 _l
98 729 _l
_cl}_d
/L{557 0 98 0 552 729 _sc
98 729 _m
197 729 _l
197 83 _l
552 83 _l
552 0 _l
98 0 _l
98 729 _l
_cl}_d
/U{732 0 87 -13 645 729 _sc
87 729 _m
186 729 _l
186 286 _l
186 208 200 151 228 117 _c
256 83 302 66 366 66 _c
429 66 475 83 503 117 _c
531 151 546 208 546 286 _c
546 729 _l
645 729 _l
645 274 _l
645 178 621 107 574 59 _c
527 11 458 -13 366 -13 _c
274 -13 204 11 157 59 _c
110 107 87 178 87 274 _c
87 729 _l
_cl}_d
/a{{613 0 60 -13 522 560 _sc
343 275 _m
270 275 220 266 192 250 _c
164 233 150 205 150 165 _c
150 133 160 107 181 89 _c
202 70 231 61 267 61 _c
317 61 357 78 387 114 _c
417 149 432 196 432 255 _c
432 275 _l
343 275 _l
522 312 _m
522 0 _l
432 0 _l
432 83 _l
411 49 385 25 355 10 _c
325 -5 287 -13 243 -13 _c
187 -13 142 2 109 33 _c
76 64 60 106 60 159 _c
}_e{60 220 80 266 122 298 _c
163 329 224 345 306 345 _c
432 345 _l
432 354 _l
432 395 418 427 391 450 _c
364 472 326 484 277 484 _c
245 484 215 480 185 472 _c
155 464 127 453 100 439 _c
100 522 _l
132 534 164 544 195 550 _c
226 556 256 560 286 560 _c
365 560 424 539 463 498 _c
502 457 522 395 522 312 _c
_cl}_e}_d
/c{{550 0 55 -13 488 560 _sc
488 526 _m
488 442 _l
462 456 437 466 411 473 _c
385 480 360 484 334 484 _c
276 484 230 465 198 428 _c
166 391 150 339 150 273 _c
150 206 166 154 198 117 _c
230 80 276 62 334 62 _c
360 62 385 65 411 72 _c
437 79 462 90 488 104 _c
488 21 _l
462 9 436 0 410 -5 _c
383 -10 354 -13 324 -13 _c
242 -13 176 12 128 64 _c
}_e{79 115 55 185 55 273 _c
55 362 79 432 128 483 _c
177 534 244 560 330 560 _c
358 560 385 557 411 551 _c
437 545 463 537 488 526 _c
_cl}_e}_d
/e{{615 0 55 -13 562 560 _sc
562 296 _m
562 252 _l
149 252 _l
153 190 171 142 205 110 _c
238 78 284 62 344 62 _c
378 62 412 66 444 74 _c
476 82 509 95 541 113 _c
541 28 _l
509 14 476 3 442 -3 _c
408 -9 373 -13 339 -13 _c
251 -13 182 12 131 62 _c
80 112 55 181 55 268 _c
55 357 79 428 127 481 _c
175 533 241 560 323 560 _c
397 560 455 536 498 489 _c
}_e{540 441 562 377 562 296 _c
472 322 _m
471 371 457 410 431 440 _c
404 469 368 484 324 484 _c
274 484 234 469 204 441 _c
174 413 156 373 152 322 _c
472 322 _l
_cl}_e}_d
/h{634 0 91 0 549 760 _sc
549 330 _m
549 0 _l
459 0 _l
459 327 _l
459 379 448 417 428 443 _c
408 469 378 482 338 482 _c
289 482 251 466 223 435 _c
195 404 181 362 181 309 _c
181 0 _l
91 0 _l
91 760 _l
181 760 _l
181 462 _l
202 494 227 519 257 535 _c
286 551 320 560 358 560 _c
420 560 468 540 500 501 _c
532 462 549 405 549 330 _c
_cl}_d
/m{{974 0 91 0 889 560 _sc
520 442 _m
542 482 569 511 600 531 _c
631 550 668 560 711 560 _c
767 560 811 540 842 500 _c
873 460 889 403 889 330 _c
889 0 _l
799 0 _l
799 327 _l
799 379 789 418 771 444 _c
752 469 724 482 686 482 _c
639 482 602 466 575 435 _c
548 404 535 362 535 309 _c
535 0 _l
445 0 _l
445 327 _l
445 379 435 418 417 444 _c
398 469 369 482 331 482 _c
}_e{285 482 248 466 221 435 _c
194 404 181 362 181 309 _c
181 0 _l
91 0 _l
91 547 _l
181 547 _l
181 462 _l
201 495 226 520 255 536 _c
283 552 317 560 357 560 _c
397 560 430 550 458 530 _c
486 510 506 480 520 442 _c
_cl}_e}_d
/n{634 0 91 0 549 560 _sc
549 330 _m
549 0 _l
459 0 _l
459 327 _l
459 379 448 417 428 443 _c
408 469 378 482 338 482 _c
289 482 251 466 223 435 _c
195 404 181 362 181 309 _c
181 0 _l
91 0 _l
91 547 _l
181 547 _l
181 462 _l
202 494 227 519 257 535 _c
286 551 320 560 358 560 _c
420 560 468 540 500 501 _c
532 462 549 405 549 330 _c
_cl}_d
/o{612 0 55 -13 557 560 _sc
306 484 _m
258 484 220 465 192 427 _c
164 389 150 338 150 273 _c
150 207 163 156 191 118 _c
219 80 257 62 306 62 _c
354 62 392 80 420 118 _c
448 156 462 207 462 273 _c
462 337 448 389 420 427 _c
392 465 354 484 306 484 _c
306 560 _m
384 560 445 534 490 484 _c
534 433 557 363 557 273 _c
557 183 534 113 490 63 _c
445 12 384 -13 306 -13 _c
227 -13 165 12 121 63 _c
77 113 55 183 55 273 _c
55 363 77 433 121 484 _c
165 534 227 560 306 560 _c
_cl}_d
/p{{635 0 91 -207 580 560 _sc
181 82 _m
181 -207 _l
91 -207 _l
91 547 _l
181 547 _l
181 464 _l
199 496 223 520 252 536 _c
281 552 316 560 356 560 _c
422 560 476 533 518 481 _c
559 428 580 359 580 273 _c
580 187 559 117 518 65 _c
476 13 422 -13 356 -13 _c
316 -13 281 -5 252 10 _c
223 25 199 49 181 82 _c
487 273 _m
487 339 473 390 446 428 _c
418 466 381 485 334 485 _c
}_e{286 485 249 466 222 428 _c
194 390 181 339 181 273 _c
181 207 194 155 222 117 _c
249 79 286 61 334 61 _c
381 61 418 79 446 117 _c
473 155 487 207 487 273 _c
_cl}_e}_d
/t{392 0 27 0 368 702 _sc
183 702 _m
183 547 _l
368 547 _l
368 477 _l
183 477 _l
183 180 _l
183 135 189 106 201 94 _c
213 81 238 75 276 75 _c
368 75 _l
368 0 _l
276 0 _l
206 0 158 13 132 39 _c
106 65 93 112 93 180 _c
93 477 _l
27 477 _l
27 547 _l
93 547 _l
93 702 _l
183 702 _l
_cl}_d
/u{634 0 85 -13 543 560 _sc
85 216 _m
85 547 _l
175 547 _l
175 219 _l
175 167 185 129 205 103 _c
225 77 255 64 296 64 _c
344 64 383 79 411 110 _c
439 141 453 183 453 237 _c
453 547 _l
543 547 _l
543 0 _l
453 0 _l
453 84 _l
431 50 405 26 377 10 _c
348 -5 315 -13 277 -13 _c
214 -13 166 6 134 45 _c
101 83 85 140 85 216 _c
311 560 _m
311 560 _l
_cl}_d
end readonly def

/BuildGlyph
 {exch begin
 CharStrings exch
 2 copy known not{pop /.notdef}if
 true 3 1 roll get exec
 end}_d

/BuildChar {
 1 index /Encoding get exch get
 1 index /BuildGlyph get exec
}_d

FontName currentdict end definefont pop
end
%%EndProlog
%%Page: 1 1
mpldict begin
18 252 translate
576 288 0 0 clipbox
gsave
0 0 m
576 0 l
576 288 l
0 288 l
cl
1.000 setgray
fill
grestore
gsave
72 36 m
518.4 36 l
518.4 253.44 l
72 253.44 l
cl
1.000 setgray
fill
grestore
0.800 setlinewidth
1 setlinejoin
0 setlinecap
[] 0 setdash
0.000 setgray
gsave
/o {
gsave
newpath
translate
0.8 setlinewidth
1 setlinejoin
0 setlinecap
0 0 m
0 -3.5 l

gsave
0.000 setgray
fill
grestore
stroke
grestore
} bind def
90.6578 36 o
grestore
/DejaVuSans findfont
10.000 scalefont
setfont
gsave
87.478150 21.406250 translate
0.000000 rotate
0.000000 0 m /zero glyphshow
grestore
gsave
/o {
gsave
newpath
translate
0.8 setlinewidth
1 setlinejoin
0 setlinecap
0 0 m
0 -3.5 l

gsave
0.000 setgray
fill
grestore
stroke
grestore
} bind def
172.311 36 o
grestore
gsave
159.592646 21.406250 translate
0.000000 rotate
0.000000 0 m /two glyphshow
6.362305 0 m /zero glyphshow
12.724609 0 m /zero glyphshow
19.086914 0 m /zero glyphshow
grestore
gsave
/o {
gsave
newpath
translate
0.8 setlinewidth
1 setlinejoin
0 setlinecap
0 0 m
0 -3.5 l

gsave
0.000 setgray
fill
grestore
stroke
grestore
} bind def
253.965 36 o
grestore
gsave
241.246203 21.406250 translate
0.000000 rotate
0.000000 0 m /four glyphshow
6.362305 0 m /zero glyphshow
12.724609 0 m /zero glyphshow
19.086914 0 m /zero glyphshow
grestore
gsave
/o {
gsave
newpath
translate
0.8 setlinewidth
1 setlinejoin
0 setlinecap
0 0 m
0 -3.5 l

gsave
0.000 setgray
fill
grestore
stroke
grestore
} bind def
335.619 36 o
grestore
gsave
322.899761 21.406250 translate
0.000000 rotate
0.000000 0 m /six glyphshow
6.362305 0 m /zero glyphshow
12.724609 0 m /zero glyphshow
19.086914 0 m /zero glyphshow
grestore
gsave
/o {
gsave
newpath
translate
0.8 setlinewidth
1 setlinejoin
0 setlinecap
0 0 m
0 -3.5 l

gsave
0.000 setgray
fill
grestore
stroke
grestore
} bind def
417.272 36 o
grestore
gsave
404.553319 21.406250 translate
0.000000 rotate
0.000000 0 m /eight glyphshow
6.362305 0 m /zero glyphshow
12.724609 0 m /zero glyphshow
19.086914 0 m /zero glyphshow
grestore
gsave
/o {
gsave
newpath
translate
0.8 setlinewidth
1 setlinejoin
0 setlinecap
0 0 m
0 -3.5 l

gsave
0.000 setgray
fill
grestore
stroke
grestore
} bind def
498.926 36 o
grestore
gsave
483.027189 21.406250 translate
0.000000 rotate
0.000000 0 m /one glyphshow
6.362305 0 m /zero glyphshow
12.724609 0 m /zero glyphshow
19.086914 0 m /zero glyphshow
25.449219 0 m /zero glyphshow
grestore
gsave
251.012500 7.734375 translate
0.000000 rotate
0.000000 0 m /L glyphshow
5.446289 0 m /o glyphshow
11.564453 0 m /o glyphshow
17.682617 0 m /p glyphshow
24.030273 0 m /space glyphshow
27.208984 0 m /C glyphshow
34.191406 0 m /o glyphshow
40.309570 0 m /u glyphshow
46.647461 0 m /n glyphshow
52.985352 0 m /t glyphshow
56.906250 0 m /space glyphshow
60.084961 0 m /parenleft glyphshow
63.986328 0 m /A glyphshow
70.702148 0 m /period glyphshow
73.880859 0 m /U glyphshow
81.200195 0 m /period glyphshow
84.378906 0 m /parenright glyphshow
grestore
gsave
/o {
gsave
newpath
translate
0.8 setlinewidth
1 setlinejoin
0 setlinecap
0 0 m
-3.5 0 l

gsave
0.000 setgray
fill
grestore
stroke
grestore
} bind def
72 46.7096 o
grestore
gsave
45.921875 42.912707 translate
0.000000 rotate
0.000000 0 m /one glyphshow
6.362305 0 m /seven glyphshow
12.724609 0 m /five glyphshow
grestore
gsave
/o {
gsave
newpath
translate
0.8 setlinewidth
1 setlinejoin
0 setlinecap
0 0 m
-3.5 0 l

gsave
0.000 setgray
fill
grestore
stroke
grestore
} bind def
72 76.1475 o
grestore
gsave
45.921875 72.350645 translate
0.000000 rotate
0.000000 0 m /two glyphshow
6.362305 0 m /zero glyphshow
12.724609 0 m /zero glyphshow
grestore
gsave
/o {
gsave
newpath
translate
0.8 setlinewidth
1 setlinejoin
0 setlinecap
0 0 m
-3.5 0 l

gsave
0.000 setgray
fill
grestore
stroke
grestore
} bind def
72 105.585 o
grestore
gsave
45.921875 101.788584 translate
0.000000 rotate
0.000000 0 m /two glyphshow
6.362305 0 m /two glyphshow
12.724609 0 m /five glyphshow
grestore
gsave
/o {
gsave
newpath
translate
0.8 setlinewidth
1 setlinejoin
0 setlinecap
0 0 m
-3.5 0 l

gsave
0.000 setgray
fill
grestore
stroke
grestore
} bind def
72 135.023 o
grestore
gsave
45.921875 131.226522 translate
0.000000 rotate
0.000000 0 m /two glyphshow
6.362305 0 m /five glyphshow
12.724609 0 m /zero glyphshow
grestore
gsave
/o {
gsave
newpath
translate
0.8 setlinewidth
1 setlinejoin
0 setlinecap
0 0 m
-3.5 0 l

gsave
0.000 setgray
fill
grestore
stroke
grestore
} bind def
72 164.461 o
grestore
gsave
45.921875 160.664461 translate
0.000000 rotate
0.000000 0 m /two glyphshow
6.362305 0 m /seven glyphshow
12.724609 0 m /five glyphshow
grestore
gsave
/o {
gsave
newpath
translate
0.8 setlinewidth
1 setlinejoin
0 setlinecap
0 0 m
-3.5 0 l

gsave
0.000 setgray
fill
grestore
stroke
grestore
} bind def
72 193.899 o
grestore
gsave
45.921875 190.102399 translate
0.000000 rotate
0.000000 0 m /three glyphshow
6.362305 0 m /zero glyphshow
12.724609 0 m /zero glyphshow
grestore
gsave
/o {
gsave
newpath
translate
0.8 setlinewidth
1 setlinejoin
0 setlinecap
0 0 m
-3.5 0 l

gsave
0.000 setgray
fill
grestore
stroke
grestore
} bind def
72 223.337 o
grestore
gsave
45.921875 219.540338 translate
0.000000 rotate
0.000000 0 m /three glyphshow
6.362305 0 m /two glyphshow
12.724609 0 m /five glyphshow
grestore
gsave
/o {
gsave
newpath
translate
0.8 setlinewidth
1 setlinejoin
0 setlinecap
0 0 m
-3.5 0 l

gsave
0.000 setgray
fill
grestore
stroke
grestore
} bind def
72 252.775 o
grestore
gsave
45.921875 248.978276 translate
0.000000 rotate
0.000000 0 m /three glyphshow
6.362305 0 m /five glyphshow
12.724609 0 m /zero glyphshow
grestore
gsave
39.843750 94.360625 translate
90.000000 rotate
0.000000 0 m /E glyphshow
6.318359 0 m /n glyphshow
12.656250 0 m /h glyphshow
18.994141 0 m /a glyphshow
25.122070 0 m /n glyphshow
31.459961 0 m /c glyphshow
36.958008 0 m /e glyphshow
43.110352 0 m /m glyphshow
52.851562 0 m /e glyphshow
59.003906 0 m /n glyphshow
65.341797 0 m /t glyphshow
69.262695 0 m /space glyphshow
72.441406 0 m /parenleft glyphshow
76.342773 0 m /A glyphshow
83.058594 0 m /period glyphshow
86.237305 0 m /U glyphshow
93.556641 0 m /period glyphshow
96.735352 0 m /parenright glyphshow
grestore
1.500 setlinewidth
2 setlinecap
0.000 0.000 1.000 setrgbcolor
gsave
446.4 217.4 72 36 clipbox
92.290909 45.883636 m
93.107445 96.033404 l
93.92398 129.064759 l
94.740516 151.61321 l
95.557051 167.576803 l
96.373587 179.286688 l
97.190123 188.165412 l
98.006658 195.100771 l
98.823194 200.660517 l
99.639729 205.217255 l
100.456265 209.022134 l
101.2728 212.249035 l
102.905872 217.429703 l
104.538943 221.405629 l
106.172014 224.548061 l
107.805085 227.086939 l
109.438156 229.173452 l
111.071227 230.911775 l
112.704299 232.376383 l
114.33737 233.622115 l
116.786976 235.168089 l
119.236583 236.414456 l
121.68619 237.432384 l
124.952332 238.520545 l
128.218474 239.37748 l
132.301152 240.211039 l
137.200366 240.96159 l
142.916115 241.599307 l
150.264935 242.170061 l
159.246826 242.627591 l
171.49486 243.003513 l
188.642107 243.278599 l
215.587781 243.456239 l
269.479129 243.541348 l
498.109091 243.556364 l
498.109091 243.556364 l
stroke
grestore
1.000 setlinewidth
0 setlinecap
gsave
446.4 217.4 72 36 clipbox
/o {
gsave
newpath
translate
1.0 setlinewidth
1 setlinejoin
0 setlinecap
0 -3 m
0.795609 -3 1.55874 -2.683901 2.12132 -2.12132 c
2.683901 -1.55874 3 -0.795609 3 0 c
3 0.795609 2.683901 1.55874 2.12132 2.12132 c
1.55874 2.683901 0.795609 3 0 3 c
-0.795609 3 -1.55874 2.683901 -2.12132 2.12132 c
-2.683901 1.55874 -3 0.795609 -3 0 c
-3 -0.795609 -2.683901 -1.55874 -2.12132 -2.12132 c
-1.55874 -2.683901 -0.795609 -3 0 -3 c
cl

gsave
grestore
stroke
grestore
} bind def
92.2909 45.8836 o
93.1074 96.0334 o
93.924 129.065 o
94.7405 151.613 o
95.5571 167.577 o
96.3736 179.287 o
97.1901 188.165 o
98.0067 195.101 o
98.8232 200.661 o
99.6397 205.217 o
100.456 209.022 o
101.273 212.249 o
102.089 215.022 o
102.906 217.43 o
103.722 219.541 o
104.539 221.406 o
105.355 223.064 o
106.172 224.548 o
106.989 225.882 o
107.805 227.087 o
108.622 228.179 o
109.438 229.173 o
110.255 230.081 o
111.071 230.912 o
111.888 231.674 o
112.704 232.376 o
113.521 233.024 o
114.337 233.622 o
115.154 234.176 o
115.97 234.69 o
116.787 235.168 o
117.604 235.613 o
118.42 236.027 o
119.237 236.414 o
120.053 236.776 o
120.87 237.115 o
121.686 237.432 o
122.503 237.73 o
123.319 238.01 o
124.136 238.273 o
124.952 238.521 o
125.769 238.754 o
126.585 238.974 o
127.402 239.181 o
128.218 239.377 o
129.035 239.563 o
129.852 239.738 o
130.668 239.904 o
131.485 240.062 o
132.301 240.211 o
133.118 240.353 o
133.934 240.487 o
134.751 240.615 o
135.567 240.736 o
136.384 240.852 o
137.2 240.962 o
138.017 241.066 o
138.833 241.166 o
139.65 241.261 o
140.467 241.352 o
141.283 241.438 o
142.1 241.521 o
142.916 241.599 o
143.733 241.675 o
144.549 241.747 o
145.366 241.815 o
146.182 241.881 o
146.999 241.944 o
147.815 242.004 o
148.632 242.062 o
149.448 242.117 o
150.265 242.17 o
151.081 242.221 o
151.898 242.269 o
152.715 242.316 o
153.531 242.361 o
154.348 242.404 o
155.164 242.445 o
155.981 242.484 o
156.797 242.522 o
157.614 242.559 o
158.43 242.594 o
159.247 242.628 o
160.063 242.66 o
160.88 242.691 o
161.696 242.721 o
162.513 242.75 o
163.33 242.777 o
164.146 242.804 o
164.963 242.83 o
165.779 242.854 o
166.596 242.878 o
167.412 242.901 o
168.229 242.923 o
169.045 242.944 o
169.862 242.965 o
170.678 242.985 o
171.495 243.004 o
172.311 243.022 o
173.128 243.039 o
173.944 243.056 o
174.761 243.073 o
175.578 243.089 o
176.394 243.104 o
177.211 243.119 o
178.027 243.133 o
178.844 243.147 o
179.66 243.16 o
180.477 243.173 o
181.293 243.185 o
182.11 243.197 o
182.926 243.208 o
183.743 243.219 o
184.559 243.23 o
185.376 243.241 o
186.193 243.251 o
187.009 243.26 o
187.826 243.27 o
188.642 243.279 o
189.459 243.287 o
190.275 243.296 o
191.092 243.304 o
191.908 243.312 o
192.725 243.319 o
193.541 243.327 o
194.358 243.334 o
195.174 243.341 o
195.991 243.347 o
196.807 243.354 o
197.624 243.36 o
198.441 243.366 o
199.257 243.372 o
200.074 243.378 o
200.89 243.383 o
201.707 243.388 o
202.523 243.393 o
203.34 243.398 o
204.156 243.403 o
204.973 243.408 o
205.789 243.412 o
206.606 243.417 o
207.422 243.421 o
208.239 243.425 o
209.055 243.429 o
209.872 243.433 o
210.689 243.436 o
211.505 243.44 o
212.322 243.443 o
213.138 243.447 o
213.955 243.45 o
214.771 243.453 o
215.588 243.456 o
216.404 243.459 o
217.221 243.462 o
218.037 243.465 o
218.854 243.468 o
219.67 243.47 o
220.487 243.473 o
221.304 243.475 o
222.12 243.478 o
222.937 243.48 o
223.753 243.482 o
224.57 243.484 o
225.386 243.486 o
226.203 243.488 o
227.019 243.49 o
227.836 243.492 o
228.652 243.494 o
229.469 243.496 o
230.285 243.498 o
231.102 243.499 o
231.918 243.501 o
232.735 243.503 o
233.552 243.504 o
234.368 243.506 o
235.185 243.507 o
236.001 243.508 o
236.818 243.51 o
237.634 243.511 o
238.451 243.512 o
239.267 243.514 o
240.084 243.515 o
240.9 243.516 o
241.717 243.517 o
242.533 243.518 o
243.35 243.519 o
244.167 243.52 o
244.983 243.521 o
245.8 243.522 o
246.616 243.523 o
247.433 243.524 o
248.249 243.525 o
249.066 243.526 o
249.882 243.527 o
250.699 243.528 o
251.515 243.529 o
252.332 243.529 o
253.148 243.53 o
253.965 243.531 o
254.781 243.532 o
255.598 243.532 o
256.415 243.533 o
257.231 243.534 o
258.048 243.534 o
258.864 243.535 o
259.681 243.535 o
260.497 243.536 o
261.314 243.537 o
262.13 243.537 o
262.947 243.538 o
263.763 243.538 o
264.58 243.539 o
265.396 243.539 o
266.213 243.54 o
267.03 243.54 o
267.846 243.54 o
268.663 243.541 o
269.479 243.541 o
270.296 243.542 o
271.112 243.542 o
271.929 243.543 o
272.745 243.543 o
273.562 243.543 o
274.378 243.544 o
275.195 243.544 o
276.011 243.544 o
276.828 243.545 o
277.644 243.545 o
278.461 243.545 o
279.278 243.546 o
280.094 243.546 o
280.911 243.546 o
281.727 243.546 o
282.544 243.547 o
283.36 243.547 o
284.177 243.547 o
284.993 243.547 o
285.81 243.548 o
286.626 243.548 o
287.443 243.548 o
288.259 243.548 o
289.076 243.549 o
289.893 243.549 o
290.709 243.549 o
291.526 243.549 o
292.342 243.549 o
293.159 243.55 o
293.975 243.55 o
294.792 243.55 o
295.608 243.55 o
296.425 243.55 o
297.241 243.55 o
298.058 243.551 o
298.874 243.551 o
299.691 243.551 o
300.507 243.551 o
301.324 243.551 o
302.141 243.551 o
302.957 243.551 o
303.774 243.552 o
304.59 243.552 o
305.407 243.552 o
306.223 243.552 o
307.04 243.552 o
307.856 243.552 o
308.673 243.552 o
309.489 243.552 o
310.306 243.552 o
311.122 243.553 o
311.939 243.553 o
312.756 243.553 o
313.572 243.553 o
314.389 243.553 o
315.205 243.553 o
316.022 243.553 o
316.838 243.553 o
317.655 243.553 o
318.471 243.553 o
319.288 243.553 o
320.104 243.554 o
320.921 243.554 o
321.737 243.554 o
322.554 243.554 o
323.37 243.554 o
324.187 243.554 o
325.004 243.554 o
325.82 243.554 o
326.637 243.554 o
327.453 243.554 o
328.27 243.554 o
329.086 243.554 o
329.903 243.554 o
330.719 243.554 o
331.536 243.554 o
332.352 243.554 o
333.169 243.555 o
333.985 243.555 o
334.802 243.555 o
335.619 243.555 o
336.435 243.555 o
337.252 243.555 o
338.068 243.555 o
338.885 243.555 o
339.701 243.555 o
340.518 243.555 o
341.334 243.555 o
342.151 243.555 o
342.967 243.555 o
343.784 243.555 o
344.6 243.555 o
345.417 243.555 o
346.233 243.555 o
347.05 243.555 o
347.867 243.555 o
348.683 243.555 o
349.5 243.555 o
350.316 243.555 o
351.133 243.555 o
351.949 243.555 o
352.766 243.555 o
353.582 243.555 o
354.399 243.555 o
355.215 243.555 o
356.032 243.555 o
356.848 243.555 o
357.665 243.556 o
358.482 243.556 o
359.298 243.556 o
360.115 243.556 o
360.931 243.556 o
361.748 243.556 o
362.564 243.556 o
363.381 243.556 o
364.197 243.556 o
365.014 243.556 o
365.83 243.556 o
366.647 243.556 o
367.463 243.556 o
368.28 243.556 o
369.096 243.556 o
369.913 243.556 o
370.73 243.556 o
371.546 243.556 o
372.363 243.556 o
373.179 243.556 o
373.996 243.556 o
374.812 243.556 o
375.629 243.556 o
376.445 243.556 o
377.262 243.556 o
378.078 243.556 o
378.895 243.556 o
379.711 243.556 o
380.528 243.556 o
381.345 243.556 o
382.161 243.556 o
382.978 243.556 o
383.794 243.556 o
384.611 243.556 o
385.427 243.556 o
386.244 243.556 o
387.06 243.556 o
387.877 243.556 o
388.693 243.556 o
389.51 243.556 o
390.326 243.556 o
391.143 243.556 o
391.959 243.556 o
392.776 243.556 o
393.593 243.556 o
394.409 243.556 o
395.226 243.556 o
396.042 243.556 o
396.859 243.556 o
397.675 243.556 o
398.492 243.556 o
399.308 243.556 o
400.125 243.556 o
400.941 243.556 o
401.758 243.556 o
402.574 243.556 o
403.391 243.556 o
404.207 243.556 o
405.024 243.556 o
405.841 243.556 o
406.657 243.556 o
407.474 243.556 o
408.29 243.556 o
409.107 243.556 o
409.923 243.556 o
410.74 243.556 o
411.556 243.556 o
412.373 243.556 o
413.189 243.556 o
414.006 243.556 o
414.822 243.556 o
415.639 243.556 o
416.456 243.556 o
417.272 243.556 o
418.089 243.556 o
418.905 243.556 o
419.722 243.556 o
420.538 243.556 o
421.355 243.556 o
422.171 243.556 o
422.988 243.556 o
423.804 243.556 o
424.621 243.556 o
425.437 243.556 o
426.254 243.556 o
427.07 243.556 o
427.887 243.556 o
428.704 243.556 o
429.52 243.556 o
430.337 243.556 o
431.153 243.556 o
431.97 243.556 o
432.786 243.556 o
433.603 243.556 o
434.419 243.556 o
435.236 243.556 o
436.052 243.556 o
436.869 243.556 o
437.685 243.556 o
438.502 243.556 o
439.319 243.556 o
440.135 243.556 o
440.952 243.556 o
441.768 243.556 o
442.585 243.556 o
443.401 243.556 o
444.218 243.556 o
445.034 243.556 o
445.851 243.556 o
446.667 243.556 o
447.484 243.556 o
448.3 243.556 o
449.117 243.556 o
449.933 243.556 o
450.75 243.556 o
451.567 243.556 o
452.383 243.556 o
453.2 243.556 o
454.016 243.556 o
454.833 243.556 o
455.649 243.556 o
456.466 243.556 o
457.282 243.556 o
458.099 243.556 o
458.915 243.556 o
459.732 243.556 o
460.548 243.556 o
461.365 243.556 o
462.182 243.556 o
462.998 243.556 o
463.815 243.556 o
464.631 243.556 o
465.448 243.556 o
466.264 243.556 o
467.081 243.556 o
467.897 243.556 o
468.714 243.556 o
469.53 243.556 o
470.347 243.556 o
471.163 243.556 o
471.98 243.556 o
472.796 243.556 o
473.613 243.556 o
474.43 243.556 o
475.246 243.556 o
476.063 243.556 o
476.879 243.556 o
477.696 243.556 o
478.512 243.556 o
479.329 243.556 o
480.145 243.556 o
480.962 243.556 o
481.778 243.556 o
482.595 243.556 o
483.411 243.556 o
484.228 243.556 o
485.045 243.556 o
485.861 243.556 o
486.678 243.556 o
487.494 243.556 o
488.311 243.556 o
489.127 243.556 o
489.944 243.556 o
490.76 243.556 o
491.577 243.556 o
492.393 243.556 o
493.21 243.556 o
494.026 243.556 o
494.843 243.556 o
495.659 243.556 o
496.476 243.556 o
497.293 243.556 o
498.109 243.556 o
grestore
0.800 setlinewidth
0 setlinejoin
2 setlinecap
[] 0 setdash
0.000 setgray
gsave
72 36 m
72 253.44 l
stroke
grestore
gsave
518.4 36 m
518.4 253.44 l
stroke
grestore
gsave
72 36 m
518.4 36 l
stroke
grestore
gsave
72 253.44 m
518.4 253.44 l
stroke
grestore

end
showpage
%%EOF
