{
  "spinsys": {
    "euler": {
      "alpha": 0,
      "beta": 0,
      "gamma": 0
    },
    "interactions": [
      {
        "name": "shielding",
        "id": 0,
        "entries": {
          "x": 2.00315,
          "y": 2.00315,
          "z": 2.00258,
          "id": 0,
          "euler": {
            "alpha": 0,
            "beta": 0,
            "gamma": 0
          }
        }
      },
      {
        "name": "csa",
        "id": 1,
        "entries": {
          "x": 0,
          "y": 0,
          "z": 0,
          "id": 1,
          "euler": {
            "alpha": 0,
            "beta": 0,
            "gamma": 0
          }
        }
      },
      {
        "name": "hyperfine",
        "id": 2,
        "entries": {
          "id1": 0,
          "id2": 1
        }
      },
      {
        "name": "csa",
        "id": 3,
        "entries": {
          "x": 0,
          "y": 0,
          "z": 0,
          "id": 2,
          "euler": {
            "alpha": 0,
            "beta": 0,
            "gamma": 0
          }
        }
      },
      {
        "name": "dipole",
        "id": 4,
        "entries": {
          "id1": 1,
          "id2": 2
        }
      }
    ],
    "spins": {
      "0": {
        "type": "e",
        "x": 0,
        "y": 0,
        "z": 0,
        "t1": 0.0001,
        "t2": 0.000004
      },
      "1": {
        "type": "H1",
        "x": 3.4,
        "y": 0,
        "z": 0,
        "t1": 0.1,
        "t2": 0.0005
      },
      "2": {
        "type": "BulkH",
        "x": 4.8,
        "y": 0,
        "z": 1.4,
        "t1": 1,
        "t2": 0.01
      }
    },
    "irradiation": [
      "e"
    ]
  },
  "pulseseq": {
    "name": "CA-NOVEL",
    "increment": 1e-9,
    "components": {
      "emr1": {
        "e": {
          "frequency": 51000000,
          "phase": 180,
          "offset": 0
        }
      },
      "emr2": {
        "e": {
          "frequency": 51000000,
          "phase": 90,
          "offset": 0
        }
      }
    },
    "sections": {
      "flip": {
        "type": "Pulse",
        "size": 5,
        "names": [
          "emr1"
        ],
        "params": {}
      },
      "mix": {
        "type": "Pulse",
        "size": 300,
        "names": [
          "emr2"
        ],
        "params": {}
      },
      "d": {
        "type": "Delay",
        "size": 19695,
        "names": [],
        "params": {}
      },
      "loop": {
        "type": "Section",
        "size": 3,
        "names": [
          "flip",
          "mix",
          "d"
        ],
        "params": {},
        "phase0": {
          "reset": false,
          "seed": 0
        }
      }
    },
    "sequence": [
      "loop"
    ]
  },
  "settings": {
    "euler": {
      "alpha": 0,
      "beta": 0,
      "gamma": 0
    },
    "ncores": 5,
    "acq": "H1",
    "Magnet": {
      "b0": 1.1957
    },
    "Gyrotron": {
      "em_frequency": 33520000000.000004
    },
    "Probe": {
      "mas_frequency": 50000,
      "temperature": 80,
      "mas_increment": 1e-9
    },
    "task": "BuildUp",
    "eulers": [
      {
        "alpha": 0,
        "beta": 0,
        "gamma": 0
      }
    ],
    "task details": {
      "sampling_step_size": 1
    }
  }
}