%!PS-Adobe-3.0
%%DocumentPaperSizes: letter
%%Pages: 1
%%Title: assets/CE_TOTAPOL/eeH_e2_a0b60g150_H_xn2y2z1_p2s_a0b30g0_9p393T_zcws_buildup_enhancement.ps
%%Creator: matplotlib version 3.2.2, http://matplotlib.org/
%%CreationDate: Tue Aug 25 16:13:05 2020
%%Orientation: portrait
%%BoundingBox: -54.0 180.0 666.0 612.0
%%EndComments
%%BeginProlog
/mpldict 8 dict def
mpldict begin
/m { moveto } bind def
/l { lineto } bind def
/r { rlineto } bind def
/c { curveto } bind def
/cl { closepath } bind def
/box {
m
1 index 0 r
0 exch r
neg 0 r
cl
} bind def
/clipbox {
box
clip
newpath
} bind def
%!PS-Adobe-3.0 Resource-Font
%%Title: DejaVu Sans
%%Copyright: Copyright (c) 2003 by Bitstream, Inc. All Rights Reserved. Copyright (c) 2006 by Tavmjong Bah. All Rights Reserved. DejaVu changes are in public domain 
%%Creator: Converted from TrueType to type 3 by PPR
25 dict begin
/_d{bind def}bind def
/_m{moveto}_d
/_l{lineto}_d
/_cl{closepath eofill}_d
/_c{curveto}_d
/_sc{7 -1 roll{setcachedevice}{pop pop pop pop pop pop}ifelse}_d
/_e{exec}_d
/FontName /DejaVuSans def
/PaintType 0 def
/FontMatrix[.001 0 0 .001 0 0]def
/FontBBox[-1021 -463 1793 1232]def
/FontType 3 def
/Encoding [ /zero /one /two /three /four /five /c /m /s /w /z ] def
/FontInfo 10 dict dup begin
/FamilyName (DejaVu Sans) def
/FullName (DejaVu Sans) def
/Notice (Copyright (c) 2003 by Bitstream, Inc. All Rights Reserved. Copyright (c) 2006 by Tavmjong Bah. All Rights Reserved. DejaVu changes are in public domain ) def
/Weight (Book) def
/Version (Version 2.35) def
/ItalicAngle 0.0 def
/isFixedPitch false def
/UnderlinePosition -130 def
/UnderlineThickness 90 def
end readonly def
/CharStrings 12 dict dup begin
/.notdef 0 def
/zero{636 0 66 -13 570 742 _sc
318 664 _m
267 664 229 639 203 589 _c
177 539 165 464 165 364 _c
165 264 177 189 203 139 _c
229 89 267 64 318 64 _c
369 64 407 89 433 139 _c
458 189 471 264 471 364 _c
471 464 458 539 433 589 _c
407 639 369 664 318 664 _c
318 742 _m
399 742 461 709 505 645 _c
548 580 570 486 570 364 _c
570 241 548 147 505 83 _c
461 19 399 -13 318 -13 _c
236 -13 173 19 130 83 _c
87 147 66 241 66 364 _c
66 486 87 580 130 645 _c
173 709 236 742 318 742 _c
_cl}_d
/one{636 0 110 0 544 729 _sc
124 83 _m
285 83 _l
285 639 _l
110 604 _l
110 694 _l
284 729 _l
383 729 _l
383 83 _l
544 83 _l
544 0 _l
124 0 _l
124 83 _l
_cl}_d
/two{{636 0 73 0 536 742 _sc
192 83 _m
536 83 _l
536 0 _l
73 0 _l
73 83 _l
110 121 161 173 226 239 _c
290 304 331 346 348 365 _c
380 400 402 430 414 455 _c
426 479 433 504 433 528 _c
433 566 419 598 392 622 _c
365 646 330 659 286 659 _c
255 659 222 653 188 643 _c
154 632 117 616 78 594 _c
78 694 _l
118 710 155 722 189 730 _c
223 738 255 742 284 742 _c
}_e{359 742 419 723 464 685 _c
509 647 532 597 532 534 _c
532 504 526 475 515 449 _c
504 422 484 390 454 354 _c
446 344 420 317 376 272 _c
332 227 271 164 192 83 _c
_cl}_e}_d
/three{{636 0 76 -13 556 742 _sc
406 393 _m
453 383 490 362 516 330 _c
542 298 556 258 556 212 _c
556 140 531 84 482 45 _c
432 6 362 -13 271 -13 _c
240 -13 208 -10 176 -4 _c
144 1 110 10 76 22 _c
76 117 _l
103 101 133 89 166 81 _c
198 73 232 69 268 69 _c
330 69 377 81 409 105 _c
441 129 458 165 458 212 _c
458 254 443 288 413 312 _c
383 336 341 349 287 349 _c
}_e{202 349 _l
202 430 _l
291 430 _l
339 430 376 439 402 459 _c
428 478 441 506 441 543 _c
441 580 427 609 401 629 _c
374 649 336 659 287 659 _c
260 659 231 656 200 650 _c
169 644 135 635 98 623 _c
98 711 _l
135 721 170 729 203 734 _c
235 739 266 742 296 742 _c
370 742 429 725 473 691 _c
517 657 539 611 539 553 _c
539 513 527 479 504 451 _c
481 423 448 403 406 393 _c
_cl}_e}_d
/four{636 0 49 0 580 729 _sc
378 643 _m
129 254 _l
378 254 _l
378 643 _l
352 729 _m
476 729 _l
476 254 _l
580 254 _l
580 172 _l
476 172 _l
476 0 _l
378 0 _l
378 172 _l
49 172 _l
49 267 _l
352 729 _l
_cl}_d
/five{{636 0 77 -13 549 729 _sc
108 729 _m
495 729 _l
495 646 _l
198 646 _l
198 467 _l
212 472 227 476 241 478 _c
255 480 270 482 284 482 _c
365 482 429 459 477 415 _c
525 370 549 310 549 234 _c
549 155 524 94 475 51 _c
426 8 357 -13 269 -13 _c
238 -13 207 -10 175 -6 _c
143 -1 111 6 77 17 _c
77 116 _l
106 100 136 88 168 80 _c
199 72 232 69 267 69 _c
}_e{323 69 368 83 401 113 _c
433 143 450 183 450 234 _c
450 284 433 324 401 354 _c
368 384 323 399 267 399 _c
241 399 214 396 188 390 _c
162 384 135 375 108 363 _c
108 729 _l
_cl}_e}_d
/c{{550 0 55 -13 488 560 _sc
488 526 _m
488 442 _l
462 456 437 466 411 473 _c
385 480 360 484 334 484 _c
276 484 230 465 198 428 _c
166 391 150 339 150 273 _c
150 206 166 154 198 117 _c
230 80 276 62 334 62 _c
360 62 385 65 411 72 _c
437 79 462 90 488 104 _c
488 21 _l
462 9 436 0 410 -5 _c
383 -10 354 -13 324 -13 _c
242 -13 176 12 128 64 _c
}_e{79 115 55 185 55 273 _c
55 362 79 432 128 483 _c
177 534 244 560 330 560 _c
358 560 385 557 411 551 _c
437 545 463 537 488 526 _c
_cl}_e}_d
/m{{974 0 91 0 889 560 _sc
520 442 _m
542 482 569 511 600 531 _c
631 550 668 560 711 560 _c
767 560 811 540 842 500 _c
873 460 889 403 889 330 _c
889 0 _l
799 0 _l
799 327 _l
799 379 789 418 771 444 _c
752 469 724 482 686 482 _c
639 482 602 466 575 435 _c
548 404 535 362 535 309 _c
535 0 _l
445 0 _l
445 327 _l
445 379 435 418 417 444 _c
398 469 369 482 331 482 _c
}_e{285 482 248 466 221 435 _c
194 404 181 362 181 309 _c
181 0 _l
91 0 _l
91 547 _l
181 547 _l
181 462 _l
201 495 226 520 255 536 _c
283 552 317 560 357 560 _c
397 560 430 550 458 530 _c
486 510 506 480 520 442 _c
_cl}_e}_d
/s{{521 0 54 -13 472 560 _sc
443 531 _m
443 446 _l
417 458 391 468 364 475 _c
336 481 308 485 279 485 _c
234 485 200 478 178 464 _c
156 450 145 430 145 403 _c
145 382 153 366 169 354 _c
185 342 217 330 265 320 _c
296 313 _l
360 299 405 279 432 255 _c
458 230 472 195 472 151 _c
472 100 452 60 412 31 _c
372 1 316 -13 246 -13 _c
216 -13 186 -10 154 -5 _c
}_e{122 0 89 8 54 20 _c
54 113 _l
87 95 120 82 152 74 _c
184 65 216 61 248 61 _c
290 61 323 68 346 82 _c
368 96 380 117 380 144 _c
380 168 371 187 355 200 _c
339 213 303 226 247 238 _c
216 245 _l
160 257 119 275 95 299 _c
70 323 58 356 58 399 _c
58 450 76 490 112 518 _c
148 546 200 560 268 560 _c
301 560 332 557 362 552 _c
391 547 418 540 443 531 _c
}_e{_cl}_e}_d
/w{818 0 42 0 776 547 _sc
42 547 _m
132 547 _l
244 120 _l
356 547 _l
462 547 _l
574 120 _l
686 547 _l
776 547 _l
633 0 _l
527 0 _l
409 448 _l
291 0 _l
185 0 _l
42 547 _l
_cl}_d
/z{525 0 43 0 482 547 _sc
55 547 _m
482 547 _l
482 465 _l
144 72 _l
482 72 _l
482 0 _l
43 0 _l
43 82 _l
381 475 _l
55 475 _l
55 547 _l
_cl}_d
end readonly def

/BuildGlyph
 {exch begin
 CharStrings exch
 2 copy known not{pop /.notdef}if
 true 3 1 roll get exec
 end}_d

/BuildChar {
 1 index /Encoding get exch get
 1 index /BuildGlyph get exec
}_d

FontName currentdict end definefont pop
end
%%EndProlog
%%Page: 1 1
mpldict begin
-54 180 translate
720 432 0 0 clipbox
gsave
0 0 m
720 0 l
720 432 l
0 432 l
cl
1.000 setgray
fill
grestore
gsave
90 54 m
648 54 l
648 380.16 l
90 380.16 l
cl
1.000 setgray
fill
grestore
0.800 setlinewidth
1 setlinejoin
0 setlinecap
[] 0 setdash
0.000 setgray
gsave
/o {
gsave
newpath
translate
0.8 setlinewidth
1 setlinejoin
0 setlinecap
0 0 m
0 -3.5 l

gsave
0.000 setgray
fill
grestore
stroke
grestore
} bind def
115.364 54 o
grestore
/DejaVuSans findfont
10.000 scalefont
setfont
gsave
112.183949 39.406250 translate
0.000000 rotate
0.000000 0 m /zero glyphshow
grestore
gsave
/o {
gsave
newpath
translate
0.8 setlinewidth
1 setlinejoin
0 setlinecap
0 0 m
0 -3.5 l

gsave
0.000 setgray
fill
grestore
stroke
grestore
} bind def
216.891 54 o
grestore
gsave
207.352211 39.406250 translate
0.000000 rotate
0.000000 0 m /one glyphshow
6.362305 0 m /zero glyphshow
12.724609 0 m /zero glyphshow
grestore
gsave
/o {
gsave
newpath
translate
0.8 setlinewidth
1 setlinejoin
0 setlinecap
0 0 m
0 -3.5 l

gsave
0.000 setgray
fill
grestore
stroke
grestore
} bind def
318.419 54 o
grestore
gsave
308.879848 39.406250 translate
0.000000 rotate
0.000000 0 m /two glyphshow
6.362305 0 m /zero glyphshow
12.724609 0 m /zero glyphshow
grestore
gsave
/o {
gsave
newpath
translate
0.8 setlinewidth
1 setlinejoin
0 setlinecap
0 0 m
0 -3.5 l

gsave
0.000 setgray
fill
grestore
stroke
grestore
} bind def
419.947 54 o
grestore
gsave
410.407486 39.406250 translate
0.000000 rotate
0.000000 0 m /three glyphshow
6.362305 0 m /zero glyphshow
12.724609 0 m /zero glyphshow
grestore
gsave
/o {
gsave
newpath
translate
0.8 setlinewidth
1 setlinejoin
0 setlinecap
0 0 m
0 -3.5 l

gsave
0.000 setgray
fill
grestore
stroke
grestore
} bind def
521.474 54 o
grestore
gsave
511.935123 39.406250 translate
0.000000 rotate
0.000000 0 m /four glyphshow
6.362305 0 m /zero glyphshow
12.724609 0 m /zero glyphshow
grestore
gsave
/o {
gsave
newpath
translate
0.8 setlinewidth
1 setlinejoin
0 setlinecap
0 0 m
0 -3.5 l

gsave
0.000 setgray
fill
grestore
stroke
grestore
} bind def
623.002 54 o
grestore
gsave
613.462760 39.406250 translate
0.000000 rotate
0.000000 0 m /five glyphshow
6.362305 0 m /zero glyphshow
12.724609 0 m /zero glyphshow
grestore
gsave
361.515625 25.734375 translate
0.000000 rotate
0.000000 0 m /m glyphshow
9.741211 0 m /s glyphshow
grestore
gsave
/o {
gsave
newpath
translate
0.8 setlinewidth
1 setlinejoin
0 setlinecap
0 0 m
-3.5 0 l

gsave
0.000 setgray
fill
grestore
stroke
grestore
} bind def
90 62.2698 o
grestore
gsave
76.640625 58.472907 translate
0.000000 rotate
0.000000 0 m /zero glyphshow
grestore
gsave
/o {
gsave
newpath
translate
0.8 setlinewidth
1 setlinejoin
0 setlinecap
0 0 m
-3.5 0 l

gsave
0.000 setgray
fill
grestore
stroke
grestore
} bind def
90 127.827 o
grestore
gsave
70.281250 124.029628 translate
0.000000 rotate
0.000000 0 m /one glyphshow
6.362305 0 m /zero glyphshow
grestore
gsave
/o {
gsave
newpath
translate
0.8 setlinewidth
1 setlinejoin
0 setlinecap
0 0 m
-3.5 0 l

gsave
0.000 setgray
fill
grestore
stroke
grestore
} bind def
90 193.383 o
grestore
gsave
70.281250 189.586349 translate
0.000000 rotate
0.000000 0 m /two glyphshow
6.362305 0 m /zero glyphshow
grestore
gsave
/o {
gsave
newpath
translate
0.8 setlinewidth
1 setlinejoin
0 setlinecap
0 0 m
-3.5 0 l

gsave
0.000 setgray
fill
grestore
stroke
grestore
} bind def
90 258.94 o
grestore
gsave
70.281250 255.143070 translate
0.000000 rotate
0.000000 0 m /three glyphshow
6.362305 0 m /zero glyphshow
grestore
gsave
/o {
gsave
newpath
translate
0.8 setlinewidth
1 setlinejoin
0 setlinecap
0 0 m
-3.5 0 l

gsave
0.000 setgray
fill
grestore
stroke
grestore
} bind def
90 324.497 o
grestore
gsave
70.281250 320.699791 translate
0.000000 rotate
0.000000 0 m /four glyphshow
6.362305 0 m /zero glyphshow
grestore
2.000 setlinewidth
2 setlinecap
0.406 0.147 0.997 setrgbcolor
gsave
558 326.2 90 54 clipbox
115.363636 68.825455 m
119.70906 73.685884 l
131.405044 86.633746 l
149.436352 106.051514 l
166.492995 123.591169 l
176.239648 133.209973 l
190.859628 147.051117 l
200.606281 155.897617 l
213.27693 166.937478 l
227.409577 178.668217 l
238.618229 187.548016 l
246.902884 193.882305 l
261.522864 204.589596 l
271.269517 211.42243 l
286.376829 221.533205 l
300.996809 230.802802 l
309.281464 235.847566 l
318.540785 241.311116 l
329.262103 247.426874 l
333.648097 249.842685 l
343.882083 255.381807 l
361.426059 264.397378 l
380.432032 273.586396 l
399.438006 282.184924 l
429.165298 294.572874 l
448.658605 302.044882 l
464.740582 307.862236 l
480.335227 313.218092 l
504.70186 321.06413 l
531.505156 329.021722 l
542.713808 332.147397 l
554.897124 335.425728 l
567.567773 338.706792 l
580.238422 341.860378 l
589.497743 344.079923 l
609.478382 348.688273 l
613.377043 349.530622 l
621.661698 351.353395 l
622.636364 351.544602 l
622.636364 351.544602 l
stroke
grestore
0.049 0.759 0.908 setrgbcolor
gsave
558 326.2 90 54 clipbox
115.363636 68.825455 m
128.481048 87.109837 l
132.867042 92.957257 l
136.765703 97.99021 l
142.126362 104.836273 l
144.563025 107.852938 l
149.923685 114.385089 l
156.259009 121.87574 l
165.030997 131.846613 l
170.391656 137.714093 l
175.264983 142.944353 l
181.600308 149.540322 l
196.70762 164.466976 l
204.504942 171.759639 l
209.378269 176.196847 l
213.27693 179.65711 l
218.150257 183.92585 l
230.333573 194.173195 l
241.542225 203.138302 l
256.162204 214.203981 l
264.44686 220.177299 l
276.142843 228.304022 l
297.58548 242.257949 l
300.996809 244.359806 l
315.129456 252.849909 l
325.363442 258.720927 l
340.470754 267.016704 l
367.761383 280.921086 l
371.660044 282.790187 l
376.046038 284.881728 l
389.20402 290.965043 l
397.488675 294.649819 l
405.285998 298.039813 l
412.108655 300.934739 l
442.32328 312.992307 l
462.303919 320.339976 l
469.126576 322.736519 l
473.51257 324.260035 l
489.594548 329.661696 l
493.493209 330.917306 l
497.879203 332.328854 l
515.910511 337.922906 l
524.195167 340.388329 l
544.663138 346.202322 l
573.415765 353.797888 l
602.168392 360.750505 l
605.579721 361.524121 l
622.636364 365.334545 l
622.636364 365.334545 l
stroke
grestore
0.800 setlinewidth
0 setlinejoin
[] 0 setdash
0.000 setgray
gsave
90 54 m
90 380.16 l
stroke
grestore
gsave
648 54 m
648 380.16 l
stroke
grestore
gsave
90 54 m
648 54 l
stroke
grestore
gsave
90 380.16 m
648 380.16 l
stroke
grestore
1.000 setlinewidth
0 setlinecap
0.800 setgray
gsave
97 342.81625 m
167.015625 342.81625 l
168.348958 342.81625 169.015625 343.482917 169.015625 344.81625 c
169.015625 373.16 l
169.015625 374.493333 168.348958 375.16 167.015625 375.16 c
97 375.16 l
95.666667 375.16 95 374.493333 95 373.16 c
95 344.81625 l
95 343.482917 95.666667 342.81625 97 342.81625 c
cl
gsave
1.000 setgray
fill
grestore
stroke
grestore
2.000 setlinewidth
1 setlinejoin
2 setlinecap
[] 0 setdash
0.406 0.147 0.997 setrgbcolor
gsave
99 367.06625 m
119 367.06625 l
stroke
grestore
0.000 setgray
gsave
127.000000 363.566250 translate
0.000000 rotate
0.000000 0 m /z glyphshow
5.249023 0 m /c glyphshow
10.747070 0 m /w glyphshow
18.925781 0 m /zero glyphshow
25.288086 0 m /two glyphshow
31.650391 0 m /one glyphshow
grestore
0.049 0.759 0.908 setrgbcolor
gsave
99 352.394375 m
119 352.394375 l
stroke
grestore
0.000 setgray
gsave
127.000000 348.894375 translate
0.000000 rotate
0.000000 0 m /z glyphshow
5.249023 0 m /c glyphshow
10.747070 0 m /w glyphshow
18.925781 0 m /zero glyphshow
25.288086 0 m /three glyphshow
31.650391 0 m /four glyphshow
grestore

end
showpage
%%EOF
