%!PS-Adobe-3.0
%%DocumentPaperSizes: letter
%%Pages: 1
%%Title: assets/CE_TOTAPOL/eeH_e2_a0b60g150_H_xn2y2z1_p1ms_euler_angles_9p393T_inc40ns_buildup_enhancement.ps
%%Creator: matplotlib version 3.2.2, http://matplotlib.org/
%%CreationDate: Mon Aug 24 13:48:31 2020
%%Orientation: portrait
%%BoundingBox: -54.0 36.0 666.0 756.0
%%EndComments
%%BeginProlog
/mpldict 8 dict def
mpldict begin
/m { moveto } bind def
/l { lineto } bind def
/r { rlineto } bind def
/c { curveto } bind def
/cl { closepath } bind def
/box {
m
1 index 0 r
0 exch r
neg 0 r
cl
} bind def
/clipbox {
box
clip
newpath
} bind def
%!PS-Adobe-3.0 Resource-Font
%%Title: DejaVu Sans
%%Copyright: Copyright (c) 2003 by Bitstream, Inc. All Rights Reserved. Copyright (c) 2006 by Tavmjong Bah. All Rights Reserved. DejaVu changes are in public domain 
%%Creator: Converted from TrueType to type 3 by PPR
25 dict begin
/_d{bind def}bind def
/_m{moveto}_d
/_l{lineto}_d
/_cl{closepath eofill}_d
/_c{curveto}_d
/_sc{7 -1 roll{setcachedevice}{pop pop pop pop pop pop}ifelse}_d
/_e{exec}_d
/FontName /DejaVuSans def
/PaintType 0 def
/FontMatrix[.001 0 0 .001 0 0]def
/FontBBox[-1021 -463 1793 1232]def
/FontType 3 def
/Encoding [ /space /parenleft /parenright /period /zero /one /two /three /four /five /six /seven /eight /nine /M /T /a /b /c /d /e /g /i /m /n /o /s /x ] def
/FontInfo 10 dict dup begin
/FamilyName (DejaVu Sans) def
/FullName (DejaVu Sans) def
/Notice (Copyright (c) 2003 by Bitstream, Inc. All Rights Reserved. Copyright (c) 2006 by Tavmjong Bah. All Rights Reserved. DejaVu changes are in public domain ) def
/Weight (Book) def
/Version (Version 2.35) def
/ItalicAngle 0.0 def
/isFixedPitch false def
/UnderlinePosition -130 def
/UnderlineThickness 90 def
end readonly def
/CharStrings 29 dict dup begin
/.notdef 0 def
/space{318 0 0 0 0 0 _sc
}_d
/parenleft{390 0 86 -131 310 759 _sc
310 759 _m
266 683 234 609 213 536 _c
191 463 181 389 181 314 _c
181 238 191 164 213 91 _c
234 17 266 -56 310 -131 _c
232 -131 _l
183 -54 146 20 122 94 _c
98 168 86 241 86 314 _c
86 386 98 459 122 533 _c
146 607 182 682 232 759 _c
310 759 _l
_cl}_d
/parenright{390 0 80 -131 304 759 _sc
80 759 _m
158 759 _l
206 682 243 607 267 533 _c
291 459 304 386 304 314 _c
304 241 291 168 267 94 _c
243 20 206 -54 158 -131 _c
80 -131 _l
123 -56 155 17 177 91 _c
198 164 209 238 209 314 _c
209 389 198 463 177 536 _c
155 609 123 683 80 759 _c
_cl}_d
/period{318 0 107 0 210 124 _sc
107 124 _m
210 124 _l
210 0 _l
107 0 _l
107 124 _l
_cl}_d
/zero{636 0 66 -13 570 742 _sc
318 664 _m
267 664 229 639 203 589 _c
177 539 165 464 165 364 _c
165 264 177 189 203 139 _c
229 89 267 64 318 64 _c
369 64 407 89 433 139 _c
458 189 471 264 471 364 _c
471 464 458 539 433 589 _c
407 639 369 664 318 664 _c
318 742 _m
399 742 461 709 505 645 _c
548 580 570 486 570 364 _c
570 241 548 147 505 83 _c
461 19 399 -13 318 -13 _c
236 -13 173 19 130 83 _c
87 147 66 241 66 364 _c
66 486 87 580 130 645 _c
173 709 236 742 318 742 _c
_cl}_d
/one{636 0 110 0 544 729 _sc
124 83 _m
285 83 _l
285 639 _l
110 604 _l
110 694 _l
284 729 _l
383 729 _l
383 83 _l
544 83 _l
544 0 _l
124 0 _l
124 83 _l
_cl}_d
/two{{636 0 73 0 536 742 _sc
192 83 _m
536 83 _l
536 0 _l
73 0 _l
73 83 _l
110 121 161 173 226 239 _c
290 304 331 346 348 365 _c
380 400 402 430 414 455 _c
426 479 433 504 433 528 _c
433 566 419 598 392 622 _c
365 646 330 659 286 659 _c
255 659 222 653 188 643 _c
154 632 117 616 78 594 _c
78 694 _l
118 710 155 722 189 730 _c
223 738 255 742 284 742 _c
}_e{359 742 419 723 464 685 _c
509 647 532 597 532 534 _c
532 504 526 475 515 449 _c
504 422 484 390 454 354 _c
446 344 420 317 376 272 _c
332 227 271 164 192 83 _c
_cl}_e}_d
/three{{636 0 76 -13 556 742 _sc
406 393 _m
453 383 490 362 516 330 _c
542 298 556 258 556 212 _c
556 140 531 84 482 45 _c
432 6 362 -13 271 -13 _c
240 -13 208 -10 176 -4 _c
144 1 110 10 76 22 _c
76 117 _l
103 101 133 89 166 81 _c
198 73 232 69 268 69 _c
330 69 377 81 409 105 _c
441 129 458 165 458 212 _c
458 254 443 288 413 312 _c
383 336 341 349 287 349 _c
}_e{202 349 _l
202 430 _l
291 430 _l
339 430 376 439 402 459 _c
428 478 441 506 441 543 _c
441 580 427 609 401 629 _c
374 649 336 659 287 659 _c
260 659 231 656 200 650 _c
169 644 135 635 98 623 _c
98 711 _l
135 721 170 729 203 734 _c
235 739 266 742 296 742 _c
370 742 429 725 473 691 _c
517 657 539 611 539 553 _c
539 513 527 479 504 451 _c
481 423 448 403 406 393 _c
_cl}_e}_d
/four{636 0 49 0 580 729 _sc
378 643 _m
129 254 _l
378 254 _l
378 643 _l
352 729 _m
476 729 _l
476 254 _l
580 254 _l
580 172 _l
476 172 _l
476 0 _l
378 0 _l
378 172 _l
49 172 _l
49 267 _l
352 729 _l
_cl}_d
/five{{636 0 77 -13 549 729 _sc
108 729 _m
495 729 _l
495 646 _l
198 646 _l
198 467 _l
212 472 227 476 241 478 _c
255 480 270 482 284 482 _c
365 482 429 459 477 415 _c
525 370 549 310 549 234 _c
549 155 524 94 475 51 _c
426 8 357 -13 269 -13 _c
238 -13 207 -10 175 -6 _c
143 -1 111 6 77 17 _c
77 116 _l
106 100 136 88 168 80 _c
199 72 232 69 267 69 _c
}_e{323 69 368 83 401 113 _c
433 143 450 183 450 234 _c
450 284 433 324 401 354 _c
368 384 323 399 267 399 _c
241 399 214 396 188 390 _c
162 384 135 375 108 363 _c
108 729 _l
_cl}_e}_d
/six{{636 0 70 -13 573 742 _sc
330 404 _m
286 404 251 388 225 358 _c
199 328 186 286 186 234 _c
186 181 199 139 225 109 _c
251 79 286 64 330 64 _c
374 64 409 79 435 109 _c
461 139 474 181 474 234 _c
474 286 461 328 435 358 _c
409 388 374 404 330 404 _c
526 713 _m
526 623 _l
501 635 476 644 451 650 _c
425 656 400 659 376 659 _c
310 659 260 637 226 593 _c
}_e{192 549 172 482 168 394 _c
187 422 211 444 240 459 _c
269 474 301 482 336 482 _c
409 482 467 459 509 415 _c
551 371 573 310 573 234 _c
573 159 550 99 506 54 _c
462 9 403 -13 330 -13 _c
246 -13 181 19 137 83 _c
92 147 70 241 70 364 _c
70 479 97 571 152 639 _c
206 707 280 742 372 742 _c
396 742 421 739 447 735 _c
472 730 498 723 526 713 _c
_cl}_e}_d
/seven{636 0 82 0 551 729 _sc
82 729 _m
551 729 _l
551 687 _l
286 0 _l
183 0 _l
432 646 _l
82 646 _l
82 729 _l
_cl}_d
/eight{{636 0 68 -13 568 742 _sc
318 346 _m
271 346 234 333 207 308 _c
180 283 167 249 167 205 _c
167 161 180 126 207 101 _c
234 76 271 64 318 64 _c
364 64 401 76 428 102 _c
455 127 469 161 469 205 _c
469 249 455 283 429 308 _c
402 333 365 346 318 346 _c
219 388 _m
177 398 144 418 120 447 _c
96 476 85 511 85 553 _c
85 611 105 657 147 691 _c
188 725 245 742 318 742 _c
}_e{390 742 447 725 489 691 _c
530 657 551 611 551 553 _c
551 511 539 476 515 447 _c
491 418 459 398 417 388 _c
464 377 501 355 528 323 _c
554 291 568 251 568 205 _c
568 134 546 80 503 43 _c
459 5 398 -13 318 -13 _c
237 -13 175 5 132 43 _c
89 80 68 134 68 205 _c
68 251 81 291 108 323 _c
134 355 171 377 219 388 _c
183 544 _m
183 506 194 476 218 455 _c
}_e{242 434 275 424 318 424 _c
360 424 393 434 417 455 _c
441 476 453 506 453 544 _c
453 582 441 611 417 632 _c
393 653 360 664 318 664 _c
275 664 242 653 218 632 _c
194 611 183 582 183 544 _c
_cl}_e}_d
/nine{{636 0 63 -13 566 742 _sc
110 15 _m
110 105 _l
134 93 159 84 185 78 _c
210 72 235 69 260 69 _c
324 69 374 90 408 134 _c
442 178 462 244 468 334 _c
448 306 424 284 396 269 _c
367 254 335 247 300 247 _c
226 247 168 269 126 313 _c
84 357 63 417 63 494 _c
63 568 85 628 129 674 _c
173 719 232 742 306 742 _c
390 742 455 709 499 645 _c
543 580 566 486 566 364 _c
}_e{566 248 538 157 484 89 _c
429 21 356 -13 264 -13 _c
239 -13 214 -10 189 -6 _c
163 -2 137 5 110 15 _c
306 324 _m
350 324 385 339 411 369 _c
437 399 450 441 450 494 _c
450 546 437 588 411 618 _c
385 648 350 664 306 664 _c
262 664 227 648 201 618 _c
175 588 162 546 162 494 _c
162 441 175 399 201 369 _c
227 339 262 324 306 324 _c
_cl}_e}_d
/M{863 0 98 0 765 729 _sc
98 729 _m
245 729 _l
431 233 _l
618 729 _l
765 729 _l
765 0 _l
669 0 _l
669 640 _l
481 140 _l
382 140 _l
194 640 _l
194 0 _l
98 0 _l
98 729 _l
_cl}_d
/T{611 0 -2 0 614 729 _sc
-2 729 _m
614 729 _l
614 646 _l
355 646 _l
355 0 _l
256 0 _l
256 646 _l
-2 646 _l
-2 729 _l
_cl}_d
/a{{613 0 60 -13 522 560 _sc
343 275 _m
270 275 220 266 192 250 _c
164 233 150 205 150 165 _c
150 133 160 107 181 89 _c
202 70 231 61 267 61 _c
317 61 357 78 387 114 _c
417 149 432 196 432 255 _c
432 275 _l
343 275 _l
522 312 _m
522 0 _l
432 0 _l
432 83 _l
411 49 385 25 355 10 _c
325 -5 287 -13 243 -13 _c
187 -13 142 2 109 33 _c
76 64 60 106 60 159 _c
}_e{60 220 80 266 122 298 _c
163 329 224 345 306 345 _c
432 345 _l
432 354 _l
432 395 418 427 391 450 _c
364 472 326 484 277 484 _c
245 484 215 480 185 472 _c
155 464 127 453 100 439 _c
100 522 _l
132 534 164 544 195 550 _c
226 556 256 560 286 560 _c
365 560 424 539 463 498 _c
502 457 522 395 522 312 _c
_cl}_e}_d
/b{{635 0 91 -13 580 760 _sc
487 273 _m
487 339 473 390 446 428 _c
418 466 381 485 334 485 _c
286 485 249 466 222 428 _c
194 390 181 339 181 273 _c
181 207 194 155 222 117 _c
249 79 286 61 334 61 _c
381 61 418 79 446 117 _c
473 155 487 207 487 273 _c
181 464 _m
199 496 223 520 252 536 _c
281 552 316 560 356 560 _c
422 560 476 533 518 481 _c
559 428 580 359 580 273 _c
}_e{580 187 559 117 518 65 _c
476 13 422 -13 356 -13 _c
316 -13 281 -5 252 10 _c
223 25 199 49 181 82 _c
181 0 _l
91 0 _l
91 760 _l
181 760 _l
181 464 _l
_cl}_e}_d
/c{{550 0 55 -13 488 560 _sc
488 526 _m
488 442 _l
462 456 437 466 411 473 _c
385 480 360 484 334 484 _c
276 484 230 465 198 428 _c
166 391 150 339 150 273 _c
150 206 166 154 198 117 _c
230 80 276 62 334 62 _c
360 62 385 65 411 72 _c
437 79 462 90 488 104 _c
488 21 _l
462 9 436 0 410 -5 _c
383 -10 354 -13 324 -13 _c
242 -13 176 12 128 64 _c
}_e{79 115 55 185 55 273 _c
55 362 79 432 128 483 _c
177 534 244 560 330 560 _c
358 560 385 557 411 551 _c
437 545 463 537 488 526 _c
_cl}_e}_d
/d{{635 0 55 -13 544 760 _sc
454 464 _m
454 760 _l
544 760 _l
544 0 _l
454 0 _l
454 82 _l
435 49 411 25 382 10 _c
353 -5 319 -13 279 -13 _c
213 -13 159 13 117 65 _c
75 117 55 187 55 273 _c
55 359 75 428 117 481 _c
159 533 213 560 279 560 _c
319 560 353 552 382 536 _c
411 520 435 496 454 464 _c
148 273 _m
148 207 161 155 188 117 _c
215 79 253 61 301 61 _c
}_e{348 61 385 79 413 117 _c
440 155 454 207 454 273 _c
454 339 440 390 413 428 _c
385 466 348 485 301 485 _c
253 485 215 466 188 428 _c
161 390 148 339 148 273 _c
_cl}_e}_d
/e{{615 0 55 -13 562 560 _sc
562 296 _m
562 252 _l
149 252 _l
153 190 171 142 205 110 _c
238 78 284 62 344 62 _c
378 62 412 66 444 74 _c
476 82 509 95 541 113 _c
541 28 _l
509 14 476 3 442 -3 _c
408 -9 373 -13 339 -13 _c
251 -13 182 12 131 62 _c
80 112 55 181 55 268 _c
55 357 79 428 127 481 _c
175 533 241 560 323 560 _c
397 560 455 536 498 489 _c
}_e{540 441 562 377 562 296 _c
472 322 _m
471 371 457 410 431 440 _c
404 469 368 484 324 484 _c
274 484 234 469 204 441 _c
174 413 156 373 152 322 _c
472 322 _l
_cl}_e}_d
/g{{635 0 55 -207 544 560 _sc
454 280 _m
454 344 440 395 414 431 _c
387 467 349 485 301 485 _c
253 485 215 467 188 431 _c
161 395 148 344 148 280 _c
148 215 161 165 188 129 _c
215 93 253 75 301 75 _c
349 75 387 93 414 129 _c
440 165 454 215 454 280 _c
544 68 _m
544 -24 523 -93 482 -139 _c
440 -184 377 -207 292 -207 _c
260 -207 231 -204 203 -200 _c
175 -195 147 -188 121 -178 _c
}_e{121 -91 _l
147 -105 173 -115 199 -122 _c
225 -129 251 -133 278 -133 _c
336 -133 380 -117 410 -87 _c
439 -56 454 -10 454 52 _c
454 96 _l
435 64 411 40 382 24 _c
353 8 319 0 279 0 _c
211 0 157 25 116 76 _c
75 127 55 195 55 280 _c
55 364 75 432 116 483 _c
157 534 211 560 279 560 _c
319 560 353 552 382 536 _c
411 520 435 496 454 464 _c
454 547 _l
544 547 _l
}_e{544 68 _l
_cl}_e}_d
/i{278 0 94 0 184 760 _sc
94 547 _m
184 547 _l
184 0 _l
94 0 _l
94 547 _l
94 760 _m
184 760 _l
184 646 _l
94 646 _l
94 760 _l
_cl}_d
/m{{974 0 91 0 889 560 _sc
520 442 _m
542 482 569 511 600 531 _c
631 550 668 560 711 560 _c
767 560 811 540 842 500 _c
873 460 889 403 889 330 _c
889 0 _l
799 0 _l
799 327 _l
799 379 789 418 771 444 _c
752 469 724 482 686 482 _c
639 482 602 466 575 435 _c
548 404 535 362 535 309 _c
535 0 _l
445 0 _l
445 327 _l
445 379 435 418 417 444 _c
398 469 369 482 331 482 _c
}_e{285 482 248 466 221 435 _c
194 404 181 362 181 309 _c
181 0 _l
91 0 _l
91 547 _l
181 547 _l
181 462 _l
201 495 226 520 255 536 _c
283 552 317 560 357 560 _c
397 560 430 550 458 530 _c
486 510 506 480 520 442 _c
_cl}_e}_d
/n{634 0 91 0 549 560 _sc
549 330 _m
549 0 _l
459 0 _l
459 327 _l
459 379 448 417 428 443 _c
408 469 378 482 338 482 _c
289 482 251 466 223 435 _c
195 404 181 362 181 309 _c
181 0 _l
91 0 _l
91 547 _l
181 547 _l
181 462 _l
202 494 227 519 257 535 _c
286 551 320 560 358 560 _c
420 560 468 540 500 501 _c
532 462 549 405 549 330 _c
_cl}_d
/o{612 0 55 -13 557 560 _sc
306 484 _m
258 484 220 465 192 427 _c
164 389 150 338 150 273 _c
150 207 163 156 191 118 _c
219 80 257 62 306 62 _c
354 62 392 80 420 118 _c
448 156 462 207 462 273 _c
462 337 448 389 420 427 _c
392 465 354 484 306 484 _c
306 560 _m
384 560 445 534 490 484 _c
534 433 557 363 557 273 _c
557 183 534 113 490 63 _c
445 12 384 -13 306 -13 _c
227 -13 165 12 121 63 _c
77 113 55 183 55 273 _c
55 363 77 433 121 484 _c
165 534 227 560 306 560 _c
_cl}_d
/s{{521 0 54 -13 472 560 _sc
443 531 _m
443 446 _l
417 458 391 468 364 475 _c
336 481 308 485 279 485 _c
234 485 200 478 178 464 _c
156 450 145 430 145 403 _c
145 382 153 366 169 354 _c
185 342 217 330 265 320 _c
296 313 _l
360 299 405 279 432 255 _c
458 230 472 195 472 151 _c
472 100 452 60 412 31 _c
372 1 316 -13 246 -13 _c
216 -13 186 -10 154 -5 _c
}_e{122 0 89 8 54 20 _c
54 113 _l
87 95 120 82 152 74 _c
184 65 216 61 248 61 _c
290 61 323 68 346 82 _c
368 96 380 117 380 144 _c
380 168 371 187 355 200 _c
339 213 303 226 247 238 _c
216 245 _l
160 257 119 275 95 299 _c
70 323 58 356 58 399 _c
58 450 76 490 112 518 _c
148 546 200 560 268 560 _c
301 560 332 557 362 552 _c
391 547 418 540 443 531 _c
}_e{_cl}_e}_d
/x{592 0 29 0 559 547 _sc
549 547 _m
351 281 _l
559 0 _l
453 0 _l
294 215 _l
135 0 _l
29 0 _l
241 286 _l
47 547 _l
153 547 _l
298 352 _l
443 547 _l
549 547 _l
_cl}_d
end readonly def

/BuildGlyph
 {exch begin
 CharStrings exch
 2 copy known not{pop /.notdef}if
 true 3 1 roll get exec
 end}_d

/BuildChar {
 1 index /Encoding get exch get
 1 index /BuildGlyph get exec
}_d

FontName currentdict end definefont pop
end
%%EndProlog
%%Page: 1 1
mpldict begin
-54 36 translate
720 720 0 0 clipbox
gsave
0 0 m
720 0 l
720 720 l
0 720 l
cl
1.000 setgray
fill
grestore
gsave
90 386.509091 m
648 386.509091 l
648 633.6 l
90 633.6 l
cl
1.000 setgray
fill
grestore
0.800 setlinewidth
1 setlinejoin
0 setlinecap
[] 0 setdash
0.000 setgray
gsave
/o {
gsave
newpath
translate
0.8 setlinewidth
1 setlinejoin
0 setlinecap
0 0 m
0 -3.5 l

gsave
0.000 setgray
fill
grestore
stroke
grestore
} bind def
115.364 386.509 o
grestore
/DejaVuSans findfont
10.000 scalefont
setfont
gsave
107.410511 371.915341 translate
0.000000 rotate
0.000000 0 m /zero glyphshow
6.362305 0 m /period glyphshow
9.541016 0 m /zero glyphshow
grestore
gsave
/o {
gsave
newpath
translate
0.8 setlinewidth
1 setlinejoin
0 setlinecap
0 0 m
0 -3.5 l

gsave
0.000 setgray
fill
grestore
stroke
grestore
} bind def
216.818 386.509 o
grestore
gsave
208.865057 371.915341 translate
0.000000 rotate
0.000000 0 m /zero glyphshow
6.362305 0 m /period glyphshow
9.541016 0 m /two glyphshow
grestore
gsave
/o {
gsave
newpath
translate
0.8 setlinewidth
1 setlinejoin
0 setlinecap
0 0 m
0 -3.5 l

gsave
0.000 setgray
fill
grestore
stroke
grestore
} bind def
318.273 386.509 o
grestore
gsave
310.319602 371.915341 translate
0.000000 rotate
0.000000 0 m /zero glyphshow
6.362305 0 m /period glyphshow
9.541016 0 m /four glyphshow
grestore
gsave
/o {
gsave
newpath
translate
0.8 setlinewidth
1 setlinejoin
0 setlinecap
0 0 m
0 -3.5 l

gsave
0.000 setgray
fill
grestore
stroke
grestore
} bind def
419.727 386.509 o
grestore
gsave
411.774148 371.915341 translate
0.000000 rotate
0.000000 0 m /zero glyphshow
6.362305 0 m /period glyphshow
9.541016 0 m /six glyphshow
grestore
gsave
/o {
gsave
newpath
translate
0.8 setlinewidth
1 setlinejoin
0 setlinecap
0 0 m
0 -3.5 l

gsave
0.000 setgray
fill
grestore
stroke
grestore
} bind def
521.182 386.509 o
grestore
gsave
513.228693 371.915341 translate
0.000000 rotate
0.000000 0 m /zero glyphshow
6.362305 0 m /period glyphshow
9.541016 0 m /eight glyphshow
grestore
gsave
/o {
gsave
newpath
translate
0.8 setlinewidth
1 setlinejoin
0 setlinecap
0 0 m
0 -3.5 l

gsave
0.000 setgray
fill
grestore
stroke
grestore
} bind def
622.636 386.509 o
grestore
gsave
614.683239 371.915341 translate
0.000000 rotate
0.000000 0 m /one glyphshow
6.362305 0 m /period glyphshow
9.541016 0 m /zero glyphshow
grestore
gsave
/o {
gsave
newpath
translate
0.8 setlinewidth
1 setlinejoin
0 setlinecap
0 0 m
-3.5 0 l

gsave
0.000 setgray
fill
grestore
stroke
grestore
} bind def
90 407.768 o
grestore
gsave
76.640625 403.970813 translate
0.000000 rotate
0.000000 0 m /zero glyphshow
grestore
gsave
/o {
gsave
newpath
translate
0.8 setlinewidth
1 setlinejoin
0 setlinecap
0 0 m
-3.5 0 l

gsave
0.000 setgray
fill
grestore
stroke
grestore
} bind def
90 462.31 o
grestore
gsave
70.281250 458.513181 translate
0.000000 rotate
0.000000 0 m /five glyphshow
6.362305 0 m /zero glyphshow
grestore
gsave
/o {
gsave
newpath
translate
0.8 setlinewidth
1 setlinejoin
0 setlinecap
0 0 m
-3.5 0 l

gsave
0.000 setgray
fill
grestore
stroke
grestore
} bind def
90 516.852 o
grestore
gsave
63.921875 513.055549 translate
0.000000 rotate
0.000000 0 m /one glyphshow
6.362305 0 m /zero glyphshow
12.724609 0 m /zero glyphshow
grestore
gsave
/o {
gsave
newpath
translate
0.8 setlinewidth
1 setlinejoin
0 setlinecap
0 0 m
-3.5 0 l

gsave
0.000 setgray
fill
grestore
stroke
grestore
} bind def
90 571.395 o
grestore
gsave
63.921875 567.597917 translate
0.000000 rotate
0.000000 0 m /one glyphshow
6.362305 0 m /five glyphshow
12.724609 0 m /zero glyphshow
grestore
gsave
/o {
gsave
newpath
translate
0.8 setlinewidth
1 setlinejoin
0 setlinecap
0 0 m
-3.5 0 l

gsave
0.000 setgray
fill
grestore
stroke
grestore
} bind def
90 625.937 o
grestore
gsave
63.921875 622.140286 translate
0.000000 rotate
0.000000 0 m /two glyphshow
6.362305 0 m /zero glyphshow
12.724609 0 m /zero glyphshow
grestore
2.000 setlinewidth
2 setlinecap
0.406 0.147 0.997 setrgbcolor
gsave
558 247.1 90 386.5 clipbox
115.363636 408.858535 m
122.211818 411.768468 l
131.596364 415.538083 l
140.980909 419.06616 l
150.619091 422.447432 l
160.257273 425.59357 l
170.149091 428.589454 l
180.294545 431.429611 l
190.693636 434.110285 l
201.346364 436.629399 l
212.506364 439.038751 l
224.173636 441.324756 l
236.094546 443.434143 l
248.776364 445.448661 l
261.965455 447.316003 l
275.915455 449.063723 l
290.626364 450.680942 l
306.351818 452.183343 l
323.091818 453.558223 l
341.353636 454.830596 l
361.137273 455.981566 l
382.95 457.022014 l
407.045455 457.943778 l
434.184545 458.754267 l
465.128182 459.451277 l
501.398182 460.040122 l
545.277273 460.521834 l
600.57 460.895889 l
622.636364 460.996719 l
622.636364 460.996719 l
stroke
grestore
0.100 0.588 0.951 setrgbcolor
gsave
558 247.1 90 386.5 clipbox
115.363636 408.858535 m
145.8 409.898048 l
180.040909 410.856751 l
216.057273 411.641031 l
255.878182 412.281098 l
301.786364 412.789532 l
357.586364 413.176322 l
431.140909 413.450875 l
541.726364 413.619798 l
622.636364 413.665357 l
622.636364 413.665357 l
stroke
grestore
0.198 0.890 0.853 setrgbcolor
gsave
558 247.1 90 386.5 clipbox
115.363636 408.858535 m
117.9 412.511182 l
125.509091 423.15248 l
132.864545 433.063407 l
140.22 442.60601 l
147.575455 451.782593 l
154.930909 460.596682 l
162.032727 468.767209 l
169.134545 476.609167 l
176.236364 484.128366 l
183.338182 491.331292 l
190.44 498.225017 l
197.541818 504.817108 l
204.643636 511.115552 l
211.999091 517.33826 l
219.354546 523.264459 l
226.71 528.903932 l
234.065455 534.266619 l
241.674546 539.533638 l
249.283636 544.526328 l
256.892727 549.255801 l
264.755455 553.878114 l
272.618182 558.243164 l
280.734546 562.491706 l
288.850909 566.49144 l
297.220909 570.368705 l
305.844546 574.114478 l
314.721818 577.721064 l
323.599091 581.089226 l
332.73 584.319727 l
342.114546 587.408081 l
352.006364 590.425469 l
362.151818 593.283925 l
372.550909 595.983292 l
383.457273 598.582366 l
394.870909 601.068045 l
406.538182 603.381782 l
418.966364 605.615795 l
431.901818 607.711474 l
445.598182 609.700085 l
460.055455 611.568606 l
475.273636 613.307601 l
491.506364 614.934838 l
508.753636 616.43807 l
527.269091 617.82722 l
547.306364 619.105694 l
569.119091 620.272483 l
593.214545 621.334293 l
619.846364 622.281221 l
622.636364 622.368595 l
622.636364 622.368595 l
stroke
grestore
0.496 1.000 0.709 setrgbcolor
gsave
558 247.1 90 386.5 clipbox
115.363636 408.858535 m
136.669091 410.881645 l
163.047273 413.179981 l
190.693636 415.364688 l
219.861818 417.444011 l
250.551818 419.40614 l
283.017273 421.255952 l
317.258182 422.982877 l
353.781818 424.600844 l
392.841818 426.10684 l
434.945455 427.504899 l
480.6 428.794342 l
530.312727 429.971609 l
584.844545 431.036499 l
622.636364 431.65777 l
622.636364 431.65777 l
stroke
grestore
0.802 0.890 0.521 setrgbcolor
gsave
558 247.1 90 386.5 clipbox
115.363636 408.858535 m
187.65 409.487988 l
284.792727 410.121851 l
400.450909 410.646835 l
543.755455 411.065536 l
622.636364 411.221891 l
622.636364 411.221891 l
stroke
grestore
1.000 0.588 0.309 setrgbcolor
gsave
558 247.1 90 386.5 clipbox
115.363636 408.858535 m
128.299091 414.826922 l
139.712727 419.825079 l
151.126364 424.582605 l
162.793636 429.20811 l
174.714545 433.697134 l
186.889091 438.045906 l
199.317273 442.251335 l
211.999091 446.310994 l
225.188182 450.297581 l
238.630909 454.126866 l
252.327273 457.798769 l
266.530909 461.375675 l
281.241818 464.846908 l
296.206364 468.149085 l
311.678182 471.335712 l
327.657273 474.399801 l
344.143636 477.335675 l
361.390909 480.179146 l
379.145455 482.880594 l
397.660909 485.472544 l
416.937273 487.94603 l
437.228182 490.322381 l
458.28 492.562878 l
480.346364 494.687864 l
503.680909 496.709983 l
528.283636 498.616838 l
554.408182 500.415706 l
582.054545 502.094612 l
611.73 503.670538 l
622.636364 504.196791 l
622.636364 504.196791 l
stroke
grestore
1.000 0.147 0.074 setrgbcolor
gsave
558 247.1 90 386.5 clipbox
115.363636 408.858535 m
124.748182 408.131726 l
148.59 406.447813 l
172.939091 404.953698 l
198.049091 403.637606 l
224.427273 402.478568 l
252.834546 401.455729 l
283.778182 400.567535 l
318.272727 399.804388 l
357.586364 399.162446 l
404.001818 398.634894 l
460.816364 398.221169 l
534.878182 397.916631 l
622.636364 397.740496 l
622.636364 397.740496 l
stroke
grestore
0.800 setlinewidth
0 setlinejoin
[] 0 setdash
0.000 setgray
gsave
90 386.509091 m
90 633.6 l
stroke
grestore
gsave
648 386.509091 m
648 633.6 l
stroke
grestore
gsave
90 386.509091 m
648 386.509091 l
stroke
grestore
gsave
90 633.6 m
648 633.6 l
stroke
grestore
1.000 setlinewidth
0 setlinecap
0.800 setgray
gsave
97 522.896875 m
173.25 522.896875 l
174.583333 522.896875 175.25 523.563542 175.25 524.896875 c
175.25 626.6 l
175.25 627.933333 174.583333 628.6 173.25 628.6 c
97 628.6 l
95.666667 628.6 95 627.933333 95 626.6 c
95 524.896875 l
95 523.563542 95.666667 522.896875 97 522.896875 c
cl
gsave
1.000 setgray
fill
grestore
stroke
grestore
2.000 setlinewidth
1 setlinejoin
2 setlinecap
[] 0 setdash
0.406 0.147 0.997 setrgbcolor
gsave
99 620.50625 m
119 620.50625 l
stroke
grestore
0.000 setgray
gsave
127.000000 617.006250 translate
0.000000 rotate
0.000000 0 m /a glyphshow
6.127930 0 m /zero glyphshow
12.490234 0 m /b glyphshow
18.837891 0 m /zero glyphshow
25.200195 0 m /g glyphshow
31.547852 0 m /zero glyphshow
grestore
0.100 0.588 0.951 setrgbcolor
gsave
99 605.834375 m
119 605.834375 l
stroke
grestore
0.000 setgray
gsave
127.000000 602.334375 translate
0.000000 rotate
0.000000 0 m /a glyphshow
6.127930 0 m /zero glyphshow
12.490234 0 m /b glyphshow
18.837891 0 m /one glyphshow
25.200195 0 m /five glyphshow
31.562500 0 m /g glyphshow
37.910156 0 m /zero glyphshow
grestore
0.198 0.890 0.853 setrgbcolor
gsave
99 591.1625 m
119 591.1625 l
stroke
grestore
0.000 setgray
gsave
127.000000 587.662500 translate
0.000000 rotate
0.000000 0 m /a glyphshow
6.127930 0 m /zero glyphshow
12.490234 0 m /b glyphshow
18.837891 0 m /three glyphshow
25.200195 0 m /zero glyphshow
31.562500 0 m /g glyphshow
37.910156 0 m /zero glyphshow
grestore
0.496 1.000 0.709 setrgbcolor
gsave
99 576.490625 m
119 576.490625 l
stroke
grestore
0.000 setgray
gsave
127.000000 572.990625 translate
0.000000 rotate
0.000000 0 m /a glyphshow
6.127930 0 m /zero glyphshow
12.490234 0 m /b glyphshow
18.837891 0 m /four glyphshow
25.200195 0 m /five glyphshow
31.562500 0 m /g glyphshow
37.910156 0 m /zero glyphshow
grestore
0.802 0.890 0.521 setrgbcolor
gsave
99 561.81875 m
119 561.81875 l
stroke
grestore
0.000 setgray
gsave
127.000000 558.318750 translate
0.000000 rotate
0.000000 0 m /a glyphshow
6.127930 0 m /zero glyphshow
12.490234 0 m /b glyphshow
18.837891 0 m /six glyphshow
25.200195 0 m /zero glyphshow
31.562500 0 m /g glyphshow
37.910156 0 m /zero glyphshow
grestore
1.000 0.588 0.309 setrgbcolor
gsave
99 547.146875 m
119 547.146875 l
stroke
grestore
0.000 setgray
gsave
127.000000 543.646875 translate
0.000000 rotate
0.000000 0 m /a glyphshow
6.127930 0 m /zero glyphshow
12.490234 0 m /b glyphshow
18.837891 0 m /seven glyphshow
25.200195 0 m /five glyphshow
31.562500 0 m /g glyphshow
37.910156 0 m /zero glyphshow
grestore
1.000 0.147 0.074 setrgbcolor
gsave
99 532.475 m
119 532.475 l
stroke
grestore
0.000 setgray
gsave
127.000000 528.975000 translate
0.000000 rotate
0.000000 0 m /a glyphshow
6.127930 0 m /zero glyphshow
12.490234 0 m /b glyphshow
18.837891 0 m /nine glyphshow
25.200195 0 m /zero glyphshow
31.562500 0 m /g glyphshow
37.910156 0 m /zero glyphshow
grestore
gsave
90 90 m
648 90 l
648 337.090909 l
90 337.090909 l
cl
1.000 setgray
fill
grestore
0.800 setlinewidth
0 setlinecap
gsave
/o {
gsave
newpath
translate
0.8 setlinewidth
1 setlinejoin
0 setlinecap
0 0 m
0 -3.5 l

gsave
0.000 setgray
fill
grestore
stroke
grestore
} bind def
115.364 90 o
grestore
gsave
107.410511 75.406250 translate
0.000000 rotate
0.000000 0 m /zero glyphshow
6.362305 0 m /period glyphshow
9.541016 0 m /zero glyphshow
grestore
gsave
/o {
gsave
newpath
translate
0.8 setlinewidth
1 setlinejoin
0 setlinecap
0 0 m
0 -3.5 l

gsave
0.000 setgray
fill
grestore
stroke
grestore
} bind def
216.818 90 o
grestore
gsave
208.865057 75.406250 translate
0.000000 rotate
0.000000 0 m /zero glyphshow
6.362305 0 m /period glyphshow
9.541016 0 m /two glyphshow
grestore
gsave
/o {
gsave
newpath
translate
0.8 setlinewidth
1 setlinejoin
0 setlinecap
0 0 m
0 -3.5 l

gsave
0.000 setgray
fill
grestore
stroke
grestore
} bind def
318.273 90 o
grestore
gsave
310.319602 75.406250 translate
0.000000 rotate
0.000000 0 m /zero glyphshow
6.362305 0 m /period glyphshow
9.541016 0 m /four glyphshow
grestore
gsave
/o {
gsave
newpath
translate
0.8 setlinewidth
1 setlinejoin
0 setlinecap
0 0 m
0 -3.5 l

gsave
0.000 setgray
fill
grestore
stroke
grestore
} bind def
419.727 90 o
grestore
gsave
411.774148 75.406250 translate
0.000000 rotate
0.000000 0 m /zero glyphshow
6.362305 0 m /period glyphshow
9.541016 0 m /six glyphshow
grestore
gsave
/o {
gsave
newpath
translate
0.8 setlinewidth
1 setlinejoin
0 setlinecap
0 0 m
0 -3.5 l

gsave
0.000 setgray
fill
grestore
stroke
grestore
} bind def
521.182 90 o
grestore
gsave
513.228693 75.406250 translate
0.000000 rotate
0.000000 0 m /zero glyphshow
6.362305 0 m /period glyphshow
9.541016 0 m /eight glyphshow
grestore
gsave
/o {
gsave
newpath
translate
0.8 setlinewidth
1 setlinejoin
0 setlinecap
0 0 m
0 -3.5 l

gsave
0.000 setgray
fill
grestore
stroke
grestore
} bind def
622.636 90 o
grestore
gsave
614.683239 75.406250 translate
0.000000 rotate
0.000000 0 m /one glyphshow
6.362305 0 m /period glyphshow
9.541016 0 m /zero glyphshow
grestore
gsave
312.781250 61.734375 translate
0.000000 rotate
0.000000 0 m /M glyphshow
8.627930 0 m /i glyphshow
11.406250 0 m /x glyphshow
17.324219 0 m /i glyphshow
20.102539 0 m /n glyphshow
26.440430 0 m /g glyphshow
32.788086 0 m /space glyphshow
35.966797 0 m /T glyphshow
41.825195 0 m /i glyphshow
44.603516 0 m /m glyphshow
54.344727 0 m /e glyphshow
60.497070 0 m /space glyphshow
63.675781 0 m /parenleft glyphshow
67.577148 0 m /s glyphshow
72.787109 0 m /e glyphshow
78.939453 0 m /c glyphshow
84.437500 0 m /o glyphshow
90.555664 0 m /n glyphshow
96.893555 0 m /d glyphshow
103.241211 0 m /s glyphshow
108.451172 0 m /parenright glyphshow
grestore
gsave
/o {
gsave
newpath
translate
0.8 setlinewidth
1 setlinejoin
0 setlinecap
0 0 m
-3.5 0 l

gsave
0.000 setgray
fill
grestore
stroke
grestore
} bind def
90 119.015 o
grestore
gsave
76.640625 115.217866 translate
0.000000 rotate
0.000000 0 m /zero glyphshow
grestore
gsave
/o {
gsave
newpath
translate
0.8 setlinewidth
1 setlinejoin
0 setlinecap
0 0 m
-3.5 0 l

gsave
0.000 setgray
fill
grestore
stroke
grestore
} bind def
90 157.707 o
grestore
gsave
70.281250 153.910463 translate
0.000000 rotate
0.000000 0 m /two glyphshow
6.362305 0 m /zero glyphshow
grestore
gsave
/o {
gsave
newpath
translate
0.8 setlinewidth
1 setlinejoin
0 setlinecap
0 0 m
-3.5 0 l

gsave
0.000 setgray
fill
grestore
stroke
grestore
} bind def
90 196.4 o
grestore
gsave
70.281250 192.603061 translate
0.000000 rotate
0.000000 0 m /four glyphshow
6.362305 0 m /zero glyphshow
grestore
gsave
/o {
gsave
newpath
translate
0.8 setlinewidth
1 setlinejoin
0 setlinecap
0 0 m
-3.5 0 l

gsave
0.000 setgray
fill
grestore
stroke
grestore
} bind def
90 235.093 o
grestore
gsave
70.281250 231.295658 translate
0.000000 rotate
0.000000 0 m /six glyphshow
6.362305 0 m /zero glyphshow
grestore
gsave
/o {
gsave
newpath
translate
0.8 setlinewidth
1 setlinejoin
0 setlinecap
0 0 m
-3.5 0 l

gsave
0.000 setgray
fill
grestore
stroke
grestore
} bind def
90 273.785 o
grestore
gsave
70.281250 269.988255 translate
0.000000 rotate
0.000000 0 m /eight glyphshow
6.362305 0 m /zero glyphshow
grestore
gsave
/o {
gsave
newpath
translate
0.8 setlinewidth
1 setlinejoin
0 setlinecap
0 0 m
-3.5 0 l

gsave
0.000 setgray
fill
grestore
stroke
grestore
} bind def
90 312.478 o
grestore
gsave
63.921875 308.680852 translate
0.000000 rotate
0.000000 0 m /one glyphshow
6.362305 0 m /zero glyphshow
12.724609 0 m /zero glyphshow
grestore
2.000 setlinewidth
2 setlinecap
1.000 0.147 0.074 setrgbcolor
gsave
558 247.1 90 90 clipbox
115.363636 120.949371 m
120.943636 120.173623 l
138.951818 117.833663 l
156.96 115.718373 l
175.221818 113.795659 l
194.244545 112.018967 l
213.774546 110.418589 l
234.319091 108.958738 l
256.131818 107.633951 l
279.466364 106.442398 l
304.83 105.374557 l
332.476364 104.43661 l
363.42 103.614215 l
398.421818 102.911331 l
439.257273 102.320281 l
488.209091 101.841786 l
549.842727 101.471723 l
622.636364 101.231405 l
622.636364 101.231405 l
stroke
grestore
1.000 0.588 0.309 setrgbcolor
gsave
558 247.1 90 90 clipbox
115.363636 120.949371 m
135.654545 123.138204 l
160.257273 125.5812 l
185.874545 127.899946 l
212.76 130.108841 l
241.167273 132.216374 l
271.096364 134.21011 l
302.547273 136.080698 l
336.027273 137.84691 l
371.536364 139.495964 l
409.581818 141.038244 l
450.417273 142.469028 l
494.55 143.790563 l
542.740909 145.007189 l
595.497273 146.112313 l
622.636364 146.602057 l
622.636364 146.602057 l
stroke
grestore
0.802 0.890 0.521 setrgbcolor
gsave
558 247.1 90 90 clipbox
115.363636 120.949371 m
121.197273 128.931356 l
127.538182 137.242988 l
133.625455 144.86102 l
139.712727 152.12262 l
145.546364 158.747235 l
151.38 165.046721 l
157.213636 171.025076 l
163.047273 176.687919 l
168.880909 182.042265 l
174.714545 187.096317 l
180.548182 191.859263 l
186.381818 196.341078 l
192.215455 200.552349 l
198.302727 204.670214 l
204.39 208.518391 l
210.477273 212.109949 l
216.818182 215.592412 l
223.159091 218.825385 l
229.753636 221.938615 l
236.601818 224.919678 l
243.45 227.661177 l
250.551818 230.268988 l
257.907273 232.736155 l
265.516364 235.057753 l
273.632727 237.297316 l
282.002727 239.373744 l
290.88 241.342136 l
300.264546 243.187966 l
310.156364 244.900688 l
320.555455 246.473626 l
331.715455 247.934556 l
343.636364 249.27021 l
356.571818 250.494858 l
370.775455 251.612707 l
386.500909 252.621307 l
404.001818 253.514916 l
423.785455 254.296432 l
446.612727 254.968516 l
473.498182 255.529986 l
506.217273 255.982612 l
548.067273 256.328803 l
606.15 256.571158 l
622.636364 256.611011 l
622.636364 256.611011 l
stroke
grestore
0.496 1.000 0.709 setrgbcolor
gsave
558 247.1 90 90 clipbox
115.363636 120.949371 m
139.459091 123.078172 l
168.627273 125.454374 l
197.034545 127.546277 l
225.441818 129.415918 l
254.356364 131.095798 l
284.285455 132.60967 l
315.482727 133.96283 l
348.455455 135.168689 l
383.964545 136.241721 l
422.517273 137.18157 l
465.381818 138.000188 l
513.826364 138.698336 l
570.133636 139.281468 l
622.636364 139.663952 l
622.636364 139.663952 l
stroke
grestore
0.198 0.890 0.853 setrgbcolor
gsave
558 247.1 90 90 clipbox
115.363636 120.949371 m
143.01 123.297912 l
172.431818 125.583755 l
201.853636 127.645441 l
231.529091 129.5008 l
261.965455 131.179284 l
293.416364 132.690049 l
326.389091 134.050539 l
361.390909 135.271062 l
399.182727 136.363271 l
440.271818 137.325083 l
485.926364 138.166722 l
537.414545 138.888202 l
597.019091 139.49456 l
622.636364 139.696631 l
622.636364 139.696631 l
stroke
grestore
0.100 0.588 0.951 setrgbcolor
gsave
558 247.1 90 90 clipbox
115.363636 120.949371 m
122.211818 129.712047 l
126.016364 134.101865 l
129.820909 138.166767 l
133.625455 141.924969 l
137.683636 145.616123 l
141.741818 149.000699 l
145.8 152.099885 l
150.111818 155.102963 l
154.423636 157.830509 l
158.735455 160.304877 l
163.300909 162.672262 l
168.12 164.914763 l
173.192727 167.018386 l
178.519091 168.97306 l
184.099091 170.772514 l
189.932727 172.414053 l
196.02 173.898218 l
202.614545 175.27745 l
209.716364 176.534857 l
217.579091 177.694338 l
226.202727 178.732999 l
235.840909 179.659918 l
246.493636 180.457001 l
258.921818 181.155634 l
273.379091 181.737636 l
290.88 182.211329 l
312.946364 182.576915 l
343.129091 182.839453 l
389.798182 182.999265 l
488.209091 183.064863 l
622.636364 183.070695 l
622.636364 183.070695 l
stroke
grestore
0.406 0.147 0.997 setrgbcolor
gsave
558 247.1 90 90 clipbox
115.363636 120.949371 m
121.450909 128.758512 l
131.089091 140.826866 l
140.22 151.905957 l
148.843636 162.028838 l
157.213636 171.519458 l
165.33 180.394592 l
173.446364 188.937032 l
181.309091 196.8886 l
188.918182 204.27621 l
196.527273 211.359561 l
204.136364 218.138585 l
211.745455 224.614822 l
219.354546 230.79127 l
226.71 236.480907 l
234.065455 241.899339 l
241.674546 247.225394 l
249.283636 252.274686 l
256.892727 257.055199 l
264.501818 261.575507 l
272.364546 265.982734 l
280.227273 270.132125 l
288.09 274.034308 l
296.206364 277.814505 l
304.576364 281.461602 l
312.946364 284.866511 l
321.57 288.134915 l
330.447273 291.259815 l
339.578182 294.235735 l
348.962727 297.058713 l
358.600909 299.726252 l
368.746364 302.29878 l
379.145455 304.704166 l
390.051818 306.995574 l
401.465455 309.161769 l
413.386364 311.1943 l
425.814545 313.087446 l
439.003636 314.870333 l
452.953636 316.53053 l
467.918182 318.084149 l
483.897273 319.516319 l
501.144545 320.835359 l
519.913636 322.042992 l
540.458182 323.136742 l
563.031818 324.112276 l
588.395455 324.980923 l
617.056364 325.735611 l
622.636364 325.859504 l
622.636364 325.859504 l
stroke
grestore
0.800 setlinewidth
0 setlinejoin
[] 0 setdash
0.000 setgray
gsave
90 90 m
90 337.090909 l
stroke
grestore
gsave
648 90 m
648 337.090909 l
stroke
grestore
gsave
90 90 m
648 90 l
stroke
grestore
gsave
90 337.090909 m
648 337.090909 l
stroke
grestore
1.000 setlinewidth
0 setlinecap
0.800 setgray
gsave
97 226.387784 m
179.609375 226.387784 l
180.942708 226.387784 181.609375 227.054451 181.609375 228.387784 c
181.609375 330.090909 l
181.609375 331.424242 180.942708 332.090909 179.609375 332.090909 c
97 332.090909 l
95.666667 332.090909 95 331.424242 95 330.090909 c
95 228.387784 l
95 227.054451 95.666667 226.387784 97 226.387784 c
cl
gsave
1.000 setgray
fill
grestore
stroke
grestore
2.000 setlinewidth
1 setlinejoin
2 setlinecap
[] 0 setdash
1.000 0.147 0.074 setrgbcolor
gsave
99 323.997159 m
119 323.997159 l
stroke
grestore
0.000 setgray
gsave
127.000000 320.497159 translate
0.000000 rotate
0.000000 0 m /a glyphshow
6.127930 0 m /zero glyphshow
12.490234 0 m /b glyphshow
18.837891 0 m /nine glyphshow
25.200195 0 m /zero glyphshow
31.562500 0 m /g glyphshow
37.910156 0 m /zero glyphshow
grestore
1.000 0.588 0.309 setrgbcolor
gsave
99 309.325284 m
119 309.325284 l
stroke
grestore
0.000 setgray
gsave
127.000000 305.825284 translate
0.000000 rotate
0.000000 0 m /a glyphshow
6.127930 0 m /zero glyphshow
12.490234 0 m /b glyphshow
18.837891 0 m /one glyphshow
25.200195 0 m /zero glyphshow
31.562500 0 m /five glyphshow
37.924805 0 m /g glyphshow
44.272461 0 m /zero glyphshow
grestore
0.802 0.890 0.521 setrgbcolor
gsave
99 294.653409 m
119 294.653409 l
stroke
grestore
0.000 setgray
gsave
127.000000 291.153409 translate
0.000000 rotate
0.000000 0 m /a glyphshow
6.127930 0 m /zero glyphshow
12.490234 0 m /b glyphshow
18.837891 0 m /one glyphshow
25.200195 0 m /two glyphshow
31.562500 0 m /zero glyphshow
37.924805 0 m /g glyphshow
44.272461 0 m /zero glyphshow
grestore
0.496 1.000 0.709 setrgbcolor
gsave
99 279.981534 m
119 279.981534 l
stroke
grestore
0.000 setgray
gsave
127.000000 276.481534 translate
0.000000 rotate
0.000000 0 m /a glyphshow
6.127930 0 m /zero glyphshow
12.490234 0 m /b glyphshow
18.837891 0 m /one glyphshow
25.200195 0 m /three glyphshow
31.562500 0 m /five glyphshow
37.924805 0 m /g glyphshow
44.272461 0 m /zero glyphshow
grestore
0.198 0.890 0.853 setrgbcolor
gsave
99 265.309659 m
119 265.309659 l
stroke
grestore
0.000 setgray
gsave
127.000000 261.809659 translate
0.000000 rotate
0.000000 0 m /a glyphshow
6.127930 0 m /zero glyphshow
12.490234 0 m /b glyphshow
18.837891 0 m /one glyphshow
25.200195 0 m /five glyphshow
31.562500 0 m /zero glyphshow
37.924805 0 m /g glyphshow
44.272461 0 m /zero glyphshow
grestore
0.100 0.588 0.951 setrgbcolor
gsave
99 250.637784 m
119 250.637784 l
stroke
grestore
0.000 setgray
gsave
127.000000 247.137784 translate
0.000000 rotate
0.000000 0 m /a glyphshow
6.127930 0 m /zero glyphshow
12.490234 0 m /b glyphshow
18.837891 0 m /one glyphshow
25.200195 0 m /six glyphshow
31.562500 0 m /five glyphshow
37.924805 0 m /g glyphshow
44.272461 0 m /zero glyphshow
grestore
0.406 0.147 0.997 setrgbcolor
gsave
99 235.965909 m
119 235.965909 l
stroke
grestore
0.000 setgray
gsave
127.000000 232.465909 translate
0.000000 rotate
0.000000 0 m /a glyphshow
6.127930 0 m /zero glyphshow
12.490234 0 m /b glyphshow
18.837891 0 m /one glyphshow
25.200195 0 m /eight glyphshow
31.562500 0 m /zero glyphshow
37.924805 0 m /g glyphshow
44.272461 0 m /zero glyphshow
grestore

end
showpage
%%EOF
