%!PS-Adobe-3.0
%%DocumentPaperSizes: letter
%%Pages: 1
%%Title: assets/CE_TOTAPOL/eeH_e2_a0b60g150_H_xn2y2z1_a0b30g0_9p393T_zcws_scan1d_p.ps
%%Creator: matplotlib version 3.2.2, http://matplotlib.org/
%%CreationDate: Wed Aug 26 22:25:29 2020
%%Orientation: portrait
%%BoundingBox: -54.0 180.0 666.0 612.0
%%EndComments
%%BeginProlog
/mpldict 8 dict def
mpldict begin
/m { moveto } bind def
/l { lineto } bind def
/r { rlineto } bind def
/c { curveto } bind def
/cl { closepath } bind def
/box {
m
1 index 0 r
0 exch r
neg 0 r
cl
} bind def
/clipbox {
box
clip
newpath
} bind def
%!PS-Adobe-3.0 Resource-Font
%%Title: DejaVu Sans
%%Copyright: Copyright (c) 2003 by Bitstream, Inc. All Rights Reserved. Copyright (c) 2006 by Tavmjong Bah. All Rights Reserved. DejaVu changes are in public domain 
%%Creator: Converted from TrueType to type 3 by PPR
25 dict begin
/_d{bind def}bind def
/_m{moveto}_d
/_l{lineto}_d
/_cl{closepath eofill}_d
/_c{curveto}_d
/_sc{7 -1 roll{setcachedevice}{pop pop pop pop pop pop}ifelse}_d
/_e{exec}_d
/FontName /DejaVuSans def
/PaintType 0 def
/FontMatrix[.001 0 0 .001 0 0]def
/FontBBox[-1021 -463 1793 1232]def
/FontType 3 def
/Encoding [ /space /parenleft /parenright /one /two /three /four /five /six /seven /eight /nine /M /S /T /c /d /e /g /i /m /n /o /s /w /x /z ] def
/FontInfo 10 dict dup begin
/FamilyName (DejaVu Sans) def
/FullName (DejaVu Sans) def
/Notice (Copyright (c) 2003 by Bitstream, Inc. All Rights Reserved. Copyright (c) 2006 by Tavmjong Bah. All Rights Reserved. DejaVu changes are in public domain ) def
/Weight (Book) def
/Version (Version 2.35) def
/ItalicAngle 0.0 def
/isFixedPitch false def
/UnderlinePosition -130 def
/UnderlineThickness 90 def
end readonly def
/CharStrings 28 dict dup begin
/.notdef 0 def
/space{318 0 0 0 0 0 _sc
}_d
/parenleft{390 0 86 -131 310 759 _sc
310 759 _m
266 683 234 609 213 536 _c
191 463 181 389 181 314 _c
181 238 191 164 213 91 _c
234 17 266 -56 310 -131 _c
232 -131 _l
183 -54 146 20 122 94 _c
98 168 86 241 86 314 _c
86 386 98 459 122 533 _c
146 607 182 682 232 759 _c
310 759 _l
_cl}_d
/parenright{390 0 80 -131 304 759 _sc
80 759 _m
158 759 _l
206 682 243 607 267 533 _c
291 459 304 386 304 314 _c
304 241 291 168 267 94 _c
243 20 206 -54 158 -131 _c
80 -131 _l
123 -56 155 17 177 91 _c
198 164 209 238 209 314 _c
209 389 198 463 177 536 _c
155 609 123 683 80 759 _c
_cl}_d
/one{636 0 110 0 544 729 _sc
124 83 _m
285 83 _l
285 639 _l
110 604 _l
110 694 _l
284 729 _l
383 729 _l
383 83 _l
544 83 _l
544 0 _l
124 0 _l
124 83 _l
_cl}_d
/two{{636 0 73 0 536 742 _sc
192 83 _m
536 83 _l
536 0 _l
73 0 _l
73 83 _l
110 121 161 173 226 239 _c
290 304 331 346 348 365 _c
380 400 402 430 414 455 _c
426 479 433 504 433 528 _c
433 566 419 598 392 622 _c
365 646 330 659 286 659 _c
255 659 222 653 188 643 _c
154 632 117 616 78 594 _c
78 694 _l
118 710 155 722 189 730 _c
223 738 255 742 284 742 _c
}_e{359 742 419 723 464 685 _c
509 647 532 597 532 534 _c
532 504 526 475 515 449 _c
504 422 484 390 454 354 _c
446 344 420 317 376 272 _c
332 227 271 164 192 83 _c
_cl}_e}_d
/three{{636 0 76 -13 556 742 _sc
406 393 _m
453 383 490 362 516 330 _c
542 298 556 258 556 212 _c
556 140 531 84 482 45 _c
432 6 362 -13 271 -13 _c
240 -13 208 -10 176 -4 _c
144 1 110 10 76 22 _c
76 117 _l
103 101 133 89 166 81 _c
198 73 232 69 268 69 _c
330 69 377 81 409 105 _c
441 129 458 165 458 212 _c
458 254 443 288 413 312 _c
383 336 341 349 287 349 _c
}_e{202 349 _l
202 430 _l
291 430 _l
339 430 376 439 402 459 _c
428 478 441 506 441 543 _c
441 580 427 609 401 629 _c
374 649 336 659 287 659 _c
260 659 231 656 200 650 _c
169 644 135 635 98 623 _c
98 711 _l
135 721 170 729 203 734 _c
235 739 266 742 296 742 _c
370 742 429 725 473 691 _c
517 657 539 611 539 553 _c
539 513 527 479 504 451 _c
481 423 448 403 406 393 _c
_cl}_e}_d
/four{636 0 49 0 580 729 _sc
378 643 _m
129 254 _l
378 254 _l
378 643 _l
352 729 _m
476 729 _l
476 254 _l
580 254 _l
580 172 _l
476 172 _l
476 0 _l
378 0 _l
378 172 _l
49 172 _l
49 267 _l
352 729 _l
_cl}_d
/five{{636 0 77 -13 549 729 _sc
108 729 _m
495 729 _l
495 646 _l
198 646 _l
198 467 _l
212 472 227 476 241 478 _c
255 480 270 482 284 482 _c
365 482 429 459 477 415 _c
525 370 549 310 549 234 _c
549 155 524 94 475 51 _c
426 8 357 -13 269 -13 _c
238 -13 207 -10 175 -6 _c
143 -1 111 6 77 17 _c
77 116 _l
106 100 136 88 168 80 _c
199 72 232 69 267 69 _c
}_e{323 69 368 83 401 113 _c
433 143 450 183 450 234 _c
450 284 433 324 401 354 _c
368 384 323 399 267 399 _c
241 399 214 396 188 390 _c
162 384 135 375 108 363 _c
108 729 _l
_cl}_e}_d
/six{{636 0 70 -13 573 742 _sc
330 404 _m
286 404 251 388 225 358 _c
199 328 186 286 186 234 _c
186 181 199 139 225 109 _c
251 79 286 64 330 64 _c
374 64 409 79 435 109 _c
461 139 474 181 474 234 _c
474 286 461 328 435 358 _c
409 388 374 404 330 404 _c
526 713 _m
526 623 _l
501 635 476 644 451 650 _c
425 656 400 659 376 659 _c
310 659 260 637 226 593 _c
}_e{192 549 172 482 168 394 _c
187 422 211 444 240 459 _c
269 474 301 482 336 482 _c
409 482 467 459 509 415 _c
551 371 573 310 573 234 _c
573 159 550 99 506 54 _c
462 9 403 -13 330 -13 _c
246 -13 181 19 137 83 _c
92 147 70 241 70 364 _c
70 479 97 571 152 639 _c
206 707 280 742 372 742 _c
396 742 421 739 447 735 _c
472 730 498 723 526 713 _c
_cl}_e}_d
/seven{636 0 82 0 551 729 _sc
82 729 _m
551 729 _l
551 687 _l
286 0 _l
183 0 _l
432 646 _l
82 646 _l
82 729 _l
_cl}_d
/eight{{636 0 68 -13 568 742 _sc
318 346 _m
271 346 234 333 207 308 _c
180 283 167 249 167 205 _c
167 161 180 126 207 101 _c
234 76 271 64 318 64 _c
364 64 401 76 428 102 _c
455 127 469 161 469 205 _c
469 249 455 283 429 308 _c
402 333 365 346 318 346 _c
219 388 _m
177 398 144 418 120 447 _c
96 476 85 511 85 553 _c
85 611 105 657 147 691 _c
188 725 245 742 318 742 _c
}_e{390 742 447 725 489 691 _c
530 657 551 611 551 553 _c
551 511 539 476 515 447 _c
491 418 459 398 417 388 _c
464 377 501 355 528 323 _c
554 291 568 251 568 205 _c
568 134 546 80 503 43 _c
459 5 398 -13 318 -13 _c
237 -13 175 5 132 43 _c
89 80 68 134 68 205 _c
68 251 81 291 108 323 _c
134 355 171 377 219 388 _c
183 544 _m
183 506 194 476 218 455 _c
}_e{242 434 275 424 318 424 _c
360 424 393 434 417 455 _c
441 476 453 506 453 544 _c
453 582 441 611 417 632 _c
393 653 360 664 318 664 _c
275 664 242 653 218 632 _c
194 611 183 582 183 544 _c
_cl}_e}_d
/nine{{636 0 63 -13 566 742 _sc
110 15 _m
110 105 _l
134 93 159 84 185 78 _c
210 72 235 69 260 69 _c
324 69 374 90 408 134 _c
442 178 462 244 468 334 _c
448 306 424 284 396 269 _c
367 254 335 247 300 247 _c
226 247 168 269 126 313 _c
84 357 63 417 63 494 _c
63 568 85 628 129 674 _c
173 719 232 742 306 742 _c
390 742 455 709 499 645 _c
543 580 566 486 566 364 _c
}_e{566 248 538 157 484 89 _c
429 21 356 -13 264 -13 _c
239 -13 214 -10 189 -6 _c
163 -2 137 5 110 15 _c
306 324 _m
350 324 385 339 411 369 _c
437 399 450 441 450 494 _c
450 546 437 588 411 618 _c
385 648 350 664 306 664 _c
262 664 227 648 201 618 _c
175 588 162 546 162 494 _c
162 441 175 399 201 369 _c
227 339 262 324 306 324 _c
_cl}_e}_d
/M{863 0 98 0 765 729 _sc
98 729 _m
245 729 _l
431 233 _l
618 729 _l
765 729 _l
765 0 _l
669 0 _l
669 640 _l
481 140 _l
382 140 _l
194 640 _l
194 0 _l
98 0 _l
98 729 _l
_cl}_d
/S{{635 0 66 -13 579 742 _sc
535 705 _m
535 609 _l
497 627 462 640 429 649 _c
395 657 363 662 333 662 _c
279 662 237 651 208 631 _c
179 610 165 580 165 542 _c
165 510 174 485 194 469 _c
213 452 250 439 304 429 _c
364 417 _l
437 403 491 378 526 343 _c
561 307 579 260 579 201 _c
579 130 555 77 508 41 _c
460 5 391 -13 300 -13 _c
265 -13 228 -9 189 -2 _c
}_e{150 5 110 16 69 32 _c
69 134 _l
109 111 148 94 186 83 _c
224 71 262 66 300 66 _c
356 66 399 77 430 99 _c
460 121 476 152 476 194 _c
476 230 465 258 443 278 _c
421 298 385 313 335 323 _c
275 335 _l
201 349 148 372 115 404 _c
82 435 66 478 66 534 _c
66 598 88 649 134 686 _c
179 723 242 742 322 742 _c
356 742 390 739 426 733 _c
461 727 497 717 535 705 _c
}_e{_cl}_e}_d
/T{611 0 -2 0 614 729 _sc
-2 729 _m
614 729 _l
614 646 _l
355 646 _l
355 0 _l
256 0 _l
256 646 _l
-2 646 _l
-2 729 _l
_cl}_d
/c{{550 0 55 -13 488 560 _sc
488 526 _m
488 442 _l
462 456 437 466 411 473 _c
385 480 360 484 334 484 _c
276 484 230 465 198 428 _c
166 391 150 339 150 273 _c
150 206 166 154 198 117 _c
230 80 276 62 334 62 _c
360 62 385 65 411 72 _c
437 79 462 90 488 104 _c
488 21 _l
462 9 436 0 410 -5 _c
383 -10 354 -13 324 -13 _c
242 -13 176 12 128 64 _c
}_e{79 115 55 185 55 273 _c
55 362 79 432 128 483 _c
177 534 244 560 330 560 _c
358 560 385 557 411 551 _c
437 545 463 537 488 526 _c
_cl}_e}_d
/d{{635 0 55 -13 544 760 _sc
454 464 _m
454 760 _l
544 760 _l
544 0 _l
454 0 _l
454 82 _l
435 49 411 25 382 10 _c
353 -5 319 -13 279 -13 _c
213 -13 159 13 117 65 _c
75 117 55 187 55 273 _c
55 359 75 428 117 481 _c
159 533 213 560 279 560 _c
319 560 353 552 382 536 _c
411 520 435 496 454 464 _c
148 273 _m
148 207 161 155 188 117 _c
215 79 253 61 301 61 _c
}_e{348 61 385 79 413 117 _c
440 155 454 207 454 273 _c
454 339 440 390 413 428 _c
385 466 348 485 301 485 _c
253 485 215 466 188 428 _c
161 390 148 339 148 273 _c
_cl}_e}_d
/e{{615 0 55 -13 562 560 _sc
562 296 _m
562 252 _l
149 252 _l
153 190 171 142 205 110 _c
238 78 284 62 344 62 _c
378 62 412 66 444 74 _c
476 82 509 95 541 113 _c
541 28 _l
509 14 476 3 442 -3 _c
408 -9 373 -13 339 -13 _c
251 -13 182 12 131 62 _c
80 112 55 181 55 268 _c
55 357 79 428 127 481 _c
175 533 241 560 323 560 _c
397 560 455 536 498 489 _c
}_e{540 441 562 377 562 296 _c
472 322 _m
471 371 457 410 431 440 _c
404 469 368 484 324 484 _c
274 484 234 469 204 441 _c
174 413 156 373 152 322 _c
472 322 _l
_cl}_e}_d
/g{{635 0 55 -207 544 560 _sc
454 280 _m
454 344 440 395 414 431 _c
387 467 349 485 301 485 _c
253 485 215 467 188 431 _c
161 395 148 344 148 280 _c
148 215 161 165 188 129 _c
215 93 253 75 301 75 _c
349 75 387 93 414 129 _c
440 165 454 215 454 280 _c
544 68 _m
544 -24 523 -93 482 -139 _c
440 -184 377 -207 292 -207 _c
260 -207 231 -204 203 -200 _c
175 -195 147 -188 121 -178 _c
}_e{121 -91 _l
147 -105 173 -115 199 -122 _c
225 -129 251 -133 278 -133 _c
336 -133 380 -117 410 -87 _c
439 -56 454 -10 454 52 _c
454 96 _l
435 64 411 40 382 24 _c
353 8 319 0 279 0 _c
211 0 157 25 116 76 _c
75 127 55 195 55 280 _c
55 364 75 432 116 483 _c
157 534 211 560 279 560 _c
319 560 353 552 382 536 _c
411 520 435 496 454 464 _c
454 547 _l
544 547 _l
}_e{544 68 _l
_cl}_e}_d
/i{278 0 94 0 184 760 _sc
94 547 _m
184 547 _l
184 0 _l
94 0 _l
94 547 _l
94 760 _m
184 760 _l
184 646 _l
94 646 _l
94 760 _l
_cl}_d
/m{{974 0 91 0 889 560 _sc
520 442 _m
542 482 569 511 600 531 _c
631 550 668 560 711 560 _c
767 560 811 540 842 500 _c
873 460 889 403 889 330 _c
889 0 _l
799 0 _l
799 327 _l
799 379 789 418 771 444 _c
752 469 724 482 686 482 _c
639 482 602 466 575 435 _c
548 404 535 362 535 309 _c
535 0 _l
445 0 _l
445 327 _l
445 379 435 418 417 444 _c
398 469 369 482 331 482 _c
}_e{285 482 248 466 221 435 _c
194 404 181 362 181 309 _c
181 0 _l
91 0 _l
91 547 _l
181 547 _l
181 462 _l
201 495 226 520 255 536 _c
283 552 317 560 357 560 _c
397 560 430 550 458 530 _c
486 510 506 480 520 442 _c
_cl}_e}_d
/n{634 0 91 0 549 560 _sc
549 330 _m
549 0 _l
459 0 _l
459 327 _l
459 379 448 417 428 443 _c
408 469 378 482 338 482 _c
289 482 251 466 223 435 _c
195 404 181 362 181 309 _c
181 0 _l
91 0 _l
91 547 _l
181 547 _l
181 462 _l
202 494 227 519 257 535 _c
286 551 320 560 358 560 _c
420 560 468 540 500 501 _c
532 462 549 405 549 330 _c
_cl}_d
/o{612 0 55 -13 557 560 _sc
306 484 _m
258 484 220 465 192 427 _c
164 389 150 338 150 273 _c
150 207 163 156 191 118 _c
219 80 257 62 306 62 _c
354 62 392 80 420 118 _c
448 156 462 207 462 273 _c
462 337 448 389 420 427 _c
392 465 354 484 306 484 _c
306 560 _m
384 560 445 534 490 484 _c
534 433 557 363 557 273 _c
557 183 534 113 490 63 _c
445 12 384 -13 306 -13 _c
227 -13 165 12 121 63 _c
77 113 55 183 55 273 _c
55 363 77 433 121 484 _c
165 534 227 560 306 560 _c
_cl}_d
/s{{521 0 54 -13 472 560 _sc
443 531 _m
443 446 _l
417 458 391 468 364 475 _c
336 481 308 485 279 485 _c
234 485 200 478 178 464 _c
156 450 145 430 145 403 _c
145 382 153 366 169 354 _c
185 342 217 330 265 320 _c
296 313 _l
360 299 405 279 432 255 _c
458 230 472 195 472 151 _c
472 100 452 60 412 31 _c
372 1 316 -13 246 -13 _c
216 -13 186 -10 154 -5 _c
}_e{122 0 89 8 54 20 _c
54 113 _l
87 95 120 82 152 74 _c
184 65 216 61 248 61 _c
290 61 323 68 346 82 _c
368 96 380 117 380 144 _c
380 168 371 187 355 200 _c
339 213 303 226 247 238 _c
216 245 _l
160 257 119 275 95 299 _c
70 323 58 356 58 399 _c
58 450 76 490 112 518 _c
148 546 200 560 268 560 _c
301 560 332 557 362 552 _c
391 547 418 540 443 531 _c
}_e{_cl}_e}_d
/w{818 0 42 0 776 547 _sc
42 547 _m
132 547 _l
244 120 _l
356 547 _l
462 547 _l
574 120 _l
686 547 _l
776 547 _l
633 0 _l
527 0 _l
409 448 _l
291 0 _l
185 0 _l
42 547 _l
_cl}_d
/x{592 0 29 0 559 547 _sc
549 547 _m
351 281 _l
559 0 _l
453 0 _l
294 215 _l
135 0 _l
29 0 _l
241 286 _l
47 547 _l
153 547 _l
298 352 _l
443 547 _l
549 547 _l
_cl}_d
/z{525 0 43 0 482 547 _sc
55 547 _m
482 547 _l
482 465 _l
144 72 _l
482 72 _l
482 0 _l
43 0 _l
43 82 _l
381 475 _l
55 475 _l
55 547 _l
_cl}_d
end readonly def

/BuildGlyph
 {exch begin
 CharStrings exch
 2 copy known not{pop /.notdef}if
 true 3 1 roll get exec
 end}_d

/BuildChar {
 1 index /Encoding get exch get
 1 index /BuildGlyph get exec
}_d

FontName currentdict end definefont pop
end
%%EndProlog
%%Page: 1 1
mpldict begin
-54 180 translate
720 432 0 0 clipbox
gsave
0 0 m
720 0 l
720 432 l
0 432 l
cl
1.000 setgray
fill
grestore
gsave
90 54 m
648 54 l
648 380.16 l
90 380.16 l
cl
1.000 setgray
fill
grestore
0.800 setlinewidth
1 setlinejoin
0 setlinecap
[] 0 setdash
0.000 setgray
gsave
/o {
gsave
newpath
translate
0.8 setlinewidth
1 setlinejoin
0 setlinecap
0 0 m
0 -3.5 l

gsave
0.000 setgray
fill
grestore
stroke
grestore
} bind def
144.351 54 o
grestore
/DejaVuSans findfont
10.000 scalefont
setfont
gsave
141.170962 39.406250 translate
0.000000 rotate
0.000000 0 m /one glyphshow
grestore
gsave
/o {
gsave
newpath
translate
0.8 setlinewidth
1 setlinejoin
0 setlinecap
0 0 m
0 -3.5 l

gsave
0.000 setgray
fill
grestore
stroke
grestore
} bind def
216.818 54 o
grestore
gsave
213.638494 39.406250 translate
0.000000 rotate
0.000000 0 m /two glyphshow
grestore
gsave
/o {
gsave
newpath
translate
0.8 setlinewidth
1 setlinejoin
0 setlinecap
0 0 m
0 -3.5 l

gsave
0.000 setgray
fill
grestore
stroke
grestore
} bind def
289.286 54 o
grestore
gsave
286.106027 39.406250 translate
0.000000 rotate
0.000000 0 m /three glyphshow
grestore
gsave
/o {
gsave
newpath
translate
0.8 setlinewidth
1 setlinejoin
0 setlinecap
0 0 m
0 -3.5 l

gsave
0.000 setgray
fill
grestore
stroke
grestore
} bind def
361.753 54 o
grestore
gsave
358.573559 39.406250 translate
0.000000 rotate
0.000000 0 m /four glyphshow
grestore
gsave
/o {
gsave
newpath
translate
0.8 setlinewidth
1 setlinejoin
0 setlinecap
0 0 m
0 -3.5 l

gsave
0.000 setgray
fill
grestore
stroke
grestore
} bind def
434.221 54 o
grestore
gsave
431.041092 39.406250 translate
0.000000 rotate
0.000000 0 m /five glyphshow
grestore
gsave
/o {
gsave
newpath
translate
0.8 setlinewidth
1 setlinejoin
0 setlinecap
0 0 m
0 -3.5 l

gsave
0.000 setgray
fill
grestore
stroke
grestore
} bind def
506.688 54 o
grestore
gsave
503.508624 39.406250 translate
0.000000 rotate
0.000000 0 m /six glyphshow
grestore
gsave
/o {
gsave
newpath
translate
0.8 setlinewidth
1 setlinejoin
0 setlinecap
0 0 m
0 -3.5 l

gsave
0.000 setgray
fill
grestore
stroke
grestore
} bind def
579.156 54 o
grestore
gsave
575.976157 39.406250 translate
0.000000 rotate
0.000000 0 m /seven glyphshow
grestore
gsave
312.218750 25.734375 translate
0.000000 rotate
0.000000 0 m /M glyphshow
8.627930 0 m /i glyphshow
11.406250 0 m /x glyphshow
17.324219 0 m /i glyphshow
20.102539 0 m /n glyphshow
26.440430 0 m /g glyphshow
32.788086 0 m /space glyphshow
35.966797 0 m /T glyphshow
41.825195 0 m /i glyphshow
44.603516 0 m /m glyphshow
54.344727 0 m /e glyphshow
60.497070 0 m /space glyphshow
63.675781 0 m /parenleft glyphshow
67.577148 0 m /S glyphshow
73.924805 0 m /e glyphshow
80.077148 0 m /c glyphshow
85.575195 0 m /o glyphshow
91.693359 0 m /n glyphshow
98.031250 0 m /d glyphshow
104.378906 0 m /s glyphshow
109.588867 0 m /parenright glyphshow
grestore
gsave
/o {
gsave
newpath
translate
0.8 setlinewidth
1 setlinejoin
0 setlinecap
0 0 m
-3.5 0 l

gsave
0.000 setgray
fill
grestore
stroke
grestore
} bind def
90 86.944 o
grestore
gsave
70.281250 83.147133 translate
0.000000 rotate
0.000000 0 m /four glyphshow
6.362305 0 m /one glyphshow
grestore
gsave
/o {
gsave
newpath
translate
0.8 setlinewidth
1 setlinejoin
0 setlinecap
0 0 m
-3.5 0 l

gsave
0.000 setgray
fill
grestore
stroke
grestore
} bind def
90 126.085 o
grestore
gsave
70.281250 122.287770 translate
0.000000 rotate
0.000000 0 m /four glyphshow
6.362305 0 m /two glyphshow
grestore
gsave
/o {
gsave
newpath
translate
0.8 setlinewidth
1 setlinejoin
0 setlinecap
0 0 m
-3.5 0 l

gsave
0.000 setgray
fill
grestore
stroke
grestore
} bind def
90 165.225 o
grestore
gsave
70.281250 161.428406 translate
0.000000 rotate
0.000000 0 m /four glyphshow
6.362305 0 m /three glyphshow
grestore
gsave
/o {
gsave
newpath
translate
0.8 setlinewidth
1 setlinejoin
0 setlinecap
0 0 m
-3.5 0 l

gsave
0.000 setgray
fill
grestore
stroke
grestore
} bind def
90 204.366 o
grestore
gsave
70.281250 200.569043 translate
0.000000 rotate
0.000000 0 m /four glyphshow
6.362305 0 m /four glyphshow
grestore
gsave
/o {
gsave
newpath
translate
0.8 setlinewidth
1 setlinejoin
0 setlinecap
0 0 m
-3.5 0 l

gsave
0.000 setgray
fill
grestore
stroke
grestore
} bind def
90 243.507 o
grestore
gsave
70.281250 239.709679 translate
0.000000 rotate
0.000000 0 m /four glyphshow
6.362305 0 m /five glyphshow
grestore
gsave
/o {
gsave
newpath
translate
0.8 setlinewidth
1 setlinejoin
0 setlinecap
0 0 m
-3.5 0 l

gsave
0.000 setgray
fill
grestore
stroke
grestore
} bind def
90 282.647 o
grestore
gsave
70.281250 278.850316 translate
0.000000 rotate
0.000000 0 m /four glyphshow
6.362305 0 m /six glyphshow
grestore
gsave
/o {
gsave
newpath
translate
0.8 setlinewidth
1 setlinejoin
0 setlinecap
0 0 m
-3.5 0 l

gsave
0.000 setgray
fill
grestore
stroke
grestore
} bind def
90 321.788 o
grestore
gsave
70.281250 317.990952 translate
0.000000 rotate
0.000000 0 m /four glyphshow
6.362305 0 m /seven glyphshow
grestore
gsave
/o {
gsave
newpath
translate
0.8 setlinewidth
1 setlinejoin
0 setlinecap
0 0 m
-3.5 0 l

gsave
0.000 setgray
fill
grestore
stroke
grestore
} bind def
90 360.928 o
grestore
gsave
70.281250 357.131589 translate
0.000000 rotate
0.000000 0 m /four glyphshow
6.362305 0 m /eight glyphshow
grestore
2.000 setlinewidth
2 setlinecap
0.406 0.147 0.997 setrgbcolor
gsave
558 326.2 90 54 clipbox
115.363636 87.348691 m
151.597403 283.067163 l
187.831169 331.967426 l
224.064935 345.815938 l
260.298701 350.107344 l
296.532468 351.526672 l
332.766234 352.018171 l
369 352.193908 l
405.233766 352.25817 l
441.467532 352.282052 l
477.701299 352.291035 l
513.935065 352.294446 l
550.168831 352.295751 l
586.402597 352.296254 l
622.636364 352.296448 l
stroke
grestore
1.000 setlinewidth
0 setlinecap
gsave
558 326.2 90 54 clipbox
/o {
gsave
newpath
translate
1.0 setlinewidth
1 setlinejoin
0 setlinecap
0 -4 m
1.060812 -4 2.078319 -3.578535 2.828427 -2.828427 c
3.578535 -2.078319 4 -1.060812 4 0 c
4 1.060812 3.578535 2.078319 2.828427 2.828427 c
2.078319 3.578535 1.060812 4 0 4 c
-1.060812 4 -2.078319 3.578535 -2.828427 2.828427 c
-3.578535 2.078319 -4 1.060812 -4 0 c
-4 -1.060812 -3.578535 -2.078319 -2.828427 -2.828427 c
-2.078319 -3.578535 -1.060812 -4 0 -4 c
cl

gsave
grestore
stroke
grestore
} bind def
115.364 87.3487 o
151.597 283.067 o
187.831 331.967 o
224.065 345.816 o
260.299 350.107 o
296.532 351.527 o
332.766 352.018 o
369 352.194 o
405.234 352.258 o
441.468 352.282 o
477.701 352.291 o
513.935 352.294 o
550.169 352.296 o
586.403 352.296 o
622.636 352.296 o
grestore
2.000 setlinewidth
2 setlinecap
0.049 0.759 0.908 setrgbcolor
gsave
558 326.2 90 54 clipbox
115.363636 93.423989 m
151.597403 294.643396 l
187.831169 344.623104 l
224.064935 358.743635 l
260.298701 363.113802 l
296.532468 364.556142 l
332.766234 365.054081 l
369 365.231506 l
405.233766 365.296173 l
441.467532 365.320139 l
477.701299 365.329135 l
513.935065 365.332546 l
550.168831 365.333849 l
586.402597 365.334351 l
622.636364 365.334545 l
stroke
grestore
1.000 setlinewidth
0 setlinejoin
0 setlinecap
gsave
558 326.2 90 54 clipbox
/o {
gsave
newpath
translate
1.0 setlinewidth
0 setlinejoin
0 setlinecap
-4 -4 m
4 -4 l
4 4 l
-4 4 l
cl

gsave
grestore
stroke
grestore
} bind def
115.364 93.424 o
151.597 294.643 o
187.831 344.623 o
224.065 358.744 o
260.299 363.114 o
296.532 364.556 o
332.766 365.054 o
369 365.232 o
405.234 365.296 o
441.468 365.32 o
477.701 365.329 o
513.935 365.333 o
550.169 365.334 o
586.403 365.334 o
622.636 365.335 o
grestore
2.000 setlinewidth
1 setlinejoin
2 setlinecap
0.496 1.000 0.709 setrgbcolor
gsave
558 326.2 90 54 clipbox
115.363636 68.825455 m
151.597403 265.016676 l
187.831169 313.987172 l
224.064935 327.87813 l
260.298701 332.203916 l
296.532468 333.643335 l
332.766234 334.144652 l
369 334.324753 l
405.233766 334.390857 l
441.467532 334.415491 l
477.701299 334.424776 l
513.935065 334.428306 l
550.168831 334.429658 l
586.402597 334.430178 l
622.636364 334.43038 l
stroke
grestore
1.000 setlinewidth
0 setlinejoin
0 setlinecap
gsave
558 326.2 90 54 clipbox
/o {
gsave
newpath
translate
1.0 setlinewidth
0 setlinejoin
0 setlinecap
0 4 m
-4 -4 l
4 -4 l
cl

gsave
grestore
stroke
grestore
} bind def
115.364 68.8255 o
151.597 265.017 o
187.831 313.987 o
224.065 327.878 o
260.299 332.204 o
296.532 333.643 o
332.766 334.145 o
369 334.325 o
405.234 334.391 o
441.468 334.415 o
477.701 334.425 o
513.935 334.428 o
550.169 334.43 o
586.403 334.43 o
622.636 334.43 o
grestore
2.000 setlinewidth
1 setlinejoin
2 setlinecap
0.951 0.759 0.418 setrgbcolor
gsave
558 326.2 90 54 clipbox
115.363636 74.482925 m
151.597403 273.101949 l
187.831169 322.934294 l
224.064935 337.089202 l
260.298701 341.491218 l
296.532468 342.951519 l
332.766234 343.45813 l
369 343.639389 l
405.233766 343.705655 l
441.467532 343.730263 l
477.701299 343.739508 l
513.935065 343.743013 l
550.168831 343.744352 l
586.402597 343.744867 l
622.636364 343.745066 l
stroke
grestore
1.000 setlinewidth
0 setlinejoin
0 setlinecap
gsave
558 326.2 90 54 clipbox
/o {
gsave
newpath
translate
1.0 setlinewidth
0 setlinejoin
0 setlinecap
-0 -5.656854 m
5.656854 0 l
0 5.656854 l
-5.656854 0 l
cl

gsave
grestore
stroke
grestore
} bind def
115.364 74.4829 o
151.597 273.102 o
187.831 322.934 o
224.065 337.089 o
260.299 341.491 o
296.532 342.952 o
332.766 343.458 o
369 343.639 o
405.234 343.706 o
441.468 343.73 o
477.701 343.74 o
513.935 343.743 o
550.169 343.744 o
586.403 343.745 o
622.636 343.745 o
grestore
0.800 setlinewidth
2 setlinecap
[] 0 setdash
0.000 setgray
gsave
90 54 m
90 380.16 l
stroke
grestore
gsave
648 54 m
648 380.16 l
stroke
grestore
gsave
90 54 m
648 54 l
stroke
grestore
gsave
90 380.16 m
648 380.16 l
stroke
grestore
1.000 setlinewidth
0 setlinecap
0.800 setgray
gsave
570.984375 59 m
641 59 l
642.333333 59 643 59.666667 643 61 c
643 118.6875 l
643 120.020833 642.333333 120.6875 641 120.6875 c
570.984375 120.6875 l
569.651042 120.6875 568.984375 120.020833 568.984375 118.6875 c
568.984375 61 l
568.984375 59.666667 569.651042 59 570.984375 59 c
cl
gsave
1.000 setgray
fill
grestore
stroke
grestore
2.000 setlinewidth
1 setlinejoin
2 setlinecap
[] 0 setdash
0.406 0.147 0.997 setrgbcolor
gsave
572.984375 112.59375 m
592.984375 112.59375 l
stroke
grestore
1.000 setlinewidth
0 setlinecap
gsave
/o {
gsave
newpath
translate
1.0 setlinewidth
1 setlinejoin
0 setlinecap
0 -4 m
1.060812 -4 2.078319 -3.578535 2.828427 -2.828427 c
3.578535 -2.078319 4 -1.060812 4 0 c
4 1.060812 3.578535 2.078319 2.828427 2.828427 c
2.078319 3.578535 1.060812 4 0 4 c
-1.060812 4 -2.078319 3.578535 -2.828427 2.828427 c
-3.578535 2.078319 -4 1.060812 -4 0 c
-4 -1.060812 -3.578535 -2.078319 -2.828427 -2.828427 c
-2.078319 -3.578535 -1.060812 -4 0 -4 c
cl

gsave
grestore
stroke
grestore
} bind def
582.984 112.594 o
grestore
0.000 setgray
gsave
600.984375 109.093750 translate
0.000000 rotate
0.000000 0 m /z glyphshow
5.249023 0 m /c glyphshow
10.747070 0 m /w glyphshow
18.925781 0 m /five glyphshow
25.288086 0 m /five glyphshow
grestore
2.000 setlinewidth
2 setlinecap
0.049 0.759 0.908 setrgbcolor
gsave
572.984375 97.921875 m
592.984375 97.921875 l
stroke
grestore
1.000 setlinewidth
0 setlinejoin
0 setlinecap
gsave
/o {
gsave
newpath
translate
1.0 setlinewidth
0 setlinejoin
0 setlinecap
-4 -4 m
4 -4 l
4 4 l
-4 4 l
cl

gsave
grestore
stroke
grestore
} bind def
582.984 97.9219 o
grestore
0.000 setgray
gsave
600.984375 94.421875 translate
0.000000 rotate
0.000000 0 m /z glyphshow
5.249023 0 m /c glyphshow
10.747070 0 m /w glyphshow
18.925781 0 m /eight glyphshow
25.288086 0 m /nine glyphshow
grestore
2.000 setlinewidth
1 setlinejoin
2 setlinecap
0.496 1.000 0.709 setrgbcolor
gsave
572.984375 83.25 m
592.984375 83.25 l
stroke
grestore
1.000 setlinewidth
0 setlinejoin
0 setlinecap
gsave
/o {
gsave
newpath
translate
1.0 setlinewidth
0 setlinejoin
0 setlinecap
0 4 m
-4 -4 l
4 -4 l
cl

gsave
grestore
stroke
grestore
} bind def
582.984 83.25 o
grestore
0.000 setgray
gsave
600.984375 79.750000 translate
0.000000 rotate
0.000000 0 m /z glyphshow
5.249023 0 m /c glyphshow
10.747070 0 m /w glyphshow
18.925781 0 m /one glyphshow
25.288086 0 m /four glyphshow
31.650391 0 m /four glyphshow
grestore
2.000 setlinewidth
1 setlinejoin
2 setlinecap
0.951 0.759 0.418 setrgbcolor
gsave
572.984375 68.578125 m
592.984375 68.578125 l
stroke
grestore
1.000 setlinewidth
0 setlinejoin
0 setlinecap
gsave
/o {
gsave
newpath
translate
1.0 setlinewidth
0 setlinejoin
0 setlinecap
-0 -5.656854 m
5.656854 0 l
0 5.656854 l
-5.656854 0 l
cl

gsave
grestore
stroke
grestore
} bind def
582.984 68.5781 o
grestore
0.000 setgray
gsave
600.984375 65.078125 translate
0.000000 rotate
0.000000 0 m /z glyphshow
5.249023 0 m /c glyphshow
10.747070 0 m /w glyphshow
18.925781 0 m /two glyphshow
25.288086 0 m /three glyphshow
31.650391 0 m /three glyphshow
grestore

end
showpage
%%EOF
