%!PS-Adobe-3.0
%%DocumentPaperSizes: letter
%%Pages: 1
%%Title: assets/CE_TOTAPOL/eeH_e2_a0b60g150_H_xn2y2z1_a0b30g0_9p393T_zcws_buildup_enhancement.ps
%%Creator: matplotlib version 3.2.2, http://matplotlib.org/
%%CreationDate: Wed Aug 26 08:45:35 2020
%%Orientation: portrait
%%BoundingBox: -54.0 180.0 666.0 612.0
%%EndComments
%%BeginProlog
/mpldict 8 dict def
mpldict begin
/m { moveto } bind def
/l { lineto } bind def
/r { rlineto } bind def
/c { curveto } bind def
/cl { closepath } bind def
/box {
m
1 index 0 r
0 exch r
neg 0 r
cl
} bind def
/clipbox {
box
clip
newpath
} bind def
%!PS-Adobe-3.0 Resource-Font
%%Title: DejaVu Sans
%%Copyright: Copyright (c) 2003 by Bitstream, Inc. All Rights Reserved. Copyright (c) 2006 by Tavmjong Bah. All Rights Reserved. DejaVu changes are in public domain 
%%Creator: Converted from TrueType to type 3 by PPR
25 dict begin
/_d{bind def}bind def
/_m{moveto}_d
/_l{lineto}_d
/_cl{closepath eofill}_d
/_c{curveto}_d
/_sc{7 -1 roll{setcachedevice}{pop pop pop pop pop pop}ifelse}_d
/_e{exec}_d
/FontName /DejaVuSans def
/PaintType 0 def
/FontMatrix[.001 0 0 .001 0 0]def
/FontBBox[-1021 -463 1793 1232]def
/FontType 3 def
/Encoding [ /zero /one /two /three /four /five /eight /nine /c /m /s /w /z ] def
/FontInfo 10 dict dup begin
/FamilyName (DejaVu Sans) def
/FullName (DejaVu Sans) def
/Notice (Copyright (c) 2003 by Bitstream, Inc. All Rights Reserved. Copyright (c) 2006 by Tavmjong Bah. All Rights Reserved. DejaVu changes are in public domain ) def
/Weight (Book) def
/Version (Version 2.35) def
/ItalicAngle 0.0 def
/isFixedPitch false def
/UnderlinePosition -130 def
/UnderlineThickness 90 def
end readonly def
/CharStrings 14 dict dup begin
/.notdef 0 def
/zero{636 0 66 -13 570 742 _sc
318 664 _m
267 664 229 639 203 589 _c
177 539 165 464 165 364 _c
165 264 177 189 203 139 _c
229 89 267 64 318 64 _c
369 64 407 89 433 139 _c
458 189 471 264 471 364 _c
471 464 458 539 433 589 _c
407 639 369 664 318 664 _c
318 742 _m
399 742 461 709 505 645 _c
548 580 570 486 570 364 _c
570 241 548 147 505 83 _c
461 19 399 -13 318 -13 _c
236 -13 173 19 130 83 _c
87 147 66 241 66 364 _c
66 486 87 580 130 645 _c
173 709 236 742 318 742 _c
_cl}_d
/one{636 0 110 0 544 729 _sc
124 83 _m
285 83 _l
285 639 _l
110 604 _l
110 694 _l
284 729 _l
383 729 _l
383 83 _l
544 83 _l
544 0 _l
124 0 _l
124 83 _l
_cl}_d
/two{{636 0 73 0 536 742 _sc
192 83 _m
536 83 _l
536 0 _l
73 0 _l
73 83 _l
110 121 161 173 226 239 _c
290 304 331 346 348 365 _c
380 400 402 430 414 455 _c
426 479 433 504 433 528 _c
433 566 419 598 392 622 _c
365 646 330 659 286 659 _c
255 659 222 653 188 643 _c
154 632 117 616 78 594 _c
78 694 _l
118 710 155 722 189 730 _c
223 738 255 742 284 742 _c
}_e{359 742 419 723 464 685 _c
509 647 532 597 532 534 _c
532 504 526 475 515 449 _c
504 422 484 390 454 354 _c
446 344 420 317 376 272 _c
332 227 271 164 192 83 _c
_cl}_e}_d
/three{{636 0 76 -13 556 742 _sc
406 393 _m
453 383 490 362 516 330 _c
542 298 556 258 556 212 _c
556 140 531 84 482 45 _c
432 6 362 -13 271 -13 _c
240 -13 208 -10 176 -4 _c
144 1 110 10 76 22 _c
76 117 _l
103 101 133 89 166 81 _c
198 73 232 69 268 69 _c
330 69 377 81 409 105 _c
441 129 458 165 458 212 _c
458 254 443 288 413 312 _c
383 336 341 349 287 349 _c
}_e{202 349 _l
202 430 _l
291 430 _l
339 430 376 439 402 459 _c
428 478 441 506 441 543 _c
441 580 427 609 401 629 _c
374 649 336 659 287 659 _c
260 659 231 656 200 650 _c
169 644 135 635 98 623 _c
98 711 _l
135 721 170 729 203 734 _c
235 739 266 742 296 742 _c
370 742 429 725 473 691 _c
517 657 539 611 539 553 _c
539 513 527 479 504 451 _c
481 423 448 403 406 393 _c
_cl}_e}_d
/four{636 0 49 0 580 729 _sc
378 643 _m
129 254 _l
378 254 _l
378 643 _l
352 729 _m
476 729 _l
476 254 _l
580 254 _l
580 172 _l
476 172 _l
476 0 _l
378 0 _l
378 172 _l
49 172 _l
49 267 _l
352 729 _l
_cl}_d
/five{{636 0 77 -13 549 729 _sc
108 729 _m
495 729 _l
495 646 _l
198 646 _l
198 467 _l
212 472 227 476 241 478 _c
255 480 270 482 284 482 _c
365 482 429 459 477 415 _c
525 370 549 310 549 234 _c
549 155 524 94 475 51 _c
426 8 357 -13 269 -13 _c
238 -13 207 -10 175 -6 _c
143 -1 111 6 77 17 _c
77 116 _l
106 100 136 88 168 80 _c
199 72 232 69 267 69 _c
}_e{323 69 368 83 401 113 _c
433 143 450 183 450 234 _c
450 284 433 324 401 354 _c
368 384 323 399 267 399 _c
241 399 214 396 188 390 _c
162 384 135 375 108 363 _c
108 729 _l
_cl}_e}_d
/eight{{636 0 68 -13 568 742 _sc
318 346 _m
271 346 234 333 207 308 _c
180 283 167 249 167 205 _c
167 161 180 126 207 101 _c
234 76 271 64 318 64 _c
364 64 401 76 428 102 _c
455 127 469 161 469 205 _c
469 249 455 283 429 308 _c
402 333 365 346 318 346 _c
219 388 _m
177 398 144 418 120 447 _c
96 476 85 511 85 553 _c
85 611 105 657 147 691 _c
188 725 245 742 318 742 _c
}_e{390 742 447 725 489 691 _c
530 657 551 611 551 553 _c
551 511 539 476 515 447 _c
491 418 459 398 417 388 _c
464 377 501 355 528 323 _c
554 291 568 251 568 205 _c
568 134 546 80 503 43 _c
459 5 398 -13 318 -13 _c
237 -13 175 5 132 43 _c
89 80 68 134 68 205 _c
68 251 81 291 108 323 _c
134 355 171 377 219 388 _c
183 544 _m
183 506 194 476 218 455 _c
}_e{242 434 275 424 318 424 _c
360 424 393 434 417 455 _c
441 476 453 506 453 544 _c
453 582 441 611 417 632 _c
393 653 360 664 318 664 _c
275 664 242 653 218 632 _c
194 611 183 582 183 544 _c
_cl}_e}_d
/nine{{636 0 63 -13 566 742 _sc
110 15 _m
110 105 _l
134 93 159 84 185 78 _c
210 72 235 69 260 69 _c
324 69 374 90 408 134 _c
442 178 462 244 468 334 _c
448 306 424 284 396 269 _c
367 254 335 247 300 247 _c
226 247 168 269 126 313 _c
84 357 63 417 63 494 _c
63 568 85 628 129 674 _c
173 719 232 742 306 742 _c
390 742 455 709 499 645 _c
543 580 566 486 566 364 _c
}_e{566 248 538 157 484 89 _c
429 21 356 -13 264 -13 _c
239 -13 214 -10 189 -6 _c
163 -2 137 5 110 15 _c
306 324 _m
350 324 385 339 411 369 _c
437 399 450 441 450 494 _c
450 546 437 588 411 618 _c
385 648 350 664 306 664 _c
262 664 227 648 201 618 _c
175 588 162 546 162 494 _c
162 441 175 399 201 369 _c
227 339 262 324 306 324 _c
_cl}_e}_d
/c{{550 0 55 -13 488 560 _sc
488 526 _m
488 442 _l
462 456 437 466 411 473 _c
385 480 360 484 334 484 _c
276 484 230 465 198 428 _c
166 391 150 339 150 273 _c
150 206 166 154 198 117 _c
230 80 276 62 334 62 _c
360 62 385 65 411 72 _c
437 79 462 90 488 104 _c
488 21 _l
462 9 436 0 410 -5 _c
383 -10 354 -13 324 -13 _c
242 -13 176 12 128 64 _c
}_e{79 115 55 185 55 273 _c
55 362 79 432 128 483 _c
177 534 244 560 330 560 _c
358 560 385 557 411 551 _c
437 545 463 537 488 526 _c
_cl}_e}_d
/m{{974 0 91 0 889 560 _sc
520 442 _m
542 482 569 511 600 531 _c
631 550 668 560 711 560 _c
767 560 811 540 842 500 _c
873 460 889 403 889 330 _c
889 0 _l
799 0 _l
799 327 _l
799 379 789 418 771 444 _c
752 469 724 482 686 482 _c
639 482 602 466 575 435 _c
548 404 535 362 535 309 _c
535 0 _l
445 0 _l
445 327 _l
445 379 435 418 417 444 _c
398 469 369 482 331 482 _c
}_e{285 482 248 466 221 435 _c
194 404 181 362 181 309 _c
181 0 _l
91 0 _l
91 547 _l
181 547 _l
181 462 _l
201 495 226 520 255 536 _c
283 552 317 560 357 560 _c
397 560 430 550 458 530 _c
486 510 506 480 520 442 _c
_cl}_e}_d
/s{{521 0 54 -13 472 560 _sc
443 531 _m
443 446 _l
417 458 391 468 364 475 _c
336 481 308 485 279 485 _c
234 485 200 478 178 464 _c
156 450 145 430 145 403 _c
145 382 153 366 169 354 _c
185 342 217 330 265 320 _c
296 313 _l
360 299 405 279 432 255 _c
458 230 472 195 472 151 _c
472 100 452 60 412 31 _c
372 1 316 -13 246 -13 _c
216 -13 186 -10 154 -5 _c
}_e{122 0 89 8 54 20 _c
54 113 _l
87 95 120 82 152 74 _c
184 65 216 61 248 61 _c
290 61 323 68 346 82 _c
368 96 380 117 380 144 _c
380 168 371 187 355 200 _c
339 213 303 226 247 238 _c
216 245 _l
160 257 119 275 95 299 _c
70 323 58 356 58 399 _c
58 450 76 490 112 518 _c
148 546 200 560 268 560 _c
301 560 332 557 362 552 _c
391 547 418 540 443 531 _c
}_e{_cl}_e}_d
/w{818 0 42 0 776 547 _sc
42 547 _m
132 547 _l
244 120 _l
356 547 _l
462 547 _l
574 120 _l
686 547 _l
776 547 _l
633 0 _l
527 0 _l
409 448 _l
291 0 _l
185 0 _l
42 547 _l
_cl}_d
/z{525 0 43 0 482 547 _sc
55 547 _m
482 547 _l
482 465 _l
144 72 _l
482 72 _l
482 0 _l
43 0 _l
43 82 _l
381 475 _l
55 475 _l
55 547 _l
_cl}_d
end readonly def

/BuildGlyph
 {exch begin
 CharStrings exch
 2 copy known not{pop /.notdef}if
 true 3 1 roll get exec
 end}_d

/BuildChar {
 1 index /Encoding get exch get
 1 index /BuildGlyph get exec
}_d

FontName currentdict end definefont pop
end
%%EndProlog
%%Page: 1 1
mpldict begin
-54 180 translate
720 432 0 0 clipbox
gsave
0 0 m
720 0 l
720 432 l
0 432 l
cl
1.000 setgray
fill
grestore
gsave
90 54 m
648 54 l
648 380.16 l
90 380.16 l
cl
1.000 setgray
fill
grestore
0.800 setlinewidth
1 setlinejoin
0 setlinecap
[] 0 setdash
0.000 setgray
gsave
/o {
gsave
newpath
translate
0.8 setlinewidth
1 setlinejoin
0 setlinecap
0 0 m
0 -3.5 l

gsave
0.000 setgray
fill
grestore
stroke
grestore
} bind def
115.364 54 o
grestore
/DejaVuSans findfont
10.000 scalefont
setfont
gsave
112.183949 39.406250 translate
0.000000 rotate
0.000000 0 m /zero glyphshow
grestore
gsave
/o {
gsave
newpath
translate
0.8 setlinewidth
1 setlinejoin
0 setlinecap
0 0 m
0 -3.5 l

gsave
0.000 setgray
fill
grestore
stroke
grestore
} bind def
216.826 54 o
grestore
gsave
207.287228 39.406250 translate
0.000000 rotate
0.000000 0 m /one glyphshow
6.362305 0 m /zero glyphshow
12.724609 0 m /zero glyphshow
grestore
gsave
/o {
gsave
newpath
translate
0.8 setlinewidth
1 setlinejoin
0 setlinecap
0 0 m
0 -3.5 l

gsave
0.000 setgray
fill
grestore
stroke
grestore
} bind def
318.289 54 o
grestore
gsave
308.749883 39.406250 translate
0.000000 rotate
0.000000 0 m /two glyphshow
6.362305 0 m /zero glyphshow
12.724609 0 m /zero glyphshow
grestore
gsave
/o {
gsave
newpath
translate
0.8 setlinewidth
1 setlinejoin
0 setlinecap
0 0 m
0 -3.5 l

gsave
0.000 setgray
fill
grestore
stroke
grestore
} bind def
419.752 54 o
grestore
gsave
410.212537 39.406250 translate
0.000000 rotate
0.000000 0 m /three glyphshow
6.362305 0 m /zero glyphshow
12.724609 0 m /zero glyphshow
grestore
gsave
/o {
gsave
newpath
translate
0.8 setlinewidth
1 setlinejoin
0 setlinecap
0 0 m
0 -3.5 l

gsave
0.000 setgray
fill
grestore
stroke
grestore
} bind def
521.214 54 o
grestore
gsave
511.675191 39.406250 translate
0.000000 rotate
0.000000 0 m /four glyphshow
6.362305 0 m /zero glyphshow
12.724609 0 m /zero glyphshow
grestore
gsave
/o {
gsave
newpath
translate
0.8 setlinewidth
1 setlinejoin
0 setlinecap
0 0 m
0 -3.5 l

gsave
0.000 setgray
fill
grestore
stroke
grestore
} bind def
622.677 54 o
grestore
gsave
613.137846 39.406250 translate
0.000000 rotate
0.000000 0 m /five glyphshow
6.362305 0 m /zero glyphshow
12.724609 0 m /zero glyphshow
grestore
gsave
361.515625 25.734375 translate
0.000000 rotate
0.000000 0 m /m glyphshow
9.741211 0 m /s glyphshow
grestore
gsave
/o {
gsave
newpath
translate
0.8 setlinewidth
1 setlinejoin
0 setlinecap
0 0 m
-3.5 0 l

gsave
0.000 setgray
fill
grestore
stroke
grestore
} bind def
90 62.2713 o
grestore
gsave
76.640625 58.474397 translate
0.000000 rotate
0.000000 0 m /zero glyphshow
grestore
gsave
/o {
gsave
newpath
translate
0.8 setlinewidth
1 setlinejoin
0 setlinecap
0 0 m
-3.5 0 l

gsave
0.000 setgray
fill
grestore
stroke
grestore
} bind def
90 127.813 o
grestore
gsave
70.281250 124.016226 translate
0.000000 rotate
0.000000 0 m /one glyphshow
6.362305 0 m /zero glyphshow
grestore
gsave
/o {
gsave
newpath
translate
0.8 setlinewidth
1 setlinejoin
0 setlinecap
0 0 m
-3.5 0 l

gsave
0.000 setgray
fill
grestore
stroke
grestore
} bind def
90 193.355 o
grestore
gsave
70.281250 189.558055 translate
0.000000 rotate
0.000000 0 m /two glyphshow
6.362305 0 m /zero glyphshow
grestore
gsave
/o {
gsave
newpath
translate
0.8 setlinewidth
1 setlinejoin
0 setlinecap
0 0 m
-3.5 0 l

gsave
0.000 setgray
fill
grestore
stroke
grestore
} bind def
90 258.897 o
grestore
gsave
70.281250 255.099885 translate
0.000000 rotate
0.000000 0 m /three glyphshow
6.362305 0 m /zero glyphshow
grestore
gsave
/o {
gsave
newpath
translate
0.8 setlinewidth
1 setlinejoin
0 setlinecap
0 0 m
-3.5 0 l

gsave
0.000 setgray
fill
grestore
stroke
grestore
} bind def
90 324.439 o
grestore
gsave
70.281250 320.641714 translate
0.000000 rotate
0.000000 0 m /four glyphshow
6.362305 0 m /zero glyphshow
grestore
2.000 setlinewidth
2 setlinecap
0.406 0.147 0.997 setrgbcolor
gsave
558 326.2 90 54 clipbox
115.363636 68.825455 m
115.444847 68.949389 l
117.717611 71.472953 l
118.813407 72.69313 l
128.675577 83.646658 l
129.000258 83.994208 l
129.933714 85.028447 l
130.988926 86.182518 l
147.953482 104.50263 l
148.359332 104.91412 l
148.927523 105.540102 l
149.658054 106.297677 l
151.768477 108.518635 l
152.174328 108.933881 l
154.122411 110.972999 l
155.461718 112.349693 l
156.029909 112.963556 l
156.76044 113.706668 l
159.88549 116.922371 l
160.29134 117.328418 l
162.442349 119.523002 l
184.764133 141.387981 l
207.167087 161.707855 l
207.532352 162.023725 l
208.952829 163.252653 l
213.254846 166.951833 l
213.620111 167.260541 l
214.918833 168.365242 l
215.608779 168.951102 l
216.745161 169.89874 l
217.556862 170.594235 l
218.165638 171.095434 l
222.021219 174.301209 l
222.75175 174.900361 l
224.009887 175.946147 l
224.578078 176.392928 l
225.024514 176.775495 l
225.55212 177.19639 l
226.12031 177.650163 l
227.175522 178.511935 l
228.433659 179.527467 l
231.923974 182.32554 l
232.492165 182.773162 l
236.225991 185.717898 l
237.037692 186.346051 l
238.011734 187.113792 l
238.579924 187.551511 l
242.679016 190.709971 l
243.125451 191.045071 l
244.180663 191.854488 l
246.696937 193.757958 l
251.770069 197.543695 l
257.492563 201.741004 l
257.979584 202.086373 l
260.090007 203.595062 l
260.455273 203.860914 l
264.392024 206.664769 l
265.041385 207.108618 l
265.48782 207.432678 l
269.221646 210.033773 l
269.586912 210.290879 l
272.833717 212.526953 l
274.173024 213.431595 l
274.619459 213.744824 l
280.382538 217.616567 l
280.747804 217.863421 l
283.385833 219.611953 l
284.075779 220.062986 l
291.096994 224.616398 l
292.436301 225.462835 l
292.882737 225.755594 l
311.308355 237.097136 l
312.525907 237.819372 l
322.834513 243.819046 l
323.321533 244.09491 l
330.586259 248.187639 l
332.006737 248.965871 l
332.412587 249.197469 l
353.597989 260.481754 l
353.963255 260.657677 l
357.29123 262.356343 l
359.929259 263.68605 l
360.619205 264.034062 l
361.552662 264.491024 l
361.877342 264.65442 l
365.083562 266.245825 l
366.625794 266.998796 l
366.950475 267.159203 l
369.953769 268.623891 l
371.820682 269.525563 l
372.388873 269.798691 l
394.183051 279.894359 l
394.507732 280.030143 l
396.455815 280.897561 l
397.226931 281.244256 l
397.551611 281.3785 l
399.499694 282.237079 l
400.27081 282.580261 l
400.595491 282.712984 l
402.543574 283.562829 l
403.31469 283.902541 l
403.598785 284.025507 l
404.126391 284.243744 l
405.181603 284.693552 l
405.506283 284.83315 l
407.494951 285.6873 l
408.631333 286.173687 l
409.402449 286.506582 l
409.686545 286.626894 l
410.214151 286.840509 l
411.269362 287.281196 l
411.594043 287.417793 l
413.460955 288.213112 l
413.745051 288.33169 l
414.272657 288.542286 l
415.327868 288.977012 l
415.652549 289.111647 l
417.519462 289.89648 l
417.803557 290.013351 l
418.331163 290.220976 l
419.386375 290.649837 l
419.711055 290.782542 l
421.496798 291.518617 l
422.754935 292.020862 l
424.540677 292.749566 l
425.798814 293.246622 l
427.462802 293.915498 l
428.639769 294.383704 l
429.167374 294.593911 l
432.454764 295.880563 l
432.860615 296.047686 l
433.712901 296.380223 l
434.240507 296.586933 l
437.527897 297.851896 l
437.933748 298.016387 l
438.786034 298.343302 l
439.31364 298.546581 l
442.43869 299.734863 l
443.493901 300.139094 l
447.187142 301.526004 l
448.080013 301.85572 l
448.810544 302.122701 l
449.09464 302.232611 l
449.825171 302.498676 l
450.109266 302.60824 l
450.839797 302.873394 l
451.123893 302.982614 l
451.854424 303.24686 l
452.138519 303.355736 l
452.86905 303.619078 l
453.153146 303.727613 l
453.883677 303.990053 l
454.167772 304.098248 l
454.898304 304.359791 l
455.182399 304.467646 l
455.91293 304.728295 l
456.197025 304.835813 l
456.927557 305.095572 l
457.211652 305.202753 l
457.942183 305.461624 l
458.226279 305.568471 l
458.95681 305.826458 l
459.240905 305.932971 l
459.971436 306.190078 l
460.255532 306.296258 l
460.986063 306.552488 l
461.270158 306.658337 l
462.000689 306.913694 l
462.284785 307.019212 l
463.015316 307.2737 l
463.299411 307.378889 l
464.029942 307.632509 l
464.314038 307.737371 l
465.044569 307.990128 l
465.328664 308.094663 l
466.059195 308.346561 l
466.343291 308.450771 l
467.073822 308.701812 l
467.357917 308.805697 l
468.088449 309.055885 l
468.372544 309.159448 l
469.103075 309.408785 l
469.387171 309.512027 l
470.117702 309.760518 l
470.401797 309.863439 l
471.132328 310.111086 l
471.416424 310.213688 l
472.146955 310.460495 l
472.43105 310.562779 l
473.161581 310.808749 l
473.445677 310.910716 l
474.176208 311.155852 l
474.460303 311.257504 l
475.190834 311.501809 l
475.47493 311.603146 l
476.205461 311.846625 l
476.489556 311.947648 l
477.220087 312.190303 l
477.504183 312.291014 l
478.234714 312.532847 l
478.518809 312.633248 l
479.249341 312.874263 l
479.533436 312.974354 l
480.263967 313.214555 l
480.548063 313.314337 l
481.278594 313.553726 l
481.562689 313.6532 l
482.29322 313.891781 l
482.577316 313.990949 l
483.307847 314.228724 l
483.591942 314.327587 l
484.322473 314.564559 l
484.606569 314.663118 l
485.3371 314.899291 l
485.621195 314.997548 l
486.351726 315.232924 l
486.635822 315.330879 l
487.366353 315.565462 l
487.650448 315.663116 l
488.380979 315.896909 l
488.665075 315.994263 l
489.395606 316.227269 l
489.679701 316.324325 l
490.410233 316.556547 l
490.694328 316.653305 l
491.424859 316.884746 l
491.708955 316.981208 l
492.439486 317.21187 l
492.723581 317.308037 l
493.454112 317.537924 l
493.738208 317.633796 l
494.428154 317.852583 l
496.213896 318.421022 l
497.066183 318.69074 l
498.89251 319.26974 l
499.785382 319.557212 l
500.962349 319.925524 l
502.09873 320.275019 l
505.629631 321.368517 l
505.913726 321.460944 l
506.522502 321.639901 l
506.928353 321.773161 l
507.537129 321.951506 l
507.942979 322.084363 l
508.551755 322.262099 l
508.957606 322.394555 l
509.566382 322.571682 l
509.972232 322.703739 l
510.581008 322.880261 l
510.986859 323.01192 l
511.595635 323.187839 l
512.001485 323.319101 l
512.610261 323.49442 l
513.016112 323.625287 l
513.624888 323.800006 l
514.030738 323.93048 l
514.639514 324.104603 l
515.045365 324.234684 l
515.654141 324.408214 l
516.059992 324.537904 l
516.668767 324.710842 l
517.074618 324.840143 l
517.683394 325.012491 l
518.089245 325.141404 l
518.698021 325.313164 l
519.103871 325.441691 l
519.712647 325.612866 l
520.118498 325.741007 l
520.727274 325.911599 l
521.133124 326.039357 l
521.7419 326.209368 l
522.147751 326.336744 l
522.756527 326.506176 l
523.162377 326.633171 l
523.771153 326.802027 l
524.177004 326.928642 l
524.78578 327.096924 l
525.19163 327.22316 l
525.800406 327.39087 l
526.206257 327.51673 l
526.815033 327.683869 l
527.220884 327.809354 l
527.829659 327.975925 l
528.23551 328.101036 l
528.844286 328.267041 l
529.250137 328.391779 l
529.858913 328.55722 l
530.264763 328.681587 l
530.873539 328.846467 l
531.27939 328.970464 l
531.888166 329.134784 l
532.294016 329.258412 l
532.902792 329.422174 l
533.308643 329.545435 l
533.917419 329.708642 l
534.323269 329.831537 l
534.932045 329.99419 l
535.337896 330.116721 l
535.946672 330.278823 l
536.352522 330.40099 l
536.961298 330.562542 l
537.367149 330.684348 l
537.975925 330.845353 l
538.381775 330.966797 l
538.990551 331.127257 l
539.396402 331.248342 l
540.005178 331.408259 l
540.411029 331.528986 l
541.019805 331.688361 l
541.425655 331.808731 l
542.034431 331.967567 l
542.440282 332.087582 l
543.049058 332.24588 l
543.454908 332.365541 l
544.063684 332.523304 l
544.469535 332.642612 l
545.078311 332.799841 l
545.484161 332.918798 l
546.092937 333.075495 l
546.498788 333.194101 l
547.107564 333.35027 l
547.513414 333.468527 l
548.12219 333.624167 l
548.528041 333.742076 l
549.136817 333.897191 l
549.542667 334.014754 l
550.151443 334.169345 l
550.557294 334.286562 l
551.16607 334.440632 l
551.571921 334.557505 l
552.180696 334.711054 l
552.586547 334.827585 l
553.195323 334.980616 l
553.601174 335.096805 l
554.20995 335.24932 l
554.6158 335.365168 l
555.224576 335.517169 l
555.630427 335.632678 l
556.239203 335.784167 l
556.645053 335.899338 l
557.253829 336.050317 l
557.65968 336.165151 l
558.268456 336.31562 l
558.674306 336.430119 l
559.283082 336.580082 l
559.688933 336.694246 l
560.297709 336.843704 l
560.703559 336.957535 l
561.312335 337.10649 l
561.718186 337.219989 l
562.326962 337.368443 l
562.732813 337.481611 l
563.341588 337.629565 l
563.747439 337.742404 l
564.356215 337.889861 l
564.762066 338.002371 l
565.370842 338.149332 l
565.776692 338.261515 l
566.385468 338.407981 l
566.791319 338.519838 l
567.400095 338.665813 l
567.805945 338.777345 l
568.374136 338.917572 l
569.267007 339.142523 l
570.038124 339.338825 l
574.624236 340.481758 l
574.908331 340.557253 l
575.476522 340.694249 l
576.369393 340.914264 l
577.140509 341.106343 l
582.457153 342.402057 l
583.228269 342.590598 l
588.707252 343.896338 l
589.113103 344.001306 l
589.640708 344.126459 l
590.736505 344.376687 l
591.142356 344.481054 l
591.669962 344.605412 l
592.765758 344.854031 l
593.171609 344.957803 l
593.699215 345.081372 l
594.795011 345.328393 l
595.200862 345.431574 l
595.728468 345.554359 l
596.824264 345.799794 l
597.230115 345.902387 l
597.757721 346.024394 l
598.853517 346.268254 l
599.259368 346.370263 l
599.786974 346.491498 l
600.882771 346.733794 l
601.288621 346.835224 l
601.816227 346.955692 l
602.912024 347.196435 l
603.317874 347.297289 l
603.84548 347.416996 l
604.941277 347.656197 l
605.347127 347.75648 l
605.834148 347.868029 l
608.472177 348.45481 l
609.283878 348.647333 l
609.527389 348.696166 l
611.313131 349.09818 l
611.556642 349.146682 l
613.342385 349.546232 l
613.585895 349.594405 l
615.371638 349.991507 l
615.615148 350.039353 l
617.400891 350.434025 l
617.644401 350.481547 l
619.430144 350.873805 l
619.673654 350.921005 l
621.459397 351.310866 l
621.702907 351.357747 l
622.636364 351.546244 l
622.636364 351.546244 l
stroke
grestore
0.049 0.759 0.908 setrgbcolor
gsave
558 326.2 90 54 clipbox
115.363636 68.825455 m
115.444847 68.908622 l
115.728943 69.376182 l
116.215963 70.02558 l
116.540644 70.521576 l
116.824739 70.91205 l
117.271175 71.572838 l
118.245216 72.927905 l
118.569897 73.418283 l
118.853992 73.804496 l
119.300428 74.457783 l
120.274469 75.798574 l
120.59915 76.28341 l
120.883245 76.665412 l
121.329681 77.311295 l
122.425478 78.80105 l
122.709573 79.244653 l
123.440104 80.208201 l
123.7242 80.649182 l
124.454731 81.607688 l
124.738826 82.046067 l
125.469357 82.999561 l
125.753453 83.435355 l
126.524569 84.479873 l
127.863876 86.266677 l
128.147971 86.668342 l
129.243768 88.135341 l
129.893129 88.992367 l
130.177224 89.389876 l
131.394776 91.002379 l
131.678872 91.360216 l
132.003552 91.823373 l
132.247063 92.141276 l
132.815254 92.865601 l
133.139934 93.320169 l
133.464614 93.713301 l
133.870465 94.282045 l
134.844507 95.520255 l
135.169187 95.969848 l
135.493868 96.35899 l
135.899718 96.921155 l
136.87376 98.146439 l
137.19844 98.591127 l
137.523121 98.976327 l
137.928971 99.532008 l
139.024768 100.899588 l
139.308863 101.279046 l
140.769926 103.132215 l
140.932266 103.314924 l
141.256946 103.75001 l
141.581627 104.12747 l
141.987477 104.670468 l
143.083274 106.009672 l
143.407955 106.435654 l
144.016731 107.198829 l
145.234282 108.67862 l
145.680718 109.243125 l
148.684013 112.881819 l
149.130448 113.447735 l
149.333374 113.694257 l
154.852942 120.246749 l
155.015282 120.414963 l
155.339963 120.824509 l
155.624058 121.144034 l
156.557515 122.236827 l
159.641979 125.792852 l
160.453681 126.703849 l
160.900116 127.224187 l
170.965212 138.366881 l
171.371062 138.794763 l
171.776913 139.248886 l
179.082224 146.958821 l
179.52866 147.431936 l
190.243116 158.230268 l
190.770722 158.738186 l
191.135987 159.108257 l
192.67822 160.600964 l
193.124655 161.048966 l
195.072738 162.921167 l
195.803269 163.633626 l
196.087365 163.89369 l
196.817896 164.602727 l
197.101991 164.861579 l
197.832522 165.567219 l
198.116618 165.824868 l
198.847149 166.527136 l
199.131244 166.78359 l
199.861776 167.48251 l
200.145871 167.737776 l
200.876402 168.433372 l
201.160497 168.687461 l
201.891029 169.379756 l
202.175124 169.632674 l
202.905655 170.321693 l
203.189751 170.573448 l
203.920282 171.259214 l
204.204377 171.509815 l
204.934908 172.192351 l
205.219004 172.441805 l
205.949535 173.121134 l
206.23363 173.369449 l
206.964161 174.045594 l
207.248257 174.292778 l
207.978788 174.965762 l
208.262883 175.211823 l
208.993414 175.881668 l
209.27751 176.126613 l
210.008041 176.793341 l
210.292136 177.037178 l
211.022667 177.700812 l
211.306763 177.943548 l
212.037294 178.604109 l
212.321389 178.845752 l
213.051921 179.503263 l
213.336016 179.74382 l
214.066547 180.398301 l
214.350643 180.63778 l
215.081174 181.289253 l
215.365269 181.52766 l
216.0958 182.176146 l
216.379896 182.41349 l
217.110427 183.05901 l
217.394522 183.295296 l
218.125053 183.937871 l
218.409149 184.173108 l
219.13968 184.812759 l
219.423775 185.046953 l
220.154306 185.683699 l
220.438402 185.916857 l
221.168933 186.550719 l
221.453028 186.782849 l
222.183559 187.413847 l
222.467655 187.644954 l
223.198186 188.273108 l
223.482281 188.5032 l
224.212813 189.12853 l
224.496908 189.357614 l
225.227439 189.980139 l
225.511535 190.20822 l
226.242066 190.82796 l
226.526161 191.055046 l
227.256692 191.672019 l
227.540788 191.898117 l
228.271319 192.512343 l
228.555414 192.737459 l
229.285945 193.348956 l
229.570041 193.573096 l
230.300572 194.181883 l
230.584667 194.405054 l
231.315198 195.01115 l
231.599294 195.233357 l
232.329825 195.83678 l
232.61392 196.058031 l
233.344451 196.658799 l
233.628547 196.879099 l
234.359078 197.47723 l
234.643173 197.696586 l
235.373705 198.292098 l
235.6578 198.510516 l
236.388331 199.103427 l
236.672427 199.320912 l
237.402958 199.911239 l
237.687053 200.127798 l
238.417584 200.715559 l
238.70168 200.931197 l
239.432211 201.516409 l
239.716306 201.731133 l
240.446837 202.313813 l
240.730933 202.527628 l
241.461464 203.107793 l
241.745559 203.320705 l
242.47609 203.898371 l
242.760186 204.110387 l
243.490717 204.68557 l
243.774812 204.896695 l
244.505343 205.469413 l
244.789439 205.679652 l
245.51997 206.249921 l
245.804065 206.45928 l
246.534597 207.027115 l
246.818692 207.2356 l
247.549223 207.801018 l
247.833319 208.008634 l
248.56385 208.571651 l
248.847945 208.778403 l
249.578476 209.339035 l
249.862572 209.544928 l
250.593103 210.10319 l
250.877198 210.30823 l
251.607729 210.864138 l
251.891825 211.068331 l
252.622356 211.621899 l
252.906451 211.825249 l
253.636982 212.376493 l
253.921078 212.579007 l
254.651609 213.127942 l
254.935704 213.329623 l
255.666235 213.876264 l
255.950331 214.077119 l
256.680862 214.62148 l
256.964957 214.821513 l
257.695489 215.363609 l
257.979584 215.562825 l
258.710115 216.102671 l
258.99421 216.301075 l
259.724742 216.838685 l
260.008837 217.036283 l
260.739368 217.57167 l
261.023464 217.768466 l
261.753995 218.301646 l
262.03809 218.497645 l
262.768621 219.02863 l
263.052717 219.223837 l
263.783248 219.752643 l
264.067343 219.947062 l
264.797874 220.473701 l
265.08197 220.667337 l
265.812501 221.191824 l
266.096596 221.384682 l
266.827127 221.907029 l
267.111223 222.099114 l
267.841754 222.619335 l
268.125849 222.810651 l
268.85638 223.328759 l
269.140476 223.519311 l
269.871007 224.035319 l
270.155102 224.225111 l
271.007389 224.824031 l
271.332069 225.042578 l
274.538289 227.239072 l
275.309405 227.769246 l
277.622754 229.338606 l
277.866264 229.502447 l
278.272115 229.770633 l
279.124401 230.350621 l
279.489667 230.587309 l
284.603384 233.976108 l
285.293331 234.435999 l
288.0937 236.250103 l
288.905401 236.781892 l
289.108326 236.905468 l
289.920028 237.435263 l
290.122953 237.558292 l
290.934654 238.086103 l
291.137579 238.208587 l
291.949281 238.734426 l
292.152206 238.856368 l
292.963907 239.380246 l
293.166832 239.501651 l
293.978534 240.023579 l
294.181459 240.144449 l
294.99316 240.664437 l
295.196086 240.784775 l
296.007787 241.302835 l
296.210712 241.422645 l
297.022413 241.938787 l
297.225339 242.058072 l
298.03704 242.572306 l
298.239965 242.69107 l
299.051666 243.203407 l
299.254592 243.321653 l
300.066293 243.832103 l
300.269218 243.949833 l
301.08092 244.458407 l
301.283845 244.575625 l
302.095546 245.082333 l
302.298471 245.199041 l
303.110173 245.703893 l
303.313098 245.820095 l
304.124799 246.323102 l
304.327724 246.4388 l
305.139426 246.939971 l
305.342351 247.055169 l
306.154052 247.554514 l
306.356978 247.669215 l
307.168679 248.166743 l
307.371604 248.280949 l
308.183305 248.776671 l
308.386231 248.890386 l
309.197932 249.384312 l
309.400857 249.497538 l
310.212558 249.989676 l
310.415484 250.102416 l
311.10543 250.517905 l
311.34894 250.661823 l
311.754791 250.89826 l
312.607077 251.408933 l
312.972343 251.616347 l
315.935052 253.358777 l
318.857177 255.049676 l
319.709463 255.547222 l
320.074728 255.749095 l
322.631587 257.218427 l
322.915683 257.374071 l
323.767969 257.864333 l
324.133235 258.063132 l
326.568338 259.440798 l
326.974189 259.664575 l
327.94823 260.21443 l
328.881687 260.722853 l
329.287537 260.949285 l
333.305459 263.172011 l
334.076575 263.593485 l
335.050616 264.129492 l
336.024658 264.661013 l
338.459761 265.963972 l
339.068537 266.30314 l
341.503641 267.592007 l
342.112417 267.927688 l
344.547521 269.202672 l
345.156297 269.534917 l
347.5914 270.796222 l
348.200176 271.12508 l
350.513525 272.313215 l
352.583363 273.378768 l
353.354479 273.772717 l
354.328521 274.273505 l
355.383732 274.804839 l
356.357774 275.302107 l
357.494155 275.87045 l
358.711707 276.475864 l
365.002392 279.606484 l
365.245902 279.72439 l
365.529998 279.858388 l
366.585209 280.378972 l
367.437495 280.781734 l
367.843346 280.980099 l
375.392168 284.610029 l
375.676263 284.739463 l
376.731475 285.242387 l
377.583761 285.631152 l
377.989612 285.822912 l
387.080665 290.029429 l
387.811196 290.365262 l
389.150504 290.961851 l
399.743205 295.675856 l
400.0273 295.79511 l
401.163682 296.293295 l
403.39586 297.248928 l
403.923466 297.487287 l
404.288732 297.636252 l
405.830964 298.305023 l
406.115059 298.421887 l
407.251441 298.910234 l
409.483619 299.846635 l
410.011225 300.08048 l
410.376491 300.226337 l
411.918723 300.882014 l
412.202819 300.996547 l
413.379785 301.489819 l
414.434997 301.92453 l
415.977229 302.571656 l
416.261325 302.684664 l
417.438292 303.171416 l
418.493503 303.600331 l
420.035735 304.239044 l
420.319831 304.350553 l
421.496798 304.83089 l
422.470839 305.228387 l
424.459507 306.026221 l
425.514719 306.454822 l
427.422217 307.21344 l
428.599184 307.682794 l
429.573225 308.071345 l
431.480723 308.820015 l
432.65769 309.28323 l
433.631731 309.66678 l
435.539229 310.405658 l
436.716196 310.862829 l
437.690237 311.241456 l
439.597735 311.970695 l
440.774702 312.421914 l
441.748744 312.795696 l
443.534486 313.461515 l
443.940337 313.616483 l
464.192283 321.031655 l
464.882229 321.28127 l
466.870897 321.968495 l
467.276747 322.112532 l
490.694328 330.039923 l
490.978423 330.119831 l
492.195975 330.528429 l
492.561241 330.638813 l
493.738208 331.0269 l
494.022303 331.105922 l
495.239855 331.51076 l
495.60512 331.620026 l
496.782087 332.004519 l
497.066183 332.082666 l
498.283735 332.483784 l
498.649 332.591944 l
499.825967 332.972882 l
500.110062 333.050162 l
501.327614 333.447601 l
501.69288 333.554666 l
502.869846 333.932087 l
503.153942 334.008509 l
504.371494 334.402307 l
504.736759 334.50829 l
505.913726 334.88223 l
506.197822 334.957803 l
507.415373 335.348 l
507.780639 335.452911 l
508.957606 335.823407 l
509.241701 335.898141 l
510.459253 336.284774 l
510.824519 336.388624 l
512.001485 336.755713 l
512.285581 336.829616 l
513.503133 337.212722 l
513.868398 337.315524 l
515.045365 337.679241 l
515.32946 337.752321 l
516.547012 338.131938 l
516.912278 338.233702 l
518.089245 338.594082 l
518.37334 338.666348 l
519.590892 339.042512 l
519.956157 339.143249 l
521.133124 339.500327 l
521.41722 339.571787 l
522.634772 339.944535 l
523.000037 340.044255 l
524.177004 340.398065 l
524.461099 340.468728 l
525.678651 340.838095 l
526.043917 340.936809 l
527.220884 341.287384 l
527.504979 341.357259 l
528.722531 341.723279 l
529.087796 341.820997 l
530.264763 342.168372 l
530.548859 342.237466 l
531.76641 342.600174 l
532.131676 342.696907 l
533.308643 343.041114 l
533.592738 343.109435 l
534.81029 343.468866 l
535.175556 343.564624 l
536.352522 343.905694 l
536.636618 343.973251 l
537.85417 344.329438 l
538.219435 344.424231 l
539.396402 344.762198 l
539.680497 344.828998 l
540.898049 345.181974 l
541.263315 345.275811 l
542.440282 345.610707 l
542.724377 345.676757 l
543.941929 346.026556 l
544.307195 346.119447 l
545.484161 346.451302 l
545.768257 346.516611 l
546.985809 346.863264 l
547.351074 346.95522 l
548.528041 347.284065 l
548.812136 347.34864 l
550.029688 347.692179 l
550.394954 347.783209 l
551.571921 348.109075 l
551.856016 348.172923 l
553.073568 348.513381 l
553.438833 348.603493 l
554.6158 348.92641 l
554.899896 348.989538 l
556.117447 349.326946 l
556.482713 349.41615 l
557.65968 349.736147 l
557.943775 349.798564 l
559.161327 350.132952 l
559.526593 350.221257 l
560.703559 350.538365 l
560.987655 350.600076 l
562.205207 350.931475 l
562.570472 351.018891 l
563.747439 351.333137 l
564.031535 351.394151 l
565.249086 351.72259 l
565.614352 351.809126 l
566.791319 352.12054 l
567.075414 352.180863 l
568.292966 352.506373 l
568.658232 352.592036 l
569.835198 352.900647 l
570.119294 352.960285 l
571.336846 353.282895 l
571.702111 353.367696 l
572.879078 353.67353 l
573.163173 353.732491 l
574.380725 354.05223 l
574.745991 354.136176 l
575.922958 354.439263 l
576.207053 354.497553 l
577.424605 354.81445 l
577.78987 354.89755 l
578.966837 355.197915 l
579.250933 355.255542 l
580.468485 355.569625 l
580.83375 355.651888 l
582.010717 355.949559 l
582.294812 356.006529 l
583.512364 356.317826 l
583.87763 356.399259 l
585.054596 356.694263 l
585.338692 356.750582 l
586.556244 357.059121 l
586.921509 357.139733 l
588.098476 357.432096 l
588.382572 357.487771 l
589.600123 357.793579 l
589.965389 357.873378 l
591.142356 358.163127 l
591.426451 358.218164 l
592.644003 358.521268 l
593.009269 358.600262 l
594.105065 358.857823 l
622.636364 365.326369 l
622.636364 365.326369 l
stroke
grestore
0.496 1.000 0.709 setrgbcolor
gsave
558 326.2 90 54 clipbox
115.363636 68.825455 m
115.444847 68.960162 l
117.027664 70.890166 l
118.366972 72.515727 l
119.056918 73.350465 l
120.396225 74.965425 l
121.086171 75.794798 l
122.425478 77.399138 l
123.115424 78.22314 l
124.454731 79.816846 l
125.144677 80.635473 l
126.483984 82.218538 l
127.17393 83.031788 l
128.513237 84.604207 l
129.203183 85.41208 l
130.664245 87.117064 l
131.841212 88.478271 l
132.652913 89.42827 l
133.870465 90.82177 l
134.682166 91.7651 l
135.899718 93.149281 l
136.711419 94.085955 l
137.969556 95.515968 l
139.349448 97.073546 l
140.932266 98.862124 l
141.622212 99.620351 l
142.190403 100.272758 l
142.758594 100.89336 l
143.326784 101.534565 l
147.14178 105.769088 l
147.425876 106.071548 l
155.786398 115.117727 l
157.08512 116.501002 l
157.815652 117.274963 l
159.154959 118.700596 l
164.146921 123.912873 l
165.242718 125.049759 l
170.112925 130.025011 l
170.924626 130.835901 l
171.573987 131.513687 l
172.95388 132.879937 l
173.603241 133.552894 l
174.983133 134.909127 l
175.632494 135.577282 l
176.890631 136.815754 l
179.122809 139.008963 l
180.665041 140.516692 l
181.111477 140.959825 l
182.085518 141.895622 l
182.734879 142.5472 l
183.993016 143.754219 l
186.468705 146.130322 l
187.645672 147.250256 l
188.579128 148.144288 l
193.205825 152.486629 l
194.098697 153.323725 l
199.902361 158.672339 l
200.186456 158.921736 l
205.746609 163.926779 l
206.964161 165.014491 l
208.222298 166.12753 l
209.074585 166.868036 l
209.480435 167.221391 l
210.170381 167.84274 l
210.738572 168.328611 l
211.550273 169.044361 l
212.64607 169.991094 l
213.376601 170.634189 l
218.530904 175.062487 l
219.22085 175.639398 l
219.626701 175.979943 l
220.316647 176.578951 l
220.884838 177.047142 l
221.696539 177.736737 l
222.792335 178.649472 l
223.563452 179.304206 l
228.677169 183.537362 l
229.367115 184.093456 l
229.772966 184.421672 l
230.544082 185.065315 l
231.274613 185.653497 l
232.248655 186.45034 l
233.060356 187.094233 l
233.912642 187.781754 l
237.240617 190.444947 l
237.930563 190.995784 l
239.148115 191.954016 l
240.081572 192.696525 l
242.800771 194.826262 l
247.224543 198.2429 l
248.401509 199.141208 l
249.091455 199.670098 l
250.309007 200.590753 l
251.283049 201.332413 l
252.500601 202.257098 l
257.086713 205.676709 l
257.776659 206.178672 l
258.182509 206.47485 l
259.034796 207.112536 l
263.174472 210.133355 l
263.864418 210.624486 l
264.270269 210.914255 l
265.122555 211.5383 l
269.262231 214.493916 l
269.952177 214.974473 l
270.317443 215.233405 l
271.616165 216.147157 l
272.711961 216.920612 l
274.416534 218.10181 l
275.309405 218.733133 l
292.639227 230.380618 l
294.059704 231.305697 l
294.74965 231.754431 l
296.088957 232.617683 l
296.778903 233.063189 l
298.11821 233.920323 l
298.808156 234.362628 l
300.147463 235.213693 l
300.837409 235.652823 l
302.176716 236.497869 l
302.866662 236.933849 l
304.205969 237.772925 l
304.895915 238.205782 l
306.235222 239.038935 l
306.925168 239.468695 l
308.305061 240.329358 l
312.647662 242.988641 l
313.337608 243.3998 l
314.027554 243.818918 l
315.407446 244.658718 l
319.628293 247.185771 l
319.952973 247.371649 l
324.4985 250.037941 l
325.188446 250.440943 l
326.649508 251.291677 l
327.745305 251.933872 l
328.069986 252.114463 l
332.372002 254.566229 l
333.589554 255.260422 l
335.699977 256.454716 l
339.920824 258.810427 l
340.245504 258.983395 l
343.776404 260.915971 l
344.466351 261.292789 l
345.927413 262.089322 l
347.023209 262.690507 l
347.34789 262.859192 l
350.87879 264.745097 l
351.568736 265.112766 l
353.070384 265.916334 l
354.24735 266.536129 l
354.937296 266.891705 l
355.627243 267.254261 l
357.12889 268.046891 l
358.305857 268.658129 l
358.995803 269.008754 l
359.685749 269.366279 l
361.187396 270.148143 l
362.364363 270.750958 l
363.054309 271.09671 l
363.744255 271.449285 l
365.245902 272.220552 l
366.422869 272.815077 l
367.112815 273.156033 l
367.802761 273.503736 l
369.304408 274.264572 l
370.481375 274.850937 l
371.171321 275.187172 l
371.861267 275.530079 l
373.362915 276.280647 l
374.539881 276.858981 l
375.229827 277.190568 l
375.919773 277.528756 l
377.421421 278.269215 l
378.598387 278.839644 l
379.288334 279.166655 l
379.97828 279.500199 l
381.479927 280.230705 l
382.656894 280.793353 l
383.34684 281.115859 l
384.036786 281.44483 l
385.619603 282.194315 l
385.984869 282.367164 l
387.648856 283.151621 l
388.014122 283.323286 l
389.678109 284.102419 l
390.043375 284.27291 l
391.707362 285.046761 l
392.072628 285.216086 l
393.736615 285.984695 l
394.101881 286.152863 l
395.887624 286.97358 l
396.455815 287.233944 l
401.569532 289.549072 l
404.653997 290.924362 l
405.343943 291.230476 l
406.926761 291.92847 l
407.292026 292.08934 l
409.158939 292.91003 l
410.214151 293.375819 l
414.353827 295.167187 l
415.246698 295.546677 l
416.30191 296.003263 l
420.482171 297.77066 l
422.389669 298.578184 l
426.56993 300.310204 l
428.518013 301.119389 l
430.912532 302.091243 l
433.753486 303.243307 l
435.458059 303.929155 l
436.02625 304.157193 l
440.734117 306.03028 l
441.626988 306.377886 l
442.60103 306.769424 l
443.088051 306.949968 l
446.2131 308.168461 l
449.541075 309.447116 l
449.906341 309.586754 l
452.057349 310.405338 l
455.9941 311.892287 l
458.145108 312.694734 l
462.041274 314.1425 l
462.974731 314.48653 l
467.763768 316.23522 l
468.129034 316.358647 l
469.06249 316.695998 l
473.851527 318.410592 l
474.216793 318.531438 l
475.150249 318.862256 l
480.061042 320.580496 l
480.791573 320.834484 l
484.484814 322.096903 l
486.473482 322.771357 l
488.056299 323.322918 l
488.421565 323.437961 l
489.355021 323.754082 l
494.509324 325.472948 l
495.44278 325.782995 l
500.597083 327.468517 l
501.530539 327.772621 l
506.684842 329.425517 l
507.618299 329.723805 l
512.813187 331.352782 l
515.00478 332.034557 l
517.480469 332.811984 l
517.845734 332.91591 l
518.779191 333.203856 l
524.217589 334.850765 l
528.438435 336.1127 l
529.128381 336.31678 l
531.19822 336.925924 l
534.607365 337.935493 l
535.703161 338.253245 l
536.880128 338.592965 l
537.610659 338.804976 l
541.22273 339.8325 l
543.454908 340.468812 l
563.909779 346.080088 l
569.064082 347.444031 l
572.635568 348.367923 l
573.690779 348.635713 l
575.963543 349.22064 l
580.346729 350.341039 l
581.523696 350.63612 l
582.254227 350.820541 l
585.825713 351.706941 l
586.921509 351.971802 l
588.626082 352.401463 l
589.356613 352.581873 l
592.928098 353.448776 l
594.023895 353.70773 l
595.809638 354.15029 l
596.296659 354.25782 l
602.181493 355.657573 l
604.291916 356.152661 l
607.13287 356.819167 l
608.228667 357.066727 l
610.014409 357.490677 l
610.542015 357.60318 l
614.884617 358.605174 l
615.290467 358.684399 l
617.563231 359.198503 l
622.636364 360.329631 l
622.636364 360.329631 l
stroke
grestore
0.951 0.759 0.418 setrgbcolor
gsave
558 326.2 90 54 clipbox
115.363636 68.825455 m
115.444847 68.918506 l
117.55527 71.426433 l
118.245216 72.23096 l
118.975747 73.09406 l
119.543938 73.759006 l
120.477395 74.85804 l
121.573191 76.134895 l
122.506648 77.228113 l
123.602444 78.498151 l
124.576486 79.626458 l
128.594407 84.260791 l
129.690204 85.509601 l
130.664245 86.618808 l
134.682166 91.172673 l
135.777963 92.399361 l
136.752004 93.488735 l
140.891681 98.097038 l
141.703382 98.984091 l
142.677424 100.061908 l
143.61088 101.078197 l
144.463166 102.010711 l
146.776515 104.525907 l
147.750556 105.58647 l
148.684013 106.586367 l
149.536299 107.503719 l
152.011988 110.151534 l
152.986029 111.186188 l
157.247461 115.687105 l
157.937407 116.401303 l
158.911448 117.42365 l
159.844905 118.387292 l
160.778361 119.36101 l
180.218606 138.817832 l
181.152062 139.713386 l
182.207274 140.735616 l
193.652261 151.51567 l
194.626303 152.407067 l
195.681514 153.38216 l
196.655556 154.267203 l
197.710767 155.235366 l
198.684809 156.114097 l
199.74002 157.075375 l
200.714062 157.947834 l
201.769273 158.902274 l
202.743315 159.768505 l
203.798527 160.716153 l
204.772568 161.576197 l
205.82778 162.517102 l
206.801821 163.371002 l
207.857033 164.30521 l
208.831074 165.153009 l
209.886286 166.080568 l
210.860327 166.92231 l
211.915539 167.843269 l
212.88958 168.678996 l
213.944792 169.593402 l
215.000004 170.493026 l
219.707871 174.49027 l
221.047178 175.621233 l
222.102389 176.49866 l
226.850842 180.434913 l
231.193443 183.975149 l
232.28924 184.853148 l
233.182111 185.572257 l
234.237323 186.423793 l
235.333119 187.292468 l
236.225991 188.003911 l
237.281202 188.846429 l
238.376999 189.705888 l
239.26987 190.409756 l
240.365667 191.270203 l
245.195289 195.019736 l
246.169331 195.774506 l
247.062202 196.457526 l
248.401509 197.47545 l
249.497306 198.308968 l
254.326928 201.940766 l
255.30097 202.672046 l
256.193841 203.333631 l
257.533148 204.319608 l
258.628945 205.12714 l
263.458567 208.645349 l
264.432609 209.353973 l
265.284895 209.96448 l
269.018721 212.629417 l
269.546327 212.99861 l
270.520368 213.692577 l
271.372654 214.290243 l
275.02531 216.841471 l
276.283447 217.707499 l
276.973393 218.193608 l
277.663339 218.662404 l
278.63738 219.337372 l
279.489667 219.918392 l
282.939397 222.265621 l
284.197534 223.106572 l
285.13099 223.734353 l
286.754393 224.82677 l
287.606679 225.391673 l
290.934654 227.59189 l
292.882737 228.865414 l
293.856779 229.506358 l
294.709065 230.057576 l
297.915285 232.129888 l
298.767571 232.673458 l
301.973791 234.717398 l
302.826077 235.25344 l
305.910542 237.192191 l
307.331019 238.074516 l
311.795376 240.824881 l
312.485322 241.256147 l
313.175268 241.670784 l
314.149309 242.269406 l
315.001596 242.783567 l
317.84255 244.497083 l
318.613666 244.954935 l
320.115313 245.856634 l
321.535791 246.697583 l
325.797222 249.201438 l
326.690093 249.730392 l
327.38004 250.12536 l
328.354081 250.696277 l
329.206367 251.186186 l
331.925566 252.751538 l
332.453172 253.048288 l
333.427214 253.60967 l
334.2795 254.091235 l
336.998699 255.630309 l
337.526305 255.92195 l
338.500346 256.47398 l
339.352633 256.947361 l
341.990662 258.41387 l
343.045873 258.991884 l
343.857575 259.4425 l
347.834911 261.614052 l
348.930707 262.208844 l
352.908043 264.344013 l
354.00384 264.9289 l
357.981176 267.028371 l
359.076973 267.60354 l
362.891969 269.583453 l
363.825425 270.067601 l
365.529998 270.943139 l
366.301114 271.333085 l
367.721591 272.057817 l
370.481375 273.457783 l
371.008981 273.718049 l
371.942437 274.189434 l
373.64701 275.041934 l
374.418126 275.421483 l
375.838603 276.127129 l
378.720143 277.548592 l
379.491259 277.921801 l
380.911736 278.615803 l
384.036786 280.131799 l
385.497848 280.829805 l
386.431304 281.281136 l
388.014122 282.031066 l
391.139172 283.512227 l
392.600234 284.194132 l
393.53369 284.635173 l
395.116508 285.367833 l
398.363313 286.872372 l
399.175014 287.240089 l
402.502989 288.761523 l
404.248146 289.545845 l
407.616707 291.057584 l
410.011225 292.116549 l
410.782341 292.464291 l
412.405744 293.175955 l
414.840848 294.243493 l
416.46425 294.945809 l
418.899354 295.999438 l
420.522756 296.692542 l
422.95786 297.732462 l
424.581262 298.416488 l
426.935196 299.404376 l
438.380183 304.112901 l
439.273055 304.470036 l
440.206511 304.849672 l
441.911084 305.527705 l
445.036134 306.773282 l
445.847835 307.088981 l
449.622245 308.571515 l
450.149851 308.771303 l
451.042723 309.119056 l
454.167772 310.328815 l
454.979474 310.635305 l
459.11915 312.212214 l
460.580212 312.759112 l
461.473084 313.094408 l
462.65005 313.540234 l
463.339996 313.791155 l
464.232868 314.124611 l
467.439088 315.314188 l
469.14366 315.93447 l
474.987909 318.057211 l
475.515515 318.240956 l
476.408386 318.561784 l
479.655191 319.717779 l
482.252635 320.62829 l
482.942581 320.878339 l
483.632527 321.113147 l
484.525399 321.425849 l
487.812789 322.56465 l
501.205859 327.090369 l
501.895805 327.31161 l
502.788676 327.606837 l
506.157236 328.712405 l
507.983564 329.299514 l
508.876436 329.589155 l
512.285581 330.684118 l
514.964195 331.533805 l
518.37334 332.608026 l
521.051954 333.44156 l
524.461099 334.495465 l
527.058543 335.289551 l
529.371892 335.99199 l
532.131676 336.822546 l
534.445025 337.513914 l
537.204809 338.331371 l
539.518157 339.011857 l
542.277941 339.816438 l
544.59129 340.486226 l
547.351074 341.27815 l
549.664423 341.937421 l
552.424207 342.716903 l
554.737555 343.365835 l
557.49734 344.133084 l
559.810688 344.771852 l
562.651642 345.548136 l
566.141958 346.499483 l
566.872489 346.69523 l
568.577061 347.147757 l
573.406684 348.435414 l
573.893705 348.563898 l
574.664821 348.761409 l
579.494443 350.025089 l
579.981464 350.151168 l
580.75258 350.34489 l
585.501032 351.562468 l
586.393904 351.785995 l
587.24619 352.001724 l
602.830854 355.848954 l
603.317874 355.966249 l
604.08899 356.146138 l
608.756273 357.262913 l
609.486804 357.434325 l
611.191376 357.830464 l
615.858658 358.923238 l
616.589189 359.090918 l
618.293762 359.478409 l
622.636364 360.46768 l
622.636364 360.46768 l
stroke
grestore
1.000 0.147 0.074 setrgbcolor
gsave
558 326.2 90 54 clipbox
115.363636 68.825455 m
115.444847 68.946968 l
116.053623 69.717258 l
117.06825 71.017627 l
118.123461 72.371313 l
119.706279 74.376773 l
120.43681 75.298073 l
135.047432 93.126899 l
137.36078 95.838182 l
140.039394 98.954428 l
140.972851 100.022481 l
153.79773 114.315208 l
154.609432 115.188841 l
163.375805 124.459981 l
164.633942 125.75168 l
166.257344 127.423756 l
185.251153 146.08278 l
186.10344 146.8808 l
192.272369 152.607364 l
194.342207 154.492631 l
195.600344 155.637372 l
196.5338 156.475754 l
200.105286 159.672897 l
201.241668 160.67714 l
209.236925 167.631626 l
210.373307 168.600063 l
217.719203 174.772465 l
218.490319 175.40826 l
225.63329 181.226233 l
227.175522 182.457748 l
228.880095 183.820194 l
229.651211 184.429415 l
236.428916 189.725908 l
238.539339 191.347148 l
261.916335 208.496187 l
266.015426 211.355591 l
267.354733 212.283617 l
268.5317 213.092753 l
271.81909 215.333641 l
273.280152 216.32686 l
279.814347 220.688939 l
280.747804 221.301434 l
285.13099 224.165462 l
287.606679 225.760453 l
290.569389 227.655607 l
291.908696 228.502147 l
296.413637 231.332433 l
300.228633 233.690144 l
301.56794 234.518015 l
302.785492 235.256295 l
305.504691 236.909497 l
327.217699 249.550835 l
328.272911 250.137393 l
329.125197 250.618014 l
330.464504 251.360267 l
335.618807 254.199093 l
336.511678 254.684682 l
339.717898 256.4148 l
340.69194 256.94352 l
341.584811 257.420954 l
344.791031 259.122024 l
345.765073 259.641999 l
346.657944 260.111438 l
349.864164 261.784032 l
350.838205 262.295432 l
351.731077 262.757033 l
354.856126 264.363803 l
357.656496 265.792257 l
358.711707 266.321993 l
359.563994 266.756722 l
360.903301 267.427433 l
366.625794 270.27398 l
374.621051 274.161409 l
375.757433 274.703475 l
383.915031 278.550568 l
385.294923 279.189193 l
387.851782 280.368117 l
391.788533 282.166698 l
395.765869 283.958026 l
398.890918 285.351245 l
402.868254 287.101844 l
406.074474 288.501279 l
407.210856 288.990539 l
416.22074 292.82428 l
417.357121 293.297751 l
426.529345 297.072691 l
427.990408 297.658305 l
428.964449 298.056338 l
429.816735 298.393466 l
430.953117 298.851909 l
433.266466 299.775184 l
436.18859 300.925199 l
437.446727 301.422417 l
441.545818 303.015928 l
442.76337 303.487818 l
444.224432 304.043595 l
445.198474 304.421824 l
446.05076 304.741635 l
447.146557 305.16113 l
454.046017 307.754715 l
455.101229 308.141773 l
455.91293 308.445931 l
466.099781 312.147554 l
467.560843 312.663297 l
468.534884 313.014956 l
469.387171 313.311532 l
470.482967 313.701287 l
477.463598 316.140242 l
478.072374 316.345922 l
479.289926 316.766371 l
480.750988 317.260874 l
481.725029 317.598436 l
482.577316 317.882685 l
483.673112 318.256657 l
490.856668 320.661825 l
491.708955 320.937862 l
492.804751 321.301317 l
499.988307 323.638552 l
500.759423 323.881662 l
501.571125 324.145494 l
512.894357 327.702766 l
513.949568 328.023727 l
514.76127 328.277031 l
526.368597 331.775043 l
527.139713 331.998577 l
527.951415 332.241812 l
540.167518 335.771515 l
541.709751 336.203343 l
542.927302 336.550055 l
575.679447 345.304709 l
577.22168 345.691245 l
578.439231 346.002305 l
614.641106 354.632518 l
615.412223 354.801773 l
616.223924 354.987899 l
622.636364 356.412024 l
622.636364 356.412024 l
stroke
grestore
0.800 setlinewidth
0 setlinejoin
[] 0 setdash
0.000 setgray
gsave
90 54 m
90 380.16 l
stroke
grestore
gsave
648 54 m
648 380.16 l
stroke
grestore
gsave
90 54 m
648 54 l
stroke
grestore
gsave
90 380.16 m
648 380.16 l
stroke
grestore
1.000 setlinewidth
0 setlinecap
0.800 setgray
gsave
97 298.800625 m
167.015625 298.800625 l
168.348958 298.800625 169.015625 299.467292 169.015625 300.800625 c
169.015625 373.16 l
169.015625 374.493333 168.348958 375.16 167.015625 375.16 c
97 375.16 l
95.666667 375.16 95 374.493333 95 373.16 c
95 300.800625 l
95 299.467292 95.666667 298.800625 97 298.800625 c
cl
gsave
1.000 setgray
fill
grestore
stroke
grestore
2.000 setlinewidth
1 setlinejoin
2 setlinecap
[] 0 setdash
0.406 0.147 0.997 setrgbcolor
gsave
99 367.06625 m
119 367.06625 l
stroke
grestore
0.000 setgray
gsave
127.000000 363.566250 translate
0.000000 rotate
0.000000 0 m /z glyphshow
5.249023 0 m /c glyphshow
10.747070 0 m /w glyphshow
18.925781 0 m /zero glyphshow
25.288086 0 m /two glyphshow
31.650391 0 m /one glyphshow
grestore
0.049 0.759 0.908 setrgbcolor
gsave
99 352.394375 m
119 352.394375 l
stroke
grestore
0.000 setgray
gsave
127.000000 348.894375 translate
0.000000 rotate
0.000000 0 m /z glyphshow
5.249023 0 m /c glyphshow
10.747070 0 m /w glyphshow
18.925781 0 m /zero glyphshow
25.288086 0 m /three glyphshow
31.650391 0 m /four glyphshow
grestore
0.496 1.000 0.709 setrgbcolor
gsave
99 337.7225 m
119 337.7225 l
stroke
grestore
0.000 setgray
gsave
127.000000 334.222500 translate
0.000000 rotate
0.000000 0 m /z glyphshow
5.249023 0 m /c glyphshow
10.747070 0 m /w glyphshow
18.925781 0 m /zero glyphshow
25.288086 0 m /five glyphshow
31.650391 0 m /five glyphshow
grestore
0.951 0.759 0.418 setrgbcolor
gsave
99 323.050625 m
119 323.050625 l
stroke
grestore
0.000 setgray
gsave
127.000000 319.550625 translate
0.000000 rotate
0.000000 0 m /z glyphshow
5.249023 0 m /c glyphshow
10.747070 0 m /w glyphshow
18.925781 0 m /zero glyphshow
25.288086 0 m /eight glyphshow
31.650391 0 m /nine glyphshow
grestore
1.000 0.147 0.074 setrgbcolor
gsave
99 308.37875 m
119 308.37875 l
stroke
grestore
0.000 setgray
gsave
127.000000 304.878750 translate
0.000000 rotate
0.000000 0 m /z glyphshow
5.249023 0 m /c glyphshow
10.747070 0 m /w glyphshow
18.925781 0 m /one glyphshow
25.288086 0 m /four glyphshow
31.650391 0 m /four glyphshow
grestore

end
showpage
%%EOF
