%!PS-Adobe-3.0
%%DocumentPaperSizes: letter
%%Pages: 1
%%Title: assets/CE/buildup_eigen_vals_2rotor_periods.ps
%%Creator: matplotlib version 3.2.2, http://matplotlib.org/
%%CreationDate: Sat Sep 26 21:44:09 2020
%%Orientation: portrait
%%BoundingBox: 18.0 36.0 594.0 756.0
%%EndComments
%%BeginProlog
/mpldict 8 dict def
mpldict begin
/m { moveto } bind def
/l { lineto } bind def
/r { rlineto } bind def
/c { curveto } bind def
/cl { closepath } bind def
/box {
m
1 index 0 r
0 exch r
neg 0 r
cl
} bind def
/clipbox {
box
clip
newpath
} bind def
%!PS-Adobe-3.0 Resource-Font
%%Title: DejaVu Sans
%%Copyright: Copyright (c) 2003 by Bitstream, Inc. All Rights Reserved. Copyright (c) 2006 by Tavmjong Bah. All Rights Reserved. DejaVu changes are in public domain 
%%Creator: Converted from TrueType to type 3 by PPR
25 dict begin
/_d{bind def}bind def
/_m{moveto}_d
/_l{lineto}_d
/_cl{closepath eofill}_d
/_c{curveto}_d
/_sc{7 -1 roll{setcachedevice}{pop pop pop pop pop pop}ifelse}_d
/_e{exec}_d
/FontName /DejaVuSans def
/PaintType 0 def
/FontMatrix[.001 0 0 .001 0 0]def
/FontBBox[-1021 -463 1793 1232]def
/FontType 3 def
/Encoding [ /space /parenleft /parenright /period /zero /one /two /three /four /five /six /eight /G /H /M /P /S /T /a /c /d /e /i /l /m /n /o /r /s /t /u /z /minus ] def
/FontInfo 10 dict dup begin
/FamilyName (DejaVu Sans) def
/FullName (DejaVu Sans) def
/Notice (Copyright (c) 2003 by Bitstream, Inc. All Rights Reserved. Copyright (c) 2006 by Tavmjong Bah. All Rights Reserved. DejaVu changes are in public domain ) def
/Weight (Book) def
/Version (Version 2.35) def
/ItalicAngle 0.0 def
/isFixedPitch false def
/UnderlinePosition -130 def
/UnderlineThickness 90 def
end readonly def
/CharStrings 34 dict dup begin
/.notdef 0 def
/space{318 0 0 0 0 0 _sc
}_d
/parenleft{390 0 86 -131 310 759 _sc
310 759 _m
266 683 234 609 213 536 _c
191 463 181 389 181 314 _c
181 238 191 164 213 91 _c
234 17 266 -56 310 -131 _c
232 -131 _l
183 -54 146 20 122 94 _c
98 168 86 241 86 314 _c
86 386 98 459 122 533 _c
146 607 182 682 232 759 _c
310 759 _l
_cl}_d
/parenright{390 0 80 -131 304 759 _sc
80 759 _m
158 759 _l
206 682 243 607 267 533 _c
291 459 304 386 304 314 _c
304 241 291 168 267 94 _c
243 20 206 -54 158 -131 _c
80 -131 _l
123 -56 155 17 177 91 _c
198 164 209 238 209 314 _c
209 389 198 463 177 536 _c
155 609 123 683 80 759 _c
_cl}_d
/period{318 0 107 0 210 124 _sc
107 124 _m
210 124 _l
210 0 _l
107 0 _l
107 124 _l
_cl}_d
/zero{636 0 66 -13 570 742 _sc
318 664 _m
267 664 229 639 203 589 _c
177 539 165 464 165 364 _c
165 264 177 189 203 139 _c
229 89 267 64 318 64 _c
369 64 407 89 433 139 _c
458 189 471 264 471 364 _c
471 464 458 539 433 589 _c
407 639 369 664 318 664 _c
318 742 _m
399 742 461 709 505 645 _c
548 580 570 486 570 364 _c
570 241 548 147 505 83 _c
461 19 399 -13 318 -13 _c
236 -13 173 19 130 83 _c
87 147 66 241 66 364 _c
66 486 87 580 130 645 _c
173 709 236 742 318 742 _c
_cl}_d
/one{636 0 110 0 544 729 _sc
124 83 _m
285 83 _l
285 639 _l
110 604 _l
110 694 _l
284 729 _l
383 729 _l
383 83 _l
544 83 _l
544 0 _l
124 0 _l
124 83 _l
_cl}_d
/two{{636 0 73 0 536 742 _sc
192 83 _m
536 83 _l
536 0 _l
73 0 _l
73 83 _l
110 121 161 173 226 239 _c
290 304 331 346 348 365 _c
380 400 402 430 414 455 _c
426 479 433 504 433 528 _c
433 566 419 598 392 622 _c
365 646 330 659 286 659 _c
255 659 222 653 188 643 _c
154 632 117 616 78 594 _c
78 694 _l
118 710 155 722 189 730 _c
223 738 255 742 284 742 _c
}_e{359 742 419 723 464 685 _c
509 647 532 597 532 534 _c
532 504 526 475 515 449 _c
504 422 484 390 454 354 _c
446 344 420 317 376 272 _c
332 227 271 164 192 83 _c
_cl}_e}_d
/three{{636 0 76 -13 556 742 _sc
406 393 _m
453 383 490 362 516 330 _c
542 298 556 258 556 212 _c
556 140 531 84 482 45 _c
432 6 362 -13 271 -13 _c
240 -13 208 -10 176 -4 _c
144 1 110 10 76 22 _c
76 117 _l
103 101 133 89 166 81 _c
198 73 232 69 268 69 _c
330 69 377 81 409 105 _c
441 129 458 165 458 212 _c
458 254 443 288 413 312 _c
383 336 341 349 287 349 _c
}_e{202 349 _l
202 430 _l
291 430 _l
339 430 376 439 402 459 _c
428 478 441 506 441 543 _c
441 580 427 609 401 629 _c
374 649 336 659 287 659 _c
260 659 231 656 200 650 _c
169 644 135 635 98 623 _c
98 711 _l
135 721 170 729 203 734 _c
235 739 266 742 296 742 _c
370 742 429 725 473 691 _c
517 657 539 611 539 553 _c
539 513 527 479 504 451 _c
481 423 448 403 406 393 _c
_cl}_e}_d
/four{636 0 49 0 580 729 _sc
378 643 _m
129 254 _l
378 254 _l
378 643 _l
352 729 _m
476 729 _l
476 254 _l
580 254 _l
580 172 _l
476 172 _l
476 0 _l
378 0 _l
378 172 _l
49 172 _l
49 267 _l
352 729 _l
_cl}_d
/five{{636 0 77 -13 549 729 _sc
108 729 _m
495 729 _l
495 646 _l
198 646 _l
198 467 _l
212 472 227 476 241 478 _c
255 480 270 482 284 482 _c
365 482 429 459 477 415 _c
525 370 549 310 549 234 _c
549 155 524 94 475 51 _c
426 8 357 -13 269 -13 _c
238 -13 207 -10 175 -6 _c
143 -1 111 6 77 17 _c
77 116 _l
106 100 136 88 168 80 _c
199 72 232 69 267 69 _c
}_e{323 69 368 83 401 113 _c
433 143 450 183 450 234 _c
450 284 433 324 401 354 _c
368 384 323 399 267 399 _c
241 399 214 396 188 390 _c
162 384 135 375 108 363 _c
108 729 _l
_cl}_e}_d
/six{{636 0 70 -13 573 742 _sc
330 404 _m
286 404 251 388 225 358 _c
199 328 186 286 186 234 _c
186 181 199 139 225 109 _c
251 79 286 64 330 64 _c
374 64 409 79 435 109 _c
461 139 474 181 474 234 _c
474 286 461 328 435 358 _c
409 388 374 404 330 404 _c
526 713 _m
526 623 _l
501 635 476 644 451 650 _c
425 656 400 659 376 659 _c
310 659 260 637 226 593 _c
}_e{192 549 172 482 168 394 _c
187 422 211 444 240 459 _c
269 474 301 482 336 482 _c
409 482 467 459 509 415 _c
551 371 573 310 573 234 _c
573 159 550 99 506 54 _c
462 9 403 -13 330 -13 _c
246 -13 181 19 137 83 _c
92 147 70 241 70 364 _c
70 479 97 571 152 639 _c
206 707 280 742 372 742 _c
396 742 421 739 447 735 _c
472 730 498 723 526 713 _c
_cl}_e}_d
/eight{{636 0 68 -13 568 742 _sc
318 346 _m
271 346 234 333 207 308 _c
180 283 167 249 167 205 _c
167 161 180 126 207 101 _c
234 76 271 64 318 64 _c
364 64 401 76 428 102 _c
455 127 469 161 469 205 _c
469 249 455 283 429 308 _c
402 333 365 346 318 346 _c
219 388 _m
177 398 144 418 120 447 _c
96 476 85 511 85 553 _c
85 611 105 657 147 691 _c
188 725 245 742 318 742 _c
}_e{390 742 447 725 489 691 _c
530 657 551 611 551 553 _c
551 511 539 476 515 447 _c
491 418 459 398 417 388 _c
464 377 501 355 528 323 _c
554 291 568 251 568 205 _c
568 134 546 80 503 43 _c
459 5 398 -13 318 -13 _c
237 -13 175 5 132 43 _c
89 80 68 134 68 205 _c
68 251 81 291 108 323 _c
134 355 171 377 219 388 _c
183 544 _m
183 506 194 476 218 455 _c
}_e{242 434 275 424 318 424 _c
360 424 393 434 417 455 _c
441 476 453 506 453 544 _c
453 582 441 611 417 632 _c
393 653 360 664 318 664 _c
275 664 242 653 218 632 _c
194 611 183 582 183 544 _c
_cl}_e}_d
/G{{775 0 56 -13 693 742 _sc
595 104 _m
595 300 _l
434 300 _l
434 381 _l
693 381 _l
693 68 _l
655 40 613 20 567 7 _c
521 -6 472 -13 420 -13 _c
306 -13 216 20 152 86 _c
88 152 56 245 56 364 _c
56 482 88 575 152 642 _c
216 708 306 742 420 742 _c
467 742 512 736 555 724 _c
598 712 638 695 674 673 _c
674 568 _l
637 598 598 621 557 637 _c
516 653 473 661 428 661 _c
}_e{338 661 271 636 227 586 _c
182 536 160 462 160 364 _c
160 265 182 191 227 141 _c
271 91 338 67 428 67 _c
462 67 493 70 521 76 _c
549 82 573 91 595 104 _c
_cl}_e}_d
/H{752 0 98 0 654 729 _sc
98 729 _m
197 729 _l
197 430 _l
555 430 _l
555 729 _l
654 729 _l
654 0 _l
555 0 _l
555 347 _l
197 347 _l
197 0 _l
98 0 _l
98 729 _l
_cl}_d
/M{863 0 98 0 765 729 _sc
98 729 _m
245 729 _l
431 233 _l
618 729 _l
765 729 _l
765 0 _l
669 0 _l
669 640 _l
481 140 _l
382 140 _l
194 640 _l
194 0 _l
98 0 _l
98 729 _l
_cl}_d
/P{603 0 98 0 569 729 _sc
197 648 _m
197 374 _l
321 374 _l
367 374 402 385 427 409 _c
452 433 465 467 465 511 _c
465 555 452 588 427 612 _c
402 636 367 648 321 648 _c
197 648 _l
98 729 _m
321 729 _l
402 729 464 710 506 673 _c
548 636 569 582 569 511 _c
569 439 548 384 506 348 _c
464 311 402 293 321 293 _c
197 293 _l
197 0 _l
98 0 _l
98 729 _l
_cl}_d
/S{{635 0 66 -13 579 742 _sc
535 705 _m
535 609 _l
497 627 462 640 429 649 _c
395 657 363 662 333 662 _c
279 662 237 651 208 631 _c
179 610 165 580 165 542 _c
165 510 174 485 194 469 _c
213 452 250 439 304 429 _c
364 417 _l
437 403 491 378 526 343 _c
561 307 579 260 579 201 _c
579 130 555 77 508 41 _c
460 5 391 -13 300 -13 _c
265 -13 228 -9 189 -2 _c
}_e{150 5 110 16 69 32 _c
69 134 _l
109 111 148 94 186 83 _c
224 71 262 66 300 66 _c
356 66 399 77 430 99 _c
460 121 476 152 476 194 _c
476 230 465 258 443 278 _c
421 298 385 313 335 323 _c
275 335 _l
201 349 148 372 115 404 _c
82 435 66 478 66 534 _c
66 598 88 649 134 686 _c
179 723 242 742 322 742 _c
356 742 390 739 426 733 _c
461 727 497 717 535 705 _c
}_e{_cl}_e}_d
/T{611 0 -2 0 614 729 _sc
-2 729 _m
614 729 _l
614 646 _l
355 646 _l
355 0 _l
256 0 _l
256 646 _l
-2 646 _l
-2 729 _l
_cl}_d
/a{{613 0 60 -13 522 560 _sc
343 275 _m
270 275 220 266 192 250 _c
164 233 150 205 150 165 _c
150 133 160 107 181 89 _c
202 70 231 61 267 61 _c
317 61 357 78 387 114 _c
417 149 432 196 432 255 _c
432 275 _l
343 275 _l
522 312 _m
522 0 _l
432 0 _l
432 83 _l
411 49 385 25 355 10 _c
325 -5 287 -13 243 -13 _c
187 -13 142 2 109 33 _c
76 64 60 106 60 159 _c
}_e{60 220 80 266 122 298 _c
163 329 224 345 306 345 _c
432 345 _l
432 354 _l
432 395 418 427 391 450 _c
364 472 326 484 277 484 _c
245 484 215 480 185 472 _c
155 464 127 453 100 439 _c
100 522 _l
132 534 164 544 195 550 _c
226 556 256 560 286 560 _c
365 560 424 539 463 498 _c
502 457 522 395 522 312 _c
_cl}_e}_d
/c{{550 0 55 -13 488 560 _sc
488 526 _m
488 442 _l
462 456 437 466 411 473 _c
385 480 360 484 334 484 _c
276 484 230 465 198 428 _c
166 391 150 339 150 273 _c
150 206 166 154 198 117 _c
230 80 276 62 334 62 _c
360 62 385 65 411 72 _c
437 79 462 90 488 104 _c
488 21 _l
462 9 436 0 410 -5 _c
383 -10 354 -13 324 -13 _c
242 -13 176 12 128 64 _c
}_e{79 115 55 185 55 273 _c
55 362 79 432 128 483 _c
177 534 244 560 330 560 _c
358 560 385 557 411 551 _c
437 545 463 537 488 526 _c
_cl}_e}_d
/d{{635 0 55 -13 544 760 _sc
454 464 _m
454 760 _l
544 760 _l
544 0 _l
454 0 _l
454 82 _l
435 49 411 25 382 10 _c
353 -5 319 -13 279 -13 _c
213 -13 159 13 117 65 _c
75 117 55 187 55 273 _c
55 359 75 428 117 481 _c
159 533 213 560 279 560 _c
319 560 353 552 382 536 _c
411 520 435 496 454 464 _c
148 273 _m
148 207 161 155 188 117 _c
215 79 253 61 301 61 _c
}_e{348 61 385 79 413 117 _c
440 155 454 207 454 273 _c
454 339 440 390 413 428 _c
385 466 348 485 301 485 _c
253 485 215 466 188 428 _c
161 390 148 339 148 273 _c
_cl}_e}_d
/e{{615 0 55 -13 562 560 _sc
562 296 _m
562 252 _l
149 252 _l
153 190 171 142 205 110 _c
238 78 284 62 344 62 _c
378 62 412 66 444 74 _c
476 82 509 95 541 113 _c
541 28 _l
509 14 476 3 442 -3 _c
408 -9 373 -13 339 -13 _c
251 -13 182 12 131 62 _c
80 112 55 181 55 268 _c
55 357 79 428 127 481 _c
175 533 241 560 323 560 _c
397 560 455 536 498 489 _c
}_e{540 441 562 377 562 296 _c
472 322 _m
471 371 457 410 431 440 _c
404 469 368 484 324 484 _c
274 484 234 469 204 441 _c
174 413 156 373 152 322 _c
472 322 _l
_cl}_e}_d
/i{278 0 94 0 184 760 _sc
94 547 _m
184 547 _l
184 0 _l
94 0 _l
94 547 _l
94 760 _m
184 760 _l
184 646 _l
94 646 _l
94 760 _l
_cl}_d
/l{278 0 94 0 184 760 _sc
94 760 _m
184 760 _l
184 0 _l
94 0 _l
94 760 _l
_cl}_d
/m{{974 0 91 0 889 560 _sc
520 442 _m
542 482 569 511 600 531 _c
631 550 668 560 711 560 _c
767 560 811 540 842 500 _c
873 460 889 403 889 330 _c
889 0 _l
799 0 _l
799 327 _l
799 379 789 418 771 444 _c
752 469 724 482 686 482 _c
639 482 602 466 575 435 _c
548 404 535 362 535 309 _c
535 0 _l
445 0 _l
445 327 _l
445 379 435 418 417 444 _c
398 469 369 482 331 482 _c
}_e{285 482 248 466 221 435 _c
194 404 181 362 181 309 _c
181 0 _l
91 0 _l
91 547 _l
181 547 _l
181 462 _l
201 495 226 520 255 536 _c
283 552 317 560 357 560 _c
397 560 430 550 458 530 _c
486 510 506 480 520 442 _c
_cl}_e}_d
/n{634 0 91 0 549 560 _sc
549 330 _m
549 0 _l
459 0 _l
459 327 _l
459 379 448 417 428 443 _c
408 469 378 482 338 482 _c
289 482 251 466 223 435 _c
195 404 181 362 181 309 _c
181 0 _l
91 0 _l
91 547 _l
181 547 _l
181 462 _l
202 494 227 519 257 535 _c
286 551 320 560 358 560 _c
420 560 468 540 500 501 _c
532 462 549 405 549 330 _c
_cl}_d
/o{612 0 55 -13 557 560 _sc
306 484 _m
258 484 220 465 192 427 _c
164 389 150 338 150 273 _c
150 207 163 156 191 118 _c
219 80 257 62 306 62 _c
354 62 392 80 420 118 _c
448 156 462 207 462 273 _c
462 337 448 389 420 427 _c
392 465 354 484 306 484 _c
306 560 _m
384 560 445 534 490 484 _c
534 433 557 363 557 273 _c
557 183 534 113 490 63 _c
445 12 384 -13 306 -13 _c
227 -13 165 12 121 63 _c
77 113 55 183 55 273 _c
55 363 77 433 121 484 _c
165 534 227 560 306 560 _c
_cl}_d
/r{411 0 91 0 411 560 _sc
411 463 _m
401 469 390 473 378 476 _c
366 478 353 480 339 480 _c
288 480 249 463 222 430 _c
194 397 181 350 181 288 _c
181 0 _l
91 0 _l
91 547 _l
181 547 _l
181 462 _l
199 495 224 520 254 536 _c
284 552 321 560 365 560 _c
371 560 378 559 386 559 _c
393 558 401 557 411 555 _c
411 463 _l
_cl}_d
/s{{521 0 54 -13 472 560 _sc
443 531 _m
443 446 _l
417 458 391 468 364 475 _c
336 481 308 485 279 485 _c
234 485 200 478 178 464 _c
156 450 145 430 145 403 _c
145 382 153 366 169 354 _c
185 342 217 330 265 320 _c
296 313 _l
360 299 405 279 432 255 _c
458 230 472 195 472 151 _c
472 100 452 60 412 31 _c
372 1 316 -13 246 -13 _c
216 -13 186 -10 154 -5 _c
}_e{122 0 89 8 54 20 _c
54 113 _l
87 95 120 82 152 74 _c
184 65 216 61 248 61 _c
290 61 323 68 346 82 _c
368 96 380 117 380 144 _c
380 168 371 187 355 200 _c
339 213 303 226 247 238 _c
216 245 _l
160 257 119 275 95 299 _c
70 323 58 356 58 399 _c
58 450 76 490 112 518 _c
148 546 200 560 268 560 _c
301 560 332 557 362 552 _c
391 547 418 540 443 531 _c
}_e{_cl}_e}_d
/t{392 0 27 0 368 702 _sc
183 702 _m
183 547 _l
368 547 _l
368 477 _l
183 477 _l
183 180 _l
183 135 189 106 201 94 _c
213 81 238 75 276 75 _c
368 75 _l
368 0 _l
276 0 _l
206 0 158 13 132 39 _c
106 65 93 112 93 180 _c
93 477 _l
27 477 _l
27 547 _l
93 547 _l
93 702 _l
183 702 _l
_cl}_d
/u{634 0 85 -13 543 560 _sc
85 216 _m
85 547 _l
175 547 _l
175 219 _l
175 167 185 129 205 103 _c
225 77 255 64 296 64 _c
344 64 383 79 411 110 _c
439 141 453 183 453 237 _c
453 547 _l
543 547 _l
543 0 _l
453 0 _l
453 84 _l
431 50 405 26 377 10 _c
348 -5 315 -13 277 -13 _c
214 -13 166 6 134 45 _c
101 83 85 140 85 216 _c
311 560 _m
311 560 _l
_cl}_d
/z{525 0 43 0 482 547 _sc
55 547 _m
482 547 _l
482 465 _l
144 72 _l
482 72 _l
482 0 _l
43 0 _l
43 82 _l
381 475 _l
55 475 _l
55 547 _l
_cl}_d
/minus{838 0 106 272 732 355 _sc
106 355 _m
732 355 _l
732 272 _l
106 272 _l
106 355 _l
_cl}_d
end readonly def

/BuildGlyph
 {exch begin
 CharStrings exch
 2 copy known not{pop /.notdef}if
 true 3 1 roll get exec
 end}_d

/BuildChar {
 1 index /Encoding get exch get
 1 index /BuildGlyph get exec
}_d

FontName currentdict end definefont pop
end
%%EndProlog
%%Page: 1 1
mpldict begin
18 36 translate
576 720 0 0 clipbox
gsave
0 0 m
576 0 l
576 720 l
0 720 l
cl
1.000 setgray
fill
grestore
gsave
72 502.612048 m
518.4 502.612048 l
518.4 633.6 l
72 633.6 l
cl
1.000 setgray
fill
grestore
0.800 setlinewidth
1 setlinejoin
0 setlinecap
[] 0 setdash
0.000 setgray
gsave
/o {
gsave
newpath
translate
0.8 setlinewidth
1 setlinejoin
0 setlinecap
0 0 m
0 -3.5 l

gsave
0.000 setgray
fill
grestore
stroke
grestore
} bind def
72 502.612 o
grestore
gsave
/o {
gsave
newpath
translate
0.8 setlinewidth
1 setlinejoin
0 setlinecap
0 0 m
0 -3.5 l

gsave
0.000 setgray
fill
grestore
stroke
grestore
} bind def
161.28 502.612 o
grestore
gsave
/o {
gsave
newpath
translate
0.8 setlinewidth
1 setlinejoin
0 setlinecap
0 0 m
0 -3.5 l

gsave
0.000 setgray
fill
grestore
stroke
grestore
} bind def
250.56 502.612 o
grestore
gsave
/o {
gsave
newpath
translate
0.8 setlinewidth
1 setlinejoin
0 setlinecap
0 0 m
0 -3.5 l

gsave
0.000 setgray
fill
grestore
stroke
grestore
} bind def
339.84 502.612 o
grestore
gsave
/o {
gsave
newpath
translate
0.8 setlinewidth
1 setlinejoin
0 setlinecap
0 0 m
0 -3.5 l

gsave
0.000 setgray
fill
grestore
stroke
grestore
} bind def
429.12 502.612 o
grestore
gsave
/o {
gsave
newpath
translate
0.8 setlinewidth
1 setlinejoin
0 setlinecap
0 0 m
0 -3.5 l

gsave
0.000 setgray
fill
grestore
stroke
grestore
} bind def
518.4 502.612 o
grestore
gsave
/o {
gsave
newpath
translate
0.8 setlinewidth
1 setlinejoin
0 setlinecap
0 0 m
-3.5 0 l

gsave
0.000 setgray
fill
grestore
stroke
grestore
} bind def
72 509.146 o
grestore
/DejaVuSans findfont
10.000 scalefont
setfont
gsave
49.093750 505.348835 translate
0.000000 rotate
0.000000 0 m /three glyphshow
6.362305 0 m /period glyphshow
9.541016 0 m /zero glyphshow
grestore
gsave
/o {
gsave
newpath
translate
0.8 setlinewidth
1 setlinejoin
0 setlinecap
0 0 m
-3.5 0 l

gsave
0.000 setgray
fill
grestore
stroke
grestore
} bind def
72 534.764 o
grestore
gsave
49.093750 530.966951 translate
0.000000 rotate
0.000000 0 m /three glyphshow
6.362305 0 m /period glyphshow
9.541016 0 m /one glyphshow
grestore
gsave
/o {
gsave
newpath
translate
0.8 setlinewidth
1 setlinejoin
0 setlinecap
0 0 m
-3.5 0 l

gsave
0.000 setgray
fill
grestore
stroke
grestore
} bind def
72 560.382 o
grestore
gsave
49.093750 556.585067 translate
0.000000 rotate
0.000000 0 m /three glyphshow
6.362305 0 m /period glyphshow
9.541016 0 m /two glyphshow
grestore
gsave
/o {
gsave
newpath
translate
0.8 setlinewidth
1 setlinejoin
0 setlinecap
0 0 m
-3.5 0 l

gsave
0.000 setgray
fill
grestore
stroke
grestore
} bind def
72 586 o
grestore
gsave
49.093750 582.203183 translate
0.000000 rotate
0.000000 0 m /three glyphshow
6.362305 0 m /period glyphshow
9.541016 0 m /three glyphshow
grestore
gsave
/o {
gsave
newpath
translate
0.8 setlinewidth
1 setlinejoin
0 setlinecap
0 0 m
-3.5 0 l

gsave
0.000 setgray
fill
grestore
stroke
grestore
} bind def
72 611.618 o
grestore
gsave
49.093750 607.821299 translate
0.000000 rotate
0.000000 0 m /three glyphshow
6.362305 0 m /period glyphshow
9.541016 0 m /four glyphshow
grestore
gsave
43.015625 510.941962 translate
90.000000 rotate
0.000000 0 m /P glyphshow
5.655273 0 m /o glyphshow
11.773438 0 m /l glyphshow
14.551758 0 m /a glyphshow
20.679688 0 m /r glyphshow
24.791016 0 m /i glyphshow
27.569336 0 m /z glyphshow
32.818359 0 m /a glyphshow
38.946289 0 m /t glyphshow
42.867188 0 m /i glyphshow
45.645508 0 m /o glyphshow
51.763672 0 m /n glyphshow
58.101562 0 m /space glyphshow
61.280273 0 m /o glyphshow
67.398438 0 m /n glyphshow
73.736328 0 m /space glyphshow
76.915039 0 m /H glyphshow
84.434570 0 m /space glyphshow
87.613281 0 m /parenleft glyphshow
91.514648 0 m /a glyphshow
97.642578 0 m /period glyphshow
100.821289 0 m /u glyphshow
107.159180 0 m /period glyphshow
110.337891 0 m /parenright glyphshow
grestore
gsave
72.000000 636.600000 translate
0.000000 rotate
0.000000 0 m /one glyphshow
6.362305 0 m /e glyphshow
12.514648 0 m /minus glyphshow
20.893555 0 m /five glyphshow
grestore
1.500 setlinewidth
2 setlinecap
0.122 0.467 0.706 setrgbcolor
gsave
446.4 131 72 502.6 clipbox
72 508.568317 m
89.94528 508.629845 l
90.3024 508.749889 l
90.48096 508.97363 l
90.65952 509.722992 l
90.83808 512.340434 l
91.1952 521.264813 l
92.35584 523.736307 l
92.89152 524.137548 l
93.96288 524.412421 l
95.6592 524.554026 l
99.85536 524.612753 l
110.3904 524.735058 l
110.8368 524.915396 l
111.37248 524.904064 l
155.20896 525.047435 l
155.38752 525.223576 l
155.56608 525.797472 l
155.74464 526.651791 l
155.9232 526.421267 l
156.01248 526.570868 l
156.10176 526.505324 l
156.72672 527.19135 l
156.90528 527.37962 l
157.08384 527.484358 l
157.61952 527.835806 l
158.06592 528.258911 l
159.31584 529.821908 l
161.45856 532.266418 l
163.0656 533.77518 l
164.58336 534.917112 l
166.1904 535.851824 l
167.88672 536.585614 l
169.85088 537.18516 l
172.17216 537.642065 l
174.93984 537.957768 l
178.95744 538.166778 l
184.4928 538.216291 l
225.20448 538.142392 l
280.4688 538.30973 l
281.45088 538.552029 l
281.98656 538.900952 l
282.34368 539.406907 l
282.61152 540.174211 l
282.87936 541.816625 l
283.1472 545.706279 l
283.77216 559.943563 l
284.4864 561.718945 l
285.02208 562.265942 l
285.8256 562.73058 l
286.98624 563.109512 l
288.9504 563.486587 l
292.34304 563.871687 l
298.68192 564.334428 l
309.21696 565.108231 l
311.2704 565.470546 l
312.25248 565.844375 l
312.78816 566.253437 l
313.14528 566.772827 l
313.41312 567.516764 l
313.68096 569.122797 l
313.85952 571.458415 l
314.12736 579.540532 l
314.3952 586.91506 l
315.288 589.085894 l
315.82368 589.563016 l
316.35936 589.789682 l
317.43072 589.984705 l
319.48416 590.097427 l
326.0016 590.133071 l
333.5904 590.220095 l
334.0368 590.349121 l
334.84032 590.340779 l
378.49824 590.512994 l
378.6768 590.798222 l
378.94464 591.868992 l
379.03392 591.79344 l
379.1232 591.665926 l
379.30176 591.739528 l
379.92672 592.334603 l
380.10528 592.499128 l
380.37312 592.62713 l
381.44448 593.482615 l
385.99776 597.892517 l
387.6048 598.986618 l
389.30112 599.869498 l
391.08672 600.550542 l
393.14016 601.093967 l
395.64 601.509208 l
398.7648 601.791201 l
403.05024 601.952727 l
409.4784 601.964255 l
419.12064 601.948653 l
503.57952 602.046697 l
504.5616 602.261903 l
505.09728 602.564463 l
505.4544 602.984343 l
505.72224 603.593916 l
505.99008 604.838609 l
506.25792 607.728625 l
506.52576 614.166016 l
506.88288 623.101831 l
507.24 624.439905 l
507.77568 625.397712 l
508.40064 625.953236 l
509.29344 626.39283 l
510.72192 626.786513 l
513.0432 627.157507 l
517.15008 627.552634 l
518.4 627.646002 l
518.4 627.646002 l
stroke
grestore
0.800 setlinewidth
0 setlinejoin
[] 0 setdash
0.000 setgray
gsave
72 502.612048 m
72 633.6 l
stroke
grestore
gsave
518.4 502.612048 m
518.4 633.6 l
stroke
grestore
gsave
72 502.612048 m
518.4 502.612048 l
stroke
grestore
gsave
72 633.6 m
518.4 633.6 l
stroke
grestore
gsave
72 365.074699 m
518.4 365.074699 l
518.4 496.062651 l
72 496.062651 l
cl
1.000 setgray
fill
grestore
1 setlinejoin
0 setlinecap
[] 0 setdash
gsave
/o {
gsave
newpath
translate
0.8 setlinewidth
1 setlinejoin
0 setlinecap
0 0 m
0 -3.5 l

gsave
0.000 setgray
fill
grestore
stroke
grestore
} bind def
72 365.075 o
grestore
gsave
/o {
gsave
newpath
translate
0.8 setlinewidth
1 setlinejoin
0 setlinecap
0 0 m
0 -3.5 l

gsave
0.000 setgray
fill
grestore
stroke
grestore
} bind def
161.28 365.075 o
grestore
gsave
/o {
gsave
newpath
translate
0.8 setlinewidth
1 setlinejoin
0 setlinecap
0 0 m
0 -3.5 l

gsave
0.000 setgray
fill
grestore
stroke
grestore
} bind def
250.56 365.075 o
grestore
gsave
/o {
gsave
newpath
translate
0.8 setlinewidth
1 setlinejoin
0 setlinecap
0 0 m
0 -3.5 l

gsave
0.000 setgray
fill
grestore
stroke
grestore
} bind def
339.84 365.075 o
grestore
gsave
/o {
gsave
newpath
translate
0.8 setlinewidth
1 setlinejoin
0 setlinecap
0 0 m
0 -3.5 l

gsave
0.000 setgray
fill
grestore
stroke
grestore
} bind def
429.12 365.075 o
grestore
gsave
/o {
gsave
newpath
translate
0.8 setlinewidth
1 setlinejoin
0 setlinecap
0 0 m
0 -3.5 l

gsave
0.000 setgray
fill
grestore
stroke
grestore
} bind def
518.4 365.075 o
grestore
gsave
/o {
gsave
newpath
translate
0.8 setlinewidth
1 setlinejoin
0 setlinecap
0 0 m
-3.5 0 l

gsave
0.000 setgray
fill
grestore
stroke
grestore
} bind def
72 380.34 o
grestore
gsave
36.375000 376.543131 translate
0.000000 rotate
0.000000 0 m /two glyphshow
6.362305 0 m /six glyphshow
12.724609 0 m /three glyphshow
19.086914 0 m /period glyphshow
22.265625 0 m /two glyphshow
grestore
gsave
/o {
gsave
newpath
translate
0.8 setlinewidth
1 setlinejoin
0 setlinecap
0 0 m
-3.5 0 l

gsave
0.000 setgray
fill
grestore
stroke
grestore
} bind def
72 402.576 o
grestore
gsave
36.375000 398.779515 translate
0.000000 rotate
0.000000 0 m /two glyphshow
6.362305 0 m /six glyphshow
12.724609 0 m /three glyphshow
19.086914 0 m /period glyphshow
22.265625 0 m /four glyphshow
grestore
gsave
/o {
gsave
newpath
translate
0.8 setlinewidth
1 setlinejoin
0 setlinecap
0 0 m
-3.5 0 l

gsave
0.000 setgray
fill
grestore
stroke
grestore
} bind def
72 424.813 o
grestore
gsave
36.375000 421.015899 translate
0.000000 rotate
0.000000 0 m /two glyphshow
6.362305 0 m /six glyphshow
12.724609 0 m /three glyphshow
19.086914 0 m /period glyphshow
22.265625 0 m /six glyphshow
grestore
gsave
/o {
gsave
newpath
translate
0.8 setlinewidth
1 setlinejoin
0 setlinecap
0 0 m
-3.5 0 l

gsave
0.000 setgray
fill
grestore
stroke
grestore
} bind def
72 447.049 o
grestore
gsave
36.375000 443.252282 translate
0.000000 rotate
0.000000 0 m /two glyphshow
6.362305 0 m /six glyphshow
12.724609 0 m /three glyphshow
19.086914 0 m /period glyphshow
22.265625 0 m /eight glyphshow
grestore
gsave
/o {
gsave
newpath
translate
0.8 setlinewidth
1 setlinejoin
0 setlinecap
0 0 m
-3.5 0 l

gsave
0.000 setgray
fill
grestore
stroke
grestore
} bind def
72 469.286 o
grestore
gsave
36.375000 465.488666 translate
0.000000 rotate
0.000000 0 m /two glyphshow
6.362305 0 m /six glyphshow
12.724609 0 m /four glyphshow
19.086914 0 m /period glyphshow
22.265625 0 m /zero glyphshow
grestore
gsave
/o {
gsave
newpath
translate
0.8 setlinewidth
1 setlinejoin
0 setlinecap
0 0 m
-3.5 0 l

gsave
0.000 setgray
fill
grestore
stroke
grestore
} bind def
72 491.522 o
grestore
gsave
36.375000 487.725050 translate
0.000000 rotate
0.000000 0 m /two glyphshow
6.362305 0 m /six glyphshow
12.724609 0 m /four glyphshow
19.086914 0 m /period glyphshow
22.265625 0 m /two glyphshow
grestore
gsave
30.296875 420.310862 translate
90.000000 rotate
0.000000 0 m /G glyphshow
7.749023 0 m /H glyphshow
15.268555 0 m /z glyphshow
grestore
1.500 setlinewidth
2 setlinecap
0.122 0.467 0.706 setrgbcolor
gsave
446.4 131 72 365.1 clipbox
72.089128 430.639951 m
74.049933 431.993852 l
76.099865 433.681348 l
78.328053 435.81759 l
80.645368 438.351939 l
83.230065 441.520268 l
86.082145 445.378846 l
89.46899 450.354095 l
94.014493 457.461932 l
102.65986 471.036605 l
106.046705 475.889725 l
108.809658 479.480176 l
111.305228 482.366342 l
113.533415 484.611689 l
115.583348 486.370656 l
117.455025 487.699725 l
119.237575 488.705541 l
120.930998 489.416195 l
122.535293 489.862606 l
124.139588 490.083603 l
125.743883 490.076171 l
127.348178 489.838905 l
128.952473 489.372024 l
130.556768 488.677373 l
132.25019 487.700878 l
134.03274 486.409619 l
135.904418 484.773145 l
137.865223 482.764894 l
140.004283 480.252775 l
142.321598 477.184908 l
144.906295 473.387084 l
147.847503 468.661554 l
151.50173 462.341138 l
157.295018 451.795077 l
163.26656 441.06472 l
166.831661 435.107209 l
169.772868 430.603973 l
172.357566 427.02955 l
174.764008 424.07149 l
176.992196 421.681857 l
179.042128 419.799909 l
181.002933 418.296322 l
182.874611 417.139196 l
184.657161 416.293599 l
186.439711 415.699311 l
188.133133 415.366355 l
189.826556 415.255963 l
191.519978 415.363174 l
193.302528 415.703632 l
195.085078 416.26768 l
196.956756 417.087394 l
199.006688 418.233627 l
201.234876 419.746691 l
203.641318 421.654512 l
206.404271 424.13524 l
209.791116 427.490197 l
215.317021 433.335942 l
220.842926 439.071656 l
224.229771 442.265983 l
227.081851 444.653272 l
229.577421 446.461713 l
231.894736 447.874128 l
234.033796 448.929761 l
236.083728 449.705231 l
238.133661 450.241647 l
240.094466 450.527417 l
242.055271 450.590799 l
244.016076 450.434967 l
246.066008 450.044618 l
248.205068 449.401144 l
250.433256 448.49204 l
252.839698 447.263046 l
255.513523 445.638024 l
258.632986 443.468544 l
262.821979 440.258116 l
270.932581 433.994996 l
274.052044 431.901136 l
276.636741 430.418689 l
278.954056 429.332611 l
281.093116 428.566151 l
283.143049 428.067853 l
285.103854 427.825038 l
286.975531 427.819132 l
288.847209 428.04318 l
290.629759 428.476377 l
292.501436 429.165813 l
294.373114 430.09672 l
296.333919 431.329189 l
298.383851 432.893551 l
300.522911 434.816079 l
302.840226 437.215155 l
305.335796 440.137626 l
308.098749 443.735953 l
311.218211 448.178544 l
315.139821 454.176365 l
327.795926 473.863916 l
330.826261 477.988978 l
333.410959 481.146306 l
335.728274 483.639981 l
337.867334 485.622633 l
339.828139 487.146235 l
341.699816 488.320779 l
343.482366 489.172708 l
345.175789 489.732316 l
346.780084 490.03235 l
348.384379 490.104826 l
349.988674 489.947773 l
351.592969 489.560844 l
353.197264 488.945319 l
354.890687 488.050825 l
356.673237 486.843501 l
358.544914 485.291736 l
360.505719 483.367594 l
362.644779 480.9408 l
364.962094 477.956598 l
367.457664 474.374244 l
370.309744 469.882174 l
373.696589 464.118704 l
378.509474 455.439787 l
386.620077 440.799038 l
390.185177 434.861973 l
393.126384 430.381043 l
395.711082 426.82976 l
398.117524 423.895771 l
400.345712 421.530208 l
402.395644 419.671595 l
404.356449 418.191108 l
406.228127 417.056493 l
408.010677 416.232531 l
409.704099 415.682538 l
411.397522 415.358112 l
413.090944 415.256097 l
414.784367 415.371459 l
416.566917 415.720181 l
418.349467 416.292092 l
420.310272 417.164496 l
422.360204 418.329294 l
424.588392 419.86036 l
427.083962 421.860902 l
429.936042 424.450581 l
433.412014 427.924579 l
439.918322 434.826288 l
444.552952 439.573358 l
447.85067 442.637608 l
450.613622 444.909724 l
453.109192 446.680317 l
455.426507 448.053879 l
457.565567 449.071205 l
459.6155 449.808411 l
461.665432 450.305668 l
463.626237 450.553725 l
465.587042 450.579705 l
467.547847 450.387325 l
469.59778 449.960261 l
471.73684 449.280726 l
473.965027 448.337174 l
476.37147 447.075294 l
479.045295 445.419865 l
482.253885 443.158158 l
486.71026 439.71373 l
493.84046 434.204748 l
497.04905 432.02817 l
499.722875 430.478324 l
502.04019 429.380019 l
504.17925 428.600803 l
506.229182 428.089128 l
508.189987 427.832628 l
510.061665 427.813002 l
511.933342 428.022846 l
513.715892 428.442214 l
515.58757 429.116971 l
517.459247 430.033204 l
517.548375 430.082845 l
517.548375 430.082845 l
stroke
grestore
1.000 0.498 0.055 setrgbcolor
gsave
446.4 131 72 365.1 clipbox
72.089128 386.13246 m
74.049933 387.489356 l
76.099865 389.179378 l
78.328053 391.317606 l
80.645368 393.853134 l
83.230065 397.021678 l
86.082145 400.879139 l
89.46899 405.85128 l
94.10362 413.094129 l
102.570733 426.374671 l
105.957578 431.230502 l
108.72053 434.826289 l
111.2161 437.719752 l
113.444288 439.973608 l
115.49422 441.742051 l
117.455025 443.138044 l
119.237575 444.141608 l
120.930998 444.850685 l
122.62442 445.314349 l
124.228715 445.522396 l
125.83301 445.502516 l
127.437305 445.253425 l
129.0416 444.775461 l
130.645895 444.070584 l
132.339318 443.084338 l
134.121868 441.784104 l
135.993545 440.139758 l
138.043478 438.026715 l
140.182538 435.496595 l
142.58898 432.288343 l
145.262805 428.328724 l
148.29314 423.425726 l
152.036495 416.922945 l
159.166695 403.963458 l
163.97958 395.46611 l
167.366426 389.913143 l
170.218506 385.637481 l
172.803203 382.149122 l
175.120518 379.376761 l
177.259578 377.142823 l
179.309511 375.313004 l
181.270316 373.859478 l
183.141993 372.749793 l
184.924543 371.94861 l
186.617966 371.419195 l
188.311388 371.114141 l
190.004811 371.030132 l
191.698233 371.161988 l
193.480783 371.526289 l
195.352461 372.146686 l
197.313266 373.042715 l
199.363198 374.22838 l
201.591386 375.777412 l
204.086956 377.791964 l
206.939036 380.389489 l
210.504136 383.953271 l
223.427623 397.174954 l
226.368831 399.697144 l
228.953528 401.626592 l
231.270843 403.092736 l
233.499031 404.244248 l
235.638091 405.096336 l
237.688023 405.670842 l
239.648828 405.994268 l
241.609633 406.09584 l
243.570438 405.978076 l
245.620371 405.626691 l
247.670303 405.052035 l
249.898491 404.190308 l
252.304933 403.00733 l
254.889631 401.482474 l
257.919966 399.423387 l
261.752449 396.531804 l
271.645601 388.931797 l
274.586809 387.018715 l
277.171506 385.596993 l
279.488821 384.574936 l
281.627881 383.8746 l
283.588686 383.458555 l
285.460364 383.277795 l
287.332041 383.31967 l
289.203719 383.592772 l
290.986269 384.073335 l
292.857946 384.812614 l
294.729624 385.792888 l
296.690429 387.075916 l
298.740361 388.691153 l
300.879421 390.663816 l
303.196736 393.112888 l
305.692306 396.083123 l
308.455259 399.725725 l
311.663849 404.338695 l
315.763714 410.651799 l
326.993779 428.176416 l
330.113241 432.516304 l
332.787066 435.872173 l
335.193509 438.54342 l
337.332569 440.601278 l
339.382501 442.265966 l
341.254179 443.504197 l
343.036729 444.42013 l
344.730151 445.043104 l
346.334446 445.405058 l
347.938741 445.540882 l
349.543036 445.448194 l
351.147331 445.126228 l
352.751626 444.575836 l
354.445049 443.74981 l
356.138472 442.676886 l
357.921022 441.288259 l
359.881827 439.465743 l
361.931759 437.247596 l
364.159947 434.500115 l
366.566389 431.177173 l
369.329342 426.967408 l
372.537932 421.652216 l
376.726924 414.243172 l
387.867862 394.30219 l
391.165579 388.981327 l
394.017659 384.794006 l
396.513229 381.508876 l
398.830544 378.814931 l
400.969604 376.658533 l
403.019537 374.906627 l
404.891214 373.586106 l
406.762892 372.538054 l
408.545442 371.795962 l
410.238864 371.322519 l
411.932287 371.072789 l
413.625709 371.042988 l
415.319132 371.227482 l
417.101682 371.645015 l
418.973359 372.318384 l
420.934164 373.266138 l
423.073224 374.560157 l
425.390539 376.235909 l
427.975237 378.392834 l
431.005572 381.228837 l
434.927182 385.228263 l
445.087717 395.738338 l
448.20718 398.568944 l
450.970132 400.779574 l
453.465702 402.48919 l
455.69389 403.757318 l
457.83295 404.727596 l
459.882882 405.419145 l
461.843687 405.856219 l
463.804492 406.071406 l
465.765297 406.065563 l
467.726102 405.842777 l
469.776035 405.385816 l
471.915095 404.677543 l
474.143282 403.707133 l
476.638852 402.368213 l
479.401805 400.622376 l
482.699522 398.261286 l
487.601535 394.439885 l
493.573077 389.836509 l
496.781667 387.640969 l
499.455492 386.069311 l
501.861935 384.909812 l
504.000995 384.115982 l
506.050927 383.588627 l
508.011732 383.315742 l
509.88341 383.27936 l
511.755087 383.471518 l
513.537637 383.873336 l
515.409315 384.529102 l
517.280992 385.425963 l
517.548375 385.573732 l
517.548375 385.573732 l
stroke
grestore
0.800 setlinewidth
0 setlinejoin
[] 0 setdash
0.000 setgray
gsave
72 365.074699 m
72 496.062651 l
stroke
grestore
gsave
518.4 365.074699 m
518.4 496.062651 l
stroke
grestore
gsave
72 365.074699 m
518.4 365.074699 l
stroke
grestore
gsave
72 496.062651 m
518.4 496.062651 l
stroke
grestore
gsave
72 227.537349 m
518.4 227.537349 l
518.4 358.525301 l
72 358.525301 l
cl
1.000 setgray
fill
grestore
1 setlinejoin
0 setlinecap
[] 0 setdash
gsave
/o {
gsave
newpath
translate
0.8 setlinewidth
1 setlinejoin
0 setlinecap
0 0 m
0 -3.5 l

gsave
0.000 setgray
fill
grestore
stroke
grestore
} bind def
72 227.537 o
grestore
gsave
/o {
gsave
newpath
translate
0.8 setlinewidth
1 setlinejoin
0 setlinecap
0 0 m
0 -3.5 l

gsave
0.000 setgray
fill
grestore
stroke
grestore
} bind def
161.28 227.537 o
grestore
gsave
/o {
gsave
newpath
translate
0.8 setlinewidth
1 setlinejoin
0 setlinecap
0 0 m
0 -3.5 l

gsave
0.000 setgray
fill
grestore
stroke
grestore
} bind def
250.56 227.537 o
grestore
gsave
/o {
gsave
newpath
translate
0.8 setlinewidth
1 setlinejoin
0 setlinecap
0 0 m
0 -3.5 l

gsave
0.000 setgray
fill
grestore
stroke
grestore
} bind def
339.84 227.537 o
grestore
gsave
/o {
gsave
newpath
translate
0.8 setlinewidth
1 setlinejoin
0 setlinecap
0 0 m
0 -3.5 l

gsave
0.000 setgray
fill
grestore
stroke
grestore
} bind def
429.12 227.537 o
grestore
gsave
/o {
gsave
newpath
translate
0.8 setlinewidth
1 setlinejoin
0 setlinecap
0 0 m
0 -3.5 l

gsave
0.000 setgray
fill
grestore
stroke
grestore
} bind def
518.4 227.537 o
grestore
gsave
/o {
gsave
newpath
translate
0.8 setlinewidth
1 setlinejoin
0 setlinecap
0 0 m
-3.5 0 l

gsave
0.000 setgray
fill
grestore
stroke
grestore
} bind def
72 239.601 o
grestore
gsave
37.546875 235.803633 translate
0.000000 rotate
0.000000 0 m /minus glyphshow
8.378906 0 m /four glyphshow
14.741211 0 m /zero glyphshow
21.103516 0 m /zero glyphshow
grestore
gsave
/o {
gsave
newpath
translate
0.8 setlinewidth
1 setlinejoin
0 setlinecap
0 0 m
-3.5 0 l

gsave
0.000 setgray
fill
grestore
stroke
grestore
} bind def
72 266.851 o
grestore
gsave
37.546875 263.054609 translate
0.000000 rotate
0.000000 0 m /minus glyphshow
8.378906 0 m /two glyphshow
14.741211 0 m /zero glyphshow
21.103516 0 m /zero glyphshow
grestore
gsave
/o {
gsave
newpath
translate
0.8 setlinewidth
1 setlinejoin
0 setlinecap
0 0 m
-3.5 0 l

gsave
0.000 setgray
fill
grestore
stroke
grestore
} bind def
72 294.102 o
grestore
gsave
58.640625 290.305585 translate
0.000000 rotate
0.000000 0 m /zero glyphshow
grestore
gsave
/o {
gsave
newpath
translate
0.8 setlinewidth
1 setlinejoin
0 setlinecap
0 0 m
-3.5 0 l

gsave
0.000 setgray
fill
grestore
stroke
grestore
} bind def
72 321.353 o
grestore
gsave
45.921875 317.556562 translate
0.000000 rotate
0.000000 0 m /two glyphshow
6.362305 0 m /zero glyphshow
12.724609 0 m /zero glyphshow
grestore
gsave
/o {
gsave
newpath
translate
0.8 setlinewidth
1 setlinejoin
0 setlinecap
0 0 m
-3.5 0 l

gsave
0.000 setgray
fill
grestore
stroke
grestore
} bind def
72 348.604 o
grestore
gsave
45.921875 344.807538 translate
0.000000 rotate
0.000000 0 m /four glyphshow
6.362305 0 m /zero glyphshow
12.724609 0 m /zero glyphshow
grestore
gsave
31.468750 282.336013 translate
90.000000 rotate
0.000000 0 m /M glyphshow
8.627930 0 m /H glyphshow
16.147461 0 m /z glyphshow
grestore
1.500 setlinewidth
2 setlinecap
0.122 0.467 0.706 setrgbcolor
gsave
446.4 131 72 227.5 clipbox
72.089128 352.25951 m
74.49557 352.525648 l
76.812885 352.55639 l
79.1302 352.358992 l
81.447515 351.929306 l
83.76483 351.265878 l
86.082145 350.370013 l
88.488588 349.198075 l
90.984158 347.730921 l
93.568855 345.953954 l
96.331808 343.784363 l
99.362143 341.11428 l
102.748988 337.818867 l
106.670598 333.675059 l
111.839993 327.857244 l
117.009388 322.06343 l
117.27677 322.036154 l
117.63328 322.317277 l
119.148448 324.024608 l
124.139588 329.609295 l
127.704688 333.268397 l
130.913278 336.251591 l
133.854485 338.689306 l
136.617438 340.696526 l
139.291263 342.363169 l
141.87596 343.708005 l
144.37153 344.754987 l
146.8671 345.555975 l
149.273543 346.099916 l
151.769113 346.43525 l
154.264683 346.54922 l
156.84938 346.449562 l
159.612333 346.119682 l
162.55354 345.544332 l
165.851258 344.66729 l
169.683741 343.407776 l
174.674881 341.514722 l
188.578771 336.109071 l
193.213401 334.625241 l
197.491521 333.486941 l
201.769641 332.579449 l
206.315143 331.846978 l
211.751921 331.208849 l
225.834066 329.680761 l
229.933931 328.931712 l
233.588158 328.040918 l
237.153258 326.941957 l
241.342251 325.398317 l
244.194331 324.414871 l
245.442116 324.201241 l
246.511646 324.238221 l
247.670303 324.504933 l
249.274598 325.128152 l
251.591913 326.295128 l
254.800503 328.179602 l
258.811241 330.806004 l
263.980636 334.4765 l
277.973654 344.570891 l
281.806136 346.969863 l
285.103854 348.774645 l
288.045061 350.134845 l
290.718886 351.136004 l
293.303584 351.867424 l
295.710026 352.322866 l
298.027341 352.543814 l
300.344656 352.542247 l
302.661971 352.311785 l
304.979286 351.848659 l
307.296601 351.151808 l
309.613916 350.222934 l
312.020359 349.017581 l
314.515929 347.517164 l
317.189754 345.640906 l
320.041834 343.355294 l
323.072169 340.637676 l
326.459014 337.297866 l
330.469751 333.017429 l
335.906529 326.860108 l
340.184649 322.078266 l
340.452031 322.027202 l
340.808541 322.29263 l
342.234581 323.893334 l
347.314849 329.582795 l
350.879949 333.244186 l
354.088539 336.229838 l
357.029747 338.670067 l
359.792699 340.679821 l
362.466524 342.349024 l
365.051222 343.696388 l
367.546792 344.74582 l
370.042362 345.549229 l
372.448804 346.095442 l
374.944374 346.433034 l
377.439944 346.549131 l
380.024642 346.451509 l
382.787594 346.123586 l
385.728802 345.550042 l
389.026519 344.67466 l
392.859002 343.416566 l
397.850142 341.524541 l
411.843159 336.08683 l
416.477789 334.606403 l
420.755909 333.471586 l
425.034029 332.567491 l
429.579532 331.838101 l
435.016309 331.202355 l
449.009327 329.684594 l
453.109192 328.936977 l
456.76342 328.047736 l
460.32852 326.950366 l
464.517512 325.407795 l
467.45872 324.398513 l
468.706505 324.197232 l
469.776035 324.247377 l
471.02382 324.554171 l
472.628115 325.197824 l
475.034557 326.42867 l
478.243147 328.331056 l
482.343012 331.033494 l
487.601535 334.784473 l
500.792405 344.317729 l
504.714015 346.797444 l
508.011732 348.626014 l
510.95294 350.011373 l
513.715892 351.068446 l
516.30059 351.818849 l
517.548375 352.092714 l
517.548375 352.092714 l
stroke
grestore
1.000 0.498 0.055 setrgbcolor
gsave
446.4 131 72 227.5 clipbox
72.089128 297.853415 m
74.49557 298.115123 l
76.812885 298.142609 l
79.1302 297.943029 l
81.447515 297.512288 l
83.76483 296.84896 l
86.082145 295.954345 l
88.488588 294.784893 l
90.89503 293.601063 l
93.479728 295.585498 l
96.24268 297.988694 l
99.273015 300.920951 l
102.748988 304.603858 l
106.93798 309.381748 l
113.800798 317.610063 l
116.92026 321.221756 l
117.187643 321.339876 l
117.455025 321.212343 l
118.257173 320.388763 l
126.635158 311.247563 l
130.289385 307.667627 l
133.587103 304.746733 l
136.617438 302.360805 l
139.469518 300.400659 l
142.143343 298.829125 l
144.72804 297.562986 l
147.22361 296.579897 l
149.71918 295.831628 l
152.21475 295.314413 l
154.71032 295.021281 l
157.295018 294.94327 l
159.968843 295.089232 l
162.731795 295.462552 l
165.673003 296.082257 l
168.970721 297.011668 l
172.714076 298.30961 l
177.259578 300.134666 l
184.657161 303.386093 l
192.678636 306.837944 l
197.937158 308.857545 l
202.750043 310.470918 l
207.652056 311.8757 l
213.088833 313.192628 l
221.466818 314.951876 l
228.953528 316.608527 l
233.855541 317.919591 l
238.490171 319.390106 l
244.105203 321.190226 l
245.352988 321.339422 l
246.422518 321.243423 l
247.581176 320.901008 l
249.096343 320.198077 l
251.235403 318.938107 l
254.087483 316.989283 l
257.652583 314.275429 l
262.108959 310.589402 l
270.219561 303.517964 l
275.834594 298.774438 l
279.756204 295.747072 l
283.053921 293.480367 l
283.232176 293.410543 l
286.351639 295.000161 l
289.203719 296.206776 l
291.877544 297.095608 l
294.373114 297.69339 l
296.779556 298.043024 l
299.096871 298.158568 l
301.414186 298.04938 l
303.731501 297.710336 l
306.048816 297.138944 l
308.366131 296.335423 l
310.772574 295.258512 l
313.268144 293.887632 l
313.981164 293.519928 l
316.565861 295.492512 l
319.328814 297.884295 l
322.359149 300.805705 l
325.835121 304.478595 l
330.024114 309.248204 l
336.708676 317.257857 l
340.095521 321.201546 l
340.362904 321.339407 l
340.630286 321.231572 l
341.343306 320.514415 l
350.612566 310.458969 l
354.177667 307.03199 l
357.386257 304.25133 l
360.327464 301.989386 l
363.090417 300.13591 l
365.764242 298.605843 l
368.348939 297.380657 l
370.844509 296.437294 l
373.340079 295.728349 l
375.835649 295.2495 l
378.331219 294.993258 l
380.915917 294.951391 l
383.589742 295.132039 l
386.441822 295.554384 l
389.472157 296.233906 l
392.769874 297.203693 l
396.602357 298.571069 l
401.415242 300.542255 l
420.399399 308.58962 l
425.301412 310.267261 l
430.114297 311.678821 l
435.372819 312.985189 l
442.592147 314.525991 l
451.861407 316.537453 l
456.852547 317.860422 l
461.487177 319.321326 l
467.369592 321.203278 l
468.617377 321.340051 l
469.686907 321.230434 l
470.845565 320.876056 l
472.360732 320.163853 l
474.499792 318.896973 l
477.441 316.878034 l
481.095227 314.081978 l
485.64073 310.305747 l
501.772807 296.627162 l
505.159652 294.19972 l
506.407437 293.397055 l
509.616027 295.030136 l
512.468107 296.231038 l
515.141932 297.113921 l
517.548375 297.688617 l
517.548375 297.688617 l
stroke
grestore
0.173 0.627 0.173 setrgbcolor
gsave
446.4 131 72 227.5 clipbox
72.089128 288.330558 m
74.317315 288.072379 l
76.456375 288.045116 l
78.595435 288.238422 l
80.734495 288.654446 l
82.873555 289.293038 l
85.101743 290.192224 l
87.419058 291.374822 l
89.8255 292.860168 l
90.805903 293.434238 l
93.3906 291.679885 l
96.153553 289.534117 l
99.183888 286.889164 l
102.481605 283.709527 l
106.314088 279.695494 l
111.2161 274.219128 l
117.187643 267.562399 l
117.455025 267.596051 l
117.98979 268.097238 l
128.150325 279.086683 l
131.358915 282.030773 l
134.300123 284.431164 l
137.063075 286.403105 l
139.7369 288.036307 l
142.321598 289.350229 l
144.817168 290.369317 l
147.312738 291.144876 l
149.808308 291.682253 l
152.303878 291.990295 l
154.888575 292.080481 l
157.5624 291.946335 l
160.41448 291.572579 l
163.444815 290.947209 l
166.831661 290.016917 l
170.842398 288.675329 l
176.368303 286.56925 l
187.598368 282.245823 l
192.411253 280.666486 l
196.778501 279.461735 l
201.145748 278.488805 l
205.691251 277.705964 l
211.038901 277.018658 l
226.279703 275.209892 l
230.290441 274.415858 l
233.944668 273.469509 l
237.598896 272.287615 l
244.996478 269.763654 l
246.066008 269.744155 l
247.224666 269.961319 l
248.650706 270.470508 l
250.700638 271.451867 l
253.641846 273.11996 l
257.474328 275.563833 l
262.287214 278.915161 l
271.378219 285.596755 l
276.993251 289.561146 l
281.003989 292.125921 l
283.232176 293.366414 l
286.084256 291.681092 l
288.758081 290.356826 l
291.253651 289.369435 l
293.570966 288.685174 l
295.799154 288.251112 l
298.027341 288.04605 l
300.166401 288.071063 l
302.305461 288.317363 l
304.444521 288.786556 l
306.583581 289.477938 l
308.811769 290.431117 l
311.129084 291.668139 l
313.535526 293.207419 l
313.981164 293.449771 l
316.565861 291.697868 l
319.328814 289.5545 l
322.359149 286.911894 l
325.656866 283.734415 l
329.489349 279.722305 l
334.391361 274.247384 l
340.362904 267.572704 l
340.630286 267.582308 l
341.075924 267.97491 l
343.482366 270.713324 l
347.938741 275.629758 l
351.503841 279.234721 l
354.712432 282.163388 l
357.653639 284.548093 l
360.416592 286.504301 l
363.001289 288.072221 l
365.585987 289.379605 l
368.081557 290.392373 l
370.577127 291.161704 l
373.072697 291.693038 l
375.568267 291.995309 l
378.152964 292.07989 l
380.826789 291.940425 l
383.678869 291.561611 l
386.709204 290.931641 l
390.096049 289.997215 l
394.106787 288.652157 l
399.632692 286.543781 l
410.684502 282.286006 l
415.497387 280.70094 l
419.953762 279.467905 l
424.321009 278.493678 l
428.866512 277.709662 l
434.214162 277.021422 l
449.454965 275.214101 l
453.465702 274.421496 l
457.11993 273.476702 l
460.68503 272.327904 l
468.260867 269.756363 l
469.330397 269.750053 l
470.489055 269.979502 l
472.004222 270.535977 l
474.143282 271.580115 l
477.173617 273.321138 l
481.0061 275.786223 l
485.908112 279.218692 l
502.3967 291.006138 l
505.9618 293.148892 l
506.496565 293.325561 l
509.348645 291.646167 l
512.02247 290.328236 l
514.51804 289.347325 l
516.835355 288.669498 l
517.548375 288.508255 l
517.548375 288.508255 l
stroke
grestore
0.839 0.153 0.157 setrgbcolor
gsave
446.4 131 72 227.5 clipbox
72.089128 233.786089 m
74.317315 233.532026 l
76.456375 233.507864 l
78.595435 233.70337 l
80.734495 234.120645 l
82.873555 234.759514 l
85.101743 235.657946 l
87.419058 236.83865 l
89.8255 238.320883 l
92.32107 240.119193 l
94.994895 242.319725 l
97.936103 245.034887 l
101.23382 248.394698 l
105.066303 252.631557 l
110.14657 258.606409 l
117.098515 266.793365 l
117.365898 266.855201 l
117.722408 266.604832 l
119.05932 265.150974 l
125.298245 258.30097 l
129.130728 254.429953 l
132.517573 251.314929 l
135.637035 248.745504 l
138.489115 246.67557 l
141.252068 244.942505 l
143.925893 243.531158 l
146.51059 242.420691 l
149.00616 241.586229 l
151.50173 240.982707 l
153.9973 240.604297 l
156.581998 240.440226 l
159.255823 240.500801 l
162.018775 240.791018 l
164.959983 241.329279 l
168.168573 242.151471 l
171.733673 243.302756 l
175.922666 244.896601 l
181.805081 247.397357 l
193.659038 252.479794 l
198.917561 254.457748 l
203.819573 256.066806 l
208.899841 257.49575 l
214.782256 258.906636 l
231.449098 262.745085 l
236.172856 264.166541 l
244.639968 266.827729 l
245.709498 266.846018 l
246.779028 266.640825 l
248.026813 266.167736 l
249.809363 265.23048 l
252.304933 263.644407 l
255.513523 261.330064 l
259.435133 258.218815 l
264.693656 253.740313 l
275.834594 244.175243 l
279.667076 241.223888 l
282.964794 238.959381 l
285.906001 237.209338 l
288.579826 235.875553 l
291.075396 234.877179 l
293.392711 234.180914 l
295.620899 233.733716 l
297.849086 233.514034 l
299.988146 233.523714 l
302.127206 233.753537 l
304.266266 234.205251 l
306.405326 234.878325 l
308.633514 235.811757 l
310.950829 237.027757 l
313.357271 238.544994 l
315.941969 240.447427 l
318.704921 242.769473 l
321.735256 245.622238 l
325.122101 249.132158 l
329.132839 253.627953 l
334.747871 260.291875 l
340.184649 266.704933 l
340.541159 266.860811 l
340.897669 266.628098 l
342.145454 265.278877 l
348.562634 258.233334 l
352.395116 254.367857 l
355.781962 251.258857 l
358.901424 248.695743 l
361.753504 246.632078 l
364.516457 244.905414 l
367.190282 243.500452 l
369.774979 242.39623 l
372.270549 241.567774 l
374.766119 240.970146 l
377.261689 240.59744 l
379.846387 240.438994 l
382.520212 240.505011 l
385.283164 240.800368 l
388.224372 241.343493 l
391.432962 242.170206 l
394.998062 243.325498 l
399.276182 244.958789 l
405.247724 247.503884 l
416.745172 252.434351 l
422.003694 254.417597 l
426.905707 256.032077 l
431.985974 257.466143 l
437.779262 258.861104 l
454.98087 262.837372 l
459.704627 264.275168 l
467.726102 266.81379 l
468.88476 266.84811 l
469.95429 266.647946 l
471.202075 266.178947 l
472.984625 265.244885 l
475.480195 263.661206 l
478.688785 261.348814 l
482.610395 258.239196 l
487.868917 253.761871 l
499.009855 244.195197 l
502.842337 241.241933 l
506.140055 238.975247 l
509.081262 237.222872 l
511.755087 235.886679 l
514.250657 234.885839 l
516.567972 234.187123 l
517.548375 233.961799 l
517.548375 233.961799 l
stroke
grestore
0.800 setlinewidth
0 setlinejoin
[] 0 setdash
0.000 setgray
gsave
72 227.537349 m
72 358.525301 l
stroke
grestore
gsave
518.4 227.537349 m
518.4 358.525301 l
stroke
grestore
gsave
72 227.537349 m
518.4 227.537349 l
stroke
grestore
gsave
72 358.525301 m
518.4 358.525301 l
stroke
grestore
gsave
72 90 m
518.4 90 l
518.4 220.987952 l
72 220.987952 l
cl
1.000 setgray
fill
grestore
1 setlinejoin
0 setlinecap
[] 0 setdash
gsave
/o {
gsave
newpath
translate
0.8 setlinewidth
1 setlinejoin
0 setlinecap
0 0 m
0 -3.5 l

gsave
0.000 setgray
fill
grestore
stroke
grestore
} bind def
72 90 o
grestore
gsave
51.328125 75.406250 translate
0.000000 rotate
0.000000 0 m /zero glyphshow
6.362305 0 m /period glyphshow
9.541016 0 m /zero glyphshow
15.903320 0 m /zero glyphshow
22.265625 0 m /zero glyphshow
28.627930 0 m /zero glyphshow
34.990234 0 m /zero glyphshow
grestore
gsave
/o {
gsave
newpath
translate
0.8 setlinewidth
1 setlinejoin
0 setlinecap
0 0 m
0 -3.5 l

gsave
0.000 setgray
fill
grestore
stroke
grestore
} bind def
161.28 90 o
grestore
gsave
140.608125 75.406250 translate
0.000000 rotate
0.000000 0 m /zero glyphshow
6.362305 0 m /period glyphshow
9.541016 0 m /zero glyphshow
15.903320 0 m /zero glyphshow
22.265625 0 m /zero glyphshow
28.627930 0 m /zero glyphshow
34.990234 0 m /five glyphshow
grestore
gsave
/o {
gsave
newpath
translate
0.8 setlinewidth
1 setlinejoin
0 setlinecap
0 0 m
0 -3.5 l

gsave
0.000 setgray
fill
grestore
stroke
grestore
} bind def
250.56 90 o
grestore
gsave
229.888125 75.406250 translate
0.000000 rotate
0.000000 0 m /zero glyphshow
6.362305 0 m /period glyphshow
9.541016 0 m /zero glyphshow
15.903320 0 m /zero glyphshow
22.265625 0 m /zero glyphshow
28.627930 0 m /one glyphshow
34.990234 0 m /zero glyphshow
grestore
gsave
/o {
gsave
newpath
translate
0.8 setlinewidth
1 setlinejoin
0 setlinecap
0 0 m
0 -3.5 l

gsave
0.000 setgray
fill
grestore
stroke
grestore
} bind def
339.84 90 o
grestore
gsave
319.168125 75.406250 translate
0.000000 rotate
0.000000 0 m /zero glyphshow
6.362305 0 m /period glyphshow
9.541016 0 m /zero glyphshow
15.903320 0 m /zero glyphshow
22.265625 0 m /zero glyphshow
28.627930 0 m /one glyphshow
34.990234 0 m /five glyphshow
grestore
gsave
/o {
gsave
newpath
translate
0.8 setlinewidth
1 setlinejoin
0 setlinecap
0 0 m
0 -3.5 l

gsave
0.000 setgray
fill
grestore
stroke
grestore
} bind def
429.12 90 o
grestore
gsave
408.448125 75.406250 translate
0.000000 rotate
0.000000 0 m /zero glyphshow
6.362305 0 m /period glyphshow
9.541016 0 m /zero glyphshow
15.903320 0 m /zero glyphshow
22.265625 0 m /zero glyphshow
28.627930 0 m /two glyphshow
34.990234 0 m /zero glyphshow
grestore
gsave
/o {
gsave
newpath
translate
0.8 setlinewidth
1 setlinejoin
0 setlinecap
0 0 m
0 -3.5 l

gsave
0.000 setgray
fill
grestore
stroke
grestore
} bind def
518.4 90 o
grestore
gsave
497.728125 75.406250 translate
0.000000 rotate
0.000000 0 m /zero glyphshow
6.362305 0 m /period glyphshow
9.541016 0 m /zero glyphshow
15.903320 0 m /zero glyphshow
22.265625 0 m /zero glyphshow
28.627930 0 m /two glyphshow
34.990234 0 m /five glyphshow
grestore
gsave
256.410937 61.734375 translate
0.000000 rotate
0.000000 0 m /T glyphshow
5.858398 0 m /i glyphshow
8.636719 0 m /m glyphshow
18.377930 0 m /e glyphshow
24.530273 0 m /space glyphshow
27.708984 0 m /parenleft glyphshow
31.610352 0 m /S glyphshow
37.958008 0 m /e glyphshow
44.110352 0 m /c glyphshow
49.608398 0 m /o glyphshow
55.726562 0 m /n glyphshow
62.064453 0 m /d glyphshow
68.412109 0 m /s glyphshow
73.622070 0 m /parenright glyphshow
grestore
gsave
/o {
gsave
newpath
translate
0.8 setlinewidth
1 setlinejoin
0 setlinecap
0 0 m
-3.5 0 l

gsave
0.000 setgray
fill
grestore
stroke
grestore
} bind def
72 95.0842 o
grestore
gsave
28.000000 91.287364 translate
0.000000 rotate
0.000000 0 m /minus glyphshow
8.378906 0 m /two glyphshow
14.741211 0 m /six glyphshow
21.103516 0 m /four glyphshow
27.465820 0 m /period glyphshow
30.644531 0 m /two glyphshow
grestore
gsave
/o {
gsave
newpath
translate
0.8 setlinewidth
1 setlinejoin
0 setlinecap
0 0 m
-3.5 0 l

gsave
0.000 setgray
fill
grestore
stroke
grestore
} bind def
72 116.974 o
grestore
gsave
28.000000 113.176855 translate
0.000000 rotate
0.000000 0 m /minus glyphshow
8.378906 0 m /two glyphshow
14.741211 0 m /six glyphshow
21.103516 0 m /four glyphshow
27.465820 0 m /period glyphshow
30.644531 0 m /zero glyphshow
grestore
gsave
/o {
gsave
newpath
translate
0.8 setlinewidth
1 setlinejoin
0 setlinecap
0 0 m
-3.5 0 l

gsave
0.000 setgray
fill
grestore
stroke
grestore
} bind def
72 138.863 o
grestore
gsave
28.000000 135.066346 translate
0.000000 rotate
0.000000 0 m /minus glyphshow
8.378906 0 m /two glyphshow
14.741211 0 m /six glyphshow
21.103516 0 m /three glyphshow
27.465820 0 m /period glyphshow
30.644531 0 m /eight glyphshow
grestore
gsave
/o {
gsave
newpath
translate
0.8 setlinewidth
1 setlinejoin
0 setlinecap
0 0 m
-3.5 0 l

gsave
0.000 setgray
fill
grestore
stroke
grestore
} bind def
72 160.753 o
grestore
gsave
28.000000 156.955837 translate
0.000000 rotate
0.000000 0 m /minus glyphshow
8.378906 0 m /two glyphshow
14.741211 0 m /six glyphshow
21.103516 0 m /three glyphshow
27.465820 0 m /period glyphshow
30.644531 0 m /six glyphshow
grestore
gsave
/o {
gsave
newpath
translate
0.8 setlinewidth
1 setlinejoin
0 setlinecap
0 0 m
-3.5 0 l

gsave
0.000 setgray
fill
grestore
stroke
grestore
} bind def
72 182.642 o
grestore
gsave
28.000000 178.845328 translate
0.000000 rotate
0.000000 0 m /minus glyphshow
8.378906 0 m /two glyphshow
14.741211 0 m /six glyphshow
21.103516 0 m /three glyphshow
27.465820 0 m /period glyphshow
30.644531 0 m /four glyphshow
grestore
gsave
/o {
gsave
newpath
translate
0.8 setlinewidth
1 setlinejoin
0 setlinecap
0 0 m
-3.5 0 l

gsave
0.000 setgray
fill
grestore
stroke
grestore
} bind def
72 204.532 o
grestore
gsave
28.000000 200.734819 translate
0.000000 rotate
0.000000 0 m /minus glyphshow
8.378906 0 m /two glyphshow
14.741211 0 m /six glyphshow
21.103516 0 m /three glyphshow
27.465820 0 m /period glyphshow
30.644531 0 m /two glyphshow
grestore
gsave
21.921875 145.236163 translate
90.000000 rotate
0.000000 0 m /G glyphshow
7.749023 0 m /H glyphshow
15.268555 0 m /z glyphshow
grestore
1.500 setlinewidth
2 setlinecap
0.122 0.467 0.706 setrgbcolor
gsave
446.4 131 72 90 clipbox
72.089128 200.452911 m
73.960805 199.190372 l
75.92161 197.60395 l
78.06067 195.577639 l
80.288858 193.157931 l
82.784428 190.105174 l
85.54738 186.354351 l
88.75597 181.599088 l
92.855835 175.089329 l
103.818518 157.460375 l
106.93798 152.98224 l
109.611805 149.520394 l
112.018248 146.766422 l
114.157308 144.646779 l
116.118113 143.002032 l
117.98979 141.717178 l
119.77234 140.766119 l
121.465763 140.118553 l
123.070058 139.74144 l
124.674353 139.598522 l
126.18952 139.680808 l
127.704688 139.974853 l
129.308983 140.516223 l
130.913278 141.291751 l
132.6067 142.359788 l
134.38925 143.753292 l
136.260928 145.502418 l
138.31086 147.736805 l
140.539048 150.51684 l
142.94549 153.891233 l
145.619315 158.034435 l
148.738778 163.293914 l
152.749515 170.526678 l
164.781728 192.532766 l
167.990318 197.760626 l
170.753271 201.841828 l
173.159713 205.020176 l
175.387901 207.613806 l
177.437833 209.67984 l
179.398638 211.35334 l
181.270316 212.664583 l
183.052866 213.647613 l
184.746288 214.338633 l
186.439711 214.792657 l
188.133133 215.011392 l
189.826556 214.998557 l
191.519978 214.759836 l
193.302528 214.27288 l
195.085078 213.555075 l
197.045883 212.514582 l
199.095816 211.167114 l
201.324003 209.431546 l
203.819573 207.197577 l
206.760781 204.246316 l
210.415008 200.243729 l
222.179838 187.108994 l
225.121046 184.286809 l
227.705743 182.100871 l
230.112186 180.356261 l
232.340373 179.018565 l
234.390306 178.040936 l
236.351111 177.343294 l
238.311916 176.884179 l
240.183593 176.671017 l
242.055271 176.677194 l
243.926948 176.899324 l
245.887753 177.356867 l
247.937686 178.07007 l
250.076746 179.053665 l
252.394061 180.370166 l
254.978758 182.107186 l
257.919966 184.363761 l
261.663321 187.534541 l
272.002111 196.457963 l
274.943319 198.608195 l
277.438889 200.165322 l
279.667076 201.304133 l
281.717009 202.113274 l
283.677814 202.652324 l
285.549491 202.937233 l
287.332041 202.989094 l
289.114591 202.818783 l
290.897141 202.420699 l
292.679691 201.7916 l
294.462241 200.930651 l
296.333919 199.778913 l
298.294724 198.305294 l
300.344656 196.48214 l
302.572844 194.189347 l
304.979286 191.375822 l
307.563984 188.004613 l
310.505191 183.795436 l
314.070291 178.287595 l
319.685324 169.135086 l
325.567739 159.670989 l
328.954584 154.631349 l
331.806664 150.775672 l
334.302234 147.770918 l
336.530421 145.427365 l
338.580354 143.585982 l
340.452031 142.189347 l
342.234581 141.126744 l
343.928004 140.369516 l
345.532299 139.885985 l
347.136594 139.634964 l
348.651761 139.6143 l
350.166929 139.805237 l
351.771224 140.237996 l
353.375519 140.906257 l
355.068942 141.863378 l
356.851492 143.143651 l
358.723169 144.778853 l
360.683974 146.796756 l
362.823034 149.33167 l
365.140349 152.437729 l
367.725047 156.2931 l
370.666254 161.100501 l
374.231354 167.379532 l
379.757259 177.632789 l
385.996184 189.087208 l
389.561284 195.16501 l
392.502492 199.752516 l
395.087189 203.385997 l
397.404504 206.279977 l
399.543564 208.616308 l
401.593497 210.533224 l
403.554302 212.058258 l
405.336852 213.175086 l
407.119402 214.030849 l
408.812824 214.600509 l
410.506247 214.933793 l
412.199669 215.033442 l
413.893092 214.904188 l
415.586514 214.552695 l
417.369064 213.952009 l
419.240742 213.079674 l
421.201547 211.917956 l
423.340607 210.386382 l
425.657922 208.451413 l
428.331747 205.918266 l
431.540337 202.551815 l
436.085839 197.420351 l
443.305167 189.272648 l
446.602884 185.896701 l
449.365837 183.366973 l
451.861407 181.372514 l
454.178722 179.803055 l
456.317782 178.618538 l
458.367715 177.736121 l
460.32852 177.132498 l
462.200197 176.780197 l
464.071875 176.647908 l
465.943552 176.734043 l
467.904357 177.053692 l
469.865162 177.599815 l
471.915095 178.400286 l
474.143282 179.516961 l
476.549725 180.981843 l
479.22355 182.878549 l
482.43214 185.445301 l
486.888515 189.326662 l
493.751332 195.297767 l
496.959922 197.77961 l
499.633747 199.571421 l
501.951062 200.867009 l
504.090122 201.815965 l
506.050927 202.454164 l
507.922605 202.839858 l
509.794282 202.994178 l
511.576832 202.91663 l
513.359382 202.613346 l
515.141932 202.080099 l
516.924482 201.315053 l
517.548375 200.992561 l
517.548375 200.992561 l
stroke
grestore
1.000 0.498 0.055 setrgbcolor
gsave
446.4 131 72 90 clipbox
72.089128 156.750957 m
73.960805 155.485577 l
75.92161 153.896726 l
78.06067 151.868451 l
80.288858 149.447503 l
82.784428 146.394369 l
85.54738 142.644383 l
88.75597 137.891707 l
92.855835 131.387577 l
103.72939 113.916141 l
106.848853 109.43393 l
109.522678 105.9656 l
111.92912 103.203404 l
114.06818 101.074562 l
116.028985 99.419851 l
117.900663 98.124157 l
119.683213 97.161614 l
121.376635 96.50214 l
122.98093 96.112896 l
124.585225 95.957074 l
126.100393 96.026514 l
127.704688 96.330205 l
129.308983 96.869839 l
130.913278 97.642928 l
132.6067 98.707609 l
134.38925 100.096701 l
136.260928 101.840218 l
138.31086 104.067318 l
140.539048 106.838098 l
142.94549 110.200989 l
145.619315 114.329677 l
148.738778 119.570131 l
152.749515 126.775628 l
164.6926 148.538876 l
167.901191 153.755218 l
170.664143 157.830057 l
173.159713 161.115913 l
175.387901 163.695177 l
177.437833 165.74901 l
179.398638 167.411869 l
181.270316 168.713987 l
183.052866 169.689338 l
184.746288 170.374031 l
186.439711 170.822718 l
188.133133 171.037144 l
189.826556 171.021058 l
191.519978 170.780167 l
193.302528 170.292113 l
195.085078 169.574433 l
197.045883 168.53549 l
199.095816 167.191208 l
201.324003 165.46088 l
203.819573 163.234898 l
206.760781 160.295758 l
210.504136 156.211685 l
221.912456 143.527459 l
224.942791 140.618628 l
227.527488 138.432166 l
229.933931 136.684274 l
232.162118 135.341363 l
234.212051 134.357298 l
236.172856 133.652231 l
238.133661 133.184653 l
240.005338 132.96264 l
241.877016 132.95941 l
243.748693 133.171776 l
245.709498 133.618933 l
247.759431 134.321358 l
249.898491 135.294078 l
252.215806 136.59957 l
254.800503 138.325686 l
257.741711 140.57219 l
261.485066 143.734672 l
272.091239 152.876728 l
274.943319 154.952309 l
277.438889 156.50405 l
279.667076 157.637627 l
281.717009 158.441734 l
283.677814 158.975885 l
285.549491 159.256134 l
287.332041 159.30365 l
289.114591 159.129159 l
290.897141 158.727124 l
292.679691 158.094364 l
294.462241 157.230102 l
296.333919 156.075312 l
298.294724 154.599023 l
300.344656 152.773702 l
302.572844 150.479327 l
304.979286 147.665039 l
307.563984 144.294125 l
310.505191 140.086676 l
314.070291 134.582811 l
319.685324 125.440159 l
325.567739 115.989628 l
328.954584 110.958435 l
331.806664 107.109771 l
334.302234 104.110813 l
336.530421 101.771985 l
338.580354 99.934442 l
340.452031 98.540789 l
342.234581 97.480485 l
343.928004 96.724888 l
345.532299 96.242359 l
347.136594 95.991767 l
348.740889 95.976289 l
350.256056 96.178925 l
351.860351 96.623369 l
353.464646 97.302477 l
355.158069 98.270014 l
356.940619 99.559973 l
358.812297 101.203793 l
360.773102 103.228873 l
362.912162 105.7693 l
365.229477 108.878446 l
367.814174 112.733564 l
370.755382 117.535807 l
374.320482 123.80162 l
380.024642 134.35243 l
385.996184 145.259678 l
389.561284 151.309869 l
392.502492 155.875338 l
395.087189 159.49039 l
397.404504 162.368844 l
399.543564 164.691861 l
401.593497 166.597075 l
403.554302 168.111997 l
405.336852 169.22063 l
407.119402 170.069215 l
408.812824 170.63305 l
410.506247 170.961518 l
412.199669 171.057397 l
413.893092 170.925443 l
415.586514 170.57234 l
417.369064 169.971149 l
419.240742 169.099603 l
421.201547 167.940152 l
423.340607 166.412706 l
425.657922 164.484105 l
428.331747 161.960645 l
431.540337 158.608893 l
436.085839 153.503285 l
443.216039 145.500656 l
446.602884 142.054966 l
449.365837 139.546787 l
451.861407 137.571809 l
454.178722 136.020209 l
456.317782 134.851795 l
458.367715 133.984316 l
460.32852 133.394409 l
462.200197 133.054581 l
464.071875 132.934073 l
465.943552 133.031227 l
467.904357 133.361529 l
469.865162 133.917332 l
471.915095 134.726827 l
474.143282 135.851994 l
476.549725 137.324466 l
479.22355 139.227667 l
482.43214 141.799554 l
486.977642 145.762875 l
493.662205 151.576607 l
496.870795 154.061701 l
499.54462 155.857682 l
501.861935 157.158005 l
504.000995 158.11226 l
505.9618 158.756087 l
507.833477 159.147819 l
509.705155 159.308793 l
511.487705 159.238114 l
513.270255 158.942172 l
515.052805 158.416683 l
516.835355 157.659753 l
517.548375 157.292212 l
517.548375 157.292212 l
stroke
grestore
0.800 setlinewidth
0 setlinejoin
[] 0 setdash
0.000 setgray
gsave
72 90 m
72 220.987952 l
stroke
grestore
gsave
518.4 90 m
518.4 220.987952 l
stroke
grestore
gsave
72 90 m
518.4 90 l
stroke
grestore
gsave
72 220.987952 m
518.4 220.987952 l
stroke
grestore

end
showpage
%%EOF
