# Field Profile:
9.3599999999999994,-6.3243550646241342
9.3609999999999989,-6.5821088667824199
9.3619999999999983,-8.4611573955399333
9.3629999999999978,-11.892360594572782
9.3639999999999972,-16.050622327335457
9.3649999999999967,-11.532557406007033
9.3659999999999961,-11.116659139085272
9.3669999999999956,-17.114416371196771
9.367999999999995,-33.970772559781629
9.3689999999999944,-52.969608358422072
9.3699999999999939,-84.021816333959251
9.3709999999999933,-98.391356015459465
9.3719999999999928,-102.44778546318901
9.3729999999999922,-94.701037895884809
9.3739999999999917,-84.302171065170072
9.3749999999999911,-73.135583723643293
9.3759999999999906,-63.708219887425741
9.37699999999999,-58.958066183185942
9.3779999999999895,-41.909757862171304
9.3789999999999889,-32.878411866400263
9.3799999999999883,-29.316222862298979
9.3809999999999878,-23.227534338843498
9.3819999999999872,-14.81911210025474
9.3829999999999867,0.15377198426000918
9.3839999999999861,18.990130803185025
9.3849999999999856,32.292861334996992
9.385999999999985,46.10498074305459
9.3869999999999845,54.265200522695181
9.3879999999999839,60.018100205302929
9.3889999999999834,60.162431939804762
9.3899999999999828,64.867746923101805
9.3909999999999823,64.931842119202088
9.3919999999999817,63.190341047882548
9.3929999999999811,56.675919509076444
9.3939999999999806,53.254125432710588
9.39499999999998,50.251330007671577
9.3959999999999795,48.612404164322186
9.3969999999999789,46.213346843880487
9.3979999999999784,45.374590820812166
9.3989999999999778,44.751267398836106
9.3999999999999773,43.155740727406204
9.4009999999999767,34.753249232347876
9.4019999999999762,20.969309347214555
9.4029999999999756,13.069786868988313
9.403999999999975,9.2843807394626641
9.4049999999999745,9.1780947225056835
9.4059999999999739,8.9568832151314552
9.4069999999999734,8.8228121439833043
9.4079999999999728,8.4396247696829949
9.4089999999999723,8.4603010164624077
9.4099999999999717,8.5429849776649167
