# Field Profile:
9.3599999999999994,-8.9758314201604428
9.3612500000000001,-10.918258548999745
9.3625000000000007,-11.290250244144964
9.3637500000000014,-12.981866453314217
9.365000000000002,-16.968809880401231
9.3662500000000026,-17.43232502330012
9.3675000000000033,-19.479044081486993
9.3687500000000039,-28.456342290976806
9.3700000000000045,-30.138811977510162
9.3712500000000052,-33.554661513055699
9.3725000000000058,-21.102429322003239
9.3737500000000065,-16.335287362324408
9.3750000000000071,-11.451411739122232
9.3762500000000077,-8.5888353473163832
9.3775000000000084,-7.0301250944890752
9.378750000000009,-6.2061433199642702
9.3800000000000097,-5.6168324264011069
9.3812500000000103,-4.9723214006537155
9.3825000000000109,-1.6871481499091903
9.3837500000000116,-0.37691092432115714
9.3850000000000122,1.9382932071880685
9.3862500000000129,1.8413757840476264
9.3875000000000135,1.9318773907811164
9.3887500000000141,3.5818975185865209
9.3900000000000148,7.5069774946039667
9.3912500000000154,8.5659393619065032
9.3925000000000161,10.498442546742098
9.3937500000000167,13.135336894238026
9.3950000000000173,16.626042398948574
9.396250000000018,20.03390544854604
9.3975000000000186,44.979694319171401
9.3987500000000193,34.237611687819317
9.4000000000000199,34.44818542239728
9.4012500000000205,22.663672024565731
9.4025000000000212,17.776839097391324
9.4037500000000218,14.603196391894237
9.4050000000000225,12.66504046669025
9.4062500000000231,11.184623227189011
9.4075000000000237,10.188622750547404
9.4087500000000244,9.7502487224739056
