%!PS-Adobe-3.0
%%DocumentPaperSizes: letter
%%Pages: 1
%%Title: assets/TOPDNP/topdnp_xband.ps
%%Creator: matplotlib version 3.2.2, http://matplotlib.org/
%%CreationDate: Sun Sep 27 22:11:50 2020
%%Orientation: portrait
%%BoundingBox: -54.0 108.0 666.0 684.0
%%EndComments
%%BeginProlog
/mpldict 8 dict def
mpldict begin
/m { moveto } bind def
/l { lineto } bind def
/r { rlineto } bind def
/c { curveto } bind def
/cl { closepath } bind def
/box {
m
1 index 0 r
0 exch r
neg 0 r
cl
} bind def
/clipbox {
box
clip
newpath
} bind def
%!PS-Adobe-3.0 Resource-Font
%%Title: DejaVu Sans
%%Copyright: Copyright (c) 2003 by Bitstream, Inc. All Rights Reserved. Copyright (c) 2006 by Tavmjong Bah. All Rights Reserved. DejaVu changes are in public domain 
%%Creator: Converted from TrueType to type 3 by PPR
25 dict begin
/_d{bind def}bind def
/_m{moveto}_d
/_l{lineto}_d
/_cl{closepath eofill}_d
/_c{curveto}_d
/_sc{7 -1 roll{setcachedevice}{pop pop pop pop pop pop}ifelse}_d
/_e{exec}_d
/FontName /DejaVuSans def
/PaintType 0 def
/FontMatrix[.001 0 0 .001 0 0]def
/FontBBox[-1021 -463 1793 1232]def
/FontType 3 def
/Encoding [ /period /zero /one /two /three /four /five /seven /eight /nine /k /minus ] def
/FontInfo 10 dict dup begin
/FamilyName (DejaVu Sans) def
/FullName (DejaVu Sans) def
/Notice (Copyright (c) 2003 by Bitstream, Inc. All Rights Reserved. Copyright (c) 2006 by Tavmjong Bah. All Rights Reserved. DejaVu changes are in public domain ) def
/Weight (Book) def
/Version (Version 2.35) def
/ItalicAngle 0.0 def
/isFixedPitch false def
/UnderlinePosition -130 def
/UnderlineThickness 90 def
end readonly def
/CharStrings 13 dict dup begin
/.notdef 0 def
/period{318 0 107 0 210 124 _sc
107 124 _m
210 124 _l
210 0 _l
107 0 _l
107 124 _l
_cl}_d
/zero{636 0 66 -13 570 742 _sc
318 664 _m
267 664 229 639 203 589 _c
177 539 165 464 165 364 _c
165 264 177 189 203 139 _c
229 89 267 64 318 64 _c
369 64 407 89 433 139 _c
458 189 471 264 471 364 _c
471 464 458 539 433 589 _c
407 639 369 664 318 664 _c
318 742 _m
399 742 461 709 505 645 _c
548 580 570 486 570 364 _c
570 241 548 147 505 83 _c
461 19 399 -13 318 -13 _c
236 -13 173 19 130 83 _c
87 147 66 241 66 364 _c
66 486 87 580 130 645 _c
173 709 236 742 318 742 _c
_cl}_d
/one{636 0 110 0 544 729 _sc
124 83 _m
285 83 _l
285 639 _l
110 604 _l
110 694 _l
284 729 _l
383 729 _l
383 83 _l
544 83 _l
544 0 _l
124 0 _l
124 83 _l
_cl}_d
/two{{636 0 73 0 536 742 _sc
192 83 _m
536 83 _l
536 0 _l
73 0 _l
73 83 _l
110 121 161 173 226 239 _c
290 304 331 346 348 365 _c
380 400 402 430 414 455 _c
426 479 433 504 433 528 _c
433 566 419 598 392 622 _c
365 646 330 659 286 659 _c
255 659 222 653 188 643 _c
154 632 117 616 78 594 _c
78 694 _l
118 710 155 722 189 730 _c
223 738 255 742 284 742 _c
}_e{359 742 419 723 464 685 _c
509 647 532 597 532 534 _c
532 504 526 475 515 449 _c
504 422 484 390 454 354 _c
446 344 420 317 376 272 _c
332 227 271 164 192 83 _c
_cl}_e}_d
/three{{636 0 76 -13 556 742 _sc
406 393 _m
453 383 490 362 516 330 _c
542 298 556 258 556 212 _c
556 140 531 84 482 45 _c
432 6 362 -13 271 -13 _c
240 -13 208 -10 176 -4 _c
144 1 110 10 76 22 _c
76 117 _l
103 101 133 89 166 81 _c
198 73 232 69 268 69 _c
330 69 377 81 409 105 _c
441 129 458 165 458 212 _c
458 254 443 288 413 312 _c
383 336 341 349 287 349 _c
}_e{202 349 _l
202 430 _l
291 430 _l
339 430 376 439 402 459 _c
428 478 441 506 441 543 _c
441 580 427 609 401 629 _c
374 649 336 659 287 659 _c
260 659 231 656 200 650 _c
169 644 135 635 98 623 _c
98 711 _l
135 721 170 729 203 734 _c
235 739 266 742 296 742 _c
370 742 429 725 473 691 _c
517 657 539 611 539 553 _c
539 513 527 479 504 451 _c
481 423 448 403 406 393 _c
_cl}_e}_d
/four{636 0 49 0 580 729 _sc
378 643 _m
129 254 _l
378 254 _l
378 643 _l
352 729 _m
476 729 _l
476 254 _l
580 254 _l
580 172 _l
476 172 _l
476 0 _l
378 0 _l
378 172 _l
49 172 _l
49 267 _l
352 729 _l
_cl}_d
/five{{636 0 77 -13 549 729 _sc
108 729 _m
495 729 _l
495 646 _l
198 646 _l
198 467 _l
212 472 227 476 241 478 _c
255 480 270 482 284 482 _c
365 482 429 459 477 415 _c
525 370 549 310 549 234 _c
549 155 524 94 475 51 _c
426 8 357 -13 269 -13 _c
238 -13 207 -10 175 -6 _c
143 -1 111 6 77 17 _c
77 116 _l
106 100 136 88 168 80 _c
199 72 232 69 267 69 _c
}_e{323 69 368 83 401 113 _c
433 143 450 183 450 234 _c
450 284 433 324 401 354 _c
368 384 323 399 267 399 _c
241 399 214 396 188 390 _c
162 384 135 375 108 363 _c
108 729 _l
_cl}_e}_d
/seven{636 0 82 0 551 729 _sc
82 729 _m
551 729 _l
551 687 _l
286 0 _l
183 0 _l
432 646 _l
82 646 _l
82 729 _l
_cl}_d
/eight{{636 0 68 -13 568 742 _sc
318 346 _m
271 346 234 333 207 308 _c
180 283 167 249 167 205 _c
167 161 180 126 207 101 _c
234 76 271 64 318 64 _c
364 64 401 76 428 102 _c
455 127 469 161 469 205 _c
469 249 455 283 429 308 _c
402 333 365 346 318 346 _c
219 388 _m
177 398 144 418 120 447 _c
96 476 85 511 85 553 _c
85 611 105 657 147 691 _c
188 725 245 742 318 742 _c
}_e{390 742 447 725 489 691 _c
530 657 551 611 551 553 _c
551 511 539 476 515 447 _c
491 418 459 398 417 388 _c
464 377 501 355 528 323 _c
554 291 568 251 568 205 _c
568 134 546 80 503 43 _c
459 5 398 -13 318 -13 _c
237 -13 175 5 132 43 _c
89 80 68 134 68 205 _c
68 251 81 291 108 323 _c
134 355 171 377 219 388 _c
183 544 _m
183 506 194 476 218 455 _c
}_e{242 434 275 424 318 424 _c
360 424 393 434 417 455 _c
441 476 453 506 453 544 _c
453 582 441 611 417 632 _c
393 653 360 664 318 664 _c
275 664 242 653 218 632 _c
194 611 183 582 183 544 _c
_cl}_e}_d
/nine{{636 0 63 -13 566 742 _sc
110 15 _m
110 105 _l
134 93 159 84 185 78 _c
210 72 235 69 260 69 _c
324 69 374 90 408 134 _c
442 178 462 244 468 334 _c
448 306 424 284 396 269 _c
367 254 335 247 300 247 _c
226 247 168 269 126 313 _c
84 357 63 417 63 494 _c
63 568 85 628 129 674 _c
173 719 232 742 306 742 _c
390 742 455 709 499 645 _c
543 580 566 486 566 364 _c
}_e{566 248 538 157 484 89 _c
429 21 356 -13 264 -13 _c
239 -13 214 -10 189 -6 _c
163 -2 137 5 110 15 _c
306 324 _m
350 324 385 339 411 369 _c
437 399 450 441 450 494 _c
450 546 437 588 411 618 _c
385 648 350 664 306 664 _c
262 664 227 648 201 618 _c
175 588 162 546 162 494 _c
162 441 175 399 201 369 _c
227 339 262 324 306 324 _c
_cl}_e}_d
/k{579 0 91 0 576 760 _sc
91 760 _m
181 760 _l
181 311 _l
449 547 _l
564 547 _l
274 291 _l
576 0 _l
459 0 _l
181 267 _l
181 0 _l
91 0 _l
91 760 _l
_cl}_d
/minus{838 0 106 272 732 355 _sc
106 355 _m
732 355 _l
732 272 _l
106 272 _l
106 355 _l
_cl}_d
end readonly def

/BuildGlyph
 {exch begin
 CharStrings exch
 2 copy known not{pop /.notdef}if
 true 3 1 roll get exec
 end}_d

/BuildChar {
 1 index /Encoding get exch get
 1 index /BuildGlyph get exec
}_d

FontName currentdict end definefont pop
end
%%EndProlog
%%Page: 1 1
mpldict begin
-54 108 translate
720 576 0 0 clipbox
gsave
0 0 m
720 0 l
720 576 l
0 576 l
cl
1.000 setgray
fill
grestore
gsave
90 72 m
648 72 l
648 506.88 l
90 506.88 l
cl
1.000 setgray
fill
grestore
0.800 setlinewidth
1 setlinejoin
0 setlinecap
[] 0 setdash
0.000 setgray
gsave
/o {
gsave
newpath
translate
0.8 setlinewidth
1 setlinejoin
0 setlinecap
0 0 m
0 -3.5 l

gsave
0.000 setgray
fill
grestore
stroke
grestore
} bind def
154.054 72 o
grestore
/DejaVuSans findfont
10.000 scalefont
setfont
gsave
142.921117 57.406250 translate
0.000000 rotate
0.000000 0 m /nine glyphshow
6.362305 0 m /period glyphshow
9.541016 0 m /seven glyphshow
15.903320 0 m /nine glyphshow
grestore
gsave
/o {
gsave
newpath
translate
0.8 setlinewidth
1 setlinejoin
0 setlinecap
0 0 m
0 -3.5 l

gsave
0.000 setgray
fill
grestore
stroke
grestore
} bind def
240.032 72 o
grestore
gsave
228.899545 57.406250 translate
0.000000 rotate
0.000000 0 m /nine glyphshow
6.362305 0 m /period glyphshow
9.541016 0 m /eight glyphshow
15.903320 0 m /zero glyphshow
grestore
gsave
/o {
gsave
newpath
translate
0.8 setlinewidth
1 setlinejoin
0 setlinecap
0 0 m
0 -3.5 l

gsave
0.000 setgray
fill
grestore
stroke
grestore
} bind def
326.011 72 o
grestore
gsave
314.877973 57.406250 translate
0.000000 rotate
0.000000 0 m /nine glyphshow
6.362305 0 m /period glyphshow
9.541016 0 m /eight glyphshow
15.903320 0 m /one glyphshow
grestore
gsave
/o {
gsave
newpath
translate
0.8 setlinewidth
1 setlinejoin
0 setlinecap
0 0 m
0 -3.5 l

gsave
0.000 setgray
fill
grestore
stroke
grestore
} bind def
411.989 72 o
grestore
gsave
400.856402 57.406250 translate
0.000000 rotate
0.000000 0 m /nine glyphshow
6.362305 0 m /period glyphshow
9.541016 0 m /eight glyphshow
15.903320 0 m /two glyphshow
grestore
gsave
/o {
gsave
newpath
translate
0.8 setlinewidth
1 setlinejoin
0 setlinecap
0 0 m
0 -3.5 l

gsave
0.000 setgray
fill
grestore
stroke
grestore
} bind def
497.968 72 o
grestore
gsave
486.834830 57.406250 translate
0.000000 rotate
0.000000 0 m /nine glyphshow
6.362305 0 m /period glyphshow
9.541016 0 m /eight glyphshow
15.903320 0 m /three glyphshow
grestore
gsave
/o {
gsave
newpath
translate
0.8 setlinewidth
1 setlinejoin
0 setlinecap
0 0 m
0 -3.5 l

gsave
0.000 setgray
fill
grestore
stroke
grestore
} bind def
583.946 72 o
grestore
gsave
572.813258 57.406250 translate
0.000000 rotate
0.000000 0 m /nine glyphshow
6.362305 0 m /period glyphshow
9.541016 0 m /eight glyphshow
15.903320 0 m /four glyphshow
grestore
gsave
/o {
gsave
newpath
translate
0.8 setlinewidth
1 setlinejoin
0 setlinecap
0 0 m
-3.5 0 l

gsave
0.000 setgray
fill
grestore
stroke
grestore
} bind def
90 111.687 o
grestore
gsave
55.546875 107.890011 translate
0.000000 rotate
0.000000 0 m /minus glyphshow
8.378906 0 m /one glyphshow
14.741211 0 m /five glyphshow
21.103516 0 m /zero glyphshow
grestore
gsave
/o {
gsave
newpath
translate
0.8 setlinewidth
1 setlinejoin
0 setlinecap
0 0 m
-3.5 0 l

gsave
0.000 setgray
fill
grestore
stroke
grestore
} bind def
90 171.557 o
grestore
gsave
55.546875 167.760206 translate
0.000000 rotate
0.000000 0 m /minus glyphshow
8.378906 0 m /one glyphshow
14.741211 0 m /zero glyphshow
21.103516 0 m /zero glyphshow
grestore
gsave
/o {
gsave
newpath
translate
0.8 setlinewidth
1 setlinejoin
0 setlinecap
0 0 m
-3.5 0 l

gsave
0.000 setgray
fill
grestore
stroke
grestore
} bind def
90 231.427 o
grestore
gsave
61.906250 227.630402 translate
0.000000 rotate
0.000000 0 m /minus glyphshow
8.378906 0 m /five glyphshow
14.741211 0 m /zero glyphshow
grestore
gsave
/o {
gsave
newpath
translate
0.8 setlinewidth
1 setlinejoin
0 setlinecap
0 0 m
-3.5 0 l

gsave
0.000 setgray
fill
grestore
stroke
grestore
} bind def
90 291.297 o
grestore
gsave
76.640625 287.500597 translate
0.000000 rotate
0.000000 0 m /zero glyphshow
grestore
gsave
/o {
gsave
newpath
translate
0.8 setlinewidth
1 setlinejoin
0 setlinecap
0 0 m
-3.5 0 l

gsave
0.000 setgray
fill
grestore
stroke
grestore
} bind def
90 351.168 o
grestore
gsave
70.281250 347.370793 translate
0.000000 rotate
0.000000 0 m /five glyphshow
6.362305 0 m /zero glyphshow
grestore
gsave
/o {
gsave
newpath
translate
0.8 setlinewidth
1 setlinejoin
0 setlinecap
0 0 m
-3.5 0 l

gsave
0.000 setgray
fill
grestore
stroke
grestore
} bind def
90 411.038 o
grestore
gsave
63.921875 407.240989 translate
0.000000 rotate
0.000000 0 m /one glyphshow
6.362305 0 m /zero glyphshow
12.724609 0 m /zero glyphshow
grestore
gsave
/o {
gsave
newpath
translate
0.8 setlinewidth
1 setlinejoin
0 setlinecap
0 0 m
-3.5 0 l

gsave
0.000 setgray
fill
grestore
stroke
grestore
} bind def
90 470.908 o
grestore
gsave
63.921875 467.111184 translate
0.000000 rotate
0.000000 0 m /one glyphshow
6.362305 0 m /five glyphshow
12.724609 0 m /zero glyphshow
grestore
1.500 setlinewidth
2 setlinecap
0.406 0.147 0.997 setrgbcolor
gsave
558 434.9 90 72 clipbox
115.363636 354.160659 m
119.662558 382.920371 l
123.961479 409.327649 l
128.260401 432.012587 l
132.559322 446.544903 l
136.858243 455.239989 l
141.157165 456.117396 l
145.456086 455.083068 l
149.755008 461.18925 l
154.053929 470.9958 l
158.352851 469.994425 l
162.651772 457.613299 l
166.950693 432.467526 l
171.249615 403.407793 l
175.548536 377.012379 l
179.847458 353.952512 l
184.146379 334.518561 l
188.4453 324.078574 l
192.744222 321.2261 l
197.043143 323.451661 l
201.342065 329.201374 l
205.640986 335.82547 l
209.939908 346.615118 l
214.238829 364.459785 l
218.53775 385.45984 l
222.836672 404.78525 l
227.135593 423.985782 l
231.434515 440.273528 l
235.733436 447.251685 l
240.032357 451.24972 l
244.331279 450.011516 l
248.6302 448.18456 l
252.929122 450.342579 l
257.228043 452.816331 l
261.526965 443.199393 l
265.825886 419.652643 l
270.124807 385.556609 l
274.423729 351.183703 l
278.72265 319.913391 l
283.021572 293.85482 l
287.320493 273.911691 l
291.619414 262.610646 l
295.918336 259.436868 l
300.217257 259.959673 l
304.516179 258.822136 l
308.8151 258.095609 l
313.114022 267.270509 l
317.412943 290.268226 l
321.711864 317.960178 l
326.010786 343.110033 l
330.309707 366.049749 l
334.608629 384.823275 l
338.90755 395.807112 l
343.206471 400.542411 l
347.505393 400.404735 l
351.804314 400.818087 l
356.103236 403.052291 l
360.402157 400.492508 l
364.701079 384.772105 l
369 354.779549 l
373.298921 317.134651 l
377.597843 279.510834 l
381.896764 247.057485 l
386.195686 221.785521 l
390.494607 204.167958 l
394.793529 194.46213 l
399.09245 188.908395 l
403.391371 181.451398 l
407.690293 172.288256 l
411.989214 170.29462 l
416.288136 181.489739 l
420.587057 205.447333 l
424.885978 232.888025 l
429.1849 257.251545 l
433.483821 278.952642 l
437.782743 299.817262 l
442.081664 314.301671 l
446.380586 320.803204 l
450.679507 324.268692 l
454.978428 328.153369 l
459.27735 331.180758 l
463.576271 326.179918 l
467.875193 307.209636 l
472.174114 276.257697 l
476.473035 242.994224 l
480.771957 210.628039 l
485.070878 185.643943 l
489.3698 166.121495 l
493.668721 154.214993 l
497.967643 147.921659 l
502.266564 141.051939 l
506.565485 128.282979 l
510.864407 117.456046 l
515.163328 115.13563 l
519.46225 123.644001 l
523.761171 143.220511 l
528.060092 167.267853 l
532.359014 188.990333 l
536.657935 211.245519 l
540.956857 233.392248 l
545.255778 247.531905 l
549.5547 255.515226 l
553.853621 261.062458 l
558.152542 262.70638 l
562.451464 260.730699 l
566.750385 251.636392 l
571.049307 234.025021 l
575.348228 212.047622 l
579.647149 190.448061 l
583.946071 169.761068 l
588.244992 153.612487 l
592.543914 142.247803 l
596.842835 135.523469 l
601.141757 133.70692 l
605.440678 129.862831 l
609.739599 117.39047 l
614.038521 108.111088 l
618.337442 111.274286 l
622.636364 129.316017 l
stroke
grestore
1.000 setlinewidth
0 setlinecap
gsave
558 434.9 90 72 clipbox
/o {
gsave
newpath
translate
1.0 setlinewidth
1 setlinejoin
0 setlinecap
0 -3 m
0.795609 -3 1.55874 -2.683901 2.12132 -2.12132 c
2.683901 -1.55874 3 -0.795609 3 0 c
3 0.795609 2.683901 1.55874 2.12132 2.12132 c
1.55874 2.683901 0.795609 3 0 3 c
-0.795609 3 -1.55874 2.683901 -2.12132 2.12132 c
-2.683901 1.55874 -3 0.795609 -3 0 c
-3 -0.795609 -2.683901 -1.55874 -2.12132 -2.12132 c
-1.55874 -2.683901 -0.795609 -3 0 -3 c
cl

gsave
grestore
stroke
grestore
} bind def
115.364 354.161 o
119.663 382.92 o
123.961 409.328 o
128.26 432.013 o
132.559 446.545 o
136.858 455.24 o
141.157 456.117 o
145.456 455.083 o
149.755 461.189 o
154.054 470.996 o
158.353 469.994 o
162.652 457.613 o
166.951 432.468 o
171.25 403.408 o
175.549 377.012 o
179.847 353.953 o
184.146 334.519 o
188.445 324.079 o
192.744 321.226 o
197.043 323.452 o
201.342 329.201 o
205.641 335.825 o
209.94 346.615 o
214.239 364.46 o
218.538 385.46 o
222.837 404.785 o
227.136 423.986 o
231.435 440.274 o
235.733 447.252 o
240.032 451.25 o
244.331 450.012 o
248.63 448.185 o
252.929 450.343 o
257.228 452.816 o
261.527 443.199 o
265.826 419.653 o
270.125 385.557 o
274.424 351.184 o
278.723 319.913 o
283.022 293.855 o
287.32 273.912 o
291.619 262.611 o
295.918 259.437 o
300.217 259.96 o
304.516 258.822 o
308.815 258.096 o
313.114 267.271 o
317.413 290.268 o
321.712 317.96 o
326.011 343.11 o
330.31 366.05 o
334.609 384.823 o
338.908 395.807 o
343.206 400.542 o
347.505 400.405 o
351.804 400.818 o
356.103 403.052 o
360.402 400.493 o
364.701 384.772 o
369 354.78 o
373.299 317.135 o
377.598 279.511 o
381.897 247.057 o
386.196 221.786 o
390.495 204.168 o
394.794 194.462 o
399.092 188.908 o
403.391 181.451 o
407.69 172.288 o
411.989 170.295 o
416.288 181.49 o
420.587 205.447 o
424.886 232.888 o
429.185 257.252 o
433.484 278.953 o
437.783 299.817 o
442.082 314.302 o
446.381 320.803 o
450.68 324.269 o
454.978 328.153 o
459.277 331.181 o
463.576 326.18 o
467.875 307.21 o
472.174 276.258 o
476.473 242.994 o
480.772 210.628 o
485.071 185.644 o
489.37 166.121 o
493.669 154.215 o
497.968 147.922 o
502.267 141.052 o
506.565 128.283 o
510.864 117.456 o
515.163 115.136 o
519.462 123.644 o
523.761 143.221 o
528.06 167.268 o
532.359 188.99 o
536.658 211.246 o
540.957 233.392 o
545.256 247.532 o
549.555 255.515 o
553.854 261.062 o
558.153 262.706 o
562.451 260.731 o
566.75 251.636 o
571.049 234.025 o
575.348 212.048 o
579.647 190.448 o
583.946 169.761 o
588.245 153.612 o
592.544 142.248 o
596.843 135.523 o
601.142 133.707 o
605.441 129.863 o
609.74 117.39 o
614.039 108.111 o
618.337 111.274 o
622.636 129.316 o
grestore
1.500 setlinewidth
2 setlinecap
0.198 0.890 0.853 setrgbcolor
gsave
558 434.9 90 72 clipbox
115.363636 356.704411 m
119.662558 386.627479 l
123.961479 414.717151 l
128.260401 438.729167 l
132.559322 454.120433 l
136.858243 464.252872 l
141.157165 466.35242 l
145.456086 466.003191 l
149.755008 471.710909 l
154.053929 480.346426 l
158.352851 478.539648 l
162.651772 465.777684 l
166.950693 440.620995 l
171.249615 411.340845 l
175.548536 384.365529 l
179.847458 360.367933 l
184.146379 339.886137 l
188.4453 328.329144 l
192.744222 324.632736 l
197.043143 326.650362 l
201.342065 332.641196 l
205.640986 339.734024 l
209.939908 350.966805 l
214.238829 369.517495 l
218.53775 391.329035 l
222.836672 411.248872 l
227.135593 431.237729 l
231.434515 447.502293 l
235.733436 454.849909 l
240.032357 459.713352 l
244.331279 459.476671 l
248.6302 457.947713 l
252.929122 458.955549 l
257.228043 460.103204 l
261.526965 449.633015 l
265.825886 425.250649 l
270.124807 390.430371 l
274.423729 355.070791 l
278.72265 321.93588 l
283.021572 294.051523 l
287.320493 273.062725 l
291.619414 261.17831 l
295.918336 257.560322 l
300.217257 257.933928 l
304.516179 256.816472 l
308.8151 256.328917 l
313.114022 265.982682 l
317.412943 289.699496 l
321.711864 318.195323 l
326.010786 344.211327 l
330.309707 368.374946 l
334.608629 388.043792 l
338.90755 400.193124 l
343.206471 406.044297 l
347.505393 406.673243 l
351.804314 407.374871 l
356.103236 408.972738 l
360.402157 405.568411 l
364.701079 389.181791 l
369 358.463712 l
373.298921 319.853519 l
377.597843 280.928422 l
381.896764 247.044078 l
386.195686 220.179022 l
390.494607 200.805603 l
394.793529 189.408166 l
399.09245 182.781414 l
403.391371 175.270176 l
407.690293 166.51657 l
411.989214 165.000237 l
416.288136 176.393438 l
420.587057 200.445833 l
424.885978 228.468503 l
429.1849 253.945635 l
433.483821 277.141046 l
437.782743 299.264473 l
442.081664 314.732165 l
446.380586 321.801455 l
450.679507 325.550689 l
454.978428 330.017267 l
459.27735 333.528136 l
463.576271 328.540754 l
467.875193 309.207911 l
472.174114 277.536313 l
476.473035 243.160896 l
480.771957 209.738446 l
485.070878 183.599121 l
489.3698 162.154243 l
493.668721 147.907067 l
497.967643 139.674997 l
502.266564 132.102562 l
506.565485 119.604559 l
510.864407 109.182715 l
515.163328 107.268525 l
519.46225 115.549684 l
523.761171 134.612451 l
528.060092 158.691861 l
532.359014 180.873204 l
536.657935 203.728101 l
540.956857 226.674541 l
545.255778 241.872171 l
549.5547 250.84984 l
553.853621 257.14197 l
558.152542 259.34416 l
562.451464 257.575608 l
566.750385 248.479733 l
571.049307 230.557679 l
575.348228 207.847409 l
579.647149 185.291006 l
583.946071 163.248945 l
588.244992 146.617729 l
592.543914 134.597136 l
596.842835 126.59878 l
601.141757 123.620081 l
605.440678 119.073537 l
609.739599 107.09278 l
614.038521 98.551563 l
618.337442 102.410525 l
622.636364 120.61495 l
stroke
grestore
1.000 setlinewidth
0 setlinecap
gsave
558 434.9 90 72 clipbox
/o {
gsave
newpath
translate
1.0 setlinewidth
1 setlinejoin
0 setlinecap
0 -3 m
0.795609 -3 1.55874 -2.683901 2.12132 -2.12132 c
2.683901 -1.55874 3 -0.795609 3 0 c
3 0.795609 2.683901 1.55874 2.12132 2.12132 c
1.55874 2.683901 0.795609 3 0 3 c
-0.795609 3 -1.55874 2.683901 -2.12132 2.12132 c
-2.683901 1.55874 -3 0.795609 -3 0 c
-3 -0.795609 -2.683901 -1.55874 -2.12132 -2.12132 c
-1.55874 -2.683901 -0.795609 -3 0 -3 c
cl

gsave
grestore
stroke
grestore
} bind def
115.364 356.704 o
119.663 386.627 o
123.961 414.717 o
128.26 438.729 o
132.559 454.12 o
136.858 464.253 o
141.157 466.352 o
145.456 466.003 o
149.755 471.711 o
154.054 480.346 o
158.353 478.54 o
162.652 465.778 o
166.951 440.621 o
171.25 411.341 o
175.549 384.366 o
179.847 360.368 o
184.146 339.886 o
188.445 328.329 o
192.744 324.633 o
197.043 326.65 o
201.342 332.641 o
205.641 339.734 o
209.94 350.967 o
214.239 369.517 o
218.538 391.329 o
222.837 411.249 o
227.136 431.238 o
231.435 447.502 o
235.733 454.85 o
240.032 459.713 o
244.331 459.477 o
248.63 457.948 o
252.929 458.956 o
257.228 460.103 o
261.527 449.633 o
265.826 425.251 o
270.125 390.43 o
274.424 355.071 o
278.723 321.936 o
283.022 294.052 o
287.32 273.063 o
291.619 261.178 o
295.918 257.56 o
300.217 257.934 o
304.516 256.816 o
308.815 256.329 o
313.114 265.983 o
317.413 289.699 o
321.712 318.195 o
326.011 344.211 o
330.31 368.375 o
334.609 388.044 o
338.908 400.193 o
343.206 406.044 o
347.505 406.673 o
351.804 407.375 o
356.103 408.973 o
360.402 405.568 o
364.701 389.182 o
369 358.464 o
373.299 319.854 o
377.598 280.928 o
381.897 247.044 o
386.196 220.179 o
390.495 200.806 o
394.794 189.408 o
399.092 182.781 o
403.391 175.27 o
407.69 166.517 o
411.989 165 o
416.288 176.393 o
420.587 200.446 o
424.886 228.469 o
429.185 253.946 o
433.484 277.141 o
437.783 299.264 o
442.082 314.732 o
446.381 321.801 o
450.68 325.551 o
454.978 330.017 o
459.277 333.528 o
463.576 328.541 o
467.875 309.208 o
472.174 277.536 o
476.473 243.161 o
480.772 209.738 o
485.071 183.599 o
489.37 162.154 o
493.669 147.907 o
497.968 139.675 o
502.267 132.103 o
506.565 119.605 o
510.864 109.183 o
515.163 107.269 o
519.462 115.55 o
523.761 134.612 o
528.06 158.692 o
532.359 180.873 o
536.658 203.728 o
540.957 226.675 o
545.256 241.872 o
549.555 250.85 o
553.854 257.142 o
558.153 259.344 o
562.451 257.576 o
566.75 248.48 o
571.049 230.558 o
575.348 207.847 o
579.647 185.291 o
583.946 163.249 o
588.245 146.618 o
592.544 134.597 o
596.843 126.599 o
601.142 123.62 o
605.441 119.074 o
609.74 107.093 o
614.039 98.5516 o
618.337 102.411 o
622.636 120.615 o
grestore
1.500 setlinewidth
2 setlinecap
0.802 0.890 0.521 setrgbcolor
gsave
558 434.9 90 72 clipbox
115.363636 357.799705 m
119.662558 388.197313 l
123.961479 416.78619 l
128.260401 441.307827 l
132.559322 457.744848 l
136.858243 468.988794 l
141.157165 472.147952 l
145.456086 472.00838 l
149.755008 477.085879 l
154.053929 485.097366 l
158.352851 482.863311 l
162.651772 469.755012 l
166.950693 444.556563 l
171.249615 415.40649 l
175.548536 387.957554 l
179.847458 363.364717 l
184.146379 342.328327 l
188.4453 330.333317 l
192.744222 326.221919 l
197.043143 328.084279 l
201.342065 334.114267 l
205.640986 341.382221 l
209.939908 352.844373 l
214.238829 371.718057 l
218.53775 393.904024 l
222.836672 414.122194 l
227.135593 434.247552 l
231.434515 450.713352 l
235.733436 458.836723 l
240.032357 464.419146 l
244.331279 464.862266 l
248.6302 463.280469 l
252.929122 463.493961 l
257.228043 464.062248 l
261.526965 453.120636 l
265.825886 428.198871 l
270.124807 392.967011 l
274.423729 357.208304 l
278.72265 323.143128 l
283.021572 294.441653 l
287.320493 272.810723 l
291.619414 260.437084 l
295.918336 256.463511 l
300.217257 256.653581 l
304.516179 255.643158 l
308.8151 255.408621 l
313.114022 265.349256 l
317.412943 289.360075 l
321.711864 318.169309 l
326.010786 344.529758 l
330.309707 369.054146 l
334.608629 389.314885 l
338.90755 402.439605 l
343.206471 409.159004 l
347.505393 410.362032 l
351.804314 410.982305 l
356.103236 412.053374 l
360.402157 408.267017 l
364.701079 391.509394 l
369 360.348239 l
373.298921 321.385126 l
377.597843 282.095296 l
381.896764 247.396831 l
386.195686 219.419679 l
390.494607 198.919313 l
394.793529 186.46618 l
399.09245 179.407671 l
403.391371 171.989239 l
407.690293 163.519311 l
411.989214 162.303079 l
416.288136 173.871621 l
420.587057 197.935074 l
424.885978 226.122165 l
429.1849 252.198034 l
433.483821 276.105221 l
437.782743 298.842862 l
442.081664 314.834932 l
446.380586 322.361564 l
450.679507 326.392945 l
454.978428 331.11782 l
459.27735 334.703573 l
463.576271 329.600205 l
467.875193 310.089583 l
472.174114 278.184395 l
476.473035 243.495036 l
480.771957 209.837886 l
485.070878 182.886783 l
489.3698 160.102269 l
493.668721 144.442841 l
497.967643 135.036126 l
502.266564 127.349091 l
506.565485 115.067705 l
510.864407 104.924017 l
515.163328 103.304746 l
519.46225 111.658812 l
523.761171 130.489949 l
528.060092 154.562713 l
532.359014 177.05231 l
536.657935 200.211781 l
540.956857 223.62491 l
545.255778 239.231104 l
549.5547 248.637534 l
553.853621 255.259995 l
558.152542 257.775858 l
562.451464 256.144957 l
566.750385 247.043768 l
571.049307 229.02221 l
575.348228 206.004225 l
579.647149 183.044651 l
583.946071 160.694913 l
588.244992 143.601956 l
592.543914 130.739568 l
596.842835 121.732658 l
601.141757 117.864554 l
605.440678 113.368251 l
609.739599 101.903345 l
614.038521 93.76602 l
618.337442 98.009815 l
622.636364 116.408785 l
stroke
grestore
1.000 setlinewidth
0 setlinecap
gsave
558 434.9 90 72 clipbox
/o {
gsave
newpath
translate
1.0 setlinewidth
1 setlinejoin
0 setlinecap
0 -3 m
0.795609 -3 1.55874 -2.683901 2.12132 -2.12132 c
2.683901 -1.55874 3 -0.795609 3 0 c
3 0.795609 2.683901 1.55874 2.12132 2.12132 c
1.55874 2.683901 0.795609 3 0 3 c
-0.795609 3 -1.55874 2.683901 -2.12132 2.12132 c
-2.683901 1.55874 -3 0.795609 -3 0 c
-3 -0.795609 -2.683901 -1.55874 -2.12132 -2.12132 c
-1.55874 -2.683901 -0.795609 -3 0 -3 c
cl

gsave
grestore
stroke
grestore
} bind def
115.364 357.8 o
119.663 388.197 o
123.961 416.786 o
128.26 441.308 o
132.559 457.745 o
136.858 468.989 o
141.157 472.148 o
145.456 472.008 o
149.755 477.086 o
154.054 485.097 o
158.353 482.863 o
162.652 469.755 o
166.951 444.557 o
171.25 415.406 o
175.549 387.958 o
179.847 363.365 o
184.146 342.328 o
188.445 330.333 o
192.744 326.222 o
197.043 328.084 o
201.342 334.114 o
205.641 341.382 o
209.94 352.844 o
214.239 371.718 o
218.538 393.904 o
222.837 414.122 o
227.136 434.248 o
231.435 450.713 o
235.733 458.837 o
240.032 464.419 o
244.331 464.862 o
248.63 463.28 o
252.929 463.494 o
257.228 464.062 o
261.527 453.121 o
265.826 428.199 o
270.125 392.967 o
274.424 357.208 o
278.723 323.143 o
283.022 294.442 o
287.32 272.811 o
291.619 260.437 o
295.918 256.464 o
300.217 256.654 o
304.516 255.643 o
308.815 255.409 o
313.114 265.349 o
317.413 289.36 o
321.712 318.169 o
326.011 344.53 o
330.31 369.054 o
334.609 389.315 o
338.908 402.44 o
343.206 409.159 o
347.505 410.362 o
351.804 410.982 o
356.103 412.053 o
360.402 408.267 o
364.701 391.509 o
369 360.348 o
373.299 321.385 o
377.598 282.095 o
381.897 247.397 o
386.196 219.42 o
390.495 198.919 o
394.794 186.466 o
399.092 179.408 o
403.391 171.989 o
407.69 163.519 o
411.989 162.303 o
416.288 173.872 o
420.587 197.935 o
424.886 226.122 o
429.185 252.198 o
433.484 276.105 o
437.783 298.843 o
442.082 314.835 o
446.381 322.362 o
450.68 326.393 o
454.978 331.118 o
459.277 334.704 o
463.576 329.6 o
467.875 310.09 o
472.174 278.184 o
476.473 243.495 o
480.772 209.838 o
485.071 182.887 o
489.37 160.102 o
493.669 144.443 o
497.968 135.036 o
502.267 127.349 o
506.565 115.068 o
510.864 104.924 o
515.163 103.305 o
519.462 111.659 o
523.761 130.49 o
528.06 154.563 o
532.359 177.052 o
536.658 200.212 o
540.957 223.625 o
545.256 239.231 o
549.555 248.638 o
553.854 255.26 o
558.153 257.776 o
562.451 256.145 o
566.75 247.044 o
571.049 229.022 o
575.348 206.004 o
579.647 183.045 o
583.946 160.695 o
588.245 143.602 o
592.544 130.74 o
596.843 121.733 o
601.142 117.865 o
605.441 113.368 o
609.74 101.903 o
614.039 93.766 o
618.337 98.0098 o
622.636 116.409 o
grestore
1.500 setlinewidth
2 setlinecap
1.000 0.147 0.074 setrgbcolor
gsave
558 434.9 90 72 clipbox
115.363636 358.139834 m
119.662558 388.669213 l
123.961479 417.362773 l
128.260401 442.185568 l
132.559322 459.204214 l
136.858243 470.985446 l
141.157165 474.582688 l
145.456086 474.502485 l
149.755008 479.350965 l
154.053929 487.112727 l
158.352851 484.632295 l
162.651772 471.283874 l
166.950693 445.980612 l
171.249615 416.797132 l
175.548536 389.189569 l
179.847458 364.472166 l
184.146379 343.247825 l
188.4453 331.032708 l
192.744222 326.79245 l
197.043143 328.59982 l
201.342065 334.617833 l
205.640986 341.949865 l
209.939908 353.503025 l
214.238829 372.467192 l
218.53775 394.783054 l
222.836672 415.105211 l
227.135593 435.273215 l
231.434515 451.955978 l
235.733436 460.453056 l
240.032357 466.394041 l
244.331279 467.051059 l
248.6302 465.44895 l
252.929122 465.423055 l
257.228043 465.736305 l
261.526965 454.538236 l
265.825886 429.363545 l
270.124807 393.928535 l
274.423729 357.922936 l
278.72265 323.607872 l
283.021572 294.677069 l
287.320493 272.764039 l
291.619414 260.057883 l
295.918336 255.882968 l
300.217257 256.036477 l
304.516179 255.123149 l
308.8151 255.031735 l
313.114022 265.107648 l
317.412943 289.217138 l
321.711864 318.107919 l
326.010786 344.545518 l
330.309707 369.211927 l
334.608629 389.816721 l
338.90755 403.398378 l
343.206471 410.522952 l
347.505393 411.924875 l
351.804314 412.493452 l
356.103236 413.38092 l
360.402157 409.413318 l
364.701079 392.451929 l
369 361.096199 l
373.298921 322.009555 l
377.597843 282.554361 l
381.896764 247.571807 l
386.195686 219.126641 l
390.494607 198.111266 l
394.793529 185.211343 l
399.09245 177.952365 l
403.391371 170.57285 l
407.690293 162.237163 l
411.989214 161.176257 l
416.288136 172.857534 l
420.587057 197.007314 l
424.885978 225.295051 l
429.1849 251.527415 l
433.483821 275.618963 l
437.782743 298.628918 l
442.081664 314.946803 l
446.380586 322.715182 l
450.679507 326.869962 l
454.978428 331.628035 l
459.27735 335.168081 l
463.576271 329.982647 l
467.875193 310.403344 l
472.174114 278.459811 l
476.473035 243.748286 l
480.771957 209.987851 l
485.070878 182.658595 l
489.3698 159.244236 l
493.668721 142.995376 l
497.967643 133.160722 l
502.266564 125.364698 l
506.565485 113.16352 l
510.864407 103.153562 l
515.163328 101.688858 l
519.46225 110.122743 l
523.761171 129.018191 l
528.060092 153.15952 l
532.359014 175.702943 l
536.657935 198.889751 l
540.956857 222.469268 l
545.255778 238.294817 l
549.5547 247.828135 l
553.853621 254.564373 l
558.152542 257.205039 l
562.451464 255.620545 l
566.750385 246.525379 l
571.049307 228.506659 l
575.348228 205.414217 l
579.647149 182.36237 l
583.946071 159.933488 l
588.244992 142.51971 l
592.543914 129.151099 l
596.842835 119.674555 l
601.141757 115.450799 l
605.440678 110.993766 l
609.739599 99.713103 l
614.038521 91.767273 l
618.337442 96.23418 l
622.636364 114.800964 l
stroke
grestore
1.000 setlinewidth
0 setlinecap
gsave
558 434.9 90 72 clipbox
/o {
gsave
newpath
translate
1.0 setlinewidth
1 setlinejoin
0 setlinecap
0 -3 m
0.795609 -3 1.55874 -2.683901 2.12132 -2.12132 c
2.683901 -1.55874 3 -0.795609 3 0 c
3 0.795609 2.683901 1.55874 2.12132 2.12132 c
1.55874 2.683901 0.795609 3 0 3 c
-0.795609 3 -1.55874 2.683901 -2.12132 2.12132 c
-2.683901 1.55874 -3 0.795609 -3 0 c
-3 -0.795609 -2.683901 -1.55874 -2.12132 -2.12132 c
-1.55874 -2.683901 -0.795609 -3 0 -3 c
cl

gsave
grestore
stroke
grestore
} bind def
115.364 358.14 o
119.663 388.669 o
123.961 417.363 o
128.26 442.186 o
132.559 459.204 o
136.858 470.985 o
141.157 474.583 o
145.456 474.502 o
149.755 479.351 o
154.054 487.113 o
158.353 484.632 o
162.652 471.284 o
166.951 445.981 o
171.25 416.797 o
175.549 389.19 o
179.847 364.472 o
184.146 343.248 o
188.445 331.033 o
192.744 326.792 o
197.043 328.6 o
201.342 334.618 o
205.641 341.95 o
209.94 353.503 o
214.239 372.467 o
218.538 394.783 o
222.837 415.105 o
227.136 435.273 o
231.435 451.956 o
235.733 460.453 o
240.032 466.394 o
244.331 467.051 o
248.63 465.449 o
252.929 465.423 o
257.228 465.736 o
261.527 454.538 o
265.826 429.364 o
270.125 393.929 o
274.424 357.923 o
278.723 323.608 o
283.022 294.677 o
287.32 272.764 o
291.619 260.058 o
295.918 255.883 o
300.217 256.036 o
304.516 255.123 o
308.815 255.032 o
313.114 265.108 o
317.413 289.217 o
321.712 318.108 o
326.011 344.546 o
330.31 369.212 o
334.609 389.817 o
338.908 403.398 o
343.206 410.523 o
347.505 411.925 o
351.804 412.493 o
356.103 413.381 o
360.402 409.413 o
364.701 392.452 o
369 361.096 o
373.299 322.01 o
377.598 282.554 o
381.897 247.572 o
386.196 219.127 o
390.495 198.111 o
394.794 185.211 o
399.092 177.952 o
403.391 170.573 o
407.69 162.237 o
411.989 161.176 o
416.288 172.858 o
420.587 197.007 o
424.886 225.295 o
429.185 251.527 o
433.484 275.619 o
437.783 298.629 o
442.082 314.947 o
446.381 322.715 o
450.68 326.87 o
454.978 331.628 o
459.277 335.168 o
463.576 329.983 o
467.875 310.403 o
472.174 278.46 o
476.473 243.748 o
480.772 209.988 o
485.071 182.659 o
489.37 159.244 o
493.669 142.995 o
497.968 133.161 o
502.267 125.365 o
506.565 113.164 o
510.864 103.154 o
515.163 101.689 o
519.462 110.123 o
523.761 129.018 o
528.06 153.16 o
532.359 175.703 o
536.658 198.89 o
540.957 222.469 o
545.256 238.295 o
549.555 247.828 o
553.854 254.564 o
558.153 257.205 o
562.451 255.621 o
566.75 246.525 o
571.049 228.507 o
575.348 205.414 o
579.647 182.362 o
583.946 159.933 o
588.245 142.52 o
592.544 129.151 o
596.843 119.675 o
601.142 115.451 o
605.441 110.994 o
609.74 99.7131 o
614.039 91.7673 o
618.337 96.2342 o
622.636 114.801 o
grestore
0.800 setlinewidth
0 setlinejoin
2 setlinecap
[] 0 setdash
0.000 setgray
gsave
90 72 m
90 506.88 l
stroke
grestore
gsave
648 72 m
648 506.88 l
stroke
grestore
gsave
90 72 m
648 72 l
stroke
grestore
gsave
90 506.88 m
648 506.88 l
stroke
grestore
1.000 setlinewidth
0 setlinecap
0.800 setgray
gsave
590.484375 440.1925 m
641 440.1925 l
642.333333 440.1925 643 440.859167 643 442.1925 c
643 499.88 l
643 501.213333 642.333333 501.88 641 501.88 c
590.484375 501.88 l
589.151042 501.88 588.484375 501.213333 588.484375 499.88 c
588.484375 442.1925 l
588.484375 440.859167 589.151042 440.1925 590.484375 440.1925 c
cl
gsave
1.000 setgray
fill
grestore
stroke
grestore
1.500 setlinewidth
1 setlinejoin
2 setlinecap
[] 0 setdash
0.406 0.147 0.997 setrgbcolor
gsave
592.484375 493.78625 m
612.484375 493.78625 l
stroke
grestore
1.000 setlinewidth
0 setlinecap
gsave
/o {
gsave
newpath
translate
1.0 setlinewidth
1 setlinejoin
0 setlinecap
0 -3 m
0.795609 -3 1.55874 -2.683901 2.12132 -2.12132 c
2.683901 -1.55874 3 -0.795609 3 0 c
3 0.795609 2.683901 1.55874 2.12132 2.12132 c
1.55874 2.683901 0.795609 3 0 3 c
-0.795609 3 -1.55874 2.683901 -2.12132 2.12132 c
-2.683901 1.55874 -3 0.795609 -3 0 c
-3 -0.795609 -2.683901 -1.55874 -2.12132 -2.12132 c
-1.55874 -2.683901 -0.795609 -3 0 -3 c
cl

gsave
grestore
stroke
grestore
} bind def
602.484 493.786 o
grestore
0.000 setgray
gsave
620.484375 490.286250 translate
0.000000 rotate
0.000000 0 m /five glyphshow
6.362305 0 m /k glyphshow
grestore
1.500 setlinewidth
2 setlinecap
0.198 0.890 0.853 setrgbcolor
gsave
592.484375 479.114375 m
612.484375 479.114375 l
stroke
grestore
1.000 setlinewidth
0 setlinecap
gsave
/o {
gsave
newpath
translate
1.0 setlinewidth
1 setlinejoin
0 setlinecap
0 -3 m
0.795609 -3 1.55874 -2.683901 2.12132 -2.12132 c
2.683901 -1.55874 3 -0.795609 3 0 c
3 0.795609 2.683901 1.55874 2.12132 2.12132 c
1.55874 2.683901 0.795609 3 0 3 c
-0.795609 3 -1.55874 2.683901 -2.12132 2.12132 c
-2.683901 1.55874 -3 0.795609 -3 0 c
-3 -0.795609 -2.683901 -1.55874 -2.12132 -2.12132 c
-1.55874 -2.683901 -0.795609 -3 0 -3 c
cl

gsave
grestore
stroke
grestore
} bind def
602.484 479.114 o
grestore
0.000 setgray
gsave
620.484375 475.614375 translate
0.000000 rotate
0.000000 0 m /one glyphshow
6.362305 0 m /zero glyphshow
12.724609 0 m /k glyphshow
grestore
1.500 setlinewidth
2 setlinecap
0.802 0.890 0.521 setrgbcolor
gsave
592.484375 464.4425 m
612.484375 464.4425 l
stroke
grestore
1.000 setlinewidth
0 setlinecap
gsave
/o {
gsave
newpath
translate
1.0 setlinewidth
1 setlinejoin
0 setlinecap
0 -3 m
0.795609 -3 1.55874 -2.683901 2.12132 -2.12132 c
2.683901 -1.55874 3 -0.795609 3 0 c
3 0.795609 2.683901 1.55874 2.12132 2.12132 c
1.55874 2.683901 0.795609 3 0 3 c
-0.795609 3 -1.55874 2.683901 -2.12132 2.12132 c
-2.683901 1.55874 -3 0.795609 -3 0 c
-3 -0.795609 -2.683901 -1.55874 -2.12132 -2.12132 c
-1.55874 -2.683901 -0.795609 -3 0 -3 c
cl

gsave
grestore
stroke
grestore
} bind def
602.484 464.442 o
grestore
0.000 setgray
gsave
620.484375 460.942500 translate
0.000000 rotate
0.000000 0 m /two glyphshow
6.362305 0 m /zero glyphshow
12.724609 0 m /k glyphshow
grestore
1.500 setlinewidth
2 setlinecap
1.000 0.147 0.074 setrgbcolor
gsave
592.484375 449.770625 m
612.484375 449.770625 l
stroke
grestore
1.000 setlinewidth
0 setlinecap
gsave
/o {
gsave
newpath
translate
1.0 setlinewidth
1 setlinejoin
0 setlinecap
0 -3 m
0.795609 -3 1.55874 -2.683901 2.12132 -2.12132 c
2.683901 -1.55874 3 -0.795609 3 0 c
3 0.795609 2.683901 1.55874 2.12132 2.12132 c
1.55874 2.683901 0.795609 3 0 3 c
-0.795609 3 -1.55874 2.683901 -2.12132 2.12132 c
-2.683901 1.55874 -3 0.795609 -3 0 c
-3 -0.795609 -2.683901 -1.55874 -2.12132 -2.12132 c
-1.55874 -2.683901 -0.795609 -3 0 -3 c
cl

gsave
grestore
stroke
grestore
} bind def
602.484 449.771 o
grestore
0.000 setgray
gsave
620.484375 446.270625 translate
0.000000 rotate
0.000000 0 m /four glyphshow
6.362305 0 m /zero glyphshow
12.724609 0 m /k glyphshow
grestore

end
showpage
%%EOF
