%!PS-Adobe-3.0
%%DocumentPaperSizes: letter
%%Pages: 1
%%Title: assets/TOPDNP/topdnp_800MHz_trityl.ps
%%Creator: matplotlib version 3.2.2, http://matplotlib.org/
%%CreationDate: Sun Sep 27 21:54:43 2020
%%Orientation: portrait
%%BoundingBox: 18.0 252.0 594.0 540.0
%%EndComments
%%BeginProlog
/mpldict 8 dict def
mpldict begin
/m { moveto } bind def
/l { lineto } bind def
/r { rlineto } bind def
/c { curveto } bind def
/cl { closepath } bind def
/box {
m
1 index 0 r
0 exch r
neg 0 r
cl
} bind def
/clipbox {
box
clip
newpath
} bind def
%!PS-Adobe-3.0 Resource-Font
%%Title: DejaVu Sans
%%Copyright: Copyright (c) 2003 by Bitstream, Inc. All Rights Reserved. Copyright (c) 2006 by Tavmjong Bah. All Rights Reserved. DejaVu changes are in public domain 
%%Creator: Converted from TrueType to type 3 by PPR
25 dict begin
/_d{bind def}bind def
/_m{moveto}_d
/_l{lineto}_d
/_cl{closepath eofill}_d
/_c{curveto}_d
/_sc{7 -1 roll{setcachedevice}{pop pop pop pop pop pop}ifelse}_d
/_e{exec}_d
/FontName /DejaVuSans def
/PaintType 0 def
/FontMatrix[.001 0 0 .001 0 0]def
/FontBBox[-1021 -463 1793 1232]def
/FontType 3 def
/Encoding [ /period /zero /one /two /five /six /seven /eight /nine /minus ] def
/FontInfo 10 dict dup begin
/FamilyName (DejaVu Sans) def
/FullName (DejaVu Sans) def
/Notice (Copyright (c) 2003 by Bitstream, Inc. All Rights Reserved. Copyright (c) 2006 by Tavmjong Bah. All Rights Reserved. DejaVu changes are in public domain ) def
/Weight (Book) def
/Version (Version 2.35) def
/ItalicAngle 0.0 def
/isFixedPitch false def
/UnderlinePosition -130 def
/UnderlineThickness 90 def
end readonly def
/CharStrings 11 dict dup begin
/.notdef 0 def
/period{318 0 107 0 210 124 _sc
107 124 _m
210 124 _l
210 0 _l
107 0 _l
107 124 _l
_cl}_d
/zero{636 0 66 -13 570 742 _sc
318 664 _m
267 664 229 639 203 589 _c
177 539 165 464 165 364 _c
165 264 177 189 203 139 _c
229 89 267 64 318 64 _c
369 64 407 89 433 139 _c
458 189 471 264 471 364 _c
471 464 458 539 433 589 _c
407 639 369 664 318 664 _c
318 742 _m
399 742 461 709 505 645 _c
548 580 570 486 570 364 _c
570 241 548 147 505 83 _c
461 19 399 -13 318 -13 _c
236 -13 173 19 130 83 _c
87 147 66 241 66 364 _c
66 486 87 580 130 645 _c
173 709 236 742 318 742 _c
_cl}_d
/one{636 0 110 0 544 729 _sc
124 83 _m
285 83 _l
285 639 _l
110 604 _l
110 694 _l
284 729 _l
383 729 _l
383 83 _l
544 83 _l
544 0 _l
124 0 _l
124 83 _l
_cl}_d
/two{{636 0 73 0 536 742 _sc
192 83 _m
536 83 _l
536 0 _l
73 0 _l
73 83 _l
110 121 161 173 226 239 _c
290 304 331 346 348 365 _c
380 400 402 430 414 455 _c
426 479 433 504 433 528 _c
433 566 419 598 392 622 _c
365 646 330 659 286 659 _c
255 659 222 653 188 643 _c
154 632 117 616 78 594 _c
78 694 _l
118 710 155 722 189 730 _c
223 738 255 742 284 742 _c
}_e{359 742 419 723 464 685 _c
509 647 532 597 532 534 _c
532 504 526 475 515 449 _c
504 422 484 390 454 354 _c
446 344 420 317 376 272 _c
332 227 271 164 192 83 _c
_cl}_e}_d
/five{{636 0 77 -13 549 729 _sc
108 729 _m
495 729 _l
495 646 _l
198 646 _l
198 467 _l
212 472 227 476 241 478 _c
255 480 270 482 284 482 _c
365 482 429 459 477 415 _c
525 370 549 310 549 234 _c
549 155 524 94 475 51 _c
426 8 357 -13 269 -13 _c
238 -13 207 -10 175 -6 _c
143 -1 111 6 77 17 _c
77 116 _l
106 100 136 88 168 80 _c
199 72 232 69 267 69 _c
}_e{323 69 368 83 401 113 _c
433 143 450 183 450 234 _c
450 284 433 324 401 354 _c
368 384 323 399 267 399 _c
241 399 214 396 188 390 _c
162 384 135 375 108 363 _c
108 729 _l
_cl}_e}_d
/six{{636 0 70 -13 573 742 _sc
330 404 _m
286 404 251 388 225 358 _c
199 328 186 286 186 234 _c
186 181 199 139 225 109 _c
251 79 286 64 330 64 _c
374 64 409 79 435 109 _c
461 139 474 181 474 234 _c
474 286 461 328 435 358 _c
409 388 374 404 330 404 _c
526 713 _m
526 623 _l
501 635 476 644 451 650 _c
425 656 400 659 376 659 _c
310 659 260 637 226 593 _c
}_e{192 549 172 482 168 394 _c
187 422 211 444 240 459 _c
269 474 301 482 336 482 _c
409 482 467 459 509 415 _c
551 371 573 310 573 234 _c
573 159 550 99 506 54 _c
462 9 403 -13 330 -13 _c
246 -13 181 19 137 83 _c
92 147 70 241 70 364 _c
70 479 97 571 152 639 _c
206 707 280 742 372 742 _c
396 742 421 739 447 735 _c
472 730 498 723 526 713 _c
_cl}_e}_d
/seven{636 0 82 0 551 729 _sc
82 729 _m
551 729 _l
551 687 _l
286 0 _l
183 0 _l
432 646 _l
82 646 _l
82 729 _l
_cl}_d
/eight{{636 0 68 -13 568 742 _sc
318 346 _m
271 346 234 333 207 308 _c
180 283 167 249 167 205 _c
167 161 180 126 207 101 _c
234 76 271 64 318 64 _c
364 64 401 76 428 102 _c
455 127 469 161 469 205 _c
469 249 455 283 429 308 _c
402 333 365 346 318 346 _c
219 388 _m
177 398 144 418 120 447 _c
96 476 85 511 85 553 _c
85 611 105 657 147 691 _c
188 725 245 742 318 742 _c
}_e{390 742 447 725 489 691 _c
530 657 551 611 551 553 _c
551 511 539 476 515 447 _c
491 418 459 398 417 388 _c
464 377 501 355 528 323 _c
554 291 568 251 568 205 _c
568 134 546 80 503 43 _c
459 5 398 -13 318 -13 _c
237 -13 175 5 132 43 _c
89 80 68 134 68 205 _c
68 251 81 291 108 323 _c
134 355 171 377 219 388 _c
183 544 _m
183 506 194 476 218 455 _c
}_e{242 434 275 424 318 424 _c
360 424 393 434 417 455 _c
441 476 453 506 453 544 _c
453 582 441 611 417 632 _c
393 653 360 664 318 664 _c
275 664 242 653 218 632 _c
194 611 183 582 183 544 _c
_cl}_e}_d
/nine{{636 0 63 -13 566 742 _sc
110 15 _m
110 105 _l
134 93 159 84 185 78 _c
210 72 235 69 260 69 _c
324 69 374 90 408 134 _c
442 178 462 244 468 334 _c
448 306 424 284 396 269 _c
367 254 335 247 300 247 _c
226 247 168 269 126 313 _c
84 357 63 417 63 494 _c
63 568 85 628 129 674 _c
173 719 232 742 306 742 _c
390 742 455 709 499 645 _c
543 580 566 486 566 364 _c
}_e{566 248 538 157 484 89 _c
429 21 356 -13 264 -13 _c
239 -13 214 -10 189 -6 _c
163 -2 137 5 110 15 _c
306 324 _m
350 324 385 339 411 369 _c
437 399 450 441 450 494 _c
450 546 437 588 411 618 _c
385 648 350 664 306 664 _c
262 664 227 648 201 618 _c
175 588 162 546 162 494 _c
162 441 175 399 201 369 _c
227 339 262 324 306 324 _c
_cl}_e}_d
/minus{838 0 106 272 732 355 _sc
106 355 _m
732 355 _l
732 272 _l
106 272 _l
106 355 _l
_cl}_d
end readonly def

/BuildGlyph
 {exch begin
 CharStrings exch
 2 copy known not{pop /.notdef}if
 true 3 1 roll get exec
 end}_d

/BuildChar {
 1 index /Encoding get exch get
 1 index /BuildGlyph get exec
}_d

FontName currentdict end definefont pop
end
%%EndProlog
%%Page: 1 1
mpldict begin
18 252 translate
576 288 0 0 clipbox
gsave
0 0 m
576 0 l
576 288 l
0 288 l
cl
1.000 setgray
fill
grestore
gsave
72 36 m
518.4 36 l
518.4 253.44 l
72 253.44 l
cl
1.000 setgray
fill
grestore
0.800 setlinewidth
1 setlinejoin
0 setlinecap
[] 0 setdash
0.000 setgray
gsave
/o {
gsave
newpath
translate
0.8 setlinewidth
1 setlinejoin
0 setlinecap
0 0 m
0 -3.5 l

gsave
0.000 setgray
fill
grestore
stroke
grestore
} bind def
76.7997 36 o
grestore
/DejaVuSans findfont
10.000 scalefont
setfont
gsave
62.487227 21.406250 translate
0.000000 rotate
0.000000 0 m /five glyphshow
6.362305 0 m /two glyphshow
12.724609 0 m /five glyphshow
19.086914 0 m /period glyphshow
22.265625 0 m /zero glyphshow
grestore
gsave
/o {
gsave
newpath
translate
0.8 setlinewidth
1 setlinejoin
0 setlinecap
0 0 m
0 -3.5 l

gsave
0.000 setgray
fill
grestore
stroke
grestore
} bind def
127.59 36 o
grestore
gsave
113.277988 21.406250 translate
0.000000 rotate
0.000000 0 m /five glyphshow
6.362305 0 m /two glyphshow
12.724609 0 m /five glyphshow
19.086914 0 m /period glyphshow
22.265625 0 m /five glyphshow
grestore
gsave
/o {
gsave
newpath
translate
0.8 setlinewidth
1 setlinejoin
0 setlinecap
0 0 m
0 -3.5 l

gsave
0.000 setgray
fill
grestore
stroke
grestore
} bind def
178.381 36 o
grestore
gsave
164.068749 21.406250 translate
0.000000 rotate
0.000000 0 m /five glyphshow
6.362305 0 m /two glyphshow
12.724609 0 m /six glyphshow
19.086914 0 m /period glyphshow
22.265625 0 m /zero glyphshow
grestore
gsave
/o {
gsave
newpath
translate
0.8 setlinewidth
1 setlinejoin
0 setlinecap
0 0 m
0 -3.5 l

gsave
0.000 setgray
fill
grestore
stroke
grestore
} bind def
229.172 36 o
grestore
gsave
214.859510 21.406250 translate
0.000000 rotate
0.000000 0 m /five glyphshow
6.362305 0 m /two glyphshow
12.724609 0 m /six glyphshow
19.086914 0 m /period glyphshow
22.265625 0 m /five glyphshow
grestore
gsave
/o {
gsave
newpath
translate
0.8 setlinewidth
1 setlinejoin
0 setlinecap
0 0 m
0 -3.5 l

gsave
0.000 setgray
fill
grestore
stroke
grestore
} bind def
279.963 36 o
grestore
gsave
265.650272 21.406250 translate
0.000000 rotate
0.000000 0 m /five glyphshow
6.362305 0 m /two glyphshow
12.724609 0 m /seven glyphshow
19.086914 0 m /period glyphshow
22.265625 0 m /zero glyphshow
grestore
gsave
/o {
gsave
newpath
translate
0.8 setlinewidth
1 setlinejoin
0 setlinecap
0 0 m
0 -3.5 l

gsave
0.000 setgray
fill
grestore
stroke
grestore
} bind def
330.754 36 o
grestore
gsave
316.441033 21.406250 translate
0.000000 rotate
0.000000 0 m /five glyphshow
6.362305 0 m /two glyphshow
12.724609 0 m /seven glyphshow
19.086914 0 m /period glyphshow
22.265625 0 m /five glyphshow
grestore
gsave
/o {
gsave
newpath
translate
0.8 setlinewidth
1 setlinejoin
0 setlinecap
0 0 m
0 -3.5 l

gsave
0.000 setgray
fill
grestore
stroke
grestore
} bind def
381.544 36 o
grestore
gsave
367.231794 21.406250 translate
0.000000 rotate
0.000000 0 m /five glyphshow
6.362305 0 m /two glyphshow
12.724609 0 m /eight glyphshow
19.086914 0 m /period glyphshow
22.265625 0 m /zero glyphshow
grestore
gsave
/o {
gsave
newpath
translate
0.8 setlinewidth
1 setlinejoin
0 setlinecap
0 0 m
0 -3.5 l

gsave
0.000 setgray
fill
grestore
stroke
grestore
} bind def
432.335 36 o
grestore
gsave
418.022555 21.406250 translate
0.000000 rotate
0.000000 0 m /five glyphshow
6.362305 0 m /two glyphshow
12.724609 0 m /eight glyphshow
19.086914 0 m /period glyphshow
22.265625 0 m /five glyphshow
grestore
gsave
/o {
gsave
newpath
translate
0.8 setlinewidth
1 setlinejoin
0 setlinecap
0 0 m
0 -3.5 l

gsave
0.000 setgray
fill
grestore
stroke
grestore
} bind def
483.126 36 o
grestore
gsave
468.813316 21.406250 translate
0.000000 rotate
0.000000 0 m /five glyphshow
6.362305 0 m /two glyphshow
12.724609 0 m /nine glyphshow
19.086914 0 m /period glyphshow
22.265625 0 m /zero glyphshow
grestore
gsave
/o {
gsave
newpath
translate
0.8 setlinewidth
1 setlinejoin
0 setlinecap
0 0 m
-3.5 0 l

gsave
0.000 setgray
fill
grestore
stroke
grestore
} bind def
72 46.655 o
grestore
gsave
37.546875 42.858101 translate
0.000000 rotate
0.000000 0 m /minus glyphshow
8.378906 0 m /one glyphshow
14.741211 0 m /five glyphshow
21.103516 0 m /zero glyphshow
grestore
gsave
/o {
gsave
newpath
translate
0.8 setlinewidth
1 setlinejoin
0 setlinecap
0 0 m
-3.5 0 l

gsave
0.000 setgray
fill
grestore
stroke
grestore
} bind def
72 79.2902 o
grestore
gsave
37.546875 75.493313 translate
0.000000 rotate
0.000000 0 m /minus glyphshow
8.378906 0 m /one glyphshow
14.741211 0 m /zero glyphshow
21.103516 0 m /zero glyphshow
grestore
gsave
/o {
gsave
newpath
translate
0.8 setlinewidth
1 setlinejoin
0 setlinecap
0 0 m
-3.5 0 l

gsave
0.000 setgray
fill
grestore
stroke
grestore
} bind def
72 111.925 o
grestore
gsave
43.906250 108.128526 translate
0.000000 rotate
0.000000 0 m /minus glyphshow
8.378906 0 m /five glyphshow
14.741211 0 m /zero glyphshow
grestore
gsave
/o {
gsave
newpath
translate
0.8 setlinewidth
1 setlinejoin
0 setlinecap
0 0 m
-3.5 0 l

gsave
0.000 setgray
fill
grestore
stroke
grestore
} bind def
72 144.561 o
grestore
gsave
58.640625 140.763738 translate
0.000000 rotate
0.000000 0 m /zero glyphshow
grestore
gsave
/o {
gsave
newpath
translate
0.8 setlinewidth
1 setlinejoin
0 setlinecap
0 0 m
-3.5 0 l

gsave
0.000 setgray
fill
grestore
stroke
grestore
} bind def
72 177.196 o
grestore
gsave
52.281250 173.398950 translate
0.000000 rotate
0.000000 0 m /five glyphshow
6.362305 0 m /zero glyphshow
grestore
gsave
/o {
gsave
newpath
translate
0.8 setlinewidth
1 setlinejoin
0 setlinecap
0 0 m
-3.5 0 l

gsave
0.000 setgray
fill
grestore
stroke
grestore
} bind def
72 209.831 o
grestore
gsave
45.921875 206.034163 translate
0.000000 rotate
0.000000 0 m /one glyphshow
6.362305 0 m /zero glyphshow
12.724609 0 m /zero glyphshow
grestore
gsave
/o {
gsave
newpath
translate
0.8 setlinewidth
1 setlinejoin
0 setlinecap
0 0 m
-3.5 0 l

gsave
0.000 setgray
fill
grestore
stroke
grestore
} bind def
72 242.466 o
grestore
gsave
45.921875 238.669375 translate
0.000000 rotate
0.000000 0 m /one glyphshow
6.362305 0 m /five glyphshow
12.724609 0 m /zero glyphshow
grestore
1.500 setlinewidth
2 setlinecap
1.000 0.000 0.000 setrgbcolor
gsave
446.4 217.4 72 36 clipbox
92.290909 143.449572 m
92.798817 143.439148 l
93.052771 143.488454 l
93.306724 143.196334 l
93.560678 143.399665 l
94.068586 143.175033 l
94.32254 143.252053 l
94.576493 143.061125 l
94.830447 143.454715 l
95.084401 142.995244 l
95.338355 143.168072 l
96.35417 142.970463 l
96.862078 142.704036 l
97.116031 142.778713 l
97.369985 142.6947 l
97.623939 142.31419 l
97.877893 142.345858 l
98.3858 142.203694 l
98.639754 140.80161 l
98.893708 141.570205 l
99.147662 141.165042 l
99.655569 139.08289 l
99.909523 139.294614 l
100.163477 136.589369 l
100.417431 132.616913 l
100.671385 120.939014 l
100.925338 142.952027 l
101.179292 144.543974 l
101.433246 144.920691 l
101.941154 145.154499 l
103.210923 145.290058 l
108.289999 145.406379 l
117.178382 145.679326 l
120.733735 145.992524 l
122.511412 146.331466 l
123.527227 146.689715 l
124.289089 147.178377 l
124.796996 147.828174 l
125.05095 148.514712 l
125.558858 152.25627 l
126.066765 155.108101 l
126.320719 156.152661 l
126.828627 158.928238 l
127.336534 161.3546 l
127.844442 165.279411 l
128.098396 167.809664 l
128.606303 167.873146 l
128.860257 167.704814 l
129.622119 168.127398 l
129.876072 168.089439 l
130.637934 168.251703 l
130.891888 168.232457 l
131.653749 168.730295 l
132.669564 169.239619 l
132.923518 169.544097 l
133.177472 169.629205 l
133.685379 170.18539 l
135.463056 172.712528 l
136.732825 176.145275 l
137.240733 177.786162 l
138.002594 181.449138 l
138.510502 184.845375 l
139.272363 191.975621 l
139.780271 199.273962 l
140.288178 209.909119 l
140.796086 225.544089 l
141.303994 243.556364 l
141.557947 230.884918 l
142.065855 188.893906 l
142.573763 168.625924 l
143.08167 159.426696 l
143.589578 154.725808 l
144.097485 152.029341 l
144.605393 150.338333 l
145.367255 148.770857 l
146.129116 147.812892 l
146.890977 147.178685 l
147.906793 146.612095 l
149.430515 146.074285 l
152.477961 145.288497 l
153.493776 142.987226 l
154.001684 142.304542 l
154.255638 141.881746 l
154.509592 141.745128 l
154.763545 140.902037 l
155.017499 140.629106 l
155.525407 139.135133 l
155.779361 138.884659 l
156.033314 139.04438 l
156.287268 138.667483 l
156.541222 139.174632 l
156.795176 138.582315 l
157.04913 138.986982 l
157.303083 138.927052 l
157.557037 139.056307 l
157.810991 138.849204 l
158.064945 138.953376 l
158.318899 138.840335 l
158.826806 138.834247 l
159.08076 138.678652 l
159.334714 138.888694 l
159.588668 138.641604 l
159.842621 138.588951 l
160.096575 138.819689 l
160.350529 138.484253 l
160.604483 138.652043 l
160.858437 138.35613 l
161.366344 138.366194 l
161.620298 138.135933 l
161.874252 138.143599 l
162.128206 138.026988 l
162.38216 138.109851 l
162.636113 137.934179 l
162.890067 137.604129 l
163.144021 137.559179 l
164.667744 136.527124 l
164.921698 135.709956 l
165.175651 135.841651 l
166.699374 132.38593 l
167.461236 128.431259 l
167.969143 122.414608 l
168.223097 118.097785 l
168.477051 109.523916 l
168.731005 95.058647 l
169.492866 139.179178 l
169.74682 141.750562 l
170.254728 143.695672 l
170.762635 144.424962 l
171.270543 144.784069 l
172.032404 145.063324 l
173.556127 145.304751 l
176.603573 145.478387 l
190.063124 146.061673 l
192.348709 146.386363 l
193.618478 146.763603 l
194.126385 147.058266 l
194.380339 147.311822 l
195.1422 148.733044 l
196.919877 151.198041 l
197.427785 152.319559 l
197.935692 152.341341 l
198.697554 152.317056 l
199.713369 152.339741 l
200.983138 152.424397 l
203.268722 152.859371 l
204.792445 153.466825 l
206.062214 154.366543 l
206.824076 155.092463 l
207.585937 156.154139 l
208.347798 157.666004 l
209.10966 159.878376 l
209.871521 162.94233 l
210.379429 165.148933 l
210.633383 165.659385 l
210.887336 163.886715 l
211.395244 156.405004 l
211.903152 151.809846 l
212.411059 149.254459 l
212.918967 147.82003 l
213.426875 146.973922 l
214.188736 146.25888 l
214.950597 145.872972 l
216.220366 145.550239 l
218.251997 145.350182 l
219.267812 145.181416 l
219.77572 145.028883 l
220.283627 144.944984 l
222.061304 144.502361 l
222.315258 144.546632 l
222.569212 144.426335 l
222.823165 144.598001 l
223.077119 144.42445 l
223.331073 144.558271 l
224.092934 144.473333 l
224.854796 144.519665 l
230.441779 144.312637 l
230.695733 144.240291 l
230.949687 144.301727 l
231.203641 144.135883 l
231.457595 144.215517 l
232.219456 143.957829 l
232.47341 143.99277 l
232.727364 143.816757 l
232.981318 143.866889 l
233.489225 143.457811 l
233.743179 143.417513 l
233.997133 143.129805 l
234.50504 142.179744 l
234.758994 141.024549 l
235.012948 138.703329 l
235.266902 140.327223 l
235.520856 144.070588 l
235.774809 144.763099 l
236.282717 145.099527 l
237.298532 145.240064 l
240.599932 145.31259 l
261.678098 145.587327 l
263.455774 145.811275 l
264.217636 146.253627 l
267.011128 147.50805 l
271.328342 147.579502 l
274.121834 147.879568 l
275.645557 148.247885 l
276.661372 148.656552 l
277.423234 149.122587 l
278.185095 149.818118 l
278.946956 150.875574 l
279.708818 152.123594 l
279.962772 152.081548 l
280.724633 148.176279 l
281.232541 146.845074 l
281.740448 146.153928 l
282.50231 145.629339 l
283.518125 145.059796 l
284.53394 144.48265 l
286.565571 143.373189 l
290.120924 143.171821 l
292.914416 142.873814 l
294.692092 142.494255 l
296.215815 141.900974 l
296.977677 141.395389 l
297.739538 140.645268 l
298.247446 139.903181 l
299.009307 138.254946 l
299.517215 137.000825 l
299.771169 137.457812 l
300.279076 140.14757 l
300.786984 141.874091 l
301.294891 142.873264 l
301.802799 143.464593 l
302.56466 143.974202 l
303.580476 144.335204 l
305.104198 144.608517 l
307.89769 144.830784 l
313.23072 144.988064 l
326.182364 145.093068 l
328.467949 145.161252 l
329.991671 145.518183 l
330.245625 145.511339 l
330.753533 145.635251 l
331.515394 145.876853 l
331.769348 145.833786 l
332.023302 145.947909 l
332.277256 145.784727 l
332.531209 145.94793 l
332.785163 145.823258 l
333.547025 145.902868 l
334.308886 145.860972 l
340.403777 146.114978 l
340.657731 146.281055 l
340.911685 146.201384 l
341.673546 146.461889 l
341.9275 146.429397 l
342.181454 146.60592 l
342.435408 146.561398 l
342.943316 146.965059 l
343.197269 147.006853 l
343.451223 147.293902 l
343.959131 148.225319 l
344.213085 149.349732 l
344.467038 151.580523 l
344.720992 149.798329 l
344.974946 146.19816 l
345.2289 145.566103 l
345.736807 145.276466 l
346.752623 145.167517 l
351.577745 144.878877 l
352.085653 144.715072 l
352.339606 144.560833 l
352.59356 144.242576 l
353.101468 143.351142 l
354.879144 140.979745 l
355.641006 139.638262 l
357.164729 139.45907 l
360.212174 138.870239 l
361.735897 138.345833 l
363.25962 137.515218 l
364.275435 136.665756 l
365.29125 135.426263 l
366.053112 134.002843 l
366.561019 132.690166 l
367.068927 131.023484 l
367.576835 128.735193 l
368.846604 122.257989 l
369.862419 133.968835 l
370.370327 137.222795 l
370.878234 139.230744 l
371.386142 140.521071 l
372.148003 141.728645 l
372.909865 142.471361 l
373.92568 143.096054 l
375.195449 143.577493 l
376.973125 143.982528 l
379.512664 144.314073 l
383.575924 144.597895 l
391.9564 144.900772 l
394.241984 145.071531 l
394.495938 145.149099 l
395.003846 146.230021 l
395.511753 147.356274 l
395.765707 147.379343 l
396.273615 148.455491 l
396.527569 148.691938 l
396.781522 149.338812 l
397.035476 149.587637 l
397.28943 150.511501 l
397.543384 150.961851 l
397.797338 151.703003 l
398.051291 151.494873 l
398.305245 151.597676 l
398.559199 151.10798 l
398.813153 151.824887 l
399.067107 151.36188 l
399.32106 151.562027 l
399.575014 151.340913 l
399.828968 151.663504 l
400.082922 151.467382 l
401.098737 151.808223 l
401.352691 151.584991 l
401.860598 151.843631 l
402.114552 151.597794 l
402.368506 151.931081 l
402.62246 151.795124 l
403.130368 152.114907 l
403.384321 151.994363 l
403.638275 152.278845 l
403.892229 152.255853 l
404.65409 152.438349 l
404.908044 152.805941 l
405.161998 152.788019 l
406.431767 153.774244 l
406.685721 153.844467 l
406.939675 154.545609 l
407.193628 154.521765 l
408.463397 157.280751 l
408.717351 157.819804 l
409.733166 164.125475 l
410.241074 171.337341 l
410.495028 179.151516 l
410.748982 192.765968 l
411.002935 184.599877 l
411.256889 159.634316 l
411.510843 151.817967 l
411.764797 148.927351 l
412.018751 147.56309 l
412.526658 146.339337 l
413.034566 145.807461 l
413.796427 145.420792 l
415.066196 145.1203 l
420.145272 144.194775 l
420.907134 143.801641 l
421.415042 143.322125 l
421.668995 142.900905 l
421.922949 142.05625 l
422.430857 138.244032 l
423.446672 133.019582 l
424.208533 129.118372 l
424.970395 123.022428 l
425.732256 123.047545 l
427.002025 122.535799 l
427.255979 122.539776 l
427.509933 122.336994 l
427.763887 122.367445 l
428.01784 122.04272 l
428.271794 122.0158 l
428.525748 121.751623 l
428.779702 121.695605 l
429.28761 121.347294 l
429.541563 121.243347 l
429.795517 120.934873 l
430.049471 120.837359 l
430.303425 120.369658 l
430.557379 120.242743 l
430.811332 119.784931 l
431.065286 119.595094 l
432.081101 118.069385 l
432.842963 116.335743 l
434.112732 112.360837 l
434.874593 108.516143 l
435.636455 102.827967 l
436.144362 97.507521 l
436.65227 89.840651 l
437.160177 78.567166 l
437.668085 62.002779 l
438.175993 45.883636 l
439.191808 115.386178 l
439.699716 127.716739 l
440.207623 133.737503 l
440.715531 137.06034 l
441.223438 139.083854 l
441.731346 140.411013 l
442.493207 141.690839 l
443.255069 142.500353 l
444.270884 143.192365 l
445.540653 143.72701 l
447.064376 144.120001 l
449.34996 144.463019 l
452.905313 144.740048 l
459.000205 144.955484 l
462.809512 145.051219 l
463.063466 145.249812 l
463.571373 145.336404 l
464.079281 145.783139 l
464.333235 145.67994 l
464.587189 145.906168 l
464.841142 145.651265 l
465.095096 146.24221 l
465.34905 146.239927 l
465.603004 146.513335 l
466.618819 146.709133 l
466.872773 146.900961 l
467.126727 146.727955 l
467.38068 147.102198 l
467.634634 146.746934 l
467.888588 146.87486 l
468.142542 146.711058 l
468.650449 147.099766 l
468.904403 146.869831 l
469.158357 147.00417 l
469.412311 146.666446 l
469.666265 146.817756 l
469.920218 147.14992 l
470.174172 146.995945 l
470.68208 147.007853 l
471.443941 147.096398 l
471.697895 146.915307 l
471.951849 147.097689 l
472.205803 147.119485 l
472.459757 147.412892 l
472.71371 147.006493 l
472.967664 147.025047 l
473.221618 147.244286 l
473.983479 147.317547 l
474.237433 147.718934 l
474.491387 147.199756 l
474.745341 147.757828 l
474.999295 147.332306 l
475.253248 148.033439 l
475.507202 147.489194 l
475.761156 148.038151 l
476.269064 148.309743 l
476.523017 147.90864 l
476.776971 148.632018 l
477.030925 148.582738 l
477.284879 148.368857 l
477.538833 149.652931 l
477.792786 149.7242 l
478.554648 152.325986 l
478.808602 155.811427 l
479.062555 165.823222 l
479.316509 149.587476 l
479.570463 146.160345 l
479.824417 145.618739 l
480.332324 145.343155 l
481.34814 145.232218 l
485.157447 145.198077 l
489.728615 145.177058 l
489.982569 144.947621 l
490.490477 144.826263 l
490.998384 144.393661 l
491.252338 144.436302 l
491.506292 144.268398 l
491.760246 144.551117 l
492.0142 143.962679 l
492.268153 143.934225 l
492.522107 143.610159 l
492.776061 143.509628 l
493.283969 143.720963 l
493.537922 143.189826 l
493.791876 143.337189 l
494.04583 143.182158 l
494.299784 143.168955 l
494.553738 143.409137 l
495.315599 143.27297 l
495.569553 143.012062 l
495.823507 143.314471 l
496.07746 143.129338 l
496.331414 143.373574 l
496.585368 143.322611 l
496.839322 143.012269 l
497.347229 143.162505 l
498.109091 143.003071 l
498.109091 143.003071 l
stroke
grestore
1.000 setlinewidth
0 setlinecap
gsave
446.4 217.4 72 36 clipbox
/o {
gsave
newpath
translate
1.0 setlinewidth
1 setlinejoin
0 setlinecap
0 -0.5 m
0.132602 -0.5 0.25979 -0.447317 0.353553 -0.353553 c
0.447317 -0.25979 0.5 -0.132602 0.5 0 c
0.5 0.132602 0.447317 0.25979 0.353553 0.353553 c
0.25979 0.447317 0.132602 0.5 0 0.5 c
-0.132602 0.5 -0.25979 0.447317 -0.353553 0.353553 c
-0.447317 0.25979 -0.5 0.132602 -0.5 0 c
-0.5 -0.132602 -0.447317 -0.25979 -0.353553 -0.353553 c
-0.25979 -0.447317 -0.132602 -0.5 0 -0.5 c
cl

gsave
grestore
stroke
grestore
} bind def
92.2909 143.45 o
92.5449 143.404 o
92.7988 143.439 o
93.0528 143.488 o
93.3067 143.196 o
93.5607 143.4 o
93.8146 143.277 o
94.0686 143.175 o
94.3225 143.252 o
94.5765 143.061 o
94.8304 143.455 o
95.0844 142.995 o
95.3384 143.168 o
95.5923 143.145 o
95.8463 143.041 o
96.1002 143.049 o
96.3542 142.97 o
96.6081 142.773 o
96.8621 142.704 o
97.116 142.779 o
97.37 142.695 o
97.6239 142.314 o
97.8779 142.346 o
98.1318 142.213 o
98.3858 142.204 o
98.6398 140.802 o
98.8937 141.57 o
99.1477 141.165 o
99.4016 140.161 o
99.6556 139.083 o
99.9095 139.295 o
100.163 136.589 o
100.417 132.617 o
100.671 120.939 o
100.925 142.952 o
101.179 144.544 o
101.433 144.921 o
101.687 145.074 o
101.941 145.154 o
102.195 145.203 o
102.449 145.235 o
102.703 145.259 o
102.957 145.276 o
103.211 145.29 o
103.465 145.301 o
103.719 145.311 o
103.973 145.319 o
104.227 145.327 o
104.481 145.333 o
104.735 145.34 o
104.989 145.345 o
105.243 145.351 o
105.497 145.356 o
105.75 145.361 o
106.004 145.365 o
106.258 145.37 o
106.512 145.375 o
106.766 145.379 o
107.02 145.384 o
107.274 145.388 o
107.528 145.393 o
107.782 145.397 o
108.036 145.402 o
108.29 145.406 o
108.544 145.411 o
108.798 145.416 o
109.052 145.42 o
109.306 145.425 o
109.56 145.43 o
109.814 145.435 o
110.068 145.44 o
110.322 145.446 o
110.576 145.451 o
110.83 145.457 o
111.083 145.462 o
111.337 145.468 o
111.591 145.474 o
111.845 145.48 o
112.099 145.487 o
112.353 145.493 o
112.607 145.5 o
112.861 145.507 o
113.115 145.514 o
113.369 145.522 o
113.623 145.53 o
113.877 145.538 o
114.131 145.546 o
114.385 145.555 o
114.639 145.564 o
114.893 145.573 o
115.147 145.583 o
115.401 145.593 o
115.655 145.604 o
115.909 145.615 o
116.163 145.627 o
116.417 145.639 o
116.67 145.652 o
116.924 145.665 o
117.178 145.679 o
117.432 145.694 o
117.686 145.71 o
117.94 145.726 o
118.194 145.744 o
118.448 145.762 o
118.702 145.781 o
118.956 145.802 o
119.21 145.824 o
119.464 145.848 o
119.718 145.873 o
119.972 145.899 o
120.226 145.928 o
120.48 145.959 o
120.734 145.993 o
120.988 146.029 o
121.242 146.068 o
121.496 146.111 o
121.75 146.158 o
122.004 146.21 o
122.257 146.267 o
122.511 146.331 o
122.765 146.404 o
123.019 146.486 o
123.273 146.58 o
123.527 146.69 o
123.781 146.82 o
124.035 146.979 o
124.289 147.178 o
124.543 147.443 o
124.797 147.828 o
125.051 148.515 o
125.305 150.657 o
125.559 152.256 o
125.813 153.923 o
126.067 155.108 o
126.321 156.153 o
126.575 157.7 o
126.829 158.928 o
127.083 160.038 o
127.337 161.355 o
127.59 163.01 o
127.844 165.279 o
128.098 167.81 o
128.352 167.836 o
128.606 167.873 o
128.86 167.705 o
129.114 167.832 o
129.368 167.964 o
129.622 168.127 o
129.876 168.089 o
130.13 168.166 o
130.384 168.133 o
130.638 168.252 o
130.892 168.232 o
131.146 168.432 o
131.4 168.546 o
131.654 168.73 o
131.908 168.859 o
132.162 168.974 o
132.416 169.162 o
132.67 169.24 o
132.924 169.544 o
133.177 169.629 o
133.431 169.998 o
133.685 170.185 o
133.939 170.522 o
134.193 170.819 o
134.447 171.124 o
134.701 171.457 o
134.955 171.809 o
135.209 172.257 o
135.463 172.713 o
135.717 173.346 o
135.971 173.866 o
136.225 174.704 o
136.479 175.264 o
136.733 176.145 o
136.987 176.835 o
137.241 177.786 o
137.495 178.865 o
137.749 180.018 o
138.003 181.449 o
138.257 183.009 o
138.511 184.845 o
138.764 186.986 o
139.018 189.205 o
139.272 191.976 o
139.526 195.307 o
139.78 199.274 o
140.034 204.075 o
140.288 209.909 o
140.542 216.994 o
140.796 225.544 o
141.05 235.412 o
141.304 243.556 o
141.558 230.885 o
141.812 206.938 o
142.066 188.894 o
142.32 176.694 o
142.574 168.626 o
142.828 163.196 o
143.082 159.427 o
143.336 156.724 o
143.59 154.726 o
143.844 153.209 o
144.097 152.029 o
144.351 151.094 o
144.605 150.338 o
144.859 149.719 o
145.113 149.204 o
145.367 148.771 o
145.621 148.403 o
145.875 148.087 o
146.129 147.813 o
146.383 147.574 o
146.637 147.364 o
146.891 147.179 o
147.145 147.013 o
147.399 146.866 o
147.653 146.733 o
147.907 146.612 o
148.161 146.503 o
148.415 146.403 o
148.669 146.311 o
148.923 146.226 o
149.177 146.147 o
149.431 146.074 o
149.684 146.006 o
149.938 145.941 o
150.192 145.88 o
150.446 145.821 o
150.7 145.764 o
150.954 145.709 o
151.208 145.655 o
151.462 145.6 o
151.716 145.543 o
151.97 145.481 o
152.224 145.407 o
152.478 145.288 o
152.732 144.655 o
152.986 144.059 o
153.24 143.406 o
153.494 142.987 o
153.748 142.688 o
154.002 142.305 o
154.256 141.882 o
154.51 141.745 o
154.764 140.902 o
155.017 140.629 o
155.271 139.851 o
155.525 139.135 o
155.779 138.885 o
156.033 139.044 o
156.287 138.667 o
156.541 139.175 o
156.795 138.582 o
157.049 138.987 o
157.303 138.927 o
157.557 139.056 o
157.811 138.849 o
158.065 138.953 o
158.319 138.84 o
158.573 138.854 o
158.827 138.834 o
159.081 138.679 o
159.335 138.889 o
159.589 138.642 o
159.843 138.589 o
160.097 138.82 o
160.351 138.484 o
160.604 138.652 o
160.858 138.356 o
161.112 138.327 o
161.366 138.366 o
161.62 138.136 o
161.874 138.144 o
162.128 138.027 o
162.382 138.11 o
162.636 137.934 o
162.89 137.604 o
163.144 137.559 o
163.398 137.366 o
163.652 137.107 o
163.906 136.847 o
164.16 136.877 o
164.414 136.502 o
164.668 136.527 o
164.922 135.71 o
165.176 135.842 o
165.43 135.296 o
165.684 134.872 o
165.938 134.065 o
166.191 133.879 o
166.445 132.915 o
166.699 132.386 o
166.953 131.148 o
167.207 129.686 o
167.461 128.431 o
167.715 125.963 o
167.969 122.415 o
168.223 118.098 o
168.477 109.524 o
168.731 95.0586 o
168.985 110.733 o
169.239 132.482 o
169.493 139.179 o
169.747 141.751 o
170.001 142.995 o
170.255 143.696 o
170.509 144.132 o
170.763 144.425 o
171.017 144.632 o
171.271 144.784 o
171.524 144.9 o
171.778 144.991 o
172.032 145.063 o
172.286 145.122 o
172.54 145.172 o
172.794 145.213 o
173.048 145.248 o
173.302 145.278 o
173.556 145.305 o
173.81 145.328 o
174.064 145.349 o
174.318 145.367 o
174.572 145.384 o
174.826 145.399 o
175.08 145.413 o
175.334 145.426 o
175.588 145.438 o
175.842 145.449 o
176.096 145.459 o
176.35 145.469 o
176.604 145.478 o
176.858 145.487 o
177.111 145.496 o
177.365 145.504 o
177.619 145.512 o
177.873 145.52 o
178.127 145.528 o
178.381 145.535 o
178.635 145.542 o
178.889 145.55 o
179.143 145.557 o
179.397 145.564 o
179.651 145.571 o
179.905 145.578 o
180.159 145.585 o
180.413 145.592 o
180.667 145.6 o
180.921 145.607 o
181.175 145.614 o
181.429 145.622 o
181.683 145.629 o
181.937 145.637 o
182.191 145.644 o
182.445 145.652 o
182.698 145.66 o
182.952 145.669 o
183.206 145.677 o
183.46 145.686 o
183.714 145.695 o
183.968 145.704 o
184.222 145.713 o
184.476 145.723 o
184.73 145.733 o
184.984 145.743 o
185.238 145.753 o
185.492 145.764 o
185.746 145.776 o
186 145.787 o
186.254 145.799 o
186.508 145.812 o
186.762 145.825 o
187.016 145.838 o
187.27 145.853 o
187.524 145.867 o
187.778 145.883 o
188.031 145.899 o
188.285 145.916 o
188.539 145.933 o
188.793 145.952 o
189.047 145.972 o
189.301 145.992 o
189.555 146.014 o
189.809 146.037 o
190.063 146.062 o
190.317 146.088 o
190.571 146.116 o
190.825 146.146 o
191.079 146.178 o
191.333 146.212 o
191.587 146.25 o
191.841 146.291 o
192.095 146.336 o
192.349 146.386 o
192.603 146.442 o
192.857 146.505 o
193.111 146.578 o
193.365 146.662 o
193.618 146.764 o
193.872 146.89 o
194.126 147.058 o
194.38 147.312 o
194.634 147.849 o
194.888 148.321 o
195.142 148.733 o
195.396 149.067 o
195.65 149.377 o
195.904 149.751 o
196.158 150.114 o
196.412 150.44 o
196.666 150.795 o
196.92 151.198 o
197.174 151.739 o
197.428 152.32 o
197.682 152.354 o
197.936 152.341 o
198.19 152.3 o
198.444 152.306 o
198.698 152.317 o
198.952 152.345 o
199.205 152.333 o
199.459 152.344 o
199.713 152.34 o
199.967 152.342 o
200.221 152.346 o
200.475 152.366 o
200.729 152.393 o
200.983 152.424 o
201.237 152.464 o
201.491 152.491 o
201.745 152.536 o
201.999 152.56 o
202.253 152.622 o
202.507 152.658 o
202.761 152.727 o
203.015 152.787 o
203.269 152.859 o
203.523 152.948 o
203.777 153.021 o
204.031 153.12 o
204.285 153.224 o
204.538 153.349 o
204.792 153.467 o
205.046 153.624 o
205.3 153.77 o
205.554 153.965 o
205.808 154.131 o
206.062 154.367 o
206.316 154.562 o
206.57 154.83 o
206.824 155.092 o
207.078 155.405 o
207.332 155.759 o
207.586 156.154 o
207.84 156.605 o
208.094 157.115 o
208.348 157.666 o
208.602 158.308 o
208.856 159.062 o
209.11 159.878 o
209.364 160.809 o
209.618 161.85 o
209.872 162.942 o
210.125 164.072 o
210.379 165.149 o
210.633 165.659 o
210.887 163.887 o
211.141 159.752 o
211.395 156.405 o
211.649 153.784 o
211.903 151.81 o
212.157 150.344 o
212.411 149.254 o
212.665 148.439 o
212.919 147.82 o
213.173 147.344 o
213.427 146.974 o
213.681 146.681 o
213.935 146.448 o
214.189 146.259 o
214.443 146.105 o
214.697 145.978 o
214.951 145.873 o
215.205 145.785 o
215.459 145.711 o
215.712 145.649 o
215.966 145.596 o
216.22 145.55 o
216.474 145.511 o
216.728 145.478 o
216.982 145.449 o
217.236 145.424 o
217.49 145.402 o
217.744 145.383 o
217.998 145.366 o
218.252 145.35 o
218.506 145.336 o
218.76 145.32 o
219.014 145.266 o
219.268 145.181 o
219.522 145.067 o
219.776 145.029 o
220.03 145.03 o
220.284 144.945 o
220.538 144.878 o
220.792 144.882 o
221.045 144.762 o
221.299 144.754 o
221.553 144.65 o
221.807 144.621 o
222.061 144.502 o
222.315 144.547 o
222.569 144.426 o
222.823 144.598 o
223.077 144.424 o
223.331 144.558 o
223.585 144.51 o
223.839 144.56 o
224.093 144.473 o
224.347 144.521 o
224.601 144.49 o
224.855 144.52 o
225.109 144.513 o
225.363 144.462 o
225.617 144.514 o
225.871 144.478 o
226.125 144.468 o
226.379 144.522 o
226.632 144.455 o
226.886 144.5 o
227.14 144.454 o
227.394 144.433 o
227.648 144.479 o
227.902 144.418 o
228.156 144.434 o
228.41 144.428 o
228.664 144.455 o
228.918 144.434 o
229.172 144.333 o
229.426 144.389 o
229.68 144.355 o
229.934 144.306 o
230.188 144.275 o
230.442 144.313 o
230.696 144.24 o
230.95 144.302 o
231.204 144.136 o
231.458 144.216 o
231.712 144.123 o
231.966 144.113 o
232.219 143.958 o
232.473 143.993 o
232.727 143.817 o
232.981 143.867 o
233.235 143.629 o
233.489 143.458 o
233.743 143.418 o
233.997 143.13 o
234.251 142.579 o
234.505 142.18 o
234.759 141.025 o
235.013 138.703 o
235.267 140.327 o
235.521 144.071 o
235.775 144.763 o
236.029 144.993 o
236.283 145.1 o
236.537 145.159 o
236.791 145.196 o
237.045 145.222 o
237.299 145.24 o
237.552 145.254 o
237.806 145.264 o
238.06 145.273 o
238.314 145.28 o
238.568 145.286 o
238.822 145.291 o
239.076 145.295 o
239.33 145.299 o
239.584 145.302 o
239.838 145.305 o
240.092 145.308 o
240.346 145.31 o
240.6 145.313 o
240.854 145.315 o
241.108 145.317 o
241.362 145.318 o
241.616 145.32 o
241.87 145.321 o
242.124 145.323 o
242.378 145.324 o
242.632 145.326 o
242.886 145.327 o
243.139 145.328 o
243.393 145.329 o
243.647 145.331 o
243.901 145.332 o
244.155 145.333 o
244.409 145.334 o
244.663 145.335 o
244.917 145.336 o
245.171 145.337 o
245.425 145.338 o
245.679 145.34 o
245.933 145.341 o
246.187 145.342 o
246.441 145.343 o
246.695 145.344 o
246.949 145.345 o
247.203 145.346 o
247.457 145.348 o
247.711 145.349 o
247.965 145.35 o
248.219 145.351 o
248.472 145.353 o
248.726 145.354 o
248.98 145.355 o
249.234 145.357 o
249.488 145.358 o
249.742 145.359 o
249.996 145.361 o
250.25 145.363 o
250.504 145.364 o
250.758 145.366 o
251.012 145.368 o
251.266 145.369 o
251.52 145.371 o
251.774 145.373 o
252.028 145.375 o
252.282 145.377 o
252.536 145.379 o
252.79 145.381 o
253.044 145.384 o
253.298 145.386 o
253.552 145.388 o
253.806 145.391 o
254.059 145.394 o
254.313 145.396 o
254.567 145.399 o
254.821 145.402 o
255.075 145.405 o
255.329 145.409 o
255.583 145.412 o
255.837 145.415 o
256.091 145.419 o
256.345 145.423 o
256.599 145.427 o
256.853 145.431 o
257.107 145.436 o
257.361 145.44 o
257.615 145.445 o
257.869 145.45 o
258.123 145.456 o
258.377 145.462 o
258.631 145.468 o
258.885 145.474 o
259.139 145.481 o
259.393 145.488 o
259.646 145.496 o
259.9 145.505 o
260.154 145.514 o
260.408 145.523 o
260.662 145.534 o
260.916 145.545 o
261.17 145.558 o
261.424 145.572 o
261.678 145.587 o
261.932 145.605 o
262.186 145.624 o
262.44 145.647 o
262.694 145.674 o
262.948 145.708 o
263.202 145.751 o
263.456 145.811 o
263.71 145.919 o
263.964 146.123 o
264.218 146.254 o
264.472 146.374 o
264.726 146.492 o
264.979 146.595 o
265.233 146.712 o
265.487 146.821 o
265.741 146.924 o
265.995 147.065 o
266.249 147.23 o
266.503 147.406 o
266.757 147.528 o
267.011 147.508 o
267.265 147.506 o
267.519 147.502 o
267.773 147.502 o
268.027 147.512 o
268.281 147.507 o
268.535 147.506 o
268.789 147.508 o
269.043 147.506 o
269.297 147.517 o
269.551 147.511 o
269.805 147.525 o
270.059 147.528 o
270.313 147.544 o
270.566 147.543 o
270.82 147.561 o
271.074 147.569 o
271.328 147.58 o
271.582 147.599 o
271.836 147.609 o
272.09 147.64 o
272.344 147.652 o
272.598 147.689 o
272.852 147.701 o
273.106 147.733 o
273.36 147.76 o
273.614 147.798 o
273.868 147.831 o
274.122 147.88 o
274.376 147.926 o
274.63 147.981 o
274.884 148.039 o
275.138 148.105 o
275.392 148.167 o
275.646 148.248 o
275.9 148.325 o
276.153 148.43 o
276.407 148.531 o
276.661 148.657 o
276.915 148.794 o
277.169 148.949 o
277.423 149.123 o
277.677 149.338 o
277.931 149.554 o
278.185 149.818 o
278.439 150.136 o
278.693 150.482 o
278.947 150.876 o
279.201 151.316 o
279.455 151.755 o
279.709 152.124 o
279.963 152.082 o
280.217 150.631 o
280.471 149.242 o
280.725 148.176 o
280.979 147.4 o
281.233 146.845 o
281.486 146.446 o
281.74 146.154 o
281.994 145.935 o
282.248 145.766 o
282.502 145.629 o
282.756 145.513 o
283.01 145.405 o
283.264 145.284 o
283.518 145.06 o
283.772 144.888 o
284.026 144.723 o
284.28 144.594 o
284.534 144.483 o
284.788 144.341 o
285.042 144.21 o
285.296 144.094 o
285.55 143.97 o
285.804 143.819 o
286.058 143.615 o
286.312 143.396 o
286.566 143.373 o
286.82 143.366 o
287.073 143.366 o
287.327 143.352 o
287.581 143.332 o
287.835 143.309 o
288.089 143.3 o
288.343 143.283 o
288.597 143.275 o
288.851 143.261 o
289.105 143.253 o
289.359 143.235 o
289.613 143.214 o
289.867 143.19 o
290.121 143.172 o
290.375 143.153 o
290.629 143.132 o
290.883 143.116 o
291.137 143.085 o
291.391 143.068 o
291.645 143.038 o
291.899 143.011 o
292.153 142.976 o
292.407 142.94 o
292.66 142.909 o
292.914 142.874 o
293.168 142.833 o
293.422 142.784 o
293.676 142.74 o
293.93 142.683 o
294.184 142.626 o
294.438 142.555 o
294.692 142.494 o
294.946 142.408 o
295.2 142.338 o
295.454 142.244 o
295.708 142.144 o
295.962 142.035 o
296.216 141.901 o
296.47 141.759 o
296.724 141.592 o
296.978 141.395 o
297.232 141.188 o
297.486 140.941 o
297.74 140.645 o
297.993 140.306 o
298.247 139.903 o
298.501 139.43 o
298.755 138.882 o
299.009 138.255 o
299.263 137.558 o
299.517 137.001 o
299.771 137.458 o
300.025 138.935 o
300.279 140.148 o
300.533 141.124 o
300.787 141.874 o
301.041 142.442 o
301.295 142.873 o
301.549 143.205 o
301.803 143.465 o
302.057 143.671 o
302.311 143.838 o
302.565 143.974 o
302.819 144.088 o
303.073 144.184 o
303.327 144.265 o
303.58 144.335 o
303.834 144.396 o
304.088 144.449 o
304.342 144.496 o
304.596 144.538 o
304.85 144.575 o
305.104 144.609 o
305.358 144.639 o
305.612 144.666 o
305.866 144.691 o
306.12 144.714 o
306.374 144.735 o
306.628 144.754 o
306.882 144.772 o
307.136 144.788 o
307.39 144.803 o
307.644 144.818 o
307.898 144.831 o
308.152 144.843 o
308.406 144.855 o
308.66 144.866 o
308.914 144.876 o
309.167 144.886 o
309.421 144.895 o
309.675 144.904 o
309.929 144.912 o
310.183 144.919 o
310.437 144.927 o
310.691 144.934 o
310.945 144.94 o
311.199 144.947 o
311.453 144.953 o
311.707 144.959 o
311.961 144.964 o
312.215 144.969 o
312.469 144.974 o
312.723 144.979 o
312.977 144.984 o
313.231 144.988 o
313.485 144.992 o
313.739 144.996 o
313.993 145 o
314.247 145.004 o
314.5 145.008 o
314.754 145.011 o
315.008 145.014 o
315.262 145.017 o
315.516 145.021 o
315.77 145.024 o
316.024 145.026 o
316.278 145.029 o
316.532 145.032 o
316.786 145.034 o
317.04 145.037 o
317.294 145.039 o
317.548 145.041 o
317.802 145.044 o
318.056 145.046 o
318.31 145.048 o
318.564 145.05 o
318.818 145.052 o
319.072 145.054 o
319.326 145.056 o
319.58 145.057 o
319.834 145.059 o
320.087 145.061 o
320.341 145.062 o
320.595 145.064 o
320.849 145.065 o
321.103 145.067 o
321.357 145.068 o
321.611 145.07 o
321.865 145.071 o
322.119 145.073 o
322.373 145.074 o
322.627 145.075 o
322.881 145.077 o
323.135 145.078 o
323.389 145.079 o
323.643 145.08 o
323.897 145.081 o
324.151 145.083 o
324.405 145.084 o
324.659 145.085 o
324.913 145.086 o
325.167 145.088 o
325.421 145.089 o
325.674 145.09 o
325.928 145.092 o
326.182 145.093 o
326.436 145.095 o
326.69 145.096 o
326.944 145.098 o
327.198 145.1 o
327.452 145.102 o
327.706 145.105 o
327.96 145.109 o
328.214 145.116 o
328.468 145.161 o
328.722 145.238 o
328.976 145.346 o
329.23 145.379 o
329.484 145.373 o
329.738 145.454 o
329.992 145.518 o
330.246 145.511 o
330.5 145.626 o
330.754 145.635 o
331.007 145.733 o
331.261 145.762 o
331.515 145.877 o
331.769 145.834 o
332.023 145.948 o
332.277 145.785 o
332.531 145.948 o
332.785 145.823 o
333.039 145.865 o
333.293 145.821 o
333.547 145.903 o
333.801 145.859 o
334.055 145.891 o
334.309 145.861 o
334.563 145.87 o
334.817 145.918 o
335.071 145.87 o
335.325 145.909 o
335.579 145.917 o
335.833 145.868 o
336.087 145.934 o
336.341 145.893 o
336.594 145.938 o
336.848 145.96 o
337.102 145.917 o
337.356 145.977 o
337.61 145.964 o
337.864 145.972 o
338.118 145.946 o
338.372 145.97 o
338.626 146.07 o
338.88 146.019 o
339.134 146.053 o
339.388 146.104 o
339.642 146.135 o
339.896 146.099 o
340.15 146.174 o
340.404 146.115 o
340.658 146.281 o
340.912 146.201 o
341.166 146.298 o
341.42 146.31 o
341.674 146.462 o
341.928 146.429 o
342.181 146.606 o
342.435 146.561 o
342.689 146.791 o
342.943 146.965 o
343.197 147.007 o
343.451 147.294 o
343.705 147.827 o
343.959 148.225 o
344.213 149.35 o
344.467 151.581 o
344.721 149.798 o
344.975 146.198 o
345.229 145.566 o
345.483 145.366 o
345.737 145.276 o
345.991 145.229 o
346.245 145.2 o
346.499 145.181 o
346.753 145.168 o
347.007 145.157 o
347.261 145.149 o
347.514 145.142 o
347.768 145.136 o
348.022 145.13 o
348.276 145.124 o
348.53 145.117 o
348.784 145.11 o
349.038 145.102 o
349.292 145.094 o
349.546 145.084 o
349.8 145.072 o
350.054 145.058 o
350.308 145.041 o
350.562 145.022 o
350.816 144.997 o
351.07 144.967 o
351.324 144.929 o
351.578 144.879 o
351.832 144.812 o
352.086 144.715 o
352.34 144.561 o
352.594 144.243 o
352.848 143.698 o
353.101 143.351 o
353.355 143.022 o
353.609 142.704 o
353.863 142.398 o
354.117 142.063 o
354.371 141.737 o
354.625 141.421 o
354.879 140.98 o
355.133 140.509 o
355.387 139.93 o
355.641 139.638 o
355.895 139.627 o
356.149 139.604 o
356.403 139.588 o
356.657 139.554 o
356.911 139.496 o
357.165 139.459 o
357.419 139.418 o
357.673 139.394 o
357.927 139.37 o
358.181 139.312 o
358.434 139.291 o
358.688 139.223 o
358.942 139.183 o
359.196 139.11 o
359.45 139.064 o
359.704 138.98 o
359.958 138.939 o
360.212 138.87 o
360.466 138.795 o
360.72 138.727 o
360.974 138.62 o
361.228 138.551 o
361.482 138.428 o
361.736 138.346 o
361.99 138.221 o
362.244 138.114 o
362.498 137.966 o
362.752 137.848 o
363.006 137.675 o
363.26 137.515 o
363.514 137.317 o
363.768 137.118 o
364.021 136.886 o
364.275 136.666 o
364.529 136.378 o
364.783 136.12 o
365.037 135.771 o
365.291 135.426 o
365.545 135.004 o
365.799 134.518 o
366.053 134.003 o
366.307 133.405 o
366.561 132.69 o
366.815 131.923 o
367.069 131.023 o
367.323 129.958 o
367.577 128.735 o
367.831 127.322 o
368.085 125.778 o
368.339 124.112 o
368.593 122.551 o
368.847 122.258 o
369.101 125.464 o
369.355 128.794 o
369.608 131.652 o
369.862 133.969 o
370.116 135.795 o
370.37 137.223 o
370.624 138.343 o
370.878 139.231 o
371.132 139.943 o
371.386 140.521 o
371.64 140.997 o
371.894 141.394 o
372.148 141.729 o
372.402 142.014 o
372.656 142.259 o
372.91 142.471 o
373.164 142.657 o
373.418 142.821 o
373.672 142.966 o
373.926 143.096 o
374.18 143.212 o
374.434 143.317 o
374.688 143.412 o
374.941 143.499 o
375.195 143.577 o
375.449 143.65 o
375.703 143.716 o
375.957 143.778 o
376.211 143.835 o
376.465 143.888 o
376.719 143.937 o
376.973 143.983 o
377.227 144.025 o
377.481 144.066 o
377.735 144.103 o
377.989 144.139 o
378.243 144.172 o
378.497 144.204 o
378.751 144.234 o
379.005 144.262 o
379.259 144.289 o
379.513 144.314 o
379.767 144.338 o
380.021 144.361 o
380.275 144.383 o
380.528 144.404 o
380.782 144.424 o
381.036 144.443 o
381.29 144.462 o
381.544 144.479 o
381.798 144.496 o
382.052 144.513 o
382.306 144.528 o
382.56 144.543 o
382.814 144.558 o
383.068 144.571 o
383.322 144.585 o
383.576 144.598 o
383.83 144.61 o
384.084 144.623 o
384.338 144.634 o
384.592 144.646 o
384.846 144.657 o
385.1 144.667 o
385.354 144.678 o
385.608 144.688 o
385.862 144.698 o
386.115 144.707 o
386.369 144.717 o
386.623 144.726 o
386.877 144.735 o
387.131 144.744 o
387.385 144.752 o
387.639 144.761 o
387.893 144.769 o
388.147 144.777 o
388.401 144.785 o
388.655 144.793 o
388.909 144.801 o
389.163 144.809 o
389.417 144.817 o
389.671 144.824 o
389.925 144.832 o
390.179 144.84 o
390.433 144.848 o
390.687 144.856 o
390.941 144.865 o
391.195 144.873 o
391.448 144.882 o
391.702 144.891 o
391.956 144.901 o
392.21 144.911 o
392.464 144.922 o
392.718 144.934 o
392.972 144.948 o
393.226 144.963 o
393.48 144.981 o
393.734 145.002 o
393.988 145.031 o
394.242 145.072 o
394.496 145.149 o
394.75 145.643 o
395.004 146.23 o
395.258 146.959 o
395.512 147.356 o
395.766 147.379 o
396.02 148.058 o
396.274 148.455 o
396.528 148.692 o
396.782 149.339 o
397.035 149.588 o
397.289 150.512 o
397.543 150.962 o
397.797 151.703 o
398.051 151.495 o
398.305 151.598 o
398.559 151.108 o
398.813 151.825 o
399.067 151.362 o
399.321 151.562 o
399.575 151.341 o
399.829 151.664 o
400.083 151.467 o
400.337 151.537 o
400.591 151.563 o
400.845 151.564 o
401.099 151.808 o
401.353 151.585 o
401.607 151.751 o
401.861 151.844 o
402.115 151.598 o
402.369 151.931 o
402.622 151.795 o
402.876 152.03 o
403.13 152.115 o
403.384 151.994 o
403.638 152.279 o
403.892 152.256 o
404.146 152.355 o
404.4 152.359 o
404.654 152.438 o
404.908 152.806 o
405.162 152.788 o
405.416 152.996 o
405.67 153.297 o
405.924 153.485 o
406.178 153.527 o
406.432 153.774 o
406.686 153.844 o
406.94 154.546 o
407.194 154.522 o
407.448 155.029 o
407.702 155.385 o
407.955 156.225 o
408.209 156.458 o
408.463 157.281 o
408.717 157.82 o
408.971 159.267 o
409.225 160.42 o
409.479 161.713 o
409.733 164.125 o
409.987 167.379 o
410.241 171.337 o
410.495 179.152 o
410.749 192.766 o
411.003 184.6 o
411.257 159.634 o
411.511 151.818 o
411.765 148.927 o
412.019 147.563 o
412.273 146.807 o
412.527 146.339 o
412.781 146.028 o
413.035 145.807 o
413.289 145.645 o
413.542 145.52 o
413.796 145.421 o
414.05 145.34 o
414.304 145.273 o
414.558 145.215 o
414.812 145.165 o
415.066 145.12 o
415.32 145.08 o
415.574 145.042 o
415.828 145.006 o
416.082 144.972 o
416.336 144.939 o
416.59 144.906 o
416.844 144.872 o
417.098 144.839 o
417.352 144.804 o
417.606 144.768 o
417.86 144.731 o
418.114 144.691 o
418.368 144.648 o
418.622 144.602 o
418.876 144.551 o
419.129 144.496 o
419.383 144.434 o
419.637 144.365 o
419.891 144.286 o
420.145 144.195 o
420.399 144.088 o
420.653 143.96 o
420.907 143.802 o
421.161 143.599 o
421.415 143.322 o
421.669 142.901 o
421.923 142.056 o
422.177 139.729 o
422.431 138.244 o
422.685 136.786 o
422.939 135.487 o
423.193 134.401 o
423.447 133.02 o
423.701 131.818 o
423.955 130.672 o
424.209 129.118 o
424.462 127.179 o
424.716 125.113 o
424.97 123.022 o
425.224 123.051 o
425.478 122.979 o
425.732 123.048 o
425.986 122.926 o
426.24 122.74 o
426.494 122.634 o
426.748 122.615 o
427.002 122.536 o
427.256 122.54 o
427.51 122.337 o
427.764 122.367 o
428.018 122.043 o
428.272 122.016 o
428.526 121.752 o
428.78 121.696 o
429.034 121.491 o
429.288 121.347 o
429.542 121.243 o
429.796 120.935 o
430.049 120.837 o
430.303 120.37 o
430.557 120.243 o
430.811 119.785 o
431.065 119.595 o
431.319 119.236 o
431.573 118.918 o
431.827 118.501 o
432.081 118.069 o
432.335 117.548 o
432.589 116.942 o
432.843 116.336 o
433.097 115.58 o
433.351 114.893 o
433.605 114.141 o
433.859 113.257 o
434.113 112.361 o
434.367 111.144 o
434.621 109.994 o
434.875 108.516 o
435.129 106.854 o
435.383 104.984 o
435.636 102.828 o
435.89 100.306 o
436.144 97.5075 o
436.398 94.0432 o
436.652 89.8407 o
436.906 84.768 o
437.16 78.5672 o
437.414 70.9315 o
437.668 62.0028 o
437.922 51.8659 o
438.176 45.8836 o
438.43 65.087 o
438.684 87.8005 o
438.938 104.321 o
439.192 115.386 o
439.446 122.731 o
439.7 127.717 o
439.954 131.21 o
440.208 133.738 o
440.462 135.621 o
440.716 137.06 o
440.969 138.186 o
441.223 139.084 o
441.477 139.812 o
441.731 140.411 o
441.985 140.911 o
442.239 141.332 o
442.493 141.691 o
442.747 141.999 o
443.001 142.267 o
443.255 142.5 o
443.509 142.706 o
443.763 142.887 o
444.017 143.048 o
444.271 143.192 o
444.525 143.322 o
444.779 143.438 o
445.033 143.544 o
445.287 143.64 o
445.541 143.727 o
445.795 143.807 o
446.049 143.88 o
446.303 143.947 o
446.556 144.009 o
446.81 144.067 o
447.064 144.12 o
447.318 144.169 o
447.572 144.215 o
447.826 144.258 o
448.08 144.298 o
448.334 144.335 o
448.588 144.37 o
448.842 144.403 o
449.096 144.434 o
449.35 144.463 o
449.604 144.49 o
449.858 144.516 o
450.112 144.541 o
450.366 144.564 o
450.62 144.586 o
450.874 144.606 o
451.128 144.626 o
451.382 144.645 o
451.636 144.663 o
451.889 144.68 o
452.143 144.696 o
452.397 144.711 o
452.651 144.726 o
452.905 144.74 o
453.159 144.754 o
453.413 144.766 o
453.667 144.779 o
453.921 144.791 o
454.175 144.802 o
454.429 144.813 o
454.683 144.823 o
454.937 144.833 o
455.191 144.843 o
455.445 144.853 o
455.699 144.862 o
455.953 144.87 o
456.207 144.879 o
456.461 144.887 o
456.715 144.895 o
456.969 144.902 o
457.223 144.91 o
457.476 144.917 o
457.73 144.924 o
457.984 144.93 o
458.238 144.937 o
458.492 144.943 o
458.746 144.949 o
459 144.955 o
459.254 144.961 o
459.508 144.967 o
459.762 144.973 o
460.016 144.978 o
460.27 144.984 o
460.524 144.989 o
460.778 144.995 o
461.032 145 o
461.286 145.005 o
461.54 145.011 o
461.794 145.016 o
462.048 145.022 o
462.302 145.029 o
462.556 145.037 o
462.81 145.051 o
463.063 145.25 o
463.317 145.262 o
463.571 145.336 o
463.825 145.547 o
464.079 145.783 o
464.333 145.68 o
464.587 145.906 o
464.841 145.651 o
465.095 146.242 o
465.349 146.24 o
465.603 146.513 o
465.857 146.566 o
466.111 146.659 o
466.365 146.578 o
466.619 146.709 o
466.873 146.901 o
467.127 146.728 o
467.381 147.102 o
467.635 146.747 o
467.889 146.875 o
468.143 146.711 o
468.396 146.851 o
468.65 147.1 o
468.904 146.87 o
469.158 147.004 o
469.412 146.666 o
469.666 146.818 o
469.92 147.15 o
470.174 146.996 o
470.428 146.979 o
470.682 147.008 o
470.936 147.059 o
471.19 147.164 o
471.444 147.096 o
471.698 146.915 o
471.952 147.098 o
472.206 147.119 o
472.46 147.413 o
472.714 147.006 o
472.968 147.025 o
473.222 147.244 o
473.476 147.257 o
473.73 147.24 o
473.983 147.318 o
474.237 147.719 o
474.491 147.2 o
474.745 147.758 o
474.999 147.332 o
475.253 148.033 o
475.507 147.489 o
475.761 148.038 o
476.015 148.188 o
476.269 148.31 o
476.523 147.909 o
476.777 148.632 o
477.031 148.583 o
477.285 148.369 o
477.539 149.653 o
477.793 149.724 o
478.047 150.531 o
478.301 151.076 o
478.555 152.326 o
478.809 155.811 o
479.063 165.823 o
479.317 149.587 o
479.57 146.16 o
479.824 145.619 o
480.078 145.431 o
480.332 145.343 o
480.586 145.295 o
480.84 145.265 o
481.094 145.245 o
481.348 145.232 o
481.602 145.223 o
481.856 145.216 o
482.11 145.211 o
482.364 145.207 o
482.618 145.205 o
482.872 145.203 o
483.126 145.201 o
483.38 145.2 o
483.634 145.199 o
483.888 145.199 o
484.142 145.198 o
484.396 145.198 o
484.65 145.198 o
484.903 145.198 o
485.157 145.198 o
485.411 145.198 o
485.665 145.198 o
485.919 145.198 o
486.173 145.198 o
486.427 145.199 o
486.681 145.199 o
486.935 145.199 o
487.189 145.199 o
487.443 145.198 o
487.697 145.198 o
487.951 145.198 o
488.205 145.197 o
488.459 145.196 o
488.713 145.195 o
488.967 145.194 o
489.221 145.191 o
489.475 145.187 o
489.729 145.177 o
489.983 144.948 o
490.237 144.881 o
490.49 144.826 o
490.744 144.588 o
490.998 144.394 o
491.252 144.436 o
491.506 144.268 o
491.76 144.551 o
492.014 143.963 o
492.268 143.934 o
492.522 143.61 o
492.776 143.51 o
493.03 143.585 o
493.284 143.721 o
493.538 143.19 o
493.792 143.337 o
494.046 143.182 o
494.3 143.169 o
494.554 143.409 o
494.808 143.345 o
495.062 143.335 o
495.316 143.273 o
495.57 143.012 o
495.824 143.314 o
496.077 143.129 o
496.331 143.374 o
496.585 143.323 o
496.839 143.012 o
497.093 143.086 o
497.347 143.163 o
497.601 143.09 o
497.855 143.119 o
498.109 143.003 o
grestore
0.800 setlinewidth
0 setlinejoin
2 setlinecap
[] 0 setdash
0.000 setgray
gsave
72 36 m
72 253.44 l
stroke
grestore
gsave
518.4 36 m
518.4 253.44 l
stroke
grestore
gsave
72 36 m
518.4 36 l
stroke
grestore
gsave
72 253.44 m
518.4 253.44 l
stroke
grestore

end
showpage
%%EOF
