# Field Profile:
525150000000,-1.7975129259994802
525152500000,-1.7022119062391521
525155000000,-1.7718323998216605
525157500000,-1.7181824228810676
525160000000,-1.6426418432023289
525162500000,-2.0901947937226502
525165000000,-1.7786738295953388
525167500000,-1.9672319867234356
525170000000,-2.1228306452854491
525172500000,-2.0048287821285888
525175000000,-2.2973466701894347
525177500000,-1.6943319960919152
525180000000,-2.3982818837937789
525182500000,-2.1334941962832628
525185000000,-2.1690560225491344
525187500000,-2.3284040278597296
525190000000,-2.3162621389565867
525192500000,-2.4362484668696771
525195000000,-2.7391704695166501
525197500000,-2.8444383311318604
525200000000,-2.730027551890756
525202500000,-2.8587415629422344
525205000000,-3.4417164799143274
525207500000,-3.3931989019954329
525210000000,-3.5975146351383045
525212500000,-3.6110063872263973
525215000000,-5.7591220104450089
525217500000,-4.5815674340680737
525220000000,-5.202311681044498
525222500000,-6.7408308101253578
525225000000,-8.3923509142737185
525227500000,-8.0679720293737152
525230000000,-12.212642785386191
525232500000,-18.298793441811618
525235000000,-36.19035563959978
525237500000,-2.464493931830479
525240000000,-0.025492364442283848
525242500000,0.5516701122287303
525245000000,0.78691757819098473
525247500000,0.9098848285997625
525250000000,0.98426650389856118
525252500000,1.0338843036739052
525255000000,1.0694220158847934
525257500000,1.0963124202015122
525260000000,1.1175728184765861
525262500000,1.1350003539193454
525265000000,1.1497248043157571
525267500000,1.1624913204493634
525270000000,1.1738058429392919
525272500000,1.1840257228993452
525275000000,1.1934114622320346
525277500000,1.202152436246636
525280000000,1.2103962521830907
525282500000,1.2182522126896853
525285000000,1.2258090878097225
525287500000,1.2331379362674273
525290000000,1.2402955635711657
525292500000,1.2473273564332443
525295000000,1.25427542359335
525297500000,1.2611722537412196
525300000000,1.2680470041392542
525302500000,1.2749244975004221
525305000000,1.2818260853257193
525307500000,1.2887737195123583
525310000000,1.2957869187153894
525312500000,1.3028792722828264
525315000000,1.3100678694981918
525317500000,1.3173706316497764
525320000000,1.3247994139414203
525322500000,1.3323689649959527
525325000000,1.3400928413631967
525327500000,1.3479875394817606
525330000000,1.3560636003965179
525332500000,1.3643385696410166
525335000000,1.3728222617434964
525337500000,1.3815338262158414
525340000000,1.390486282384106
525342500000,1.3996951312567885
525345000000,1.409178810275753
525347500000,1.4189512996216882
525350000000,1.4290330027956393
525352500000,1.4394413324141406
525355000000,1.4501977446772489
525357500000,1.4613212300726901
525360000000,1.4728376738651245
525362500000,1.4847663121088048
525365000000,1.4971360845944517
525367500000,1.5099740316239167
525370000000,1.5233088731925515
525372500000,1.5371715952682972
525375000000,1.5515966062929158
525377500000,1.5666210305982295
525380000000,1.5822848431587957
525382500000,1.5986298913344585
525385000000,1.6157032589339702
525387500000,1.633559010660004
525390000000,1.6522473287559771
525392500000,1.67183256027074
525395000000,1.6923808183322444
525397500000,1.7139659964103939
525400000000,1.7366676067092166
525402500000,1.7605780750503577
525405000000,1.7857930924437988
525407500000,1.8124272991780224
525410000000,1.8406011016514678
525412500000,1.870454244274701
525415000000,1.9021438335586807
525417500000,1.93584432493768
525420000000,1.9717581363944923
525422500000,2.0101101978118283
525425000000,2.0511649638537945
525427500000,2.0952235599917075
525430000000,2.1426354250898987
525432500000,2.1938126838269398
525435000000,2.2492342245263059
525437500000,2.309472304863307
525440000000,2.3752161733226851
525442500000,2.4472974073990956
525445000000,2.5267345155712486
525447500000,2.6148017426982788
525450000000,2.7131012922073152
525452500000,2.8237051386974992
525455000000,2.9493388940593044
525457500000,3.093701213464962
525460000000,3.2619695699553071
525462500000,3.4617297723528586
525465000000,3.7047274787754563
525467500000,4.0106426897314913
525470000000,4.4164739066927305
525472500000,5.006189620122961
525475000000,6.0580252671564141
525477500000,9.3398190679680493
525480000000,11.7904190404522
525482500000,14.343566757688665
525485000000,16.159673639939989
525487500000,17.760031169290599
525490000000,20.130311681023649
525492500000,22.012458770457918
525495000000,23.713240252835451
525497500000,25.729857289989923
525500000000,28.266353260182566
525502500000,31.743010437648245
525505000000,35.619579807815271
525507500000,35.659799365826558
525510000000,35.716839979809869
525512500000,35.458940491651759
525515000000,35.654374398307141
525517500000,35.855955890177256
525520000000,36.106376264938994
525522500000,36.048219410195166
525525000000,36.165779442333402
525527500000,36.115019847147799
525530000000,36.29682148018933
525532500000,36.267335375401714
525535000000,36.572906371913859
525537500000,36.748222029182323
525540000000,37.030067364371753
525542500000,37.227695039401581
525545000000,37.40413224809074
525547500000,37.691796296241243
525550000000,37.810395775159137
525552500000,38.276882855795364
525555000000,38.407275174502615
525557500000,38.972113592738047
525560000000,39.259399364078263
525562500000,39.77527062440339
525565000000,40.22955028994128
525567500000,40.697397132131684
525570000000,41.20703567016669
525572500000,41.746507520405331
525575000000,42.433569529946496
525577500000,43.13119587163218
525580000000,44.101198300654744
525582500000,44.898216173310423
525585000000,46.182786419782978
525587500000,47.041029190521982
525590000000,48.39046495191527
525592500000,49.447609317324947
525595000000,50.904447761026383
525597500000,52.556562297569165
525600000000,54.323555783497234
525602500000,56.516446547333928
525605000000,58.906289290872081
525607500000,61.719778637214908
525610000000,64.99984829921776
525612500000,68.39937435607402
525615000000,72.643939526525827
525617500000,77.748068433899121
525620000000,83.825636698191275
525622500000,91.180652037116943
525625000000,100.11962787453011
525627500000,110.97428364744111
525630000000,124.07376872088966
525632500000,139.19274619825489
525635000000,151.67014931385273
525637500000,132.2563864634001
525640000000,95.567750689049277
525642500000,67.922481969669661
525645000000,49.230642910456226
525647500000,36.870161965791631
525650000000,28.550762909316067
525652500000,22.776139714524611
525655000000,18.635045386958801
525657500000,15.573968344708664
525660000000,13.249584903499095
525662500000,11.442743922247701
525665000000,10.009363294360535
525667500000,8.8519728601176748
525670000000,7.9029033325579015
525672500000,7.1140464221700173
525675000000,6.4504618943699565
525677500000,5.8862834886806512
525680000000,5.4020230749634157
525682500000,4.9827756082747268
525685000000,4.6169637594429416
525687500000,4.2954909774497256
525690000000,4.0111158953969115
525692500000,3.7580069446669508
525695000000,3.5314465746813748
525697500000,3.3275317528293868
525700000000,3.1430497795279431
525702500000,2.9753272920869835
525705000000,2.8220756964266442
525707500000,2.681376369531804
525710000000,2.5515818508851211
525712500000,2.4312291623036102
525715000000,2.3190774337819104
525717500000,2.2139785301818051
525720000000,2.114896944669229
525722500000,2.0208939753589594
525725000000,1.9310272122278098
525727500000,1.8443662281583941
525730000000,1.7598976361617431
525732500000,1.6764052430354961
525735000000,1.592291671083863
525737500000,1.5050803936115158
525740000000,1.4101966040813887
525742500000,1.2964843773667587
525745000000,1.1151824120843203
525747500000,0.1439590422170928
525750000000,-0.76874494859778686
525752500000,-1.7689916050784742
525755000000,-2.4105670203805851
525757500000,-2.8687283321336645
525760000000,-3.4564976690224269
525762500000,-4.104258535340203
525765000000,-4.3135694093631489
525767500000,-5.6052580919925541
525770000000,-6.0234127768406438
525772500000,-7.2154389357680788
525775000000,-8.3123104170526805
525777500000,-8.696058879180276
525780000000,-8.4513515558344672
525782500000,-9.0287905394382282
525785000000,-8.2517940175190549
525787500000,-9.1592754966142618
525790000000,-8.5392910235407058
525792500000,-8.6311089538767352
525795000000,-8.4330781842816105
525797500000,-8.7503783868683946
525800000000,-8.5907784641662257
525802500000,-8.7639663708713833
525805000000,-8.7432271968514659
525807500000,-8.7732936141542783
525810000000,-9.0116782855878608
525812500000,-8.6898765891960039
525815000000,-9.0684400223429904
525817500000,-9.1491092630275404
525820000000,-8.7955981381091437
525822500000,-9.3095152022124168
525825000000,-9.052446168648359
525827500000,-9.5058113959568225
525830000000,-9.5511532989161498
525832500000,-9.4903912801869712
525835000000,-9.843172181303629
525837500000,-9.8314262967760104
525840000000,-10.010085306560105
525842500000,-9.883132247903486
525845000000,-10.152277016104978
525847500000,-10.657941981483734
525850000000,-10.726809134177138
525852500000,-11.023483193099574
525855000000,-11.419597161084409
525857500000,-11.818475794255919
525860000000,-11.771498765716805
525862500000,-12.346426446481415
525865000000,-12.308008640473128
525867500000,-13.559981526236276
525870000000,-13.358212741017752
525872500000,-14.194925811103035
525875000000,-14.843395673633461
525877500000,-16.08052227227985
525880000000,-16.365451562470778
525882500000,-17.842420374844419
525885000000,-18.652679339591359
525887500000,-20.549344950798872
525890000000,-22.789326873885884
525892500000,-24.711582155910968
525895000000,-28.492743613472719
525897500000,-33.929617672460964
525900000000,-40.543367953940397
525902500000,-53.679285109694199
525905000000,-75.8413424018553
525907500000,-51.826243011684575
525910000000,-18.504953860457114
525912500000,-8.2448298668517168
525915000000,-4.3052445360084457
525917500000,-2.3986561697352689
525920000000,-1.3251649545904853
525922500000,-0.65606095081480764
525925000000,-0.2078288401311976
525927500000,0.10897657713048604
525930000000,0.34235421401444249
525932500000,0.52003976775096561
525935000000,0.65901770560678186
525937500000,0.77019687088530175
525940000000,0.86085622690613151
525942500000,0.93602036811868272
525945000000,0.99925112691083673
525947500000,1.0531366103818527
525950000000,1.0995980106078551
525952500000,1.1400841684498477
525955000000,1.175709508748265
525957500000,1.2073434905823455
525960000000,1.2356695489294456
525962500000,1.2612389951160201
525965000000,1.2844909995655243
525967500000,1.3057862244824006
525970000000,1.3254242743717288
525972500000,1.3436498691075331
525975000000,1.3606698962424566
525977500000,1.3766577274166749
525980000000,1.3917623593505895
525982500000,1.4061096441198024
525985000000,1.419808129104106
525987500000,1.4329537271620856
525990000000,1.4456256676179771
525992500000,1.4578985677900862
525995000000,1.4698368382315874
525997500000,1.4814936319760523
526000000000,1.4929213026115205
526002500000,1.5041662847876549
526005000000,1.5152680746396066
526007500000,1.5262649541887259
526010000000,1.5371904672010792
526012500000,1.5480780028341623
526015000000,1.5589535022699057
526017500000,1.5698497957916402
526020000000,1.5807875823437134
526022500000,1.5917948204036079
526025000000,1.6028943578231025
526027500000,1.6141116324919154
526030000000,1.6254638459426878
526032500000,1.6369765064470969
526035000000,1.6486714556286857
526037500000,1.6605661600982622
526040000000,1.6726865622620608
526042500000,1.6850528284599853
526045000000,1.6976854218458219
526047500000,1.7106094460297729
526050000000,1.7238447691251364
526052500000,1.7374169273682956
526055000000,1.7513513718885745
526057500000,1.7656732750850463
526060000000,1.7804077378906453
526062500000,1.7955861649683769
526065000000,1.8112370920316407
526067500000,1.8273924596507551
526070000000,1.8440855629818538
526072500000,1.8613551522635299
526075000000,1.8792388655677243
526077500000,1.8977784605813672
526080000000,1.9170189011913084
526082500000,1.9370136511893079
526085000000,1.9578109995885429
526087500000,1.9794749414467252
526090000000,2.0020668755573467
526092500000,2.0256604407421603
526095000000,2.0503343087396737
526097500000,2.0761755614449613
526100000000,2.1032816731975759
526102500000,2.1317630606996389
526105000000,2.1617434414517787
526107500000,2.1933619730394631
526110000000,2.226776672299597
526112500000,2.2621708579307049
526115000000,2.2997554124010824
526117500000,2.3397719260023133
526120000000,2.3825058427101773
526122500000,2.4282949761805188
526125000000,2.4775414030722294
526127500000,2.5307289704062974
526130000000,2.5884499402806265
526132500000,2.6514413793573484
526135000000,2.7206279065630534
526137500000,2.7972078600846269
526140000000,2.8827588951433385
526142500000,2.9794315327467502
526145000000,3.090268229822843
526147500000,3.2197872032873329
526150000000,3.3751735602892539
526152500000,3.5689785714661126
526155000000,3.8266229696733709
526157500000,4.2150933870802954
526160000000,5.0383513951468801
526162500000,5.761845829044737
526165000000,6.3925291862835127
526167500000,6.9039009165635434
526170000000,7.3794896542323478
526172500000,7.9516161611723986
526175000000,8.5079691695449977
526177500000,9.0079889388179541
526180000000,9.5514494906361822
526182500000,10.16911958596843
526185000000,10.998075871522365
526187500000,11.887383854957333
526190000000,11.940697014228936
526192500000,11.920756452982733
526195000000,11.857913768670166
526197500000,11.867304182402762
526200000000,11.883549228557969
526202500000,11.925633840013436
526205000000,11.907707345160153
526207500000,11.924703427333503
526210000000,11.91830397730492
526212500000,11.921204668859691
526215000000,11.927531663758234
526217500000,11.958069202277315
526220000000,11.999498120197039
526222500000,12.048004373955601
526225000000,12.10909751414075
526227500000,12.149770745813365
526230000000,12.219674928984846
526232500000,12.255677338355888
526235000000,12.351426661906647
526237500000,12.406510877394696
526240000000,12.512196746595203
526242500000,12.603901105833311
526245000000,12.71442282156648
526247500000,12.849729959848961
526250000000,12.962057555930514
526252500000,13.113790563474847
526255000000,13.272330647799977
526257500000,13.46424683618255
526260000000,13.645096304209273
526262500000,13.886340180185638
526265000000,14.109149766361567
526267500000,14.407665442489201
526270000000,14.662916179968679
526272500000,15.023541578207977
526275000000,15.32369294633973
526277500000,15.733100637184002
526280000000,16.135715768462543
526282500000,16.614246435660004
526285000000,17.157570178118196
526287500000,17.76229597338369
526290000000,18.45334828719043
526292500000,19.234089345117173
526295000000,20.078605899605858
526297500000,21.061872053295581
526300000000,22.216975674827534
526302500000,23.468152270580585
526305000000,24.893769715939332
526307500000,26.488344737613179
526310000000,28.162398384400994
526312500000,29.892601141029999
526315000000,31.543106471363167
526317500000,32.325164863649668
526320000000,29.60927784981051
526322500000,23.274053048556461
526325000000,18.146642524151385
526327500000,14.131779622546185
526330000000,11.106459155942053
526332500000,8.8599905389685194
526335000000,7.1913828861854636
526337500000,5.9415027152527804
526340000000,4.9937116662168295
526342500000,4.2651400395398724
526345000000,3.697400845015856
526347500000,3.2492096456903932
526350000000,2.8911288175493932
526352500000,2.6018927275452075
526355000000,2.3659477534321596
526357500000,2.1717565452350933
526360000000,2.0106486120399194
526362500000,1.8760308957521457
526365000000,1.7628278101755168
526367500000,1.6670953817369936
526370000000,1.5857086131718667
526372500000,1.5161931170149339
526375000000,1.456577230531888
526377500000,1.4052306861042614
526380000000,1.3608472503307343
526382500000,1.3223244450683984
526385000000,1.2887224915796425
526387500000,1.2592430675463153
526390000000,1.2331762746649768
526392500000,1.2096886839277572
526395000000,1.1876398391737726
526397500000,1.1636389517455581
526400000000,1.0812114327404694
526402500000,0.95112390851410955
526405000000,0.77509229984286909
526407500000,0.71743000082921171
526410000000,0.71847700417463867
526412500000,0.58888993367115161
526415000000,0.48565043523599111
526417500000,0.49235680782176627
526420000000,0.30849457574731171
526422500000,0.29642352134917316
526425000000,0.13727659056040059
526427500000,0.092363736268148935
526430000000,-0.089246695396724404
526432500000,-0.021420495257212669
526435000000,-0.2057252315008975
526437500000,0.057281077514412013
526440000000,-0.20861350951393012
526442500000,-0.0035888132167686292
526445000000,-0.077850035758349229
526447500000,-0.00045267572456543059
526450000000,-0.13372116499625694
526452500000,-0.060117948658595835
526455000000,-0.10869127173269623
526457500000,-0.062736769300031886
526460000000,-0.073166797518707333
526462500000,-0.1514015551449317
526465000000,-0.070976370753404378
526467500000,-0.12723498565844862
526470000000,-0.14189671932158329
526472500000,-0.059373101729599892
526475000000,-0.16155666443093425
526477500000,-0.093581694776835034
526480000000,-0.16289148501310416
526482500000,-0.19570386459811134
526485000000,-0.12478536172781599
526487500000,-0.21791736601769057
526490000000,-0.19346506529844198
526492500000,-0.20364102092139796
526495000000,-0.16143789932234634
526497500000,-0.19410509753469815
526500000000,-0.34852139205692034
526502500000,-0.26267212195914386
526505000000,-0.3156660849882269
526507500000,-0.39065790764207836
526510000000,-0.43715711657632378
526512500000,-0.37992109173463379
526515000000,-0.49076224510629302
526517500000,-0.39663574678902697
526520000000,-0.65072409338134696
526522500000,-0.52871785485356215
526525000000,-0.66988666041638212
526527500000,-0.68515905799613541
526530000000,-0.92351732768128514
526532500000,-0.86998551506592603
526535000000,-1.1396532828168626
526537500000,-1.0628465061648706
526540000000,-1.4268819419561585
526542500000,-1.689590077064026
526545000000,-1.7513295473484614
526547500000,-2.1921225195912402
526550000000,-3.0367014562055266
526552500000,-3.6476992728487896
526555000000,-5.4175599613244705
526557500000,-8.9738712886626182
526560000000,-6.485924083897765
526562500000,-0.75076110367667093
526565000000,0.31022559993657239
526567500000,0.66227604398424844
526570000000,0.82566373750070166
526572500000,0.91691058883207299
526575000000,0.97414014376524793
526577500000,1.0130062892480389
526580000000,1.0409777378642904
526582500000,1.0620161597944422
526585000000,1.0784002520069129
526587500000,1.0915250939029761
526590000000,1.10228511445956
526592500000,1.1112810132203219
526595000000,1.1189280511764055
526597500000,1.1255233918726506
526600000000,1.1312841325438516
526602500000,1.1363715307177926
526605000000,1.1409101984153389
526607500000,1.1449961110081994
526610000000,1.1487037485918736
526612500000,1.1520944885770534
526615000000,1.1552166861577162
526617500000,1.1581107217311255
526620000000,1.160809348123329
526622500000,1.1633410477075889
526625000000,1.1657281642607933
526627500000,1.1679921176923507
526630000000,1.1701483719077115
526632500000,1.1722129155546459
526635000000,1.1741988450604357
526637500000,1.1761178679079649
526640000000,1.1779797041575564
526642500000,1.1797931678371008
526645000000,1.1815680914567699
526647500000,1.1833104078728403
526650000000,1.1850278992510634
526652500000,1.1867265321463429
526655000000,1.1884119662837074
526657500000,1.1900892572475559
526660000000,1.1917652672299055
526662500000,1.1934425802096758
526665000000,1.1951281072615716
526667500000,1.1968241520380019
526670000000,1.1985351205637302
526672500000,1.2002662042451306
526675000000,1.2020206315298705
526677500000,1.2038011331310083
526680000000,1.2056147189164417
526682500000,1.207460684260768
526685000000,1.2093456124180446
526687500000,1.2112727644457917
526690000000,1.2132444884261115
526692500000,1.2152650112467551
526695000000,1.2173384210231526
526697500000,1.2194681441665474
526700000000,1.2216571300783234
526702500000,1.2239101673647896
526705000000,1.2262304280250276
526707500000,1.2286219913205816
526710000000,1.2310886601799409
526712500000,1.2336345527236778
526715000000,1.236264432888619
526717500000,1.2389825547294486
526720000000,1.2417939300328975
526722500000,1.2447018585913101
526725000000,1.24771275905965
526727500000,1.2508320229608807
526730000000,1.2540641998685234
526732500000,1.2574163960821392
526735000000,1.2608927110072483
526737500000,1.2645017807479253
526740000000,1.2682513709339229
526742500000,1.2721458503650105
526745000000,1.2761949262929702
526747500000,1.2804077515976953
526750000000,1.2847920658800931
526752500000,1.2893589264412035
526755000000,1.294117791914478
526757500000,1.2990806503136243
526760000000,1.3042591186222294
526762500000,1.3096685004643345
526765000000,1.3153220847497551
526767500000,1.3212366432047051
526770000000,1.3274300852288772
526772500000,1.3339219357227643
526775000000,1.3407327054097022
526777500000,1.347888150230957
526780000000,1.3554138013544399
526782500000,1.3633406607000498
526785000000,1.3717016116572465
526787500000,1.3805340699873867
526790000000,1.3898835932919575
526792500000,1.3997982427360707
526795000000,1.4103341833993552
526797500000,1.421558081443506
526800000000,1.4335473027678807
526802500000,1.4463907582704367
526805000000,1.4601974817810044
526807500000,1.4750944614658867
526810000000,1.4912403417071673
526812500000,1.5088262361373936
526815000000,1.5280955963174345
526817500000,1.5493573036289412
526820000000,1.5730151671692332
526822500000,1.5996122195713927
526825000000,1.6299039495236334
526827500000,1.6649894728468186
526830000000,1.7065670174869185
526832500000,1.7574832744495821
526835000000,1.8231376869799927
526837500000,1.9161227067342048
526840000000,2.0818174286733599
526842500000,2.3936159090016518
526845000000,2.5938460583644272
526847500000,2.7786528285394425
526850000000,2.9597747653618014
526852500000,3.1174441684809424
526855000000,3.2966719054337346
526857500000,3.4636139674276123
526860000000,3.6207261361192189
526862500000,3.8368431696997178
526865000000,4.0892543145604368
526867500000,4.3594643153494834
526870000000,4.5465537556065128
526872500000,4.5157311307691916
526875000000,4.5125561428813858
526877500000,4.5060224369550257
526880000000,4.5064915213949144
526882500000,4.521738136579847
526885000000,4.5145167177336329
526887500000,4.5130570354569741
526890000000,4.5157715995375431
526892500000,4.5125424324805055
526895000000,4.5292418742143559
526897500000,4.5208200084896593
526900000000,4.5418431097217535
526902500000,4.5460717225460598
526905000000,4.5714066994255278
526907500000,4.5698446931898644
526910000000,4.5974201341702932
526912500000,4.6095153136112792
526915000000,4.6252014190681754
526917500000,4.6547970022828027
526920000000,4.669897803661371
526922500000,4.7179118431931331
526925000000,4.7358581204028791
526927500000,4.792830172488654
526930000000,4.8118640274274895
526932500000,4.8598354625695945
526935000000,4.9017630065453828
526937500000,4.9593426873509765
526940000000,5.0108501162578412
526942500000,5.0849293151338042
526945000000,5.1558315750675954
526947500000,5.239739026858536
526950000000,5.3297766036890311
526952500000,5.4298167750159649
526955000000,5.5254276145368975
526957500000,5.6492225429784879
526960000000,5.7680617171102
526962500000,5.9286960581868593
526965000000,6.082697835797779
526967500000,6.2753371563606501
526970000000,6.4861892719249825
526972500000,6.7227215844805253
526975000000,6.9893437570889381
526977500000,7.3189968481328131
526980000000,7.6509105915126705
526982500000,8.0549574832698703
526985000000,8.541691250528098
526987500000,9.072297424684562
526990000000,9.6750718674840961
526992500000,10.350188672949084
526995000000,11.022002814437373
526997500000,11.587148760795603
527000000000,11.522730457384686
527002500000,9.3002333831024284
527005000000,7.1722800029119949
527007500000,5.5395167995265835
527010000000,4.3505448368913031
527012500000,3.4999941070205778
527015000000,2.8884860591951331
527017500000,2.441097492678002
527020000000,2.1055986100589514
527022500000,1.8461323024900318
527025000000,1.6373819419499906
527027500000,1.4597655286039959
527030000000,1.2941336047240724
527032500000,1.1082796574332172
527035000000,0.76479243401183217
527037500000,0.50127473291802671
527040000000,0.24860770276950245
527042500000,0.051315354164580412
527045000000,-0.11944609920717626
527047500000,-0.33667975533411337
527050000000,-0.53767757818521089
527052500000,-0.71436050798828454
527055000000,-0.9041633121560293
527057500000,-1.1355201516679854
527060000000,-1.448333185014824
527062500000,-1.7845428292437815
527065000000,-1.8192377507710582
527067500000,-1.830186353506329
527070000000,-1.8298831360770675
527072500000,-1.8522345536025118
527075000000,-1.8820443093516592
527077500000,-1.9174061348404317
527080000000,-1.931096438762538
527082500000,-1.9573833834257472
527085000000,-1.9689065791297238
527087500000,-1.9911920322827328
527090000000,-2.003686599924988
527092500000,-2.0313666249847273
527095000000,-2.0627029824575209
527097500000,-2.0998818346887234
527100000000,-2.1277505318083625
527102500000,-2.1560001122855756
527105000000,-2.1888278071805503
527107500000,-2.2127154840079366
527110000000,-2.2606630945570552
527112500000,-2.2862471799697563
527115000000,-2.3331200659111646
527117500000,-2.374523397434706
527120000000,-2.4273360599063323
527122500000,-2.4828033827812797
527125000000,-2.5301762854011622
527127500000,-2.584323381287462
527130000000,-2.6475168133507188
527132500000,-2.7215432756544029
527135000000,-2.7895157889813276
527137500000,-2.8763613510794803
527140000000,-2.9643908301348545
527142500000,-3.0731424934272265
527145000000,-3.165841084723207
527147500000,-3.2977802456911811
527150000000,-3.4046256824155421
527152500000,-3.5493396305661387
527155000000,-3.7022820640517695
527157500000,-3.8696489190495278
527160000000,-4.0748003956455854
527162500000,-4.292727068714993
527165000000,-4.5477253745911224
527167500000,-4.8494004787751823
527170000000,-5.1675266611415633
527172500000,-5.5449576191082421
527175000000,-5.9986518575515362
527177500000,-6.5187160881024022
527180000000,-7.1355936206342383
527182500000,-7.8602226125737538
527185000000,-8.700787786353569
527187500000,-9.6608340564176522
527190000000,-10.728283998135506
527192500000,-11.582257123526075
527195000000,-10.88211303898524
527197500000,-8.6187881954816277
527200000000,-6.7611676197512098
527202500000,-5.2651605165241584
527205000000,-4.1159864960894508
527207500000,-3.2460855499602408
527210000000,-2.5851667917754089
527212500000,-2.0766983060361364
527215000000,-1.6791986898530016
527217500000,-1.3631906824374207
527220000000,-1.1078639521434914
527222500000,-0.89843335534724833
527225000000,-0.72426926439674755
527227500000,-0.57762158606349401
527230000000,-0.45275071859570887
527232500000,-0.34534718766198313
527235000000,-0.25212455204339262
527237500000,-0.17054559503758657
527240000000,-0.098625298559805993
527242500000,-0.034792640219083543
527245000000,0.022208523902213194
527247500000,0.073393436874085033
527250000000,0.11958985729001949
527252500000,0.16147883253923326
527255000000,0.19962555310535593
527257500000,0.23450117592576811
527260000000,0.26650259310642854
527262500000,0.29596600624891456
527265000000,0.32317731937297711
527267500000,0.34838148325975071
527270000000,0.37178956416904291
527272500000,0.39358514427184987
527275000000,0.41392512398742332
527277500000,0.43294916405268291
527280000000,0.4507791574952561
527282500000,0.46752153791761863
527285000000,0.48327054533498581
527287500000,0.49811005010388321
527290000000,0.51211512356146527
527292500000,0.52535279933049528
527295000000,0.53788106567178251
527297500000,0.54975456144112733
527300000000,0.56102122635615093
527302500000,0.57172406505553297
527305000000,0.58190288631349874
527307500000,0.59159421908536691
527310000000,0.60082853452833263
527312500000,0.60963613312247666
527315000000,0.61804426716814964
527317500000,0.62607829146035687
527320000000,0.63375970948841842
527322500000,0.6411100742405762
527325000000,0.64814854963693824
527327500000,0.6548924569665947
527330000000,0.66135841030621489
527332500000,0.66756177571830821
527335000000,0.67351624463061699
527337500000,0.67923496447460563
527340000000,0.68473005821067812
527342500000,0.69001293299921174
527345000000,0.69509427313983996
527347500000,0.69998400952852158
527350000000,0.70469136161654111
527352500000,0.70922584225745211
527355000000,0.71359431742791646
527357500000,0.71780510561608424
527360000000,0.7218647633024019
527362500000,0.72578260293915053
527365000000,0.72956229970666064
527367500000,0.73321238075168782
527370000000,0.73673658689385668
527372500000,0.74014244414864538
527375000000,0.74343403744970504
527377500000,0.74661764009027998
527380000000,0.74969702702742536
527382500000,0.75267792525734645
527385000000,0.75556461612346393
527387500000,0.75836149608365055
527390000000,0.76107334757108058
527392500000,0.76370399424458024
527395000000,0.76625772878270437
527397500000,0.76873783885288638
527400000000,0.77114848858997376
527402500000,0.77349442187951156
527405000000,0.77577885943569913
527407500000,0.77800585269656197
527410000000,0.78018009084914364
527412500000,0.78230449155676773
527415000000,0.78438354048340597
527417500000,0.78642013397601362
527420000000,0.78842035033484648
527422500000,0.79038699746540675
527425000000,0.79232580557153998
527427500000,0.79424038110790396
527430000000,0.79613706185651911
527432500000,0.7980217059130883
527435000000,0.79989924933035228
527437500000,0.80177668135890467
527440000000,0.80366207842766701
527442500000,0.80556502327354318
527445000000,0.80749358042328612
527447500000,0.80946225644133563
527450000000,0.8114841365433596
527452500000,0.81357869218757861
527455000000,0.81576776428414055
527457500000,0.81808402175282957
527460000000,0.82056919939157502
527462500000,0.82328492718752733
527465000000,0.82632586014555875
527467500000,0.82985427400853107
527470000000,0.83417959140755049
527472500000,0.84005615456386373
527475000000,0.85056045207665154
527477500000,0.92023140455874719
527480000000,1.0381687171720586
527482500000,1.2029767112113023
527485000000,1.2536664129320079
527487500000,1.2451665623957904
527490000000,1.3682663981100667
527492500000,1.4670806901399602
527495000000,1.4565951553918322
527497500000,1.6324625997681654
527500000000,1.6464398762083923
527502500000,1.7968796356029413
527505000000,1.8406926825698475
527507500000,2.0165942346941441
527510000000,1.9506123727431539
527512500000,2.1254585288012708
527515000000,1.8754491788418302
527517500000,2.1254903347960457
527520000000,1.9344823824807738
527522500000,1.9982152458598625
527525000000,1.9311521970927779
527527500000,2.0564523357064606
527530000000,1.989985136187995
527532500000,2.0386166623920214
527535000000,1.9922641831426389
527537500000,2.006345639766355
527540000000,2.0802058084095245
527542500000,2.0064279083823009
527545000000,2.0651029865231241
527547500000,2.0780763250250396
527550000000,2.0030941266978264
527552500000,2.1042879368712342
527555000000,2.0406833251910665
527557500000,2.1105651698994121
527560000000,2.1446807096360097
527562500000,2.0778089038074756
527565000000,2.170468203907197
527567500000,2.1508662466036483
527570000000,2.1629065994207979
527572500000,2.1221006550199628
527575000000,2.1600362922071636
527577500000,2.3129378977824859
527580000000,2.2338851727900901
527582500000,2.2861106115544332
527585000000,2.3651630125034746
527587500000,2.4125971672908229
527590000000,2.3565744563557973
527592500000,2.4719972287158676
527595000000,2.3814233313945183
527597500000,2.6358670661116816
527600000000,2.5138047537899038
527602500000,2.6615903362182722
527605000000,2.6803602652615757
527607500000,2.9129212684838497
527610000000,2.8631404082529244
527612500000,3.1335887248802461
527615000000,3.0653775173049915
527617500000,3.4171677246500649
527620000000,3.6838219232255933
527622500000,3.7478541150216209
527625000000,4.1876382808984483
527627500000,5.0036481406833468
527630000000,5.6146504927569589
527632500000,7.3373485046014775
527635000000,10.755115398072641
527637500000,8.0246384168121363
527640000000,2.5088653486391101
527642500000,1.5404982483890663
527645000000,1.2332228477861418
527647500000,1.0967492910655769
527650000000,1.0236862239981064
527652500000,0.97956419436770836
527655000000,0.95046078206564266
527657500000,0.92982928669167708
527660000000,0.91422748833917133
527662500000,0.9016729212513831
527665000000,0.89093638071450465
527667500000,0.88119318044182593
527670000000,0.87185537774992339
527672500000,0.86246457672913146
527675000000,0.85261592320849588
527677500000,0.84195837319787925
527680000000,0.8301176046324753
527682500000,0.81670278924141138
527685000000,0.8012556635526964
527687500000,0.78324963568008821
527690000000,0.76201162453380933
527692500000,0.73668953811150695
527695000000,0.70614760046735014
527697500000,0.66882750406119806
527700000000,0.62251492122481145
527702500000,0.56387444189131031
527705000000,0.48760858698833198
527707500000,0.38453737844238439
527710000000,0.23664519304447365
527712500000,0.00033620419129559145
527715000000,-0.48726057128023481
527717500000,-1.321537560666791
527720000000,-1.8530148596020029
527722500000,-2.3568028688944729
527725000000,-2.8439578968926567
527727500000,-3.3137797699044231
527730000000,-3.8258144016489295
527732500000,-4.3254424481525007
527735000000,-4.8103808045730014
527737500000,-5.4862035281976125
527740000000,-6.2071792460553592
527742500000,-7.093816548307144
527745000000,-7.5414730022971321
527747500000,-7.5591713487048766
527750000000,-7.593240573143162
527752500000,-7.6190354441372969
527755000000,-7.6701802929864025
527757500000,-7.7592192777967606
527760000000,-7.8160100952578224
527762500000,-7.8784704331137094
527765000000,-7.9159025850966138
527767500000,-7.952505944165309
527770000000,-8.0406545183223681
527772500000,-8.0740628672876529
527775000000,-8.1781939815954878
527777500000,-8.2392839482186151
527780000000,-8.350208705036847
527782500000,-8.4209410016020012
527785000000,-8.5505602377011947
527787500000,-8.612275271233365
527790000000,-8.718151093233411
527792500000,-8.8338462891935094
527795000000,-8.9382224037555726
527797500000,-9.1022813489150973
527800000000,-9.2075278449542957
527802500000,-9.3952724805938814
527805000000,-9.5215860479600192
527807500000,-9.7135098555144541
527810000000,-9.8772988637894823
527812500000,-10.103096428168811
527815000000,-10.284272325815516
527817500000,-10.549535020344994
527820000000,-10.794162234617689
527822500000,-11.097696799504694
527825000000,-11.402127635094338
527827500000,-11.758069363056185
527830000000,-12.095611019573417
527832500000,-12.536198672923289
527835000000,-12.932433338353492
527837500000,-13.467149289645707
527840000000,-13.994624091447022
527842500000,-14.642040805060949
527845000000,-15.386239336457479
527847500000,-16.175426894202381
527850000000,-17.091446989355642
527852500000,-18.186562813229582
527855000000,-19.362428617527453
527857500000,-20.740065214143577
527860000000,-22.372807372789985
527862500000,-24.245927983834623
527865000000,-26.411266759417813
527867500000,-28.776009692072101
527870000000,-31.328543790255594
527872500000,-33.720246626286595
527875000000,-34.169570799275448
527877500000,-29.257468019349407
527880000000,-24.15519627796424
527882500000,-19.7769725280776
527885000000,-16.227531210372934
527887500000,-13.429739151577053
527890000000,-11.242179918041339
527892500000,-9.5256792215433617
527895000000,-8.1658251012483021
527897500000,-7.0751922457407659
527900000000,-6.1889322614882207
527902500000,-5.4593621127798659
527905000000,-4.851350703273325
527907500000,-4.3388229842816344
527910000000,-3.9022220997865249
527912500000,-3.5267149389243881
527915000000,-3.200916734293203
527917500000,-2.9159882446000669
527920000000,-2.6649876290096342
527922500000,-2.4424083680965354
527925000000,-2.2438330056264886
527927500000,-2.0656905126923575
527930000000,-1.9050631663029947
527932500000,-1.7595501157601863
527935000000,-1.6271584461801019
527937500000,-1.5062254800311989
527940000000,-1.3953494038295657
527942500000,-1.2933459545630239
527945000000,-1.1992059577835137
527947500000,-1.1120647389661993
527950000000,-1.031177850782016
527952500000,-0.95590201282494425
527955000000,-0.8856763737265636
527957500000,-0.82001445526225303
527960000000,-0.75848546898513358
527962500000,-0.70071475243290848
527965000000,-0.64636716860141386
527967500000,-0.59514987216255133
527970000000,-0.54679850702548072
527972500000,-0.5010784248363499
527975000000,-0.45778193659410549
527977500000,-0.41671926915736696
527980000000,-0.37772145189837814
527982500000,-0.34063409173338871
527985000000,-0.30532078055303885
527987500000,-0.27165400605430123
527990000000,-0.2395209392679255
527992500000,-0.20881503472785093
527995000000,-0.1794426916174052
527997500000,-0.15131725163830803
528000000000,-0.12435710230117845
528002500000,-0.098489610473988562
528005000000,-0.073646456668756841
528007500000,-0.049765196950497248
528010000000,-0.026786290139967292
528012500000,-0.004657689882529634
528015000000,0.016672519684676104
528017500000,0.03724944581686359
528020000000,0.057118784061312822
528022500000,0.076318480279152279
528025000000,0.094891238688996002
528027500000,0.11286875535663923
528030000000,0.13028898983004897
528032500000,0.14718178159502537
528035000000,0.16358018321725548
528037500000,0.17951102307994318
528040000000,0.19500588574834293
528042500000,0.21008785267082178
528045000000,0.22478538942395096
528047500000,0.2391231797882474
528050000000,0.25312763617706885
528052500000,0.26682174441143769
528055000000,0.28023054731946828
528057500000,0.29337697777234428
528060000000,0.30628625673272053
528062500000,0.31898432228451828
528065000000,0.33149344949403459
528067500000,0.34384096781058676
528070000000,0.35605644667975794
528072500000,0.36816658431496169
528075000000,0.38020273055785592
528077500000,0.39219789762906987
528080000000,0.40418881277681573
528082500000,0.41621711675872908
528085000000,0.42832781693304645
528087500000,0.44057284743197683
528090000000,0.45301262674861864
528092500000,0.46571603428649505
528095000000,0.47876877821024416
528097500000,0.49226985390854083
528100000000,0.50634629362674843
528102500000,0.52115332401222558
528105000000,0.5368920011084497
528107500000,0.55382521917017935
528110000000,0.57231371839645939
528112500000,0.59286114738048989
528115000000,0.61621864889251843
528117500000,0.64355707337205326
528120000000,0.6768928774431332
528122500000,0.72013957321649413
528125000000,0.78277107859464889
528127500000,0.90161235690768227
528130000000,1.6584874464964723
528132500000,2.5576789924784253
528135000000,3.6751844886064728
528137500000,4.2831973470461264
528140000000,4.3185411750100284
528142500000,5.357699675736006
528145000000,5.9672930804135813
528147500000,6.3295518127348407
528150000000,7.3206192809631032
528152500000,7.701840153723003
528155000000,9.1172800369759148
528157500000,9.8072558246464361
528160000000,10.942766642652451
528162500000,10.623892152460838
528165000000,10.781395699247541
528167500000,10.031138563582525
528170000000,11.129503420916812
528172500000,10.420135540406811
528175000000,10.726779262650332
528177500000,10.388012942591482
528180000000,10.882250657178728
528182500000,10.581773370510156
528185000000,10.688972754257209
528187500000,10.728025751267459
528190000000,10.73042546077191
528192500000,11.103972940992996
528195000000,10.761961987728332
528197500000,11.015699835335399
528200000000,11.158220418415226
528202500000,10.781576541833399
528205000000,11.29220202310627
528207500000,11.083903555431855
528210000000,11.444456497427009
528212500000,11.573839082080244
528215000000,11.38915434808159
528217500000,11.825005979321579
528220000000,11.789781008217835
528222500000,11.941539347913119
528225000000,11.947252858347946
528227500000,12.069381170540458
528230000000,12.632563778002105
528232500000,12.605104904108629
528235000000,12.924011336888841
528237500000,13.385034028970075
528240000000,13.673494492447389
528242500000,13.7370667685634
528245000000,14.116088700522893
528247500000,14.223676212304573
528250000000,15.297887680029907
528252500000,15.261356626151992
528255000000,16.038997419657584
528257500000,16.584420556112299
528260000000,17.871397174412248
528262500000,18.227997474974302
528265000000,19.488364102550403
528267500000,20.31424037580571
528270000000,22.530930534851837
528272500000,24.297746610798935
528275000000,26.278567126169726
528277500000,29.975080429834531
528280000000,34.960483764728288
528282500000,41.024289202492874
528285000000,52.996288667722794
528287500000,73.854819687694842
528290000000,61.343653981772711
528292500000,23.094231345683557
528295000000,11.118900684982124
528297500000,6.6902238720812308
528300000000,4.6000577262095481
528302500000,3.4410788402846886
528305000000,2.7251598870251015
528307500000,2.2476517044148596
528310000000,1.9102793019351481
528312500000,1.6608571202143025
528315000000,1.4694642330466885
528317500000,1.3178693932408367
528320000000,1.1944087533789234
528322500000,1.0912987024162892
528325000000,1.0031585324057901
528327500000,0.92616006818300078
528330000000,0.85748859065253202
528332500000,0.79502877060462385
528335000000,0.73713914588913565
528337500000,0.68252294323227314
528340000000,0.63011793646701864
528342500000,0.57903324296749692
528345000000,0.5285021096596233
528347500000,0.47781379232078619
528350000000,0.42632522412529061
528352500000,0.37339948368195319
528355000000,0.31838047068694819
528357500000,0.2606068933487532
528360000000,0.19933666723286675
528362500000,0.13373982108556554
528365000000,0.06288761429067305
528367500000,-0.014369790894953275
528370000000,-0.099403821077667376
528372500000,-0.19391884127027417
528375000000,-0.30015352340367302
528377500000,-0.4210162696070921
528380000000,-0.5604956701154663
528382500000,-0.72423961564842498
528385000000,-0.92060380599542846
528387500000,-1.1628122763316344
528390000000,-1.4735988609249964
528392500000,-1.897471643581063
528395000000,-2.5428181482083554
528397500000,-3.8369029719817571
528400000000,-7.4030945279690634
528402500000,-9.6775542392566418
528405000000,-11.911118192961146
528407500000,-13.901952127689679
528410000000,-15.565241775867403
528412500000,-17.681869139797779
528415000000,-19.5226263595635
528417500000,-21.27792784420318
528420000000,-23.658863815500929
528422500000,-26.630215540724947
528425000000,-29.796200477874198
528427500000,-32.998383139083593
528430000000,-32.954487506767649
528432500000,-33.06565225238252
528435000000,-32.959901897567477
528437500000,-33.145462594404869
528440000000,-33.431795664180633
528442500000,-33.593229329683176
528445000000,-33.623232266233103
528447500000,-33.743941554617457
528450000000,-33.737848903186432
528452500000,-34.048528924370551
528455000000,-34.001874836387401
528457500000,-34.499381235042648
528460000000,-34.540625587743918
528462500000,-34.945368751070852
528465000000,-35.031192943924488
528467500000,-35.344031205537611
528470000000,-35.564835798626895
528472500000,-35.724091027148958
528475000000,-36.1967011223716
528477500000,-36.346101169193176
528480000000,-37.062659408167924
528482500000,-37.257104124725402
528485000000,-37.958512679471127
528487500000,-38.249359198456752
528490000000,-38.799455176830079
528492500000,-39.286181063592551
528495000000,-39.925320390570469
528497500000,-40.586878203910878
528500000000,-41.385448876500654
528502500000,-42.314272004572985
528505000000,-43.242969780307583
528507500000,-44.401434608452902
528510000000,-45.453038821796618
528512500000,-46.606252660743415
528515000000,-47.96005957007317
528517500000,-49.332874283584822
528520000000,-51.196587279924898
528522500000,-52.959344492807013
528525000000,-55.223281838708786
528527500000,-57.769340607747445
528530000000,-60.635031199750102
528532500000,-63.938063953003066
528535000000,-67.801446703780996
528537500000,-72.08945320440084
528540000000,-77.397091271936759
528542500000,-83.835768894555244
528545000000,-91.607503646839703
528547500000,-101.10773428942865
528550000000,-112.80624209194511
528552500000,-126.48582399832038
528555000000,-142.01633417975191
528557500000,-151.18176003395007
528560000000,-121.76049004705591
528562500000,-86.96141378662395
528565000000,-61.650341340373373
528567500000,-44.697787338016276
528570000000,-33.444845845702673
528572500000,-25.806289181906838
528575000000,-20.454211607023929
528577500000,-16.581951019739044
528580000000,-13.696907324327587
528582500000,-11.491074125632149
528585000000,-9.7662036487170649
528587500000,-8.3908738400751606
528590000000,-7.2755261992883629
528592500000,-6.3575509725991353
528595000000,-5.5921674024806283
528597500000,-4.9466760050203424
528600000000,-4.3967451647041669
528602500000,-3.9239738860487119
528605000000,-3.5142281766489045
528607500000,-3.1564991072492354
528610000000,-2.8421137758834942
528612500000,-2.5641560196665849
528615000000,-2.3170526508021689
528617500000,-2.0962757991915333
528620000000,-1.898104903895919
528622500000,-1.7194703846018335
528625000000,-1.5578089656379901
528627500000,-1.4109746774869134
528630000000,-1.277153531954468
528632500000,-1.1548058681244893
528635000000,-1.0426164849387469
528637500000,-0.9394578472322338
528640000000,-0.84435642663013699
528642500000,-0.75646727593634244
528645000000,-0.67505611279541478
528647500000,-0.59948304845078559
528650000000,-0.52918332788988054
528652500000,-0.4636634101978484
528655000000,-0.40248478845751406
528657500000,-0.34525916785784772
528660000000,-0.29164181767602293
528662500000,-0.24132336315736813
528665000000,-0.19403464327365544
528667500000,-0.14952228590733316
528670000000,-0.10757043376980334
528672500000,-0.067974591629585066
528675000000,-0.030557775842753689
528677500000,0.0048422240346842798
528680000000,0.038376664872035379
528682500000,0.070177282771019867
528685000000,0.10036756352186986
528687500000,0.12906039609648134
528690000000,0.15635559839845581
528692500000,0.18234908428982297
528695000000,0.20712500410226431
528697500000,0.23076276298093135
528700000000,0.25333541947637567
528702500000,0.27490948908689716
528705000000,0.29554686777908851
528707500000,0.3153021149501864
528710000000,0.33423231019007738
528712500000,0.3523851842451366
528715000000,0.36980561792247457
528717500000,0.38653518607531329
528720000000,0.40261481713312736
528722500000,0.41808252052148942
528725000000,0.43296897734845508
528727500000,0.44730916917478453
528730000000,0.46113369769016588
528732500000,0.4744692578486075
528735000000,0.48734510263805642
528737500000,0.49978248248671142
528740000000,0.51181051460992011
528742500000,0.52344938850251155
528745000000,0.53471845797626649
528747500000,0.54564225948079303
528750000000,0.55623841981715338
528752500000,0.56652963375181775
528755000000,0.5765284643634635
528757500000,0.58625705209833212
528760000000,0.59573398410404521
528762500000,0.60497647099980589
528765000000,0.61400483490011493
528767500000,0.6228349341178584
528770000000,0.63148922188812739
528772500000,0.63998824617661065
528775000000,0.64835961261560837
528777500000,0.65662897964423506
528780000000,0.66482962205643703
528782500000,0.67300921416644977
528785000000,0.68122247781613987
528787500000,0.68955405556302751
528790000000,0.69813072462123404
528792500000,0.70718049006444983
528795000000,0.71715976754270327
528797500000,0.72933233386632546
528800000000,0.75165076796993868
528802500000,1.0559122789321282
528805000000,1.074178681145078
528807500000,1.1885789942792635
528810000000,1.5114318985271338
528812500000,1.8730170475862553
528815000000,1.71490599204842
528817500000,2.0615075227648343
528820000000,1.6709746140316468
528822500000,2.5763532132049556
528825000000,2.5728555290341544
528827500000,2.9917399994870055
528830000000,3.0731927309167477
528832500000,3.2156339753668437
528835000000,3.0908577381785327
528837500000,3.2917210455600086
528840000000,3.5856181203078088
528842500000,3.3205575298530974
528845000000,3.8939309292013755
528847500000,3.3496341519564865
528850000000,3.5456280893931007
528852500000,3.2946695167244942
528855000000,3.5098036807439241
528857500000,3.8902043906389969
528860000000,3.5379234879156223
528862500000,3.7437434612772833
528865000000,3.2263200192058856
528867500000,3.4581396695079203
528870000000,3.9670445153269278
528872500000,3.7311412807049846
528875000000,3.7046606386201284
528877500000,3.7493854559341946
528880000000,3.8278939392610156
528882500000,3.9879418648487248
528885000000,3.8850446795573386
528887500000,3.6075966263018509
528890000000,3.8870218535844732
528892500000,3.9204155436365804
528895000000,4.3699404777745183
528897500000,3.7473015209654328
528900000000,3.7757277234840831
528902500000,4.1116211343062039
528905000000,4.1304286158825869
528907500000,4.1054381304160934
528910000000,4.2238633042724034
528912500000,4.838824351532252
528915000000,4.0433974621765403
528917500000,4.8984128152407198
528920000000,4.246475926616891
528922500000,5.3206729400716357
528925000000,4.4868422904619383
528927500000,5.3278924572552988
528930000000,5.5582333518051836
528932500000,5.7439943900813724
528935000000,5.1294706540927111
528937500000,6.2377478695307484
528940000000,6.1622471395657108
528942500000,5.834562424528877
528945000000,7.8018763544933138
528947500000,7.9110663080560029
528950000000,9.1471424766734764
528952500000,9.9822866409175486
528955000000,11.897230959032685
528957500000,17.23723040390303
528960000000,32.576176907875791
528962500000,7.7015931058782767
528965000000,2.4509292081310119
528967500000,1.621141192644415
528970000000,1.3338607681863297
528972500000,1.198921880452904
528975000000,1.1243838991966688
528977500000,1.0788934011808917
528980000000,1.0492240478778729
528982500000,1.0289579509760387
528985000000,1.0146515915093195
528987500000,1.0043110572048846
528990000000,0.99671607419594177
528992500000,0.99108038772147089
528995000000,0.98687685341476206
528997500000,0.98374328791827803
529000000000,0.98142043624854725
529002500000,0.97971906190353419
529005000000,0.97849891848454473
529007500000,0.97765295863726287
529010000000,0.97709788641032935
529012500000,0.97676862647831775
529015000000,0.97661193588412176
529017500000,0.9765843158038775
529020000000,0.97665023029891018
529022500000,0.97677863897286221
529025000000,0.9769426584528661
529027500000,0.97711711276523094
529030000000,0.97727965918717563
529032500000,0.97740923362281951
529035000000,0.9774833515277177
529037500000,0.97748054903139836
529040000000,0.97737373714402198
529042500000,0.97713636887928701
529045000000,0.97673431379677889
529047500000,0.97612267400295782
529050000000,0.97524477579897972
529052500000,0.97401608057547462
529055000000,0.97230304540278911
529057500000,0.96987434856072041
529060000000,0.96625540176252855
529062500000,0.96016385778851643
529065000000,0.94444714233667915
529067500000,0.59292998233992111
529070000000,0.49096715604003294
529072500000,0.40699926566705275
529075000000,0.042665708063814867
529077500000,-0.25578464220065994
529080000000,-0.19045502985104021
529082500000,-0.44769973792257345
529085000000,-0.014549217177145517
529087500000,-0.91608689107325836
529090000000,-0.95968212678557252
529092500000,-1.4561782402353536
529095000000,-1.6102006740530963
529097500000,-1.494954710393616
529100000000,-1.2864172184658087
529102500000,-2.1001663766035432
529105000000,-1.8743930882492836
529107500000,-2.1119135953459836
529110000000,-2.1321421092032233
529112500000,-1.7641617606148043
529115000000,-1.8618257195626406
529117500000,-1.8772345941607145
529120000000,-1.972781884388755
529122500000,-2.3725163239710652
529125000000,-1.9091989459496146
529127500000,-2.1928381272657829
529130000000,-1.8186480744439455
529132500000,-1.8967276682406675
529135000000,-2.3721990233638355
529137500000,-2.2593435017815939
529140000000,-2.1420246692791278
529142500000,-2.2531803948660878
529145000000,-2.2092456376384306
529147500000,-2.3862915094155586
