# Field Profile:
525150000000,-3.1033537219660268
525152500000,-1.3375330025276089
525155000000,-1.6192742074327087
525157500000,-3.4843908894998625
525160000000,-1.3829866203791237
525162500000,-0.93323005005505744
525165000000,-2.92065263965686
525167500000,-1.675847891400136
525170000000,-1.3038176474326484
525172500000,-2.0767928220942204
525175000000,-3.3129649624669484
525177500000,-1.7056204666423938
525180000000,-2.3217791941428549
525182500000,-2.044124699634307
525185000000,-1.8792709447534812
525187500000,-2.4785032205041562
525190000000,-2.2728191602910472
525192500000,-2.8352496294169764
525195000000,-2.4827899422742288
525197500000,-2.4243696511049331
525200000000,-3.2327252059962044
525202500000,-2.8619472329992059
525205000000,-3.6811105128849455
525207500000,-3.4268810360677513
525210000000,-3.5483894403110634
525212500000,-3.2166227155901206
525215000000,-4.1349487353663541
525217500000,-5.2728077087403991
525220000000,-5.1814403132035487
525222500000,-6.2463482512420514
525225000000,-6.7255940875678357
525227500000,-8.6880745034290179
525230000000,-12.463378625146513
525232500000,-17.564870488438665
525235000000,-36.122404946213464
525237500000,-2.4603144735552864
525240000000,-0.025124996995353397
525242500000,0.55176207947819511
525245000000,0.7869523755518707
525247500000,0.90990017643034249
525250000000,0.98427162835475146
525252500000,1.0338821299736203
525255000000,1.0694174959774527
525257500000,1.0963060158744187
525260000000,1.1175657490482716
525262500000,1.1349916752606126
525265000000,1.1497135136823282
525267500000,1.1624813782345846
525270000000,1.1737938457463601
525272500000,1.1840152317530319
525275000000,1.1934030021469408
525277500000,1.2021411926832624
525280000000,1.210383712020596
525282500000,1.2182387641893895
525285000000,1.2257957852301198
525287500000,1.233124290530194
525290000000,1.2402820646449455
525292500000,1.2473138014323708
525295000000,1.2542606250675894
525297500000,1.2611593237488294
525300000000,1.2680339006010364
525302500000,1.274909395973409
525305000000,1.2818104587342527
525307500000,1.288758814156469
525310000000,1.2957692759752757
525312500000,1.3028624067016201
525315000000,1.310052491277671
525317500000,1.3173534887603655
525320000000,1.3247830897066091
525322500000,1.3323518116895867
525325000000,1.3400769325413644
525327500000,1.3479693455444122
525330000000,1.3560452324836554
525332500000,1.3643187240120556
525335000000,1.3728014546420713
525337500000,1.3815138606215962
525340000000,1.3904656132116229
525342500000,1.3996744388426903
525345000000,1.4091567605958875
525347500000,1.4189303448293971
525350000000,1.4290114325742003
525352500000,1.4394187543641777
525355000000,1.4501746420961075
525357500000,1.4612976005079461
525360000000,1.4728105626718584
525362500000,1.4847395463220372
525365000000,1.4971098566410292
525367500000,1.5099464312525139
525370000000,1.5232807102557775
525372500000,1.5371421796275886
525375000000,1.5515656849846879
525377500000,1.5665912382102614
525380000000,1.5822547569877508
525382500000,1.5985971376682526
525385000000,1.6156707817681355
525387500000,1.6335241053173764
525390000000,1.6522111688154637
525392500000,1.6717957276264512
525395000000,1.69234190756011
525397500000,1.7139248403091136
525400000000,1.7366260624585588
525402500000,1.7605349440111739
525405000000,1.7857498369053073
525407500000,1.8123793667022257
525410000000,1.8405523196884579
525412500000,1.8704042573317348
525415000000,1.9020908438894508
525417500000,1.9357907418765721
525420000000,1.9717017014031195
525422500000,2.0100512651263602
525425000000,2.0511041687057707
525427500000,2.0951599717346294
525430000000,2.1425699819736228
525432500000,2.1937425379900839
525435000000,2.2491612792441527
525437500000,2.3093974797290748
525440000000,2.3751388821753703
525442500000,2.4472138834752362
525445000000,2.5266474231858966
525447500000,2.6147113333551379
525450000000,2.7130061185121339
525452500000,2.8236060971167691
525455000000,2.9492347251880506
525457500000,3.093592496640599
525460000000,3.261856329483555
525462500000,3.4616128160662374
525465000000,3.7046071746257732
525467500000,4.0105173807360073
525470000000,4.4163458701659541
525472500000,5.0060468209437996
525475000000,6.0565371361865799
525477500000,9.2054968318733135
525480000000,12.14071690347726
525482500000,13.710440004246768
525485000000,16.414043613699583
525487500000,17.841975347423372
525490000000,19.598441135193749
525492500000,21.561612016135751
525495000000,23.593040869061049
525497500000,26.590766286704092
525500000000,28.501097614402585
525502500000,31.473450220954998
525505000000,35.091458836101154
525507500000,35.533078698096453
525510000000,35.555712134507701
525512500000,36.069205971160116
525515000000,36.030785184704989
525517500000,35.889564058490656
525520000000,35.584064983358083
525522500000,35.581487178961019
525525000000,36.035962467990025
525527500000,35.986466428449305
525530000000,36.231888322870702
525532500000,36.686776546136628
525535000000,36.894528296120299
525537500000,37.234453208052862
525540000000,36.842114523714052
525542500000,37.104225462357832
525545000000,37.234212142123297
525547500000,37.578716645645194
525550000000,37.526370544686543
525552500000,38.241807710460627
525555000000,38.63195955902723
525557500000,39.36388156126759
525560000000,39.962138284297723
525562500000,39.720426762192623
525565000000,40.370052613211335
525567500000,40.431516591660362
525570000000,40.944471434073328
525572500000,41.380141422602243
525575000000,42.48560819858141
525577500000,43.261015157751217
525580000000,44.494527803145239
525582500000,45.132335675238267
525585000000,46.25049366353565
525587500000,47.036684093054689
525590000000,48.215279067341328
525592500000,49.259766985353345
525595000000,50.97784395576361
525597500000,52.303281299184505
525600000000,54.324527729461565
525602500000,56.612085369012085
525605000000,59.063220208768861
525607500000,62.029756552037327
525610000000,64.833865213157111
525612500000,68.398495105521278
525615000000,72.820558413495377
525617500000,77.883585399869503
525620000000,83.933566498865346
525622500000,91.222255778841685
525625000000,100.07954653319061
525627500000,110.7084780814193
525630000000,123.80836353917582
525632500000,138.80505916331239
525635000000,151.99571720913707
525637500000,132.18327885777592
525640000000,95.56061537725509
525642500000,67.920056629694599
525645000000,49.229299895494748
525647500000,36.86939838574704
525650000000,28.550406113522293
525652500000,22.776048522558142
525655000000,18.635114872349412
525657500000,15.574136701745061
525660000000,13.249806568446893
525662500000,11.442985513390013
525665000000,10.009610024285887
525667500000,8.8522200962784332
525670000000,7.9031294829496792
525672500000,7.1142649237437956
525675000000,6.4506664271561274
525677500000,5.8864613410495057
525680000000,5.4021763618526153
525682500000,4.982905454493423
525685000000,4.6170789723485663
525687500000,4.2955990356470544
525690000000,4.0112300242964727
525692500000,3.7581411152649435
525695000000,3.5315879122537521
525697500000,3.3276834501145958
525700000000,3.1432131851333134
525702500000,2.9754923523221741
525705000000,2.8222646141937391
525707500000,2.6815777801813305
525710000000,2.5517771574818271
525712500000,2.4314382039900728
525715000000,2.3192844089179512
525717500000,2.2141564712518091
525720000000,2.115050766253419
525722500000,2.0210360905697651
525725000000,1.931158260875862
525727500000,1.8444810093540718
525730000000,1.7599756336038723
525732500000,1.6764710948860615
525735000000,1.5923414365500359
525737500000,1.5050939268584724
525740000000,1.4101941461131393
525742500000,1.2964604924061904
525745000000,1.1153354267835969
525747500000,0.14829630240435238
525750000000,-0.9706046662665595
525752500000,-1.2870059714497846
525755000000,-2.2963062118472313
525757500000,-3.0789925193897609
525760000000,-2.8466482518206861
525762500000,-4.7625304581102732
525765000000,-4.053607084458732
525767500000,-5.9185821479519687
525770000000,-6.6415434778751292
525772500000,-6.8417118324829751
525775000000,-9.036605131336545
525777500000,-8.3833214340984767
525780000000,-8.6673138549696187
525782500000,-9.1838506379283107
525785000000,-8.3122470383342684
525787500000,-8.6416913842951573
525790000000,-8.3450960314039513
525792500000,-8.5045245132354914
525795000000,-8.5699052337520474
525797500000,-8.9403794541764174
525800000000,-8.6071169101350922
525802500000,-8.189889240282664
525805000000,-9.6818388700726601
525807500000,-9.1645909247201089
525810000000,-8.025321066254067
525812500000,-9.1387412205925731
525815000000,-9.2672021596837677
525817500000,-8.3126958435821017
525820000000,-9.0104840158120325
525822500000,-9.2364198390106154
525825000000,-8.8272473198523471
525827500000,-10.242159210026786
525830000000,-10.373033626241371
525832500000,-8.4544714596682056
525835000000,-9.8597365588924877
525837500000,-10.675413851926002
525840000000,-8.9613320604016984
525842500000,-9.1737871052220861
525845000000,-10.840309933655476
525847500000,-11.195479627412565
525850000000,-10.705041455911093
525852500000,-11.128289195518914
525855000000,-11.587608975925439
525857500000,-11.259552812070567
525860000000,-12.136167910595926
525862500000,-11.739855146135717
525865000000,-13.145805520547697
525867500000,-12.595152521263232
525870000000,-14.080918994994756
525872500000,-14.260169795560266
525875000000,-15.086154505340353
525877500000,-15.59387710884981
525880000000,-16.444202414847869
525882500000,-17.693920574098712
525885000000,-18.941281334720852
525887500000,-20.782078955534086
525890000000,-22.903799829201851
525892500000,-25.509535913272387
525895000000,-28.991341106133625
525897500000,-32.672732644151047
525900000000,-41.223077053493348
525902500000,-53.441838292330544
525905000000,-76.072877353174022
525907500000,-51.849286640253887
525910000000,-18.502151948648994
525912500000,-8.2435178353659246
525915000000,-4.3047317579543991
525917500000,-2.398445766540191
525920000000,-1.325091494905871
525922500000,-0.65605457690496061
525925000000,-0.20785966268616077
525927500000,0.10892479621421569
525930000000,0.3422916632884157
525932500000,0.51997023380783913
525935000000,0.65894559499946426
525937500000,0.7701206834397416
525940000000,0.8607800768551841
525942500000,0.93594430339442258
525945000000,0.9991757488420363
525947500000,1.0530609242675975
525950000000,1.099523786959506
525952500000,1.140009674521862
525955000000,1.1756357377344282
525957500000,1.2072705040237064
525960000000,1.2355957010451717
525962500000,1.2611670209892056
525965000000,1.2844177201259412
525967500000,1.3057140282749948
525970000000,1.3253502793271636
525972500000,1.3435762221264291
525975000000,1.3605956771827226
525977500000,1.3765828194739418
525980000000,1.391689012708367
525982500000,1.4060356107688847
525985000000,1.419732180950994
525987500000,1.4328780923135378
525990000000,1.4455520044910775
525992500000,1.4578244218442895
525995000000,1.4697590463306776
525997500000,1.4814175122205961
526000000000,1.4928433558530647
526002500000,1.5040883899676007
526005000000,1.5151897946715669
526007500000,1.5261852414232604
526010000000,1.5371094103209519
526012500000,1.5479959733457982
526015000000,1.55887003047281
526017500000,1.5697648687477816
526020000000,1.5807018260805616
526022500000,1.5917088515008546
526025000000,1.6028091187650455
526027500000,1.6140230172328494
526030000000,1.6253743620138645
526032500000,1.6368853279038615
526035000000,1.6485779795846915
526037500000,1.660473196469664
526040000000,1.6725927439218973
526042500000,1.6849551649227494
526045000000,1.6975876993024737
526047500000,1.7105102372903429
526050000000,1.7237435337263443
526052500000,1.7373152121127458
526055000000,1.7512477863934151
526057500000,1.7655673333429134
526060000000,1.7803011657332124
526062500000,1.7954770729362308
526065000000,1.8111271845738715
526067500000,1.827278511993174
526070000000,1.8439693263174968
526072500000,1.8612365767395613
526075000000,1.8791168865214165
526077500000,1.8976536049096122
526080000000,1.9168914294591501
526082500000,1.936882391731956
526085000000,1.9576787185610889
526087500000,1.9793387529335948
526090000000,2.0019290077802241
526092500000,2.0255200978453347
526095000000,2.0501883847139561
526097500000,2.0760268769840189
526100000000,2.1031293534252153
526102500000,2.1316072307509906
526105000000,2.1615822892156205
526107500000,2.1931962909843565
526110000000,2.2266077374975715
526112500000,2.2619981268996012
526115000000,2.2995763009784382
526117500000,2.339587454640712
526120000000,2.382317206556035
526122500000,2.4281004951887195
526125000000,2.4773410562133642
526127500000,2.5305209144138519
526130000000,2.5882376367251863
526132500000,2.6512200187053621
526135000000,2.7204008622578701
526137500000,2.7969740682221578
526140000000,2.8825177055987083
526142500000,2.979182495320122
526145000000,3.0900115067922358
526147500000,3.2195250914997935
526150000000,3.374905646278072
526152500000,3.5687076848186385
526155000000,3.8263449296231324
526157500000,4.2143454795458366
526160000000,4.9621525135979487
526162500000,5.812368998831337
526165000000,6.2999669517738326
526167500000,6.9607968947608008
526170000000,7.421074342475884
526172500000,7.9289303806152276
526175000000,8.4110138433779618
526177500000,9.0037414263157611
526180000000,9.6311199820087072
526182500000,10.252592241111286
526185000000,10.88849535982475
526187500000,11.708405025439189
526190000000,11.932555516074334
526192500000,11.890772073389936
526195000000,11.940964091571626
526197500000,11.939748038960841
526200000000,11.910375523907392
526202500000,11.842634154924703
526205000000,11.822857651840568
526207500000,11.86840505288982
526210000000,11.885217322341919
526212500000,11.90878868931298
526215000000,11.994565781222754
526217500000,12.022978806027387
526220000000,12.075347796105603
526222500000,12.059032570384879
526225000000,12.096670176174962
526227500000,12.092347568720754
526230000000,12.181165161007932
526232500000,12.201282309921547
526235000000,12.353114933764985
526237500000,12.449360669232092
526240000000,12.556972822833131
526242500000,12.709358233059227
526245000000,12.751678896607707
526247500000,12.860238574708998
526250000000,12.93602306904242
526252500000,13.079548184262581
526255000000,13.209842593678236
526257500000,13.436339433738308
526260000000,13.631127451385284
526262500000,13.910163441840414
526265000000,14.152154845125251
526267500000,14.419124180580951
526270000000,14.702396547494933
526272500000,14.987961584735475
526275000000,15.320672332718793
526277500000,15.697662779821048
526280000000,16.096548559920247
526282500000,16.579828257829107
526285000000,17.152236723589347
526287500000,17.788073531788612
526290000000,18.52665212902086
526292500000,19.252849269762393
526295000000,20.122039424554231
526297500000,21.089402142121202
526300000000,22.189643809352166
526302500000,23.447174644048623
526305000000,24.84646455125003
526307500000,26.404041027925278
526310000000,28.106491591424003
526312500000,29.810730232591592
526315000000,31.39334809896863
526317500000,32.353849364439334
526320000000,29.618535460397155
526322500000,23.271121012136597
526325000000,18.146066446356496
526327500000,14.131337651319198
526330000000,11.106119799360924
526332500000,8.8597308553029901
526335000000,7.1911909719132696
526337500000,5.9413572353675175
526340000000,4.9936014017921373
526342500000,4.2650560014481238
526345000000,3.6973345180399502
526347500000,3.2491629443983139
526350000000,2.8910956955611109
526352500000,2.6018675607607475
526355000000,2.3659230783755962
526357500000,2.1717374532538742
526360000000,2.0106282170002299
526362500000,1.876010229815646
526365000000,1.7628138849674009
526367500000,1.6670753463210906
526370000000,1.5856924337796503
526372500000,1.5161872656589845
526375000000,1.456573398307218
526377500000,1.4052330347703561
526380000000,1.3608481769267391
526382500000,1.3223317509982289
526385000000,1.2887152669501596
526387500000,1.2592338665720544
526390000000,1.2331610911793751
526392500000,1.2096700873766819
526395000000,1.1876172970798018
526397500000,1.1636215846881857
526400000000,1.0371151457748233
526402500000,0.9221602325911854
526405000000,0.91602179671264883
526407500000,0.75001862281962495
526410000000,0.61000217304446114
526412500000,0.70210185924970281
526415000000,0.32589252937512436
526417500000,0.57971189461513672
526420000000,0.309650091792737
526422500000,0.11183666952973433
526425000000,0.27574961091927613
526427500000,-0.062690488368071173
526430000000,-0.041889339616905344
526432500000,-0.10713432141895617
526435000000,-0.14937891195108896
526437500000,0.0066705154354878048
526440000000,-0.070605317551462529
526442500000,-0.058242309230621812
526445000000,-0.025551550644717869
526447500000,-0.031657689999334236
526450000000,-0.20040661769727977
526452500000,-0.11888054749208272
526455000000,0.059066347722018415
526457500000,-0.30840129490261875
526460000000,-0.14742443759868346
526462500000,0.068642610547487354
526465000000,-0.17002981010275345
526467500000,-0.17450052021853957
526470000000,0.024414208734980167
526472500000,-0.097735836740350607
526475000000,-0.13399983453523995
526477500000,-0.018558677370530664
526480000000,-0.24512398369634103
526482500000,-0.40034674407712412
526485000000,0.07128678866956048
526487500000,-0.11848276459828215
526490000000,-0.48089174459723322
526492500000,-0.0012690049202951378
526495000000,-0.011594943351927175
526497500000,-0.34490946417646767
526500000000,-0.4075932910161299
526502500000,-0.22016930481248756
526505000000,-0.34049610758737298
526507500000,-0.41049960821736697
526510000000,-0.29350308085197152
526512500000,-0.45823562231560749
526515000000,-0.3255126133640362
526517500000,-0.6717052360847231
526520000000,-0.44496307701341847
526522500000,-0.68232592631044497
526525000000,-0.68469573589172528
526527500000,-0.78802108152340944
526530000000,-0.82830296346967391
526532500000,-0.88443419408371371
526535000000,-1.0351320227387872
526537500000,-1.1882811958550161
526540000000,-1.3185910434943973
526542500000,-1.6010569507595767
526545000000,-1.9183373989639392
526547500000,-2.4164002352939207
526550000000,-2.7095846363838194
526552500000,-3.8158405805332278
526555000000,-5.2914796564985709
526557500000,-8.8746572994227186
526560000000,-6.4862166476452883
526562500000,-0.74978908482916184
526565000000,0.31044136199368294
526567500000,0.66234802140016835
526570000000,0.82569022153837934
526572500000,0.91691872712953348
526575000000,0.9741395556640533
526577500000,1.0130017437128886
526580000000,1.0409705088602514
526582500000,1.062009749066082
526585000000,1.0783945143638058
526587500000,1.0915190927753662
526590000000,1.1022803698065649
526592500000,1.111276904547817
526595000000,1.118925651767255
526597500000,1.1255223340199219
526600000000,1.1312841233885453
526602500000,1.1363724459607354
526605000000,1.1409114847887918
526607500000,1.1449985011389894
526610000000,1.1487070458642807
526612500000,1.1520992454719245
526615000000,1.155221649004095
526617500000,1.1581161204809334
526620000000,1.1608169421958572
526622500000,1.1633489397546
526625000000,1.1657366517003249
526627500000,1.1680007235342675
526630000000,1.1701577081879213
526632500000,1.1722225378090143
526635000000,1.1742092769447736
526637500000,1.176129071491016
526640000000,1.1779906141980396
526642500000,1.1798050116882919
526645000000,1.1815789148579785
526647500000,1.1833219877815604
526650000000,1.1850402244911511
526652500000,1.1867389371553079
526655000000,1.1884240684360119
526657500000,1.1901023616393847
526660000000,1.1917778847631815
526662500000,1.1934556605597351
526665000000,1.1951400256876252
526667500000,1.196836044865994
526670000000,1.198548018241314
526672500000,1.2002793928181481
526675000000,1.202033556300931
526677500000,1.2038144745354173
526680000000,1.2056271732275206
526682500000,1.2074731675142105
526685000000,1.2093579349854793
526687500000,1.2112844188707432
526690000000,1.2132556677503319
526692500000,1.2152771450673157
526695000000,1.2173505574808117
526697500000,1.2194788473377716
526700000000,1.2216679351161108
526702500000,1.2239205363564467
526705000000,1.2262407494910892
526707500000,1.2286320519248211
526710000000,1.2310979545511351
526712500000,1.2336437989848055
526715000000,1.2362740176663376
526717500000,1.2389905868132756
526720000000,1.2418014282335466
526722500000,1.2447087441097915
526725000000,1.2477198695903444
526727500000,1.2508383581928186
526730000000,1.2540701150496387
526732500000,1.2574212081161047
526735000000,1.2608976502035185
526737500000,1.2645071754533124
526740000000,1.2682549342711873
526742500000,1.2721491427201015
526745000000,1.276196919846458
526747500000,1.2804098088518194
526750000000,1.2847926435561308
526752500000,1.2893589907148191
526755000000,1.2941169817342868
526757500000,1.2990793967085759
526760000000,1.3042567865337606
526762500000,1.3096656975129572
526765000000,1.3153187163206577
526767500000,1.3212314369721669
526770000000,1.3274242492732002
526772500000,1.3339148325211903
526775000000,1.3407250499590651
526777500000,1.3478787898723432
526780000000,1.3554040700691483
526782500000,1.363328943292933
526785000000,1.3716890533750641
526787500000,1.3805214289570429
526790000000,1.3898690131649092
526792500000,1.3997823665442914
526795000000,1.4103168787784455
526797500000,1.4215398080570349
526800000000,1.4335264068357958
526802500000,1.4463691715621392
526805000000,1.4601737017826477
526807500000,1.4750693496724674
526810000000,1.4912129938830758
526812500000,1.5087978769934043
526815000000,1.5280661321667099
526817500000,1.5493256010588139
526820000000,1.5729819556412072
526822500000,1.5995772084541842
526825000000,1.6298663135300038
526827500000,1.6649496167464068
526830000000,1.7065252156885864
526832500000,1.7574383382551804
526835000000,1.8230871364455967
526837500000,1.916047441362934
526840000000,2.0798210016097101
526842500000,2.3765122028170826
526845000000,2.6047731332121593
526847500000,2.786924670505293
526850000000,2.9617708578948898
526852500000,3.1172560727242611
526855000000,3.2859383589661375
526857500000,3.4771378631133714
526860000000,3.6406733645864073
526862500000,3.8744781026780375
526865000000,4.0487100112527843
526867500000,4.3293125287210881
526870000000,4.5388085020621807
526872500000,4.5114458994094262
526875000000,4.5336168797020218
526877500000,4.534242579972112
526880000000,4.5263833127082078
526882500000,4.5085537623888552
526885000000,4.4942289989233792
526887500000,4.4895695127985524
526890000000,4.5161836283813077
526892500000,4.5086328505830773
526895000000,4.5298705342588486
526897500000,4.5459997706043103
526900000000,4.5620128196443002
526902500000,4.5658117750025546
526905000000,4.553609787077205
526907500000,4.5582122862084056
526910000000,4.5713805582508016
526912500000,4.5862274643550265
526915000000,4.6123089171316236
526917500000,4.6652980977869847
526920000000,4.687994889597622
526922500000,4.7381708258851392
526925000000,4.7611680293719463
526927500000,4.77563299409075
526930000000,4.819686289527505
526932500000,4.8394842678961236
526935000000,4.8728562287246104
526937500000,4.9287942488145866
526940000000,5.0091389708670482
526942500000,5.0826574564998772
526945000000,5.1781263969823499
526947500000,5.2483513999940561
526950000000,5.3458791859772381
526952500000,5.4192353509094362
526955000000,5.534867837476062
526957500000,5.621871908213758
526960000000,5.7694569396458153
526962500000,5.8993088575158454
526965000000,6.082487037801644
526967500000,6.2934807223404388
526970000000,6.487741396234961
526972500000,6.7316641805253665
526975000000,7.0176452271763337
526977500000,7.3150026123447462
526980000000,7.6678390743902005
526982500000,8.080438534980793
526985000000,8.555843634562299
526987500000,9.0910450553450186
526990000000,9.6696299702148281
526992500000,10.308832544998177
526995000000,10.981922939490788
526997500000,11.564093552544611
527000000000,11.562818662689992
527002500000,9.2952037439361686
527005000000,7.1710856733278119
527007500000,5.5386645594812309
527010000000,4.3498956015477521
527012500000,3.4994700742348743
527015000000,2.8880391881452079
527017500000,2.4407022242995757
527020000000,2.1052374424276699
527022500000,1.845798984224378
527025000000,1.6370669359754009
527027500000,1.4594618975127283
527030000000,1.2938421892486942
527032500000,1.1081850313145929
527035000000,0.79169017294381083
527037500000,0.48133280234936998
527040000000,0.29446725536857482
527042500000,0.02946764564134122
527045000000,-0.12860096465641954
527047500000,-0.31594149726591547
527050000000,-0.49451218556586368
527052500000,-0.70705940526327127
527055000000,-0.95055622982401577
527057500000,-1.1626684247883423
527060000000,-1.4113157275238801
527062500000,-1.7137964714840321
527065000000,-1.8091718305201159
527067500000,-1.8143545468394553
527070000000,-1.8629688885046498
527072500000,-1.8856333932403682
527075000000,-1.8998113068744338
527077500000,-1.8918826895423322
527080000000,-1.8956502028131172
527082500000,-1.9401634144877049
527085000000,-1.9550339008458408
527087500000,-1.9902356288052636
527090000000,-2.0297815422841814
527092500000,-2.0604290964147705
527095000000,-2.0925446331699149
527097500000,-2.0930887720812286
527100000000,-2.1248025969270188
527102500000,-2.1341654699155135
527105000000,-2.180688831172759
527107500000,-2.1878840619333468
527110000000,-2.25500067501391
527112500000,-2.2959042751537795
527115000000,-2.3507238915155266
527117500000,-2.4213952597325616
527120000000,-2.4374269486465736
527122500000,-2.4873383266795233
527125000000,-2.5228423485199314
527127500000,-2.5752441468924245
527130000000,-2.6180745730848529
527132500000,-2.7166881185874274
527135000000,-2.7822239415404559
527137500000,-2.8901273260488494
527140000000,-2.9794449385583888
527142500000,-3.0781127292486108
527145000000,-3.1740583880584752
527147500000,-3.2853800373763744
527150000000,-3.3972214567730092
527152500000,-3.5456920658227027
527155000000,-3.6846160003241195
527157500000,-3.8618936295599799
527160000000,-4.0728838245970644
527162500000,-4.3015854052418829
527165000000,-4.5806714514124431
527167500000,-4.8478333944552565
527170000000,-5.1727114201845534
527172500000,-5.5538875750573373
527175000000,-5.9972974287548837
527177500000,-6.5190884194757031
527180000000,-7.1307766113970201
527182500000,-7.846275675639883
527185000000,-8.6938295397760434
527187500000,-9.6390044112844517
527190000000,-10.672532601625198
527192500000,-11.603416552659755
527195000000,-10.87858830927633
527197500000,-8.6171525088687417
527200000000,-6.7603106566441795
527202500000,-5.2646189952809648
527205000000,-4.1156239606782234
527207500000,-3.245824734471829
527210000000,-2.5849690574745101
527212500000,-2.0765450187480736
527215000000,-1.679074238454286
527217500000,-1.3630887139316497
527220000000,-1.1077780100423484
527222500000,-0.89835933513247879
527225000000,-0.72420493883113479
527227500000,-0.57756372290123292
527230000000,-0.45269963327604917
527232500000,-0.34530044645082664
527235000000,-0.25208149997473994
527237500000,-0.17050516898731327
527240000000,-0.098587260491910148
527242500000,-0.034757956989776385
527245000000,0.022241732231877486
527247500000,0.073424851729766927
527250000000,0.11961987548548099
527252500000,0.16150712277061727
527255000000,0.1996522126779646
527257500000,0.23452651617508768
527260000000,0.26652709405137881
527262500000,0.29598910861931843
527265000000,0.32319906000002896
527267500000,0.34840207576793419
527270000000,0.37181032668656738
527272500000,0.39360287376519998
527275000000,0.41394292356989731
527277500000,0.43296577575998701
527280000000,0.45079402094497989
527282500000,0.46753513002823199
527285000000,0.48328283809628292
527287500000,0.49812191058490696
527290000000,0.5121262698656226
527292500000,0.52536199009775497
527295000000,0.53788950844286942
527297500000,0.54976176982312686
527300000000,0.56102735825166494
527302500000,0.57172967817844633
527305000000,0.58190771173367795
527307500000,0.59159758775716653
527310000000,0.60083071726355719
527312500000,0.60963814353563295
527315000000,0.61804577078722622
527317500000,0.62607829731192122
527320000000,0.63375914298941549
527322500000,0.64110805095878731
527325000000,0.64814628158140131
527327500000,0.654889828279131
527330000000,0.66135483976225384
527332500000,0.6675569417354742
527335000000,0.67351077139895998
527337500000,0.67922946241462034
527340000000,0.68472314682049729
527342500000,0.69000636905553459
527345000000,0.69508651364320351
527347500000,0.69997607426466368
527350000000,0.70468218942539762
527352500000,0.70921612742423501
527355000000,0.71358411334984451
527357500000,0.71779384599668483
527360000000,0.72185425039576567
527362500000,0.72577044238337618
527365000000,0.72955000394711489
527367500000,0.73319866729737082
527370000000,0.73672322917167687
527372500000,0.74012794738273091
527375000000,0.74341960199510271
527377500000,0.74660317409286037
527380000000,0.74968202821878216
527382500000,0.75266288828513161
527385000000,0.75554839027492371
527387500000,0.75834493079528398
527390000000,0.76105597526630009
527392500000,0.76368618167300395
527395000000,0.76623929153329107
527397500000,0.76871878000868743
527400000000,0.771129630523677
527402500000,0.77347586717873362
527405000000,0.77576001993256682
527407500000,0.7779861021279143
527410000000,0.78016079827095119
527412500000,0.78228359000793335
527415000000,0.78436233030422942
527417500000,0.7863995330624628
527420000000,0.78839894353523154
527422500000,0.79036522410677701
527425000000,0.79230412645646509
527427500000,0.79421859438129216
527430000000,0.79611398089154739
527432500000,0.79799770885861609
527435000000,0.7998754304869522
527437500000,0.8017524920437985
527440000000,0.80363789007340392
527442500000,0.80554049792210081
527445000000,0.80746933311165392
527447500000,0.80943740911902762
527450000000,0.81145930360208407
527452500000,0.81355296560535217
527455000000,0.81574194792108845
527457500000,0.81805853318094912
527460000000,0.8205430612195338
527462500000,0.82325818605422885
527465000000,0.82630029750931078
527467500000,0.82982783674818006
527470000000,0.83415385431096345
527472500000,0.84003032361798513
527475000000,0.85053064394233135
527477500000,0.96549657962358026
527480000000,1.0672619667786234
527482500000,1.0646517775201407
527485000000,1.2204790518421098
527487500000,1.3529009979055031
527490000000,1.2587569910813492
527492500000,1.6192645642631442
527495000000,1.3703701149569676
527497500000,1.6326269675905289
527500000000,1.8237668389853707
527502500000,1.6616265241744181
527505000000,1.9874372651723844
527507500000,1.9679147643074102
527510000000,2.0343907147331368
527512500000,2.0741025947024525
527515000000,1.9162998408261984
527517500000,1.9953024715049492
527520000000,1.9849263640688852
527522500000,1.9532829096286275
527525000000,1.9546059606977628
527527500000,2.1273473629304478
527530000000,2.0420815835550497
527532500000,1.8751170393173422
527535000000,2.2405866893188113
527537500000,2.0695300360498257
527540000000,1.8690339381657239
527542500000,2.1131550699871462
527545000000,2.1024159070938273
527547500000,1.9154475745115884
527550000000,2.046593111911128
527552500000,2.0683146605649965
527555000000,1.9703818633528669
527557500000,2.1990670292978494
527560000000,2.3315851046381058
527562500000,1.880136027361115
527565000000,2.0864630942997144
527567500000,2.4270940275922444
527570000000,1.953810166274299
527572500000,1.9847437810293038
527575000000,2.3183000184112856
527577500000,2.3591744599269675
527580000000,2.1897369295558016
527582500000,2.3113240385053615
527585000000,2.3813767579950222
527587500000,2.272947402109077
527590000000,2.4347270841967856
527592500000,2.3091116752715446
527595000000,2.6492705399340291
527597500000,2.429979346461447
527600000000,2.6741206545632146
527602500000,2.6682841166074578
527605000000,2.7807915829743211
527607500000,2.8185520192489517
527610000000,2.8823914053140558
527612500000,3.0316453951600542
527615000000,3.1888935220867309
527617500000,3.3168950279437293
527620000000,3.5925850205561627
527622500000,3.9122153539471181
527625000000,4.3984518639127961
527627500000,4.6933975849416818
527630000000,5.7812486892632124
527632500000,7.2108545882733255
527635000000,10.661509564208531
527637500000,8.0247824700109884
527640000000,2.5078538318496157
527642500000,1.5402223055284576
527645000000,1.2330879736421789
527647500000,1.0966627417917723
527650000000,1.0236207401115431
527652500000,0.97950742606700658
527655000000,0.95041166828583556
527657500000,0.92978277298707457
527660000000,0.91418568020264812
527662500000,0.9016343129216946
527665000000,0.89090025030808928
527667500000,0.88115821021526375
527670000000,0.87182274539009763
527672500000,0.86242179175375966
527675000000,0.85257333395923862
527677500000,0.84191626182225943
527680000000,0.83007560805508729
527682500000,0.81665691615130664
527685000000,0.80121265265566544
527687500000,0.78321050373823131
527690000000,0.76197066518957446
527692500000,0.73665634385561629
527695000000,0.70611335212534176
527697500000,0.66879364326919655
527700000000,0.6224716080947772
527702500000,0.56382485535294846
527705000000,0.48754903381768894
527707500000,0.38447252281365929
527710000000,0.23657859219575916
527712500000,0.00033104004803450498
527715000000,-0.47464227223584793
527717500000,-1.2902065481620886
527720000000,-1.8955346439400227
527722500000,-2.3724003231334776
527725000000,-2.864936842890133
527727500000,-3.3295648427586295
527730000000,-3.8344704727297172
527732500000,-4.3689247290315478
527735000000,-4.8673022679007127
527737500000,-5.5466324422593249
527740000000,-6.1127146052974819
527742500000,-7.0096253916697311
527745000000,-7.5398441148158257
527747500000,-7.5196354907550198
527750000000,-7.620300545855204
527752500000,-7.7106783083810688
527755000000,-7.7410329095895207
527757500000,-7.7287716754829452
527760000000,-7.7412959174277178
527762500000,-7.7899271776522303
527765000000,-7.9004193160347853
527767500000,-7.9323469264868054
527770000000,-8.0488461195594567
527772500000,-8.1416005454439464
527775000000,-8.2343466735228557
527777500000,-8.2972678041859051
527780000000,-8.3193226055613536
527782500000,-8.3808106436521523
527785000000,-8.4560952924982633
527787500000,-8.5463611925223191
527790000000,-8.6688088855083834
527792500000,-8.8541201078704503
527795000000,-8.9804304875712067
527797500000,-9.1606339999882085
527800000000,-9.28241218346324
527802500000,-9.3886520335154131
527805000000,-9.5379574118085717
527807500000,-9.6359000599500906
527810000000,-9.7975481357622431
527812500000,-10.001958842208326
527815000000,-10.265010171520041
527817500000,-10.527406582282586
527820000000,-10.849595307405416
527822500000,-11.125702468183206
527825000000,-11.451901714878915
527827500000,-11.739675999817209
527830000000,-12.131271539772975
527832500000,-12.451733474849613
527835000000,-12.919387997306577
527837500000,-13.384505321764825
527840000000,-13.988600160123182
527842500000,-14.70244377687651
527845000000,-15.392637751518823
527847500000,-16.211576517308476
527850000000,-17.150500392319884
527852500000,-18.185243841010017
527855000000,-19.374589935423138
527857500000,-20.784443906089678
527860000000,-22.39911484782532
527862500000,-24.261294688393267
527865000000,-26.332809131649714
527867500000,-28.698005374520601
527870000000,-31.225482418568166
527872500000,-33.697439781380183
527875000000,-34.256661562159735
527877500000,-29.247429037049667
527880000000,-24.154587003695205
527882500000,-19.776422148926311
527885000000,-16.226994823996627
527887500000,-13.429239248571941
527890000000,-11.241723197709764
527892500000,-9.5252657018324278
527895000000,-8.165451335986841
527897500000,-7.0748537605904431
527900000000,-6.1886234685604853
527902500000,-5.4590790905260063
527905000000,-4.8510898683874615
527907500000,-4.3385794393716433
527910000000,-3.9019939345318568
527912500000,-3.5264994050868355
527915000000,-3.2007138588966342
527917500000,-2.9157951970870344
527920000000,-2.664804546190898
527922500000,-2.4422324197760137
527925000000,-2.2436655085065649
527927500000,-2.0655287432054679
527930000000,-1.9049077217917825
527932500000,-1.7594005022205945
527935000000,-1.6270146067105744
527937500000,-1.5060852483830622
527940000000,-1.3952146037553126
527942500000,-1.2932155652390938
527945000000,-1.1990801222230236
527947500000,-1.1119420353783649
527950000000,-1.0310600281157274
527952500000,-0.95578752114089338
527955000000,-0.88556446361842356
527957500000,-0.81990595551953216
527960000000,-0.75838149308715697
527962500000,-0.70061325062801494
527965000000,-0.64626967804875135
527967500000,-0.5950532664008561
527970000000,-0.54670453478704295
527972500000,-0.50098831004468813
527975000000,-0.45769418701839315
527977500000,-0.41663357475439045
527980000000,-0.37763866317345135
527982500000,-0.34055430097644074
527985000000,-0.30524210317613765
527987500000,-0.27157810481537031
527990000000,-0.23944611762779713
527992500000,-0.20874300939973658
527995000000,-0.17937233499947738
527997500000,-0.15124963242252421
528000000000,-0.12429120816518627
528002500000,-0.098424365008257089
528005000000,-0.073584312185532921
528007500000,-0.049703414475147513
528010000000,-0.026726207493861471
528012500000,-0.004597814357649937
528015000000,0.01673060089962446
528017500000,0.037305514227254331
528020000000,0.057172194520759785
528022500000,0.07637336703462308
528025000000,0.094942488378204556
528027500000,0.11292035221133923
528030000000,0.13033811974405746
528032500000,0.14723121193898128
528035000000,0.16362689168642827
528037500000,0.1795581874027562
528040000000,0.19504981882741573
528042500000,0.21013055819254955
528045000000,0.22482849962585488
528047500000,0.23916471871646869
528050000000,0.25316768479400836
528052500000,0.26685975356104519
528055000000,0.28026899938947131
528057500000,0.2934149600839433
528060000000,0.30632287991083956
528062500000,0.31901812214071307
528065000000,0.33152889162889149
528067500000,0.34387511353967776
528070000000,0.35608961315003207
528072500000,0.36819936567883327
528075000000,0.38023395171265406
528077500000,0.39222666519788368
528080000000,0.40421829994409914
528082500000,0.41624679487870986
528085000000,0.42835592252071453
528087500000,0.44060013221612776
528090000000,0.45303991738273075
528092500000,0.46574164777987881
528095000000,0.47879325761371055
528097500000,0.49229439591637586
528100000000,0.50637034202244213
528102500000,0.52117652134162806
528105000000,0.53691195515365198
528107500000,0.55384596742269088
528110000000,0.57233369133489276
528112500000,0.59288070962866002
528115000000,0.61623646023808909
528117500000,0.64357453267091302
528120000000,0.6769098478073462
528122500000,0.7201553605106108
528125000000,0.78278493912207614
528127500000,0.90155681143565469
528130000000,1.9306443048799242
528132500000,2.8508868004162244
528135000000,2.9679086325138089
528137500000,4.143785674429993
528140000000,4.6598382174360804
528142500000,4.7760972775095683
528145000000,6.4111799974872969
528147500000,5.7407804583796898
528150000000,7.5534535351446284
528152500000,8.2838161133369042
528155000000,8.3854230226871955
528157500000,10.142394285178764
528160000000,10.562823097671359
528162500000,10.523028978950931
528165000000,10.886616014924149
528167500000,10.452541198966983
528170000000,10.495724905987322
528172500000,10.421782318190736
528175000000,10.350983617395222
528177500000,10.648123154319089
528180000000,10.813406184942647
528182500000,10.738396616253516
528185000000,10.178386451177367
528187500000,11.544996680450303
528190000000,11.354096124856227
528192500000,10.060251714120202
528195000000,10.95654494626414
528197500000,11.504948761734996
528200000000,10.473713686075454
528202500000,10.806978157216255
528205000000,11.355128902738889
528207500000,10.749785959346221
528210000000,11.983888067658269
528212500000,12.616888330485351
528215000000,10.591816580859254
528217500000,11.551337990872604
528220000000,12.716301715922338
528222500000,11.152559047016826
528225000000,11.082073234379193
528227500000,12.605088863870948
528230000000,13.25165809766378
528232500000,12.63647535007345
528235000000,12.92508832484295
528237500000,13.419054959137744
528240000000,13.185175844734577
528242500000,13.937941663219222
528245000000,13.630130510369629
528247500000,14.95805405803511
528250000000,14.520430942169108
528252500000,15.6697985685148
528255000000,16.159552625568288
528257500000,16.891976017033521
528260000000,17.552026238344645
528262500000,18.261218608894463
528265000000,19.388939634111086
528267500000,20.636872555081005
528270000000,22.24883961407615
528272500000,24.313014300832265
528275000000,26.679435992751614
528277500000,30.261062939533037
528280000000,33.852105835984432
528282500000,41.615875716663879
528285000000,52.89654586123261
528287500000,73.581946422357248
528290000000,61.360382759413376
528292500000,23.091531784009533
528295000000,11.117298957367593
528297500000,6.6895459416099987
528300000000,4.5997184963016382
528302500000,3.4408873106505258
528305000000,2.725045033307071
528307500000,2.2475799587323633
528310000000,1.910229868364683
528312500000,1.660819431834109
528315000000,1.4694405034598466
528317500000,1.3178593329619346
528320000000,1.1943980216225734
528322500000,1.0913075211794332
528325000000,1.0031737162534173
528327500000,0.92617602694399537
528330000000,0.85751847608448351
528332500000,0.79507130450539265
528335000000,0.73719385769258949
528337500000,0.68259168088368016
528340000000,0.63020184745650853
528342500000,0.57912236641348369
528345000000,0.52858400181754328
528347500000,0.47789505591135717
528350000000,0.42639970302696628
528352500000,0.37345946292226084
528355000000,0.31842988986727316
528357500000,0.26062235465088929
528360000000,0.1993271425030286
528362500000,0.13372247491978756
528365000000,0.06284288827581877
528367500000,-0.014428948435503795
528370000000,-0.099446655707521078
528372500000,-0.19394595286969188
528375000000,-0.30017383863377822
528377500000,-0.42103419905596101
528380000000,-0.56050648372597289
528382500000,-0.72422504623822792
528385000000,-0.92057926401206869
528387500000,-1.162779220278668
528390000000,-1.4735310840806599
528392500000,-1.8973815348535221
528395000000,-2.5426659671548166
528397500000,-3.8301370482498287
528400000000,-7.2421062313507925
528402500000,-9.9816022851572566
528405000000,-11.800080332963713
528407500000,-13.856385803588481
528410000000,-15.570416838489662
528412500000,-17.328362656764796
528415000000,-19.657112962736146
528417500000,-21.434956119425383
528420000000,-24.34540023297216
528422500000,-26.226076541148515
528425000000,-29.616531056644682
528427500000,-32.967942687673613
528430000000,-32.807877966612637
528432500000,-33.081790466134258
528435000000,-33.535231163321058
528437500000,-33.498685412736904
528440000000,-33.303768016938776
528442500000,-33.122109485183259
528445000000,-33.23721355864167
528447500000,-33.814175578572687
528450000000,-33.639267162005915
528452500000,-34.044393414548622
528455000000,-34.408224497901983
528457500000,-34.683898113572319
528460000000,-34.974083139891214
528462500000,-34.569608799141179
528465000000,-34.815870195649829
528467500000,-35.078038417461684
528470000000,-35.214570128047896
528472500000,-35.504310768439161
528475000000,-36.324239513553806
528477500000,-36.642231912069654
528480000000,-37.482510049235941
528482500000,-37.818385957221395
528485000000,-37.686969818308341
528487500000,-38.373739590194987
528490000000,-38.419175652402956
528492500000,-38.869100406905247
528495000000,-39.524573058078296
528497500000,-40.518182328307674
528500000000,-41.544435731243922
528502500000,-42.731457536205596
528505000000,-43.411864428715603
528507500000,-44.590338777707011
528510000000,-45.283196716442987
528512500000,-46.715464573774554
528515000000,-47.598401638845395
528517500000,-49.43770897029875
528520000000,-50.849394186575161
528522500000,-53.039544066423588
528525000000,-55.523153561385897
528527500000,-57.887052746184665
528530000000,-60.785843210380001
528532500000,-64.006562893802609
528535000000,-67.602498356770141
528537500000,-72.20228064998571
528540000000,-77.749781521722198
528542500000,-84.268248156316304
528545000000,-91.97707654289384
528547500000,-101.06636353896923
528550000000,-112.30905913223297
528552500000,-126.19966338963177
528555000000,-141.52946242415399
528557500000,-151.41448202568179
528560000000,-121.69625644240016
528562500000,-86.956368061426744
528565000000,-61.648346441302188
528567500000,-44.696639077986191
528570000000,-33.444219353680673
528572500000,-25.806030595701493
528575000000,-20.454192386857606
528577500000,-16.582076427091387
528580000000,-13.697116619684261
528582500000,-11.491330242588781
528585000000,-9.7664794543940605
528587500000,-8.3911572709789031
528590000000,-7.2758054205361891
528592500000,-6.3578196268788592
528595000000,-5.5924270781939951
528597500000,-4.9469227868526087
528600000000,-4.3969774677644677
528602500000,-3.9241931256896043
528605000000,-3.5144329000156262
528607500000,-3.1566926923856067
528610000000,-2.8422961114770038
528612500000,-2.5643266330832462
528615000000,-2.3172133434477411
528617500000,-2.0964255079947649
528620000000,-1.8982479744784799
528622500000,-1.7196020727176036
528625000000,-1.5579339828714402
528627500000,-1.4110911573061091
528630000000,-1.2772629932552408
528632500000,-1.1549098805610603
528635000000,-1.0427182660033805
528637500000,-0.93955283822130009
528640000000,-0.84444323692511736
528642500000,-0.75655181686887818
528645000000,-0.67513700904274554
528647500000,-0.59956071852738002
528650000000,-0.52925606454332363
528652500000,-0.46373198957434397
528655000000,-0.4025507545835017
528657500000,-0.34532313089575983
528660000000,-0.2917011244519862
528662500000,-0.24138393442232722
528665000000,-0.19409037611071214
528667500000,-0.14957800396265022
528670000000,-0.10762217155312832
528672500000,-0.068024914914164847
528675000000,-0.030607714272739756
528677500000,0.0047948352978762704
528680000000,0.038330992610845285
528682500000,0.070134427616267134
528685000000,0.10032604058720834
528687500000,0.12901920225178759
528690000000,0.15631680164908465
528692500000,0.18231144849297257
528695000000,0.20708929570317933
528697500000,0.23072740303034853
528700000000,0.25330077941972468
528702500000,0.27487503325372098
528705000000,0.29551355181370276
528707500000,0.31527026599739849
528710000000,0.33419942832093458
528712500000,0.35235477726472247
528715000000,0.36977610457559362
528717500000,0.38650766225565875
528720000000,0.40258680483771647
528722500000,0.41805140462972423
528725000000,0.4329418634885665
528727500000,0.44728413462596456
528730000000,0.46110651617550213
528732500000,0.47444418038753039
528735000000,0.48731767951424959
528737500000,0.49975804280204161
528740000000,0.51178528826754355
528742500000,0.52342327356274398
528745000000,0.53469344979684363
528747500000,0.54561772237792805
528750000000,0.55621469604395657
528752500000,0.56650371741014061
528755000000,0.57650438149307082
528757500000,0.58623414391491158
528760000000,0.59571034941735268
528762500000,0.60495387618193308
528765000000,0.61398159158547383
528767500000,0.62281307499031957
528770000000,0.63146732586847987
528772500000,0.63996741612774821
528775000000,0.64833702460674225
528777500000,0.65660696927929585
528780000000,0.6648083217456523
528782500000,0.67298704889301875
528785000000,0.68119949767991594
528787500000,0.68953228145476619
528790000000,0.69810894797144851
528792500000,0.70715859024955285
528795000000,0.71713727710366804
528797500000,0.72930875713088905
528800000000,0.75151202971488773
528802500000,0.90597621927399097
528805000000,1.2318843826047952
528807500000,1.3190411148470029
528810000000,1.4958657431240037
528812500000,1.9334259845327664
528815000000,1.4541456725534443
528817500000,1.7236664285364429
528820000000,2.1521963413098022
528822500000,2.5889269295062252
528825000000,2.7112291144351643
528827500000,3.1144481038335718
528830000000,3.2711689306054925
528832500000,2.4910236885624224
528835000000,3.1025331658508284
528837500000,3.9362943952156599
528840000000,2.7855885450978906
528842500000,3.3541889180616025
528845000000,3.5829071363975427
528847500000,3.7174873835425668
528850000000,2.7630337492607762
528852500000,3.9092876457325354
528855000000,3.1953053823900186
528857500000,3.003667667567584
528860000000,4.7204356909576628
528862500000,3.2322560662599629
528865000000,3.1160398746521092
528867500000,4.6161158058052001
528870000000,3.4261349871587075
528872500000,3.0837365668206602
528875000000,4.2395555428934149
528877500000,3.1123071387622883
528880000000,3.6054751143918864
528882500000,4.5501653004474161
528885000000,3.6100290759635394
528887500000,2.8789367209249686
528890000000,4.2788264719073661
528892500000,4.6674489118984122
528895000000,2.9011651134542933
528897500000,3.1640810237327548
528900000000,5.2985664424474459
528902500000,3.6665195931602477
528905000000,3.8049156523925238
528907500000,4.4710473506928992
528910000000,4.3835474364153342
528912500000,4.4275477478003307
528915000000,4.514781990232434
528917500000,3.9658271135006045
528920000000,4.6347316681963546
528922500000,4.0835379000983769
528925000000,5.6097343507806725
528927500000,4.5566672289504195
528930000000,5.2498977810044778
528932500000,5.225832496340856
528935000000,6.0013088169233848
528937500000,6.7212617108217492
528940000000,6.9579682713993307
528942500000,7.2085342198169666
528945000000,6.953548497057608
528947500000,8.377734506297374
528950000000,8.9334490220587259
528952500000,9.6670614666043253
528955000000,13.076620067611954
528957500000,17.71392299356279
528960000000,34.124471914292698
528962500000,7.6880356211877849
528965000000,2.4502022233679495
528967500000,1.6209891943805996
528970000000,1.3337920151093765
528972500000,1.1988780704396493
528975000000,1.1243484069334455
528977500000,1.0788623672552899
528980000000,1.0491950636285325
528982500000,1.0289309186511983
528985000000,1.0146243947162294
528987500000,1.0042842714115119
528990000000,0.99668934078925031
528992500000,0.99105321603801455
528995000000,0.98685003996549103
528997500000,0.98371570859457957
529000000000,0.98139259174246896
529002500000,0.9796910344400025
529005000000,0.97847098065540328
529007500000,0.97762494850336912
529010000000,0.97707033008622035
529012500000,0.97674070983448846
529015000000,0.97658385068039166
529017500000,0.9765572850155233
529020000000,0.97662336098976177
529022500000,0.97675223290514512
529025000000,0.97691554094056221
529027500000,0.97709044321015326
529030000000,0.97725381049874782
529032500000,0.97738370776120354
529035000000,0.9774583715892935
529037500000,0.97745533996771672
529040000000,0.97734923536681295
529042500000,0.97711230184146525
529045000000,0.97671089149215373
529047500000,0.97610113906613405
529050000000,0.975223627972861
529052500000,0.97399431469287157
529055000000,0.97228245979057304
529057500000,0.96985569720977238
529060000000,0.96623642558703171
529062500000,0.96014557260577038
529065000000,0.94448940826557826
529067500000,0.83100662115586077
529070000000,0.49366966102524151
529072500000,0.21046718200260972
529075000000,-0.052967975327159571
529077500000,-0.3971048828440818
529080000000,0.27121710821131167
529082500000,-0.36053021464859303
529085000000,-0.38128490377915786
529087500000,-1.1120692900862972
529090000000,-1.4021977894581854
529092500000,-1.2235124498793311
529095000000,-1.8852639166337151
529097500000,-1.0028333259249194
529100000000,-1.9779705275685207
529102500000,-2.2030857238315842
529105000000,-1.2287766770442694
529107500000,-1.9539822080259222
529110000000,-2.1562673904340923
529112500000,-2.0259671750608597
529115000000,-1.2381563654167926
529117500000,-2.6117696307210667
529120000000,-1.8120960869324398
529122500000,-1.5155593481315222
529125000000,-3.2400450923540314
529127500000,-1.7868803751405522
529130000000,-1.6921785086445709
529132500000,-2.8732123416080397
529135000000,-1.9643453614212449
529137500000,-1.4995961975291732
529140000000,-2.5210820577981528
529142500000,-1.6124662893466848
529145000000,-1.9716795596284902
529147500000,-2.8803200936393023
