# Field Profile:
9785000000,30.127348556290702
9785500000,55.538680052666152
9786000000,80.924940948577941
9786500000,104.8006573939189
9787000000,125.27965948898915
9787500000,139.00687503351591
9788000000,148.39714461822922
9788500000,151.03548430558382
9789000000,150.9189217706801
9789500000,155.15934478170112
9790000000,161.85005900408518
9790500000,159.98430964688916
9791000000,149.03704417511179
9791500000,127.99280961176856
9792000000,103.64841483852571
9792500000,80.724708742709453
9793000000,60.186244237394305
9793500000,42.61791204836782
9794000000,32.600398747425302
9794500000,29.166804891297275
9795000000,30.722136735473757
9795500000,35.758021419841732
9796000000,41.827780693541477
9796500000,51.400283543967461
9797000000,67.162453559721953
9797500000,85.690843439750836
9798000000,102.57584777701429
9798500000,119.38334141454922
9799000000,133.13459027223101
9799500000,139.91874368643553
9800000000,144.58084874828413
9800500000,144.95091610530719
9801000000,143.62989377703306
9801500000,143.80818977668741
9802000000,144.28278827823243
9802500000,135.14500989377817
9803000000,114.33184487891354
9803500000,84.908306674444674
9804000000,55.044776892221286
9804500000,26.59558347421023
9805000000,2.625831637878302
9805500000,-15.439025764639577
9806000000,-25.772747103026422
9806500000,-29.091237395181107
9807000000,-28.932502186558441
9807500000,-29.776346934043481
9808000000,-29.97221863427464
9808500000,-21.670395451798626
9809000000,-1.6179982008359606
9809500000,22.441747396047138
9810000000,44.456415378346499
9810500000,64.937714681255969
9811000000,81.858269945940975
9811500000,92.819249258960227
9812000000,98.430888812733443
9812500000,99.43558628920276
9813000000,99.953600924092584
9813500000,100.84809345251858
9814000000,97.685954811020707
9814500000,83.690992168709457
9815000000,57.6670630176976
9815500000,25.127405379322383
9816000000,-7.6851061667271443
9816500000,-36.663185315291464
9817000000,-60.02802621572598
9817500000,-77.148703692030423
9818000000,-87.548814261789971
9818500000,-93.443657776530472
9819000000,-99.639087951900748
9819500000,-106.71266366475433
9820000000,-107.72838772442442
9820500000,-98.067034708595585
9821000000,-77.970680660494637
9821500000,-54.430511343570906
9822000000,-32.653507987892809
9822500000,-12.687658308323675
9823000000,6.3014573888532235
9823500000,19.657075812231266
9824000000,25.94286836636493
9824500000,29.309636006875063
9825000000,33.255568139885277
9825500000,36.250174218791329
9826000000,31.988147100243641
9826500000,15.69404494469692
9827000000,-10.951256110202836
9827500000,-39.921730384758163
9828000000,-68.030165846528845
9828500000,-90.538111870910171
9829000000,-109.56637269518414
9829500000,-122.64418866860699
9830000000,-130.5001136178094
9830500000,-136.91986447104802
9831000000,-147.17654189721978
9831500000,-155.64794272938059
9832000000,-157.00026102506982
9832500000,-150.0234456592012
9833000000,-134.29680780795914
9833500000,-114.19267774753249
9834000000,-95.41071451936773
9834500000,-76.069312009972833
9835000000,-56.51606933684031
9835500000,-43.482710833680351
9836000000,-35.627024431779823
9836500000,-30.096341553068303
9837000000,-27.995243416546717
9837500000,-29.357274695958324
9838000000,-36.958042534989687
9838500000,-52.008567753502696
9839000000,-71.231809573165819
9839500000,-90.406270271368655
9840000000,-109.07143205586499
9840500000,-123.34644534069722
9841000000,-134.08834124300958
9841500000,-141.61037284987592
9842000000,-144.84078152369659
9842500000,-148.59582433939065
9843000000,-158.17062666953638
9843500000,-164.9664335063182
9844000000,-161.4222697474483
9844500000,-146.05655217606034
