# Field Profile:
525150000000,-1.498658338055437
525152500000,-1.2117868938408312
525155000000,-1.2030440886055198
525157500000,-2.8236519312754589
525160000000,-3.2952188839806658
525162500000,-0.94100077178982078
525165000000,-1.5810415911711004
525167500000,-0.7621482366451352
525170000000,-1.2508522486844054
525172500000,-1.3894999777790848
525175000000,-2.8204424235505687
525177500000,-3.2034079400279372
525180000000,-1.5220904586478761
525182500000,-1.0892194306731764
525185000000,-0.76366579793150358
525187500000,-1.9287366215742869
525190000000,-3.1334975399120122
525192500000,-3.7098283474162552
525195000000,-1.7569655988156292
525197500000,-1.5578082894740581
525200000000,-2.4726056992724144
525202500000,-3.8180780239459979
525205000000,-3.2883506821734616
525207500000,-2.8336891565761033
525210000000,-5.2474884829241999
525212500000,-3.7837665663668578
525215000000,-2.4234115270314835
525217500000,-6.3517645895920198
525220000000,-4.9689385746202683
525222500000,-6.1982415309423704
525225000000,-8.5021995350657242
525227500000,-11.390936539727702
525230000000,-13.937330450091951
525232500000,-23.703288629963069
525235000000,-36.57798816856495
525237500000,-2.8395961519259072
525240000000,-0.13768149078351158
525242500000,0.49976971349688493
525245000000,0.75951898809437213
525247500000,0.89511148152527165
525250000000,0.97695357734264321
525252500000,1.0314037271078118
525255000000,1.0702951615612759
525257500000,1.0996406834195895
525260000000,1.1227817286300377
525262500000,1.1417080957967831
525265000000,1.1576640826308933
525267500000,1.1714782068363738
525270000000,1.18370862293475
525272500000,1.1947424503424824
525275000000,1.2048763235935975
525277500000,1.2143128447984657
525280000000,1.2232145343691885
525282500000,1.2317011027478955
525285000000,1.2398739735659172
525287500000,1.2478076954666775
525290000000,1.2555633207035259
525292500000,1.2631989237351904
525295000000,1.2707454225290988
525297500000,1.2782655868523647
525300000000,1.2857657282939841
525302500000,1.2932842341205966
525305000000,1.3008414537040778
525307500000,1.3084684940796794
525310000000,1.3161780386651498
525312500000,1.323992880785734
525315000000,1.3319379452189364
525317500000,1.3400198580159868
525320000000,1.3482627753840042
525322500000,1.3566812300659519
525325000000,1.3652913928366133
525327500000,1.3741098522690234
525330000000,1.3831653381956412
525332500000,1.3924633155567605
525335000000,1.4020205351827426
525337500000,1.4118607942612016
525340000000,1.4220037500029776
525342500000,1.4324665544662842
525345000000,1.4432771720048274
525347500000,1.454451281619378
525350000000,1.4660660371644236
525352500000,1.4779980613834802
525355000000,1.490432341780479
525357500000,1.5033247550842606
525360000000,1.5167696030993347
525362500000,1.5306701471380051
525365000000,1.5451659604112939
525367500000,1.5602442590197581
525370000000,1.57613423811699
525372500000,1.5924920527256754
525375000000,1.6099783279726325
525377500000,1.6277304148906961
525380000000,1.6466902940362136
525382500000,1.6664132475181168
525385000000,1.6872266595361627
525387500000,1.7091420543638201
525390000000,1.7321602783112107
525392500000,1.756501116715389
525395000000,1.7821895673576986
525397500000,1.80950274896889
525400000000,1.8384969953848784
525402500000,1.8688744487194902
525405000000,1.9015175605778913
525407500000,1.9361538951553485
525410000000,1.9732126548936757
525412500000,2.0129595048733271
525415000000,2.0555858081791896
525417500000,2.1015192892886936
525420000000,2.1510671278423743
525422500000,2.2051312011515782
525425000000,2.2633637200119945
525427500000,2.3273148059219362
525430000000,2.3963870875085815
525432500000,2.4731116990472879
525435000000,2.5578369684710864
525437500000,2.6521691130226315
525440000000,2.7576781182868193
525442500000,2.8768279010757025
525445000000,3.0119261736550156
525447500000,3.1667802871086503
525450000000,3.346570221274368
525452500000,3.5577617841924396
525455000000,3.8096507048391186
525457500000,4.1154533666911552
525460000000,4.4952007693624436
525462500000,4.9792083232574909
525465000000,5.6181262370987097
525467500000,6.4970409356798671
525470000000,7.7633536996129839
525472500000,9.6645463209068119
525475000000,12.489777268641829
525477500000,16.213305643734746
525480000000,20.108419103913253
525482500000,23.142985626997923
525485000000,25.107861717713007
525487500000,26.936760793679046
525490000000,29.733712070041438
525492500000,30.898789826743407
525495000000,33.093228905098904
525497500000,35.044680865016304
525500000000,37.483041041480092
525502500000,40.046901496186742
525505000000,42.802454241748904
525507500000,42.925846070805214
525510000000,40.597410384196678
525512500000,38.226863160885152
525515000000,37.111898559354152
525517500000,35.62585288589699
525520000000,36.250048910199247
525522500000,37.52464971022021
525525000000,36.844483379620627
525527500000,35.751222744344588
525530000000,34.909516861224382
525532500000,34.875519358845473
525535000000,34.612984022505529
525537500000,34.619160169133771
525540000000,34.798313592246537
525542500000,34.985286325794647
525545000000,35.629965906922742
525547500000,35.766331582600728
525550000000,34.998500489292731
525552500000,35.267264495092597
525555000000,35.996597897366627
525557500000,36.255369437834815
525560000000,36.748529118505026
525562500000,37.201760086168534
525565000000,37.480220892823823
525567500000,37.822153189493754
525570000000,38.542149101408647
525572500000,39.664604406625465
525575000000,41.193645556356302
525577500000,42.439213685618974
525580000000,42.983835439425079
525582500000,42.752382715171009
525585000000,42.330549524140466
525587500000,43.068378954041144
525590000000,45.161667491909533
525592500000,47.355162526384674
525595000000,49.383423873142895
525597500000,50.918349222423238
525600000000,53.446211073908444
525602500000,56.724678166302631
525605000000,59.753831029689429
525607500000,62.248782543062219
525610000000,65.482025425741355
525612500000,69.664430775570551
525615000000,74.825373840025279
525617500000,81.096794811007015
525620000000,88.601334270346356
525622500000,96.539287582076071
525625000000,106.36630553732866
525627500000,119.44761853519169
525630000000,133.58548527410949
525632500000,147.6654289622372
525635000000,156.4794420123639
525637500000,138.89330378630356
525640000000,102.74295567805821
525642500000,73.900148549397443
525645000000,53.694498139631726
525647500000,40.144606103095484
525650000000,30.986869458149023
525652500000,24.630001775888605
525655000000,20.078947828800462
525657500000,16.722976812236798
525660000000,14.181704632579001
525662500000,12.211981924617808
525665000000,10.653925642060454
525667500000,9.3994508024034129
525670000000,8.3736139683793578
525672500000,7.5231343385902552
525675000000,6.8093832661339713
525677500000,6.2037992136415285
525680000000,5.6848980880504749
525682500000,5.2363016594855667
525685000000,4.8453313263242368
525687500000,4.502058090588454
525690000000,4.1985707816208562
525692500000,3.9285237654792522
525695000000,3.6867305240019497
525697500000,3.4689391513774455
525700000000,3.2716362136589821
525702500000,3.0918465989637687
525705000000,2.9270551787812868
525707500000,2.7750352430626939
525710000000,2.6338382569831755
525712500000,2.5017227687910903
525715000000,2.3771206168712609
525717500000,2.2585847261399303
525720000000,2.1447182311136785
525722500000,2.0339843072505421
525725000000,1.9245968079674589
525727500000,1.8143818849456286
525730000000,1.7003699691161034
525732500000,1.5779544791537172
525735000000,1.4391754094481475
525737500000,1.2680911500531185
525740000000,1.0262190364476456
525742500000,0.59256497533706642
525745000000,-0.56964651749850315
525747500000,-3.1091524112057343
525750000000,-4.6471718991422835
525752500000,-5.1865954047261278
525755000000,-4.9235148306290784
525757500000,-5.8881824348969696
525760000000,-8.9126638845877242
525762500000,-6.6848464992282457
525765000000,-8.1671733758525917
525767500000,-8.1992697455606169
525770000000,-9.2192420652739138
525772500000,-9.088598141952577
525775000000,-13.057270893380281
525777500000,-11.256700555491266
525780000000,-10.943210373585501
525782500000,-9.6848793945313947
525785000000,-9.0745273769431289
525787500000,-6.2694384129492002
525790000000,-7.5608459124121845
525792500000,-10.410085548154331
525795000000,-9.2049233142303066
525797500000,-8.0628546424335052
525800000000,-7.5660821262586033
525802500000,-9.4453901994793874
525805000000,-7.8044998306095863
525807500000,-8.1105153596770538
525810000000,-7.3315542876322128
525812500000,-7.6825202414682066
525815000000,-8.1966008091148961
525817500000,-8.1707945815085026
525820000000,-6.4227026596391541
525822500000,-7.8230169776356266
525825000000,-8.4430258129281182
525827500000,-8.4638861151518014
525830000000,-9.9958628329466226
525832500000,-9.7538628738019302
525835000000,-7.9522461946034566
525837500000,-8.5721513201633162
525840000000,-7.7553829174327102
525842500000,-9.0214199222819964
525845000000,-10.382316302197127
525847500000,-11.423207313135991
525850000000,-10.681613562595182
525852500000,-9.3757128666348635
525855000000,-8.0212615241936511
525857500000,-8.6187955051922263
525860000000,-11.741696040836775
525862500000,-13.251245938386687
525865000000,-12.462894891706881
525867500000,-11.454030766014355
525870000000,-11.552230660396633
525872500000,-14.623862783153459
525875000000,-15.665810324151172
525877500000,-15.480990932752368
525880000000,-16.876370750787274
525882500000,-17.708276719798516
525885000000,-18.401831311269483
525887500000,-20.942291709885421
525890000000,-25.349447089902018
525892500000,-25.973552559486226
525895000000,-30.061124447843092
525897500000,-37.238056706071326
525900000000,-45.230211597276487
525902500000,-57.996696640127908
525905000000,-82.724859702859149
525907500000,-55.476991948387557
525910000000,-20.499772522310522
525912500000,-9.2091450563551511
525915000000,-4.8528981596733214
525917500000,-2.744848888220345
525920000000,-1.5594821855125125
525922500000,-0.82202724124571769
525925000000,-0.32907410285734601
525927500000,0.018535251065457156
525930000000,0.27399800747130137
525932500000,0.46803795450766345
525935000000,0.61945046080212796
525937500000,0.74030182734757755
525940000000,0.838634689755139
525942500000,0.91999052074288834
525945000000,0.9882948547447582
525947500000,1.0463991186167321
525950000000,1.0964101954432224
525952500000,1.1399230524395279
525955000000,1.1781590715391674
525957500000,1.2120680786072628
525960000000,1.2423990144557775
525962500000,1.2697515020806285
525965000000,1.2946057461122833
525967500000,1.3173560966854994
525970000000,1.33832998828715
525972500000,1.3577892987742801
525975000000,1.3759589043039184
525977500000,1.3930326593471565
525980000000,1.409164278481605
525982500000,1.4244952560164497
525985000000,1.4391437527934834
525987500000,1.4532102574065606
525990000000,1.4667838402078028
525992500000,1.4799429608135941
525995000000,1.4927562767229363
525997500000,1.5052858246267016
526000000000,1.5175861474752126
526002500000,1.5297096120439517
526005000000,1.5416954469341169
526007500000,1.5535892524475778
526010000000,1.5654272049438531
526012500000,1.5772438590996729
526015000000,1.5890742458915454
526017500000,1.6009487737511965
526020000000,1.6128967277500352
526022500000,1.6249471700965912
526025000000,1.637126333864636
526027500000,1.6494625609783886
526030000000,1.6619718141625368
526032500000,1.6746918060974056
526035000000,1.6876471946946503
526037500000,1.7008655318376462
526040000000,1.7143615313768388
526042500000,1.7281649661789622
526045000000,1.7423422551206054
526047500000,1.7568436397118874
526050000000,1.7718345449154438
526052500000,1.7871217517715465
526055000000,1.8029340236006048
526057500000,1.8192488284761652
526060000000,1.8360876939770261
526062500000,1.8535248524781673
526065000000,1.8715378884075038
526067500000,1.8902444671113219
526070000000,1.9096512028584622
526072500000,1.9298305916384169
526075000000,1.9508330256280249
526077500000,1.972749615024866
526080000000,1.9955531216256979
526082500000,2.0194309580711574
526085000000,2.0444311145658474
526087500000,2.0706598230153497
526090000000,2.098190566078542
526092500000,2.1271865406853312
526095000000,2.1577447610164091
526097500000,2.1900565701536947
526100000000,2.2243093528353231
526102500000,2.2606117848018186
526105000000,2.2992121424891474
526107500000,2.3405054192475747
526110000000,2.3846490572204155
526112500000,2.4321549959727324
526115000000,2.4833214886063821
526117500000,2.5387839403978809
526120000000,2.59904798655703
526122500000,2.6649733598291911
526125000000,2.7375055205530221
526127500000,2.8178505673286276
526130000000,2.9074299259487923
526132500000,3.0082663794631541
526135000000,3.1226962055624323
526137500000,3.2543025577745532
526140000000,3.4075807175719839
526142500000,3.5889172240152534
526145000000,3.8072457273238043
526147500000,4.0752229942927309
526150000000,4.410926543271545
526152500000,4.8387151990149508
526155000000,5.3855195932044699
526157500000,6.0665643746527076
526160000000,6.8705878506600193
526162500000,7.7052604151476949
526165000000,8.4325149298184652
526167500000,9.0827718119830063
526170000000,9.5708430568801273
526172500000,10.139622722721823
526175000000,10.632359159881457
526177500000,11.151646903153438
526180000000,11.700617531753167
526182500000,12.212331040221342
526185000000,12.813949296575919
526187500000,13.202063693136751
526190000000,13.260983498505276
526192500000,12.901132898336087
526195000000,12.41710865914056
526197500000,12.183310328400188
526200000000,11.972305126762949
526202500000,12.020012380702209
526205000000,12.072514380375477
526207500000,11.895278923670876
526210000000,11.684152551322351
526212500000,11.509680479294817
526215000000,11.434780709647553
526217500000,11.404718254958427
526220000000,11.427400713446398
526222500000,11.540233267743218
526225000000,11.628069811725357
526227500000,11.751312270177664
526230000000,11.829838003909384
526232500000,11.774263879208734
526235000000,11.777481101316237
526237500000,11.830057870955727
526240000000,11.886338792556785
526242500000,11.991057591302043
526245000000,12.114705866029553
526247500000,12.256849251377346
526250000000,12.456961670556675
526252500000,12.694074812824496
526255000000,12.959500658047631
526257500000,13.241651288485562
526260000000,13.515382221644893
526262500000,13.734406964121773
526265000000,13.883622782322691
526267500000,14.013473633208017
526270000000,14.256009422603027
526272500000,14.652976962929074
526275000000,15.132323215600053
526277500000,15.693641855746243
526280000000,16.248399659128598
526282500000,16.925299748225889
526285000000,17.651546165060815
526287500000,18.402032337726236
526290000000,19.148346547471387
526292500000,19.991306527471878
526295000000,21.025698959425867
526297500000,22.225326713009597
526300000000,23.556912395079664
526302500000,25.089352791607514
526305000000,26.699381213118553
526307500000,28.455768710693103
526310000000,30.366895833523426
526312500000,32.140115453634571
526315000000,33.330033653374784
526317500000,33.368650610415777
526320000000,30.84558556375379
526322500000,24.906374674972731
526325000000,19.738306046894657
526327500000,15.465689953775755
526330000000,12.158986650842824
526332500000,9.6750214874710423
526335000000,7.8225366153433109
526337500000,6.4342734930304957
526340000000,5.3827908895644994
526342500000,4.5760386187655353
526345000000,3.9487207820649042
526347500000,3.4545776930867795
526350000000,3.0606048215149517
526352500000,2.7429963597874596
526355000000,2.4843614606859017
526357500000,2.2718267126216225
526360000000,2.0957401071302169
526362500000,1.948767613473644
526365000000,1.825271268791304
526367500000,1.7208649716431514
526370000000,1.6320970622453439
526372500000,1.5562144233537085
526375000000,1.4909995362705899
526377500000,1.434631618263831
526380000000,1.3855885614642827
526382500000,1.3425444737675638
526385000000,1.3042706044140118
526387500000,1.2694707120599773
526390000000,1.2364260130508147
526392500000,1.2019282835929026
526395000000,1.156501460895508
526397500000,1.043564008101032
526400000000,0.62974448566923524
526402500000,0.48826868805886553
526405000000,0.36875528277298125
526407500000,0.40137587371240047
526410000000,0.36983127871106791
526412500000,-0.24691772108186438
526415000000,0.22654910563485492
526417500000,0.034892955566809714
526420000000,0.054078418160531938
526422500000,-0.10786591719224869
526425000000,0.041550669715304162
526427500000,-0.7653692919101599
526430000000,-0.30144035784230011
526432500000,-0.57611954646055907
526435000000,-0.24105118871235529
526437500000,-0.28215462089055815
526440000000,0.30294618728814388
526442500000,0.1337749569827163
526445000000,-0.53451437315191652
526447500000,-0.11613696552282637
526450000000,-0.085170272845986203
526452500000,0.1239839204734144
526455000000,-0.31306692087337534
526457500000,0.069591070605142413
526460000000,-0.11708738850917141
526462500000,0.13342446301692107
526465000000,0.051662011323907769
526467500000,-0.030991289384851614
526470000000,-0.15496897775335328
526472500000,0.34472381563418947
526475000000,-0.050752889892359106
526477500000,-0.10476189997281664
526480000000,0.046129763897887054
526482500000,-0.33991374556183757
526485000000,-0.29528427191978679
526487500000,0.15855941087461384
526490000000,-0.14731073636394507
526492500000,0.16516106023756916
526495000000,-0.1501638702761855
526497500000,-0.2854375285005965
526500000000,-0.49952772386170818
526502500000,-0.38874278293280018
526505000000,-0.11321513534218576
526507500000,0.11335400243094665
526510000000,0.077783984443578577
526512500000,-0.48568784242056401
526515000000,-0.72854758737261205
526517500000,-0.51169669235463855
526520000000,-0.34020877644914438
526522500000,-0.1775379597831272
526525000000,-0.79185043504193442
526527500000,-0.91208001945273454
526530000000,-0.85277319190562961
526532500000,-0.84264163650069535
526535000000,-1.0833799162159521
526537500000,-1.1142140959000095
526540000000,-1.2243905084643671
526542500000,-2.1275383192269053
526545000000,-1.9613260453245649
526547500000,-2.4515833480119733
526550000000,-3.2073726929802193
526552500000,-4.3571702381062352
526555000000,-5.7019238343955614
526557500000,-10.721586019027828
526560000000,-7.1016688249903224
526562500000,-0.94590095067033397
526565000000,0.22899463579786211
526567500000,0.61851579861042716
526570000000,0.79906395886708204
526572500000,0.89969240888690161
526575000000,0.9626496087581371
526577500000,1.0052841355019746
526580000000,1.0358832915702854
526582500000,1.0588340604308109
526585000000,1.0766540830826405
526587500000,1.0908961177786625
526590000000,1.1025408537908652
526592500000,1.1122587388469649
526595000000,1.1205006275652163
526597500000,1.1275996605185057
526600000000,1.1337913039396246
526602500000,1.1392543867842722
526605000000,1.1441210764413328
526607500000,1.1485041982399362
526610000000,1.152479172507894
526612500000,1.1561137516294329
526615000000,1.1594598626166326
526617500000,1.1625667601805376
526620000000,1.1654595814938484
526622500000,1.1681809332403799
526625000000,1.1707481633228993
526627500000,1.1731744806717637
526630000000,1.1755070937647132
526632500000,1.1777391095620688
526635000000,1.1798814870008374
526637500000,1.1819647995601574
526640000000,1.1839815228351462
526642500000,1.185952231837992
526645000000,1.1878809451824628
526647500000,1.189786516059874
526650000000,1.1916621057982448
526652500000,1.1935205542961924
526655000000,1.1953599751307575
526657500000,1.197205515145277
526660000000,1.199048152169611
526662500000,1.2009016068982024
526665000000,1.2027599310262833
526667500000,1.2046362245039293
526670000000,1.2065288966806385
526672500000,1.2084417994276244
526675000000,1.2103882964629384
526677500000,1.2123751553564159
526680000000,1.2143863231538516
526682500000,1.2164444345237535
526685000000,1.2185520276169506
526687500000,1.2206938925650452
526690000000,1.2229072549382918
526692500000,1.225165556661983
526695000000,1.22749899227403
526697500000,1.2298820772492105
526700000000,1.2323475692129822
526702500000,1.2348674111271802
526705000000,1.2374992238293363
526707500000,1.2402105273777364
526710000000,1.2430004681684599
526712500000,1.245886071604561
526715000000,1.2488690488831196
526717500000,1.2519606696600076
526720000000,1.255159572661652
526722500000,1.2584758383687502
526725000000,1.261918157355358
526727500000,1.2654906173065938
526730000000,1.2692021679938468
526732500000,1.2730582165513098
526735000000,1.2770695851642579
526737500000,1.2812445349105082
526740000000,1.2855940389265093
526742500000,1.290125487023744
526745000000,1.2948536035659364
526747500000,1.2997869142074168
526750000000,1.3049417485268882
526752500000,1.3103320797782918
526755000000,1.3159726309456603
526757500000,1.3218817855230214
526760000000,1.328079739669414
526762500000,1.3345858024276518
526765000000,1.3414238776535681
526767500000,1.3486235554521788
526770000000,1.3562075614746123
526772500000,1.3642126430899584
526775000000,1.372678804035127
526777500000,1.3816412544865626
526780000000,1.3911538923806224
526782500000,1.4012677666558064
526785000000,1.412048730495749
526787500000,1.4235651848089486
526790000000,1.4359062156796143
526792500000,1.4491716080985362
526795000000,1.4634789428229944
526797500000,1.4789669768775611
526800000000,1.4958091578773836
526802500000,1.5142062472233866
526805000000,1.5344213650857619
526807500000,1.5567689267347222
526810000000,1.5816523908534357
526812500000,1.6095914093880581
526815000000,1.6412602326500763
526817500000,1.6775646092595471
526820000000,1.7197450502692575
526822500000,1.769524853485497
526825000000,1.8293848417407845
526827500000,1.9029738639207536
526830000000,1.9957364830988644
526832500000,2.1157980722593202
526835000000,2.274389384965203
526837500000,2.483294636267884
526840000000,2.7440218731127404
526842500000,3.0407660152901701
526845000000,3.3186141521705395
526847500000,3.5282613994650642
526850000000,3.6993521859822547
526852500000,3.881628218344416
526855000000,4.0618228355092612
526857500000,4.2054123685534925
526860000000,4.4019905680368874
526862500000,4.5474525689881347
526865000000,4.7645681584082586
526867500000,4.907172759088402
526870000000,5.0624816801148356
526872500000,4.966551167587987
526875000000,4.7657197198172918
526877500000,4.6360850217079186
526880000000,4.5507299518680249
526882500000,4.525160501117873
526885000000,4.5539171433243304
526887500000,4.601592683965448
526890000000,4.4895137309371052
526892500000,4.4078361169304188
526895000000,4.3554209162234008
526897500000,4.3489887532282641
526900000000,4.3331957817613791
526902500000,4.3646070708522444
526905000000,4.391986083913169
526907500000,4.4251755108566613
526910000000,4.4608116418340495
526912500000,4.4605332961775126
526915000000,4.4369480101516254
526917500000,4.4571060173676154
526920000000,4.4818690949326037
526922500000,4.4955175060576842
526925000000,4.5254472926191802
526927500000,4.5746887020810725
526930000000,4.6220683900348307
526932500000,4.6929579289565275
526935000000,4.7720417771968044
526937500000,4.8763868249947881
526940000000,4.9724023806234037
526942500000,5.0413672504285145
526945000000,5.0843647121484192
526947500000,5.1216013134788057
526950000000,5.1655075517058702
526952500000,5.2667098907669319
526955000000,5.4261438277574854
526957500000,5.597268633648989
526960000000,5.773147627933839
526962500000,5.9866226679770564
526965000000,6.2156052526118675
526967500000,6.4638520642709958
526970000000,6.7057600977044585
526972500000,6.9515663599634099
526975000000,7.2666150470963684
526977500000,7.6333838208049452
526980000000,8.0886075533569866
526982500000,8.5965127820714056
526985000000,9.1528076801522946
526987500000,9.7602203484360661
526990000000,10.451907090515386
526992500000,11.209857769667819
526995000000,11.833541047453558
526997500000,12.185126467692195
527000000000,11.843260835507127
527002500000,9.8693074620295018
527005000000,7.7573547486369607
527007500000,6.0023415869720633
527010000000,4.6791184416848148
527012500000,3.7172694494074139
527015000000,3.0178592805749065
527017500000,2.4983543021277086
527020000000,2.098370780194005
527022500000,1.7743366026139198
527025000000,1.4928979444207584
527027500000,1.2253681511150822
527030000000,0.94444373718957009
527032500000,0.62757720363880087
527035000000,0.26610567434375187
527037500000,-0.096562165065117722
527040000000,-0.42577144268582301
527042500000,-0.69821534813079178
527045000000,-0.9032563833056525
527047500000,-1.1460491284068757
527050000000,-1.3454397619416192
527052500000,-1.5759029261937541
527055000000,-1.7990763160669931
527057500000,-2.0217739036619355
527060000000,-2.2731332060866545
527062500000,-2.4804442699282281
527065000000,-2.5398434773636551
527067500000,-2.4532803439074584
527070000000,-2.262636633971673
527072500000,-2.2035316034755841
527075000000,-2.1312832672157227
527077500000,-2.1750173008973079
527080000000,-2.2392221811943664
527082500000,-2.1691149230036428
527085000000,-2.1073607548427713
527087500000,-2.0480285001653078
527090000000,-2.031869429922585
527092500000,-2.0336656806398188
527095000000,-2.0536760032298411
527097500000,-2.0846622124514966
527100000000,-2.1142722391224038
527102500000,-2.1508508276636182
527105000000,-2.1828109458571912
527107500000,-2.1470858445513485
527110000000,-2.1560075577720426
527112500000,-2.1726254836110521
527115000000,-2.1877295317411516
527117500000,-2.2242240567859275
527120000000,-2.2728966369958754
527122500000,-2.3101467636566397
527125000000,-2.3765374013136626
527127500000,-2.440095816856394
527130000000,-2.5387984108379325
527132500000,-2.6415834559853124
527135000000,-2.7535028852781336
527137500000,-2.8309514242363569
527140000000,-2.8476763191079888
527142500000,-2.864450230685057
527145000000,-2.9250413090925722
527147500000,-3.0572966323342676
527150000000,-3.2219105387891638
527152500000,-3.4092470806470998
527155000000,-3.5914464097312941
527157500000,-3.8219246741908828
527160000000,-4.092055454278694
527162500000,-4.3492542836045267
527165000000,-4.6159855500497518
527167500000,-4.9008076736714097
527170000000,-5.2857446334490277
527172500000,-5.7397022921797483
527175000000,-6.267028408781905
527177500000,-6.9039541530322639
527180000000,-7.5870357727366233
527182500000,-8.4154675916984516
527185000000,-9.4056102404762552
527187500000,-10.454590423415709
527190000000,-11.435965492224256
527192500000,-12.055690216388314
527195000000,-11.44266172264366
527197500000,-9.3832828255674823
527200000000,-7.4712703482075815
527202500000,-5.8440567054893648
527205000000,-4.5697265589838221
527207500000,-3.600552004844928
527210000000,-2.8650174614801305
527212500000,-2.3009965324264616
527215000000,-1.8618232472128471
527217500000,-1.5141208880382735
527220000000,-1.2343112337298769
527222500000,-1.0056744808146068
527225000000,-0.81622582899911578
527227500000,-0.65725381547388706
527230000000,-0.52231966336963709
527232500000,-0.40661484809748183
527235000000,-0.30647160244750604
527237500000,-0.2190762374435771
527240000000,-0.14222167378120817
527242500000,-0.074178789939821993
527245000000,-0.013554056546455868
527247500000,0.040764922358377552
527250000000,0.089689524337981358
527252500000,0.13396484332715625
527255000000,0.17420969331693625
527257500000,0.21093797662425703
527260000000,0.24458362060415176
527262500000,0.27550978298836187
527265000000,0.30403140506914361
527267500000,0.33040767300749491
527270000000,0.35487348356796844
527272500000,0.37762197216607124
527275000000,0.39882651092696725
527277500000,0.41863564133150039
527280000000,0.43718013615815804
527282500000,0.45457328592922341
527285000000,0.47092020701098242
527287500000,0.48630693787609958
527290000000,0.50081484685264821
527292500000,0.5145167992024694
527295000000,0.52747398609291241
527297500000,0.53974465547508088
527300000000,0.55137750014254461
527302500000,0.56242189823452227
527305000000,0.57291656419160852
527307500000,0.58290481211876355
527310000000,0.59241758396876576
527312500000,0.60148209036984135
527315000000,0.61013571435736735
527317500000,0.61839690510763468
527320000000,0.62629291396658848
527322500000,0.63384418979199231
527325000000,0.64107511850989018
527327500000,0.64799902929255471
527330000000,0.65463600821564927
527332500000,0.66100181710705253
527335000000,0.66710993188978907
527337500000,0.67297604857777249
527340000000,0.67861525979089998
527342500000,0.68403428157178314
527345000000,0.68924486917450634
527347500000,0.6942599785888901
527350000000,0.69908121047307314
527352500000,0.70373923452008957
527355000000,0.70822152966433838
527357500000,0.71254271273576564
527360000000,0.71671146309585199
527362500000,0.72073272321461279
527365000000,0.72461713339709244
527367500000,0.72837246613570161
527370000000,0.73199127300049915
527372500000,0.73550249885565144
527375000000,0.73888737455008069
527377500000,0.74217273067727751
527380000000,0.7453479271765826
527382500000,0.74843398947217388
527385000000,0.75141835116211131
527387500000,0.75431536381458952
527390000000,0.75712923423578216
527392500000,0.75986634047675372
527395000000,0.76252731885423664
527397500000,0.76511988510008355
527400000000,0.7676465134049395
527402500000,0.7701148544251496
527405000000,0.77252247788955586
527407500000,0.77488894516489448
527410000000,0.77719362874150011
527412500000,0.77946551838515554
527415000000,0.78170373567325158
527417500000,0.78390526551029815
527420000000,0.78608222349289869
527422500000,0.78824731653091518
527425000000,0.79039095113843449
527427500000,0.79253835153748042
527430000000,0.79469095682261781
527432500000,0.79685369342900481
527435000000,0.79904069647309506
527437500000,0.80127070143446555
527440000000,0.80355961852730795
527442500000,0.80592378974355139
527445000000,0.808388502314209
527447500000,0.81098128821523052
527450000000,0.81375011714250267
527452500000,0.81676093829751295
527455000000,0.82007451271135945
527457500000,0.82382999640560528
527460000000,0.82820758336021694
527462500000,0.83351991077769083
527465000000,0.8403116285701272
527467500000,0.84974518362004903
527470000000,0.86461411829059487
527472500000,0.89419405214656145
527475000000,0.99466319896473387
527477500000,1.3873146297903529
527480000000,1.5082371020358343
527482500000,1.6120735283212713
527485000000,1.5704058212856304
527487500000,1.6040929513945397
527490000000,2.1921498344200239
527492500000,1.7149210167421491
527495000000,1.9024165776271682
527497500000,1.880033733389799
527500000000,2.0342611419989138
527502500000,1.8878056672749028
527505000000,2.6682175347563066
527507500000,2.2127822376607145
527510000000,2.4800073291791627
527512500000,2.1500238680666031
527515000000,2.1753217511106446
527517500000,1.6176301792281844
527520000000,1.7921806728814942
527522500000,2.4472022018668862
527525000000,2.0314086013611981
527527500000,1.9961675643394379
527530000000,1.806663453981143
527532500000,2.2301370184145717
527535000000,1.8415760209067498
527537500000,2.0386834079353457
527540000000,1.7899285010122186
527542500000,1.8819624384882359
527545000000,1.960576593796983
527547500000,2.0854708892440788
527550000000,1.6021547351897514
527552500000,2.0000091381629233
527555000000,2.0538347954804297
527557500000,1.917804918424252
527560000000,2.2898328656658538
527562500000,2.2257265199695784
527565000000,1.7960363333439571
527567500000,2.1020700081238628
527570000000,1.8008042774146866
527572500000,2.1197006277427386
527575000000,2.259069245254123
527577500000,2.4631644155198367
527580000000,2.3451450601139916
527582500000,2.0870165790516491
527585000000,1.8759647350077207
527587500000,1.9265961899884663
527590000000,2.4876214628424234
527592500000,2.7160222630403235
527595000000,2.4832160165950641
527597500000,2.3337592676022005
527600000000,2.184033083297404
527602500000,2.8006928346535029
527605000000,2.9114962578228578
527607500000,2.8597875511745077
527610000000,2.8589108626509301
527612500000,3.0796912785322301
527615000000,3.1214659784969929
527617500000,3.2561877338156058
527620000000,4.1265293089147477
527622500000,3.9679847126691898
527625000000,4.4594043050139573
527627500000,5.1989429964133507
527630000000,6.3180061340626343
527632500000,7.6278253907138929
527635000000,12.459666543854874
527637500000,8.5968751497090921
527640000000,2.6720853818528845
527642500000,1.5975903789457502
527645000000,1.2555484170317084
527647500000,1.1025328748452885
527650000000,1.0195557307171814
527652500000,0.96837658589979292
527655000000,0.9335265756480069
527657500000,0.90769202266760052
527660000000,0.88698930297764889
527662500000,0.86914315509344198
527665000000,0.85269708510964548
527667500000,0.83662627540419898
527670000000,0.82013282640175411
527672500000,0.80252350763848668
527675000000,0.78313877812275945
527677500000,0.76127959834195169
527680000000,0.73616651832749325
527682500000,0.70686815809445913
527685000000,0.67223207580624078
527687500000,0.63078355058784275
527690000000,0.58058772089987332
527692500000,0.51902915691856133
527695000000,0.44249986333210106
527697500000,0.34588904628777478
527700000000,0.22180053388521304
527702500000,0.059330127995601445
527705000000,-0.1577371689821791
527707500000,-0.45306908996836603
527710000000,-0.85833425879299541
527712500000,-1.4057902625981695
527715000000,-2.1050690443530438
527717500000,-2.9358160070275163
527720000000,-3.7364324656400392
527722500000,-4.4127665122197648
527725000000,-4.9993155832291896
527727500000,-5.6099685291801142
527730000000,-6.1925611757340597
527732500000,-6.7111572925650353
527735000000,-7.3484233490570219
527737500000,-7.8583495178648217
527740000000,-8.5866312474249664
527742500000,-9.076070845221043
527745000000,-9.5398788308777966
527747500000,-9.3970463740477612
527750000000,-9.0203536490277827
527752500000,-8.7220423543312258
527755000000,-8.5320828849545034
527757500000,-8.4924998416533395
527760000000,-8.5671347762223196
527762500000,-8.6533813960736641
527765000000,-8.4041658460062276
527767500000,-8.2326059821125899
527770000000,-8.1267819553968987
527772500000,-8.109388518504554
527775000000,-8.1002152640298117
527777500000,-8.1955496964486692
527780000000,-8.3021696739949995
527782500000,-8.4285136624332431
527785000000,-8.5304030904261694
527787500000,-8.5155829295536343
527790000000,-8.4544392453609447
527792500000,-8.4848513172972133
527795000000,-8.5485062842332233
527797500000,-8.6330554245896707
527800000000,-8.7334780775708829
527802500000,-8.8971343220820991
527805000000,-9.0700387065811157
527807500000,-9.2865924217848512
527810000000,-9.5269276357810764
527812500000,-9.7981794271965672
527815000000,-10.091753630380284
527817500000,-10.328647543903154
527820000000,-10.510821217267278
527822500000,-10.659850692850425
527825000000,-10.808294626735146
527827500000,-11.09882370372798
527830000000,-11.528230356385887
527832500000,-12.052530023538319
527835000000,-12.608039026132667
527837500000,-13.247119968086222
527840000000,-13.953466709120377
527842500000,-14.741630602203461
527845000000,-15.524994601482323
527847500000,-16.375473754164432
527850000000,-17.427863817812284
527852500000,-18.621868881840534
527855000000,-20.074631850603694
527857500000,-21.745223270321702
527860000000,-23.596346234434151
527862500000,-25.644512509483118
527865000000,-28.048815963400038
527867500000,-30.684617829400342
527870000000,-33.081088480140245
527872500000,-34.912348381692162
527875000000,-35.040001123222282
527877500000,-30.873010378223846
527880000000,-25.994972621211865
527882500000,-21.469829492506843
527885000000,-17.654603458472906
527887500000,-14.594563822890333
527890000000,-12.186417253752577
527892500000,-10.294579797198702
527895000000,-8.7978421063735315
527897500000,-7.6002683130797735
527900000000,-6.6300752479905958
527902500000,-5.8338698724831799
527905000000,-5.1725082836929763
527907500000,-4.6166178948077183
527910000000,-4.1445974852572691
527912500000,-3.7396988580883024
527915000000,-3.3894044228538935
527917500000,-3.0838315252561506
527920000000,-2.8153386455623322
527922500000,-2.5777915194594478
527925000000,-2.3663636881497592
527927500000,-2.1770743803158745
527930000000,-2.0067930811082473
527932500000,-1.8527401486308466
527935000000,-1.7129230709356167
527937500000,-1.5853596432713795
527940000000,-1.468627139733391
527942500000,-1.3614218027642526
527945000000,-1.2625964618338008
527947500000,-1.1712528537807825
527950000000,-1.08660285412986
527952500000,-1.0078980390532639
527955000000,-0.93459793675765945
527957500000,-0.86611392941089127
527960000000,-0.80199357772149837
527962500000,-0.74185337986718392
527965000000,-0.68534801724622019
527967500000,-0.63215464621830653
527970000000,-0.58197213940405923
527972500000,-0.53462769690680056
527975000000,-0.48970895380324392
527977500000,-0.44714567157887053
527980000000,-0.40684016562106828
527982500000,-0.36842248297709046
527985000000,-0.33192740791860736
527987500000,-0.29715083357740968
527990000000,-0.26397898533355502
527992500000,-0.23226055122573844
527995000000,-0.20198197868146883
527997500000,-0.17296601030141823
528000000000,-0.1451662402527831
528002500000,-0.11853281009326881
528005000000,-0.092955269686637976
528007500000,-0.068236427554675419
528010000000,-0.044526332977954879
528012500000,-0.021749138445222534
528015000000,0.00025400930228393646
528017500000,0.021315039722036185
528020000000,0.042031019740734053
528022500000,0.061899062133150946
528025000000,0.081091792897916251
528027500000,0.099687643393862713
528030000000,0.11771765387799875
528032500000,0.1352237562939563
528035000000,0.15223645680299314
528037500000,0.16879263373544179
528040000000,0.18491836751717566
528042500000,0.20065003128973502
528045000000,0.21601288549898315
528047500000,0.23104188790936694
528050000000,0.24576470493290078
528052500000,0.26020964798570484
528055000000,0.27441112945000401
528057500000,0.2883988215102874
528060000000,0.30220489756530378
528062500000,0.31586386683867107
528065000000,0.32941229026271207
528067500000,0.34288935609470433
528070000000,0.35633904456357046
528072500000,0.36980855602260648
528075000000,0.38335041318628121
528077500000,0.39702185638515758
528080000000,0.41089675989102503
528082500000,0.42505291080816449
528085000000,0.43958778589669523
528087500000,0.45461502219784772
528090000000,0.47027237457766813
528092500000,0.48673796950866732
528095000000,0.50422530762947437
528097500000,0.52302001475870374
528100000000,0.54349261450119868
528102500000,0.56613729416174563
528105000000,0.59164579892765379
528107500000,0.62100685186271132
528110000000,0.65568833800133663
528112500000,0.69799536804667295
528115000000,0.75176005525853873
528117500000,0.8239133815647981
528120000000,0.92844258225714671
528122500000,1.0984935954906534
528125000000,1.4343465950434151
528127500000,2.3657426868843139
528130000000,4.7661492377539521
528132500000,6.3105856629740673
528135000000,7.2343247658257512
528137500000,7.1709299431510134
528140000000,7.2410224163607539
528142500000,10.612218928907636
528145000000,8.712663241158273
528147500000,9.5957330506781915
528150000000,10.239370947451995
528152500000,10.904470512059735
528155000000,11.074850942161088
528157500000,14.499774325147182
528160000000,12.931110003237601
528162500000,13.144662286745776
528165000000,11.452766092070529
528167500000,11.693049800094407
528170000000,8.2139306231712759
528172500000,9.5343444281473957
528175000000,12.377073532513037
528177500000,11.244042060607322
528180000000,10.322121709856388
528182500000,9.4031157059327253
528185000000,11.316068338262619
528187500000,10.153720893784842
528190000000,10.106586501330648
528192500000,9.4804898581894133
528195000000,9.5690590976288714
528197500000,10.179296615697469
528200000000,10.484693936568778
528202500000,8.4971343073916437
528205000000,9.8030738849468495
528207500000,10.429933665084794
528210000000,10.245887485245595
528212500000,11.932285503855047
528215000000,11.88785532053133
528217500000,10.02222368593997
528220000000,10.635779527832616
528222500000,9.6658594359627266
528225000000,10.843941251182518
528227500000,12.086947969627566
528230000000,13.422881225291846
528232500000,13.008019112489468
528235000000,11.427634323698317
528237500000,10.113900725637889
528240000000,10.30389724147247
528242500000,13.333560224847554
528245000000,15.096777519341847
528247500000,14.659129444128517
528250000000,13.389582161806196
528252500000,13.316159549348102
528255000000,16.108136448191541
528257500000,17.494504383618438
528260000000,17.334594644884035
528262500000,18.283242094778522
528265000000,19.674830741689743
528267500000,20.179964633598011
528270000000,21.960697862350059
528272500000,26.84459274238743
528275000000,27.613505763849684
528277500000,31.305013012797712
528280000000,37.95389203463332
528282500000,46.164369682592955
528285000000,57.178791692761443
528287500000,82.106012076340022
528290000000,65.039682802325643
528292500000,25.344229438369581
528295000000,12.186071670123653
528297500000,7.2843101195044104
528300000000,4.967175098907882
528302500000,3.6808100300697424
528305000000,2.8847169137698425
528307500000,2.3521304552341986
528310000000,1.9741454201431137
528312500000,1.6929432284277166
528315000000,1.475417588335131
528317500000,1.3014033885644354
528320000000,1.15799858319411
528322500000,1.036551679175536
528325000000,0.93114407515483633
528327500000,0.83752605844990091
528330000000,0.75257596673090255
528332500000,0.6739298147066527
528335000000,0.5997118152901304
528337500000,0.52839596609567385
528340000000,0.45866493868400177
528342500000,0.38935240555160233
528345000000,0.31935665382793504
528347500000,0.24764009166737844
528350000000,0.1731352241991794
528352500000,0.094705958982126623
528355000000,0.011116556011564751
528357500000,-0.079024387146294964
528360000000,-0.17730264969000273
528362500000,-0.28560542854462906
528365000000,-0.40625550170793895
528367500000,-0.54224145638387156
528370000000,-0.69749233408974254
528372500000,-0.87728551643895925
528375000000,-1.0887917292590619
528377500000,-1.3420618170418654
528380000000,-1.6517174467164106
528382500000,-2.0398239121232264
528385000000,-2.5410283609052473
528387500000,-3.2123221653747143
528390000000,-4.1515510956589559
528392500000,-5.5295943574452791
528395000000,-7.6201590444488092
528397500000,-10.683597322697754
528400000000,-14.584621266662328
528402500000,-18.254361568725301
528405000000,-21.002129813873658
528407500000,-22.722795859332194
528410000000,-24.922142283315011
528412500000,-27.468868626676638
528415000000,-28.501846351388021
528417500000,-31.050424428883655
528420000000,-32.645161522566042
528422500000,-35.613811220020139
528425000000,-37.632673279508353
528427500000,-40.655228252933483
528430000000,-39.90883588984115
528432500000,-37.327542343309766
528435000000,-35.378487604397975
528437500000,-34.186706704987351
528440000000,-33.173452320233686
528442500000,-33.951697978632694
528445000000,-35.284970988982046
528447500000,-34.270151489364366
528450000000,-33.16977298016387
528452500000,-32.547560215049771
528455000000,-32.563833102599894
528457500000,-32.3275261921384
528460000000,-32.42280615496594
528462500000,-32.68425033763819
528465000000,-32.957022049372164
528467500000,-33.616704787654811
528470000000,-33.413514564699433
528472500000,-32.823525767594191
528475000000,-33.2900462421903
528477500000,-33.94628362421836
528480000000,-34.277993824894345
528482500000,-34.770286050817518
528485000000,-35.24945884251003
528487500000,-35.492603012496573
528490000000,-35.917804576283025
528492500000,-36.769071737159919
528495000000,-37.992910481678202
528497500000,-39.558511692744922
528500000000,-40.639342818127794
528502500000,-40.933124949756781
528505000000,-40.644821050098315
528507500000,-40.41476107095761
528510000000,-41.531605396041016
528512500000,-43.794353779653413
528515000000,-45.907510533632639
528517500000,-47.880392616424636
528520000000,-49.591604371684568
528522500000,-52.316790678473957
528525000000,-55.652514638253429
528527500000,-58.612413023438741
528530000000,-61.138757666118345
528532500000,-64.666187789328987
528535000000,-69.115954930854542
528537500000,-74.543855171989293
528540000000,-81.272952336587082
528542500000,-88.941099630490953
528545000000,-97.122967513139358
528547500000,-107.87197508372974
528550000000,-121.65126248442989
528552500000,-135.652745568581
528555000000,-149.86300302129033
528557500000,-155.38543335339028
528560000000,-128.72932146384349
528562500000,-94.016313039974889
528565000000,-67.304688148736162
528567500000,-48.887651458804626
528570000000,-36.529006935178437
528572500000,-28.114713822801587
528575000000,-22.220704564545983
528577500000,-17.963200588993629
528580000000,-14.798147126314797
528582500000,-12.383971461109972
528585000000,-10.50102358931265
528587500000,-9.0034084234058955
528590000000,-7.7920962211396771
528592500000,-6.7972636840385343
528595000000,-5.9700609334249464
528597500000,-5.2737774863146027
528600000000,-4.6822122590015338
528602500000,-4.1743677366864338
528605000000,-3.7353806564401357
528607500000,-3.3527205966274609
528610000000,-3.0171950391917739
528612500000,-2.7210205197071793
528615000000,-2.4583060636562988
528617500000,-2.2238998116784594
528620000000,-2.0137534738581047
528622500000,-1.8247057408243819
528625000000,-1.6539297114641021
528627500000,-1.4988297348676389
528630000000,-1.357841141090065
528632500000,-1.2290744216141689
528635000000,-1.1111248328823566
528637500000,-1.0027860112984655
528640000000,-0.9031066421580668
528642500000,-0.81101098216762058
528645000000,-0.7258460959450449
528647500000,-0.6469661719562767
528650000000,-0.57388137765644065
528652500000,-0.50506697571645653
528655000000,-0.44151433023377007
528657500000,-0.38169048011197654
528660000000,-0.32603022179811925
528662500000,-0.27362811528605213
528665000000,-0.2245799889575702
528667500000,-0.17844973159922717
528670000000,-0.13488205873752362
528672500000,-0.093804317217708599
528675000000,-0.055095861811337472
528677500000,-0.018514972860639703
528680000000,0.01595094968891099
528682500000,0.048898845619969614
528685000000,0.080085991376884338
528687500000,0.10950658698118189
528690000000,0.13785687254688117
528692500000,0.16402877929783541
528695000000,0.19062535091908026
528697500000,0.21511834886825842
528700000000,0.2384020678012703
528702500000,0.26064208058882304
528705000000,0.28190290409446561
528707500000,0.30225512426760931
528710000000,0.3217486706576233
528712500000,0.34043704961969357
528715000000,0.35837007265366266
528717500000,0.3755907268488175
528720000000,0.39214171696847244
528722500000,0.40806152451363803
528725000000,0.42338545472392602
528727500000,0.43815146770539642
528730000000,0.45238449001457842
528732500000,0.46612288076207342
528735000000,0.47939218102678538
528737500000,0.49221601214013988
528740000000,0.50462683020399968
528742500000,0.5166455570658891
528745000000,0.52830150502972395
528747500000,0.53961486648237256
528750000000,0.55060703409440137
528752500000,0.5612989866522029
528755000000,0.5717202651421226
528757500000,0.58189069412715189
528760000000,0.59183383053352034
528762500000,0.60158044845765757
528765000000,0.61115627480594281
528767500000,0.62059300440867249
528770000000,0.62993286825835215
528772500000,0.63922065374742987
528775000000,0.64851355978576675
528777500000,0.65789101188499211
528780000000,0.667461327555951
528782500000,0.6773866679397097
528785000000,0.68790016391438158
528787500000,0.69945249021991096
528790000000,0.71281511443746781
528792500000,0.7297472358331667
528795000000,0.75496435680309515
528797500000,0.80793206316279675
528800000000,1.1560757625170452
528802500000,2.4930609792955774
528805000000,2.9915072951640513
528807500000,1.8232180010933916
528810000000,1.5455196943522558
528812500000,3.2289253283764383
528815000000,3.9497071234706325
528817500000,2.6372166837306552
528820000000,3.3588104128249632
528822500000,3.1340290595010227
528825000000,3.5282843974607925
528827500000,2.9950229147995118
528830000000,4.5680431902999405
528832500000,3.1876310797842673
528835000000,3.5331983173296453
528837500000,4.4705326968737387
528840000000,2.3280348729300391
528842500000,2.3688884667684422
528845000000,2.6984459173030513
528847500000,4.4428740453243263
528850000000,3.9302822965639663
528852500000,2.8370649930594078
528855000000,3.1525886338593359
528857500000,4.8341222813780726
528860000000,2.2213575954399207
528862500000,3.651796824168438
528865000000,2.5981684719916065
528867500000,4.0525734727410168
528870000000,3.097257049108133
528872500000,3.2398883120491617
528875000000,2.0335680248122463
528877500000,2.8468601049613493
528880000000,2.9875592756718787
528882500000,3.7079247908064059
528885000000,4.4203254887295129
528887500000,3.80547429350122
528890000000,3.1123189232902089
528892500000,3.7169440353822112
528895000000,2.6766580209566171
528897500000,3.3491761537578024
528900000000,4.1848849447339642
528902500000,3.9289524531695506
528905000000,3.0793102433797266
528907500000,3.7082540393589998
528910000000,2.6063317726458632
528912500000,2.9302840428765311
528915000000,4.5263705018876115
528917500000,5.809405938703331
528920000000,3.7615346795535776
528922500000,4.640482385475833
528925000000,3.310090802739976
528927500000,5.4745596300347676
528930000000,4.6130203376351862
528932500000,5.3911220126847557
528935000000,7.2171699608407618
528937500000,5.2726293503302806
528940000000,5.6961605053509903
528942500000,7.7975275370342905
528945000000,8.2535333724569444
528947500000,7.9458140226932059
528950000000,9.3982976992631819
528952500000,12.001567930720286
528955000000,13.508836200779472
528957500000,18.227268191348823
528960000000,35.486182262099241
528962500000,8.4798156211682212
528965000000,2.6076263947771152
528967500000,1.6903003884312637
528970000000,1.3723809880987452
528972500000,1.2228865129437194
528975000000,1.1402208999712868
528977500000,1.0896984120888642
528980000000,1.0566758328020855
528982500000,1.0340464663425823
528985000000,1.017995683046105
528987500000,1.0063210181215374
528990000000,0.9976709947558956
528992500000,0.99117819254669659
528995000000,0.98626136057542768
528997500000,0.98252003602867666
529000000000,0.97967059897243036
529002500000,0.97750448701067949
529005000000,0.97586676550893514
529007500000,0.97463955248282386
529010000000,0.97373217774176202
529012500000,0.97307128714138391
529015000000,0.97259701925196862
529017500000,0.97225888532148863
529020000000,0.97201632512547942
529022500000,0.97183089384123689
529025000000,0.97166713861877707
529027500000,0.97149156947413329
529030000000,0.97127001498067289
529032500000,0.97096601863827237
529035000000,0.97053706562311171
529037500000,0.96993545185426777
529040000000,0.96910060638584972
529042500000,0.96795195224442698
529045000000,0.96637506587131994
529047500000,0.96420503330132656
529050000000,0.96118010202874937
529052500000,0.95685601208280702
529055000000,0.95039763244540654
529057500000,0.93999369566167501
529060000000,0.92080149993977456
529062500000,0.87369933026003088
529065000000,0.58331818528655288
529067500000,-0.86955325432540731
529070000000,-1.2791391566417292
529072500000,-0.26923701348545603
529075000000,-0.015026205429110597
529077500000,-1.3443257909738355
529080000000,-2.5297797766696113
529082500000,-1.1462308205993379
529085000000,-1.6316986178622181
529087500000,-1.2930239847830867
529090000000,-1.7368818316549588
529092500000,-1.1976860573514587
529095000000,-3.69320163483733
529097500000,-2.0040199623810948
529100000000,-2.2569433169490627
529102500000,-3.0441180910426837
529105000000,-1.1301693107055069
529107500000,-0.8715353228138556
529110000000,-1.0040685195135934
529112500000,-3.4013054282717525
529115000000,-2.3714524811947681
529117500000,-1.6699593203740617
529120000000,-1.5039149335050066
529122500000,-3.2435831913743098
529125000000,-0.65635122228281106
529127500000,-2.1962699242480488
529130000000,-1.0075927231480104
529132500000,-2.2642200404436186
529135000000,-1.5377692112911052
529137500000,-1.915774667387077
529140000000,-0.30728770621064344
529142500000,-1.5140398422313412
529145000000,-1.6894635278897565
529147500000,-1.852959149709664
