{
  "spinsys": {
    "euler": {
      "alpha": 0,
      "beta": 0,
      "gamma": 0
    },
    "interactions": [
      {
        "name": "shielding",
        "id": 0,
        "entries": {
          "x": 2.0094,
          "y": 2.007,
          "z": 2.0024,
          "id": 0,
          "euler": {
            "alpha": 0,
            "beta": 0,
            "gamma": 0
          }
        }
      },
      {
        "name": "dipole",
        "id": 1,
        "entries": {
          "id1": 0,
          "id2": 1
        }
      },
      {
        "name": "csa",
        "id": 2,
        "entries": {
          "x": 0,
          "y": 0,
          "z": 0,
          "id": 3,
          "euler": {
            "alpha": 0,
            "beta": 0,
            "gamma": 0
          }
        }
      },
      {
        "name": "hyperfine",
        "id": 3,
        "entries": {
          "id1": 0,
          "id2": 3
        }
      },
      {
        "name": "shielding",
        "id": 4,
        "entries": {
          "x": 2.0094,
          "y": 2.007,
          "z": 2.0024,
          "id": 1,
          "euler": {
            "alpha": -1.228711793404008,
            "beta": 1.3910274138394807,
            "gamma": -1.111774733520388
          }
        }
      }
    ],
    "spins": {
      "0": {
        "type": "e",
        "x": 0,
        "y": 0,
        "z": 0,
        "t1": 0.0006,
        "t2": 3e-06
      },
      "1": {
        "type": "e",
        "x": 6.763,
        "y": 1.193,
        "z": 3.015,
        "t1": 0.0006,
        "t2": 3e-06
      },
      "3": {
        "type": "H1",
        "x": -2.36,
        "y": 0,
        "z": 0,
        "t1": 0.1,
        "t2": 0.005
      }
    },
    "irradiation": [
      "e"
    ]
  },
  "pulseseq": {
    "name": "CW",
    "increment": 1e-09,
    "components": {
      "emr1": {
        "e": {
          "frequency": 350000,
          "phase": 0,
          "offset": 0
        }
      }
    },
    "sections": {
      "cw": {
        "type": "Pulse",
        "size": 3000000000,
        "names": [
          "emr1"
        ],
        "params": {}
      }
    },
    "sequence": [
      "cw"
    ]
  },
  "settings": {
    "euler": {
      "alpha": 0,
      "beta": 0,
      "gamma": 0
    },
    "ncores": 1,
    "acq": "H1",
    "Magnet": {
      "b0": 9.415000000000022
    },
    "Gyrotron": {
      "em_frequency": 263730000000.00003
    },
    "Probe": {
      "mas_frequency": 8000,
      "temperature": 80,
      "mas_increment": 4e-08
    },
    "task": "PowderIntensity",
    "euler_scheme": {
      "zcw": 1,
      "sphere": 0,
      "gamma_cnt": 12
    },
    "field range": {
      "begin": 9.37,
      "end": 9.421,
      "step": 0.00125
    }
  }
}