# Field Profile:
0.34300000000000003,0.23846469614004409
0.34310000000000002,-0.25637706305193103
0.34320000000000001,0.49792264541854248
0.34329999999999999,0.10565325809122163
0.34339999999999998,0.86121484948631477
0.34349999999999997,0.58102452454820208
0.34359999999999996,1.2087872247072986
0.34369999999999995,0.98790112467730984
0.34379999999999994,1.3862208603555122
0.34389999999999993,1.1035113554897515
0.34399999999999992,1.2386350666899926
0.34409999999999991,0.72204549287531061
0.34419999999999989,0.6529442828739026
0.34429999999999988,-0.29556221856978715
0.34439999999999987,-0.40362961882419363
0.34449999999999986,-1.9624815925182517
0.34459999999999985,-1.847487597836853
0.34469999999999984,-4.1308432306762146
0.34479999999999983,-3.4680762192823797
0.34489999999999982,-6.5140884245775075
0.34499999999999981,-4.953360748315192
0.3450999999999998,-8.6985485940430856
0.34519999999999978,-5.9296485478961269
0.34529999999999977,-10.230894571461453
0.34539999999999976,-6.0627752429983559
0.34549999999999975,-10.714133802015144
0.34559999999999974,-5.2001285620033268
0.34569999999999973,-9.9377553660094673
0.34579999999999972,-3.806140105590432
0.34589999999999971,-8.0290398455202041
0.3459999999999997,-4.0041372180268624
0.34609999999999969,-6.6537539043422695
0.34619999999999967,-12.600523297429364
0.34629999999999966,-21.735496231752496
0.34639999999999965,-38.457049442100207
0.34649999999999964,-146.24858828806546
0.34659999999999963,-290.28294236384056
0.34669999999999962,-357.97141854829698
0.34679999999999961,-377.23961899301918
0.3468999999999996,-371.37528661097713
0.34699999999999959,-343.3000409727328
0.34709999999999958,-276.73576070884451
0.34719999999999956,-161.1680339410369
0.34729999999999955,-41.124189998952495
0.34739999999999954,2.7847609978848635
0.34749999999999953,27.354558511961411
0.34759999999999952,21.188971043885129
0.34769999999999951,31.755876342086207
0.3477999999999995,27.351225427543824
0.34789999999999949,24.759382819492636
0.34799999999999948,25.427553922776738
0.34809999999999947,18.289894106950964
0.34819999999999945,20.207726631066322
0.34829999999999944,12.943664678303319
0.34839999999999943,14.401719092012431
0.34849999999999942,8.5362354054246925
0.34859999999999941,9.2930012469759671
0.3486999999999994,5.1147116614853925
0.34879999999999939,5.3915671539129617
0.34889999999999938,2.7312236479887999
0.34899999999999937,2.8322315002333136
0.34909999999999936,1.3487086358343885
0.34919999999999934,1.5086318664120466
0.34929999999999933,0.81359883733478977
0.34939999999999932,1.1487503410052302
0.34949999999999931,0.88537044437822643
0.3495999999999993,1.4129795108565242
0.34969999999999929,1.2911455442978315
0.34979999999999928,1.9524719842046701
0.34989999999999927,1.7767437152632912
0.34999999999999926,2.4748366054774422
