# Field Profile:
0.34300000000000003,0.77494049304878532
0.34310000000000002,0.6282811340653236
0.34320000000000001,0.85167733110538668
0.34329999999999999,0.73531429282167582
0.34339999999999998,0.95911289015037315
0.34349999999999997,0.87589112501176969
0.34359999999999996,1.0619036489115155
0.34369999999999995,0.99622465907492319
0.34379999999999994,1.1143463619265948
0.34389999999999993,1.0304874395816377
0.34399999999999992,1.0707143187133852
0.34409999999999991,0.91775397399491621
0.34419999999999989,0.89745934283677486
0.34429999999999988,0.6166667144640724
0.34439999999999987,0.58478093602428538
0.34449999999999986,0.12270051946213492
0.34459999999999985,0.15694354316599152
0.34469999999999984,-0.52143206764702232
0.34479999999999983,-0.32432094470510103
0.34489999999999982,-1.2319494811861207
0.34499999999999981,-0.7670589057940409
0.3450999999999998,-1.8865238641777586
0.34519999999999978,-1.0605458184632142
0.34529999999999977,-2.3508022052060173
0.34539999999999976,-1.1045317707923787
0.34549999999999975,-2.5031346575501194
0.34559999999999974,-0.85298486240755056
0.34569999999999973,-2.2808186761820437
0.34579999999999972,-0.44280957645055302
0.34589999999999971,-1.7176040024962429
0.3459999999999997,-0.51516181876286837
0.34609999999999969,-1.3227922983393403
0.34619999999999967,-3.2008930079083773
0.34629999999999966,-6.1763922689800497
0.34639999999999965,-11.917233217437683
0.34649999999999964,-57.787554171027082
0.34659999999999963,-155.11816849704505
0.34669999999999962,-226.39918865955417
0.34679999999999961,-250.91841346329659
0.3468999999999996,-248.48472297348292
0.34699999999999959,-227.47510349034042
0.34709999999999958,-173.17867823446485
0.34719999999999956,-84.100952830670963
0.34729999999999955,-15.340993969275951
0.34739999999999954,1.5858277741174902
0.34749999999999953,9.6877307108718931
0.34759999999999952,7.3127555975593141
0.34769999999999951,10.545717913494469
0.3477999999999995,9.0891351594103593
0.34789999999999949,8.2049341522060679
0.34799999999999948,8.3994858107476702
0.34809999999999947,6.1859953871549402
0.34819999999999945,6.7670747482892484
0.34829999999999944,4.5591025579520075
0.34839999999999943,4.9983398852268772
0.34849999999999942,3.2366378547277832
0.34859999999999941,3.4633613690415181
0.3486999999999994,2.2179605885451754
0.34879999999999939,2.3007003449272427
0.34889999999999938,1.5116503633117755
0.34899999999999937,1.5416000082238355
0.34909999999999936,1.1030629651204114
0.34919999999999934,1.150080686882641
0.34929999999999933,0.94516811210580831
0.34939999999999932,1.0436826306879941
0.34949999999999931,0.96637565246200186
0.3495999999999993,1.1215342899388252
0.34969999999999929,1.0860050685222331
0.34979999999999928,1.2805278530788611
0.34989999999999927,1.2290788225507618
0.34999999999999926,1.4344712260074284
