# scan1d:
10,-61.882159034800758
20,-113.9752352276018
30,-157.34936999481951
40,-193.5175060263993
50,-223.70195176963992
60,-248.89977473343819
70,-269.95196955713533
80,-287.56006598279106
90,-302.30888231687561
100,-314.68855343610869
110,-325.09336895707742
120,-333.84237841049298
130,-341.20075430729963
140,-347.39038186223837
150,-352.60747886507158
160,-357.01296787639262
170,-360.73884813352902
180,-363.89247933150887
190,-366.56122709989239
200,-368.82059537966012
210,-370.73523674392487
220,-372.35997333501132
230,-373.74171082486299
240,-374.91805340628036
250,-375.91965370294679
260,-376.77237482748791
270,-377.49814828365612
280,-378.11702494896701
290,-378.64563362482124
300,-379.09779747153624
310,-379.48492159597942
320,-379.81610961063194
330,-380.09939613123663
340,-380.34180113872486
350,-380.5495086413855
360,-380.72791189479386
370,-380.88123905373789
380,-381.01290324873719
390,-381.1259413307352
