# scan1d:
2000,-18.133938734246367
4000,-35.043244094784669
6000,-51.197916394523034
8000,-66.627042853793995
10000,-81.233552123008963
12000,-95.061744885954468
14000,-108.22580483556987
16000,-120.66053012428857
18000,-132.35140412232491
20000,-143.57200064427158
22000,-154.3281699953956
24000,-164.67656286808599
26000,-174.42660590514228
28000,-183.71387882945768
30000,-192.60478779247057
32000,-201.10311335396361
34000,-209.20967022074785
36000,-216.89523938433769
38000,-224.1725682035048
40000,-231.06317318513055
42000,-237.54415308687922
44000,-243.83155753868266
46000,-249.63058215034579
48000,-255.26581957054898
50000,-260.51912474901604
52000,-265.58774469637206
54000,-270.39921619911775
56000,-274.93845319644629
58000,-279.31037220265671
60000,-283.5621332581423
62000,-287.58195323588842
64000,-291.3970532039603
66000,-294.94031488391414
68000,-298.34093224456842
70000,-301.40441024520499
72000,-304.34446318143404
74000,-307.1761249050947
76000,-309.72860073863046
78000,-312.25803322362879
80000,-314.60836659635856
82000,-316.81202670530081
84000,-318.95652037088502
86000,-320.94468794346136
88000,-322.81661740288666
90000,-324.55819676845465
92000,-326.16775983224738
94000,-327.69991544838803
96000,-329.16773458752436
98000,-330.52341386808752
100000,-331.81815765192891
102000,-333.01017728156853
104000,-334.10237420951506
106000,-335.13438053432299
108000,-336.03770412399786
110000,-336.91179805145146
112000,-337.69353523242387
114000,-338.43776955914302
116000,-339.14481160637109
118000,-339.76499072809071
120000,-340.36415690436678
122000,-340.88431623564207
124000,-341.33472899040856
126000,-341.76668159259032
128000,-342.12430085791925
130000,-342.42096774229907
132000,-342.70623153284197
134000,-342.91873747727459
136000,-343.12883316773059
138000,-343.29504668295976
140000,-343.42051065626544
142000,-343.51980198966487
144000,-343.5846029524663
146000,-343.62213605664385
148000,-343.62841274162076
150000,-343.59602051541015
152000,-343.56485215396629
154000,-343.49353020397285
156000,-343.40391836142004
158000,-343.30116041229479
160000,-343.15938838807938
162000,-343.00984076107795
164000,-342.82705860214173
166000,-342.6167834539462
168000,-342.40486219835998
170000,-342.17100801885289
172000,-341.92021492413966
174000,-341.66992624847347
176000,-341.39344421648326
178000,-341.10020639125133
180000,-340.79598323810205
182000,-340.48554508642474
184000,-340.16472996591301
186000,-339.83177582895263
188000,-339.49024085812908
190000,-339.13687913095191
192000,-338.77759156731616
194000,-338.4084036561037
196000,-338.02266129244492
198000,-337.63292377927849
200000,-337.23823789085009
202000,-336.83279961178209
204000,-336.42001540844291
206000,-336.00534751876035
208000,-335.58700094120894
210000,-335.15859500400438
212000,-334.72471371546169
214000,-334.29393592842956
216000,-333.85631460540571
218000,-333.41221955697557
220000,-332.96032397212497
222000,-332.50074340601975
224000,-332.04529137378938
226000,-331.58819875045509
228000,-331.12435947436728
230000,-330.66965777543419
232000,-330.20565383468585
234000,-329.7355273279104
236000,-329.26598875819059
238000,-328.79116192788723
240000,-328.31378419590249
242000,-327.8366275023526
244000,-327.36191194813676
246000,-326.88183669693632
248000,-326.39832125752412
250000,-325.92101439425568
252000,-325.436485690224
254000,-324.95283750142505
256000,-324.46942441787087
258000,-323.98108035186783
260000,-323.49814467744415
262000,-323.01434078251606
264000,-322.5274455015122
266000,-322.04398412254704
268000,-321.56043540876806
270000,-321.07691487915503
272000,-320.5914656177718
274000,-320.10451913842371
276000,-319.6182446833767
278000,-319.13531301845711
280000,-318.65150564382037
282000,-318.1694761907433
284000,-317.68768931196956
286000,-317.20414878020802
288000,-316.72199807697422
290000,-316.2393209539502
292000,-315.75734681746007
294000,-315.2792884590404
296000,-314.79839228433627
298000,-314.31859979908461
300000,-313.84099251797875
302000,-313.36576341727954
304000,-312.89003412232807
306000,-312.41462510760186
308000,-311.94175188465857
310000,-311.46948455158724
312000,-310.99506290699088
314000,-310.52518280728748
316000,-310.0538116657317
318000,-309.5830614040521
320000,-309.11725796797288
322000,-308.65315896972737
324000,-308.18847323174242
326000,-307.72528475140695
328000,-307.26102357458018
330000,-306.79899544194558
332000,-306.33846134199666
334000,-305.87841240049619
336000,-305.4188897112752
338000,-304.96131653185563
340000,-304.50601754868495
342000,-304.05120368413981
344000,-303.59741210739782
346000,-303.14558064175179
348000,-302.69581077183585
350000,-302.24657369935414
352000,-301.79775676557017
354000,-301.35196792258449
356000,-300.90593333696086
358000,-300.46161518393296
360000,-300.01809815408478
362000,-299.57578699797892
364000,-299.13575438340661
366000,-298.696529243893
368000,-298.25884745557067
370000,-297.82298384055787
372000,-297.38681591942316
374000,-296.95267709011461
376000,-296.52054680770362
378000,-296.08894394596837
380000,-295.65871217938917
382000,-295.23032019957458
384000,-294.8031416129952
386000,-294.37695431455228
388000,-293.95209075821276
390000,-293.5284086189094
392000,-293.10618427831929
394000,-292.68513115552889
396000,-292.2653403091814
398000,-291.84679008528366
