%!PS-Adobe-3.0
%%DocumentPaperSizes: letter
%%Pages: 1
%%Title: assets/MASNOVEL/eH_NOVEL_xband_loop60_static_vs_mas_zcw144_fp.ps
%%Creator: matplotlib version 3.2.2, http://matplotlib.org/
%%CreationDate: Thu Oct  8 21:39:35 2020
%%Orientation: portrait
%%BoundingBox: 18.0 180.0 594.0 612.0
%%EndComments
%%BeginProlog
/mpldict 8 dict def
mpldict begin
/m { moveto } bind def
/l { lineto } bind def
/r { rlineto } bind def
/c { curveto } bind def
/cl { closepath } bind def
/box {
m
1 index 0 r
0 exch r
neg 0 r
cl
} bind def
/clipbox {
box
clip
newpath
} bind def
%!PS-Adobe-3.0 Resource-Font
%%Title: DejaVu Sans
%%Copyright: Copyright (c) 2003 by Bitstream, Inc. All Rights Reserved. Copyright (c) 2006 by Tavmjong Bah. All Rights Reserved. DejaVu changes are in public domain 
%%Creator: Converted from TrueType to type 3 by PPR
25 dict begin
/_d{bind def}bind def
/_m{moveto}_d
/_l{lineto}_d
/_cl{closepath eofill}_d
/_c{curveto}_d
/_sc{7 -1 roll{setcachedevice}{pop pop pop pop pop pop}ifelse}_d
/_e{exec}_d
/FontName /DejaVuSans def
/PaintType 0 def
/FontMatrix[.001 0 0 .001 0 0]def
/FontBBox[-1021 -463 1793 1232]def
/FontType 3 def
/Encoding [ /space /parenleft /parenright /period /zero /one /two /three /four /five /six /seven /eight /nine /E /F /H /T /a /c /d /e /h /i /k /l /m /n /s /t /z /minus ] def
/FontInfo 10 dict dup begin
/FamilyName (DejaVu Sans) def
/FullName (DejaVu Sans) def
/Notice (Copyright (c) 2003 by Bitstream, Inc. All Rights Reserved. Copyright (c) 2006 by Tavmjong Bah. All Rights Reserved. DejaVu changes are in public domain ) def
/Weight (Book) def
/Version (Version 2.35) def
/ItalicAngle 0.0 def
/isFixedPitch false def
/UnderlinePosition -130 def
/UnderlineThickness 90 def
end readonly def
/CharStrings 33 dict dup begin
/.notdef 0 def
/space{318 0 0 0 0 0 _sc
}_d
/parenleft{390 0 86 -131 310 759 _sc
310 759 _m
266 683 234 609 213 536 _c
191 463 181 389 181 314 _c
181 238 191 164 213 91 _c
234 17 266 -56 310 -131 _c
232 -131 _l
183 -54 146 20 122 94 _c
98 168 86 241 86 314 _c
86 386 98 459 122 533 _c
146 607 182 682 232 759 _c
310 759 _l
_cl}_d
/parenright{390 0 80 -131 304 759 _sc
80 759 _m
158 759 _l
206 682 243 607 267 533 _c
291 459 304 386 304 314 _c
304 241 291 168 267 94 _c
243 20 206 -54 158 -131 _c
80 -131 _l
123 -56 155 17 177 91 _c
198 164 209 238 209 314 _c
209 389 198 463 177 536 _c
155 609 123 683 80 759 _c
_cl}_d
/period{318 0 107 0 210 124 _sc
107 124 _m
210 124 _l
210 0 _l
107 0 _l
107 124 _l
_cl}_d
/zero{636 0 66 -13 570 742 _sc
318 664 _m
267 664 229 639 203 589 _c
177 539 165 464 165 364 _c
165 264 177 189 203 139 _c
229 89 267 64 318 64 _c
369 64 407 89 433 139 _c
458 189 471 264 471 364 _c
471 464 458 539 433 589 _c
407 639 369 664 318 664 _c
318 742 _m
399 742 461 709 505 645 _c
548 580 570 486 570 364 _c
570 241 548 147 505 83 _c
461 19 399 -13 318 -13 _c
236 -13 173 19 130 83 _c
87 147 66 241 66 364 _c
66 486 87 580 130 645 _c
173 709 236 742 318 742 _c
_cl}_d
/one{636 0 110 0 544 729 _sc
124 83 _m
285 83 _l
285 639 _l
110 604 _l
110 694 _l
284 729 _l
383 729 _l
383 83 _l
544 83 _l
544 0 _l
124 0 _l
124 83 _l
_cl}_d
/two{{636 0 73 0 536 742 _sc
192 83 _m
536 83 _l
536 0 _l
73 0 _l
73 83 _l
110 121 161 173 226 239 _c
290 304 331 346 348 365 _c
380 400 402 430 414 455 _c
426 479 433 504 433 528 _c
433 566 419 598 392 622 _c
365 646 330 659 286 659 _c
255 659 222 653 188 643 _c
154 632 117 616 78 594 _c
78 694 _l
118 710 155 722 189 730 _c
223 738 255 742 284 742 _c
}_e{359 742 419 723 464 685 _c
509 647 532 597 532 534 _c
532 504 526 475 515 449 _c
504 422 484 390 454 354 _c
446 344 420 317 376 272 _c
332 227 271 164 192 83 _c
_cl}_e}_d
/three{{636 0 76 -13 556 742 _sc
406 393 _m
453 383 490 362 516 330 _c
542 298 556 258 556 212 _c
556 140 531 84 482 45 _c
432 6 362 -13 271 -13 _c
240 -13 208 -10 176 -4 _c
144 1 110 10 76 22 _c
76 117 _l
103 101 133 89 166 81 _c
198 73 232 69 268 69 _c
330 69 377 81 409 105 _c
441 129 458 165 458 212 _c
458 254 443 288 413 312 _c
383 336 341 349 287 349 _c
}_e{202 349 _l
202 430 _l
291 430 _l
339 430 376 439 402 459 _c
428 478 441 506 441 543 _c
441 580 427 609 401 629 _c
374 649 336 659 287 659 _c
260 659 231 656 200 650 _c
169 644 135 635 98 623 _c
98 711 _l
135 721 170 729 203 734 _c
235 739 266 742 296 742 _c
370 742 429 725 473 691 _c
517 657 539 611 539 553 _c
539 513 527 479 504 451 _c
481 423 448 403 406 393 _c
_cl}_e}_d
/four{636 0 49 0 580 729 _sc
378 643 _m
129 254 _l
378 254 _l
378 643 _l
352 729 _m
476 729 _l
476 254 _l
580 254 _l
580 172 _l
476 172 _l
476 0 _l
378 0 _l
378 172 _l
49 172 _l
49 267 _l
352 729 _l
_cl}_d
/five{{636 0 77 -13 549 729 _sc
108 729 _m
495 729 _l
495 646 _l
198 646 _l
198 467 _l
212 472 227 476 241 478 _c
255 480 270 482 284 482 _c
365 482 429 459 477 415 _c
525 370 549 310 549 234 _c
549 155 524 94 475 51 _c
426 8 357 -13 269 -13 _c
238 -13 207 -10 175 -6 _c
143 -1 111 6 77 17 _c
77 116 _l
106 100 136 88 168 80 _c
199 72 232 69 267 69 _c
}_e{323 69 368 83 401 113 _c
433 143 450 183 450 234 _c
450 284 433 324 401 354 _c
368 384 323 399 267 399 _c
241 399 214 396 188 390 _c
162 384 135 375 108 363 _c
108 729 _l
_cl}_e}_d
/six{{636 0 70 -13 573 742 _sc
330 404 _m
286 404 251 388 225 358 _c
199 328 186 286 186 234 _c
186 181 199 139 225 109 _c
251 79 286 64 330 64 _c
374 64 409 79 435 109 _c
461 139 474 181 474 234 _c
474 286 461 328 435 358 _c
409 388 374 404 330 404 _c
526 713 _m
526 623 _l
501 635 476 644 451 650 _c
425 656 400 659 376 659 _c
310 659 260 637 226 593 _c
}_e{192 549 172 482 168 394 _c
187 422 211 444 240 459 _c
269 474 301 482 336 482 _c
409 482 467 459 509 415 _c
551 371 573 310 573 234 _c
573 159 550 99 506 54 _c
462 9 403 -13 330 -13 _c
246 -13 181 19 137 83 _c
92 147 70 241 70 364 _c
70 479 97 571 152 639 _c
206 707 280 742 372 742 _c
396 742 421 739 447 735 _c
472 730 498 723 526 713 _c
_cl}_e}_d
/seven{636 0 82 0 551 729 _sc
82 729 _m
551 729 _l
551 687 _l
286 0 _l
183 0 _l
432 646 _l
82 646 _l
82 729 _l
_cl}_d
/eight{{636 0 68 -13 568 742 _sc
318 346 _m
271 346 234 333 207 308 _c
180 283 167 249 167 205 _c
167 161 180 126 207 101 _c
234 76 271 64 318 64 _c
364 64 401 76 428 102 _c
455 127 469 161 469 205 _c
469 249 455 283 429 308 _c
402 333 365 346 318 346 _c
219 388 _m
177 398 144 418 120 447 _c
96 476 85 511 85 553 _c
85 611 105 657 147 691 _c
188 725 245 742 318 742 _c
}_e{390 742 447 725 489 691 _c
530 657 551 611 551 553 _c
551 511 539 476 515 447 _c
491 418 459 398 417 388 _c
464 377 501 355 528 323 _c
554 291 568 251 568 205 _c
568 134 546 80 503 43 _c
459 5 398 -13 318 -13 _c
237 -13 175 5 132 43 _c
89 80 68 134 68 205 _c
68 251 81 291 108 323 _c
134 355 171 377 219 388 _c
183 544 _m
183 506 194 476 218 455 _c
}_e{242 434 275 424 318 424 _c
360 424 393 434 417 455 _c
441 476 453 506 453 544 _c
453 582 441 611 417 632 _c
393 653 360 664 318 664 _c
275 664 242 653 218 632 _c
194 611 183 582 183 544 _c
_cl}_e}_d
/nine{{636 0 63 -13 566 742 _sc
110 15 _m
110 105 _l
134 93 159 84 185 78 _c
210 72 235 69 260 69 _c
324 69 374 90 408 134 _c
442 178 462 244 468 334 _c
448 306 424 284 396 269 _c
367 254 335 247 300 247 _c
226 247 168 269 126 313 _c
84 357 63 417 63 494 _c
63 568 85 628 129 674 _c
173 719 232 742 306 742 _c
390 742 455 709 499 645 _c
543 580 566 486 566 364 _c
}_e{566 248 538 157 484 89 _c
429 21 356 -13 264 -13 _c
239 -13 214 -10 189 -6 _c
163 -2 137 5 110 15 _c
306 324 _m
350 324 385 339 411 369 _c
437 399 450 441 450 494 _c
450 546 437 588 411 618 _c
385 648 350 664 306 664 _c
262 664 227 648 201 618 _c
175 588 162 546 162 494 _c
162 441 175 399 201 369 _c
227 339 262 324 306 324 _c
_cl}_e}_d
/E{632 0 98 0 568 729 _sc
98 729 _m
559 729 _l
559 646 _l
197 646 _l
197 430 _l
544 430 _l
544 347 _l
197 347 _l
197 83 _l
568 83 _l
568 0 _l
98 0 _l
98 729 _l
_cl}_d
/F{575 0 98 0 517 729 _sc
98 729 _m
517 729 _l
517 646 _l
197 646 _l
197 431 _l
486 431 _l
486 348 _l
197 348 _l
197 0 _l
98 0 _l
98 729 _l
_cl}_d
/H{752 0 98 0 654 729 _sc
98 729 _m
197 729 _l
197 430 _l
555 430 _l
555 729 _l
654 729 _l
654 0 _l
555 0 _l
555 347 _l
197 347 _l
197 0 _l
98 0 _l
98 729 _l
_cl}_d
/T{611 0 -2 0 614 729 _sc
-2 729 _m
614 729 _l
614 646 _l
355 646 _l
355 0 _l
256 0 _l
256 646 _l
-2 646 _l
-2 729 _l
_cl}_d
/a{{613 0 60 -13 522 560 _sc
343 275 _m
270 275 220 266 192 250 _c
164 233 150 205 150 165 _c
150 133 160 107 181 89 _c
202 70 231 61 267 61 _c
317 61 357 78 387 114 _c
417 149 432 196 432 255 _c
432 275 _l
343 275 _l
522 312 _m
522 0 _l
432 0 _l
432 83 _l
411 49 385 25 355 10 _c
325 -5 287 -13 243 -13 _c
187 -13 142 2 109 33 _c
76 64 60 106 60 159 _c
}_e{60 220 80 266 122 298 _c
163 329 224 345 306 345 _c
432 345 _l
432 354 _l
432 395 418 427 391 450 _c
364 472 326 484 277 484 _c
245 484 215 480 185 472 _c
155 464 127 453 100 439 _c
100 522 _l
132 534 164 544 195 550 _c
226 556 256 560 286 560 _c
365 560 424 539 463 498 _c
502 457 522 395 522 312 _c
_cl}_e}_d
/c{{550 0 55 -13 488 560 _sc
488 526 _m
488 442 _l
462 456 437 466 411 473 _c
385 480 360 484 334 484 _c
276 484 230 465 198 428 _c
166 391 150 339 150 273 _c
150 206 166 154 198 117 _c
230 80 276 62 334 62 _c
360 62 385 65 411 72 _c
437 79 462 90 488 104 _c
488 21 _l
462 9 436 0 410 -5 _c
383 -10 354 -13 324 -13 _c
242 -13 176 12 128 64 _c
}_e{79 115 55 185 55 273 _c
55 362 79 432 128 483 _c
177 534 244 560 330 560 _c
358 560 385 557 411 551 _c
437 545 463 537 488 526 _c
_cl}_e}_d
/d{{635 0 55 -13 544 760 _sc
454 464 _m
454 760 _l
544 760 _l
544 0 _l
454 0 _l
454 82 _l
435 49 411 25 382 10 _c
353 -5 319 -13 279 -13 _c
213 -13 159 13 117 65 _c
75 117 55 187 55 273 _c
55 359 75 428 117 481 _c
159 533 213 560 279 560 _c
319 560 353 552 382 536 _c
411 520 435 496 454 464 _c
148 273 _m
148 207 161 155 188 117 _c
215 79 253 61 301 61 _c
}_e{348 61 385 79 413 117 _c
440 155 454 207 454 273 _c
454 339 440 390 413 428 _c
385 466 348 485 301 485 _c
253 485 215 466 188 428 _c
161 390 148 339 148 273 _c
_cl}_e}_d
/e{{615 0 55 -13 562 560 _sc
562 296 _m
562 252 _l
149 252 _l
153 190 171 142 205 110 _c
238 78 284 62 344 62 _c
378 62 412 66 444 74 _c
476 82 509 95 541 113 _c
541 28 _l
509 14 476 3 442 -3 _c
408 -9 373 -13 339 -13 _c
251 -13 182 12 131 62 _c
80 112 55 181 55 268 _c
55 357 79 428 127 481 _c
175 533 241 560 323 560 _c
397 560 455 536 498 489 _c
}_e{540 441 562 377 562 296 _c
472 322 _m
471 371 457 410 431 440 _c
404 469 368 484 324 484 _c
274 484 234 469 204 441 _c
174 413 156 373 152 322 _c
472 322 _l
_cl}_e}_d
/h{634 0 91 0 549 760 _sc
549 330 _m
549 0 _l
459 0 _l
459 327 _l
459 379 448 417 428 443 _c
408 469 378 482 338 482 _c
289 482 251 466 223 435 _c
195 404 181 362 181 309 _c
181 0 _l
91 0 _l
91 760 _l
181 760 _l
181 462 _l
202 494 227 519 257 535 _c
286 551 320 560 358 560 _c
420 560 468 540 500 501 _c
532 462 549 405 549 330 _c
_cl}_d
/i{278 0 94 0 184 760 _sc
94 547 _m
184 547 _l
184 0 _l
94 0 _l
94 547 _l
94 760 _m
184 760 _l
184 646 _l
94 646 _l
94 760 _l
_cl}_d
/k{579 0 91 0 576 760 _sc
91 760 _m
181 760 _l
181 311 _l
449 547 _l
564 547 _l
274 291 _l
576 0 _l
459 0 _l
181 267 _l
181 0 _l
91 0 _l
91 760 _l
_cl}_d
/l{278 0 94 0 184 760 _sc
94 760 _m
184 760 _l
184 0 _l
94 0 _l
94 760 _l
_cl}_d
/m{{974 0 91 0 889 560 _sc
520 442 _m
542 482 569 511 600 531 _c
631 550 668 560 711 560 _c
767 560 811 540 842 500 _c
873 460 889 403 889 330 _c
889 0 _l
799 0 _l
799 327 _l
799 379 789 418 771 444 _c
752 469 724 482 686 482 _c
639 482 602 466 575 435 _c
548 404 535 362 535 309 _c
535 0 _l
445 0 _l
445 327 _l
445 379 435 418 417 444 _c
398 469 369 482 331 482 _c
}_e{285 482 248 466 221 435 _c
194 404 181 362 181 309 _c
181 0 _l
91 0 _l
91 547 _l
181 547 _l
181 462 _l
201 495 226 520 255 536 _c
283 552 317 560 357 560 _c
397 560 430 550 458 530 _c
486 510 506 480 520 442 _c
_cl}_e}_d
/n{634 0 91 0 549 560 _sc
549 330 _m
549 0 _l
459 0 _l
459 327 _l
459 379 448 417 428 443 _c
408 469 378 482 338 482 _c
289 482 251 466 223 435 _c
195 404 181 362 181 309 _c
181 0 _l
91 0 _l
91 547 _l
181 547 _l
181 462 _l
202 494 227 519 257 535 _c
286 551 320 560 358 560 _c
420 560 468 540 500 501 _c
532 462 549 405 549 330 _c
_cl}_d
/s{{521 0 54 -13 472 560 _sc
443 531 _m
443 446 _l
417 458 391 468 364 475 _c
336 481 308 485 279 485 _c
234 485 200 478 178 464 _c
156 450 145 430 145 403 _c
145 382 153 366 169 354 _c
185 342 217 330 265 320 _c
296 313 _l
360 299 405 279 432 255 _c
458 230 472 195 472 151 _c
472 100 452 60 412 31 _c
372 1 316 -13 246 -13 _c
216 -13 186 -10 154 -5 _c
}_e{122 0 89 8 54 20 _c
54 113 _l
87 95 120 82 152 74 _c
184 65 216 61 248 61 _c
290 61 323 68 346 82 _c
368 96 380 117 380 144 _c
380 168 371 187 355 200 _c
339 213 303 226 247 238 _c
216 245 _l
160 257 119 275 95 299 _c
70 323 58 356 58 399 _c
58 450 76 490 112 518 _c
148 546 200 560 268 560 _c
301 560 332 557 362 552 _c
391 547 418 540 443 531 _c
}_e{_cl}_e}_d
/t{392 0 27 0 368 702 _sc
183 702 _m
183 547 _l
368 547 _l
368 477 _l
183 477 _l
183 180 _l
183 135 189 106 201 94 _c
213 81 238 75 276 75 _c
368 75 _l
368 0 _l
276 0 _l
206 0 158 13 132 39 _c
106 65 93 112 93 180 _c
93 477 _l
27 477 _l
27 547 _l
93 547 _l
93 702 _l
183 702 _l
_cl}_d
/z{525 0 43 0 482 547 _sc
55 547 _m
482 547 _l
482 465 _l
144 72 _l
482 72 _l
482 0 _l
43 0 _l
43 82 _l
381 475 _l
55 475 _l
55 547 _l
_cl}_d
/minus{838 0 106 272 732 355 _sc
106 355 _m
732 355 _l
732 272 _l
106 272 _l
106 355 _l
_cl}_d
end readonly def

/BuildGlyph
 {exch begin
 CharStrings exch
 2 copy known not{pop /.notdef}if
 true 3 1 roll get exec
 end}_d

/BuildChar {
 1 index /Encoding get exch get
 1 index /BuildGlyph get exec
}_d

FontName currentdict end definefont pop
end
%%EndProlog
%%Page: 1 1
mpldict begin
18 180 translate
576 432 0 0 clipbox
gsave
0 0 m
576 0 l
576 432 l
0 432 l
cl
1.000 setgray
fill
grestore
gsave
72 54 m
518.4 54 l
518.4 380.16 l
72 380.16 l
cl
1.000 setgray
fill
grestore
0.800 setlinewidth
1 setlinejoin
0 setlinecap
[] 0 setdash
0.000 setgray
gsave
/o {
gsave
newpath
translate
0.8 setlinewidth
1 setlinejoin
0 setlinecap
0 0 m
0 -3.5 l

gsave
0.000 setgray
fill
grestore
stroke
grestore
} bind def
86.4095 54 o
grestore
/DejaVuSans findfont
10.000 scalefont
setfont
gsave
72.096986 39.406250 translate
0.000000 rotate
0.000000 0 m /zero glyphshow
6.362305 0 m /period glyphshow
9.541016 0 m /three glyphshow
15.903320 0 m /four glyphshow
22.265625 0 m /three glyphshow
grestore
gsave
/o {
gsave
newpath
translate
0.8 setlinewidth
1 setlinejoin
0 setlinecap
0 0 m
0 -3.5 l

gsave
0.000 setgray
fill
grestore
stroke
grestore
} bind def
145.224 54 o
grestore
gsave
130.911215 39.406250 translate
0.000000 rotate
0.000000 0 m /zero glyphshow
6.362305 0 m /period glyphshow
9.541016 0 m /three glyphshow
15.903320 0 m /four glyphshow
22.265625 0 m /four glyphshow
grestore
gsave
/o {
gsave
newpath
translate
0.8 setlinewidth
1 setlinejoin
0 setlinecap
0 0 m
0 -3.5 l

gsave
0.000 setgray
fill
grestore
stroke
grestore
} bind def
204.038 54 o
grestore
gsave
189.725445 39.406250 translate
0.000000 rotate
0.000000 0 m /zero glyphshow
6.362305 0 m /period glyphshow
9.541016 0 m /three glyphshow
15.903320 0 m /four glyphshow
22.265625 0 m /five glyphshow
grestore
gsave
/o {
gsave
newpath
translate
0.8 setlinewidth
1 setlinejoin
0 setlinecap
0 0 m
0 -3.5 l

gsave
0.000 setgray
fill
grestore
stroke
grestore
} bind def
262.852 54 o
grestore
gsave
248.539674 39.406250 translate
0.000000 rotate
0.000000 0 m /zero glyphshow
6.362305 0 m /period glyphshow
9.541016 0 m /three glyphshow
15.903320 0 m /four glyphshow
22.265625 0 m /six glyphshow
grestore
gsave
/o {
gsave
newpath
translate
0.8 setlinewidth
1 setlinejoin
0 setlinecap
0 0 m
0 -3.5 l

gsave
0.000 setgray
fill
grestore
stroke
grestore
} bind def
321.666 54 o
grestore
gsave
307.353903 39.406250 translate
0.000000 rotate
0.000000 0 m /zero glyphshow
6.362305 0 m /period glyphshow
9.541016 0 m /three glyphshow
15.903320 0 m /four glyphshow
22.265625 0 m /seven glyphshow
grestore
gsave
/o {
gsave
newpath
translate
0.8 setlinewidth
1 setlinejoin
0 setlinecap
0 0 m
0 -3.5 l

gsave
0.000 setgray
fill
grestore
stroke
grestore
} bind def
380.481 54 o
grestore
gsave
366.168132 39.406250 translate
0.000000 rotate
0.000000 0 m /zero glyphshow
6.362305 0 m /period glyphshow
9.541016 0 m /three glyphshow
15.903320 0 m /four glyphshow
22.265625 0 m /eight glyphshow
grestore
gsave
/o {
gsave
newpath
translate
0.8 setlinewidth
1 setlinejoin
0 setlinecap
0 0 m
0 -3.5 l

gsave
0.000 setgray
fill
grestore
stroke
grestore
} bind def
439.295 54 o
grestore
gsave
424.982362 39.406250 translate
0.000000 rotate
0.000000 0 m /zero glyphshow
6.362305 0 m /period glyphshow
9.541016 0 m /three glyphshow
15.903320 0 m /four glyphshow
22.265625 0 m /nine glyphshow
grestore
gsave
/o {
gsave
newpath
translate
0.8 setlinewidth
1 setlinejoin
0 setlinecap
0 0 m
0 -3.5 l

gsave
0.000 setgray
fill
grestore
stroke
grestore
} bind def
498.109 54 o
grestore
gsave
483.796591 39.406250 translate
0.000000 rotate
0.000000 0 m /zero glyphshow
6.362305 0 m /period glyphshow
9.541016 0 m /three glyphshow
15.903320 0 m /five glyphshow
22.265625 0 m /zero glyphshow
grestore
gsave
275.114062 25.734375 translate
0.000000 rotate
0.000000 0 m /F glyphshow
5.001953 0 m /i glyphshow
7.780273 0 m /e glyphshow
13.932617 0 m /l glyphshow
16.710938 0 m /d glyphshow
23.058594 0 m /space glyphshow
26.237305 0 m /parenleft glyphshow
30.138672 0 m /T glyphshow
36.247070 0 m /parenright glyphshow
grestore
gsave
/o {
gsave
newpath
translate
0.8 setlinewidth
1 setlinejoin
0 setlinecap
0 0 m
-3.5 0 l

gsave
0.000 setgray
fill
grestore
stroke
grestore
} bind def
72 340.625 o
grestore
gsave
37.546875 336.828580 translate
0.000000 rotate
0.000000 0 m /minus glyphshow
8.378906 0 m /two glyphshow
14.741211 0 m /five glyphshow
21.103516 0 m /zero glyphshow
grestore
gsave
/o {
gsave
newpath
translate
0.8 setlinewidth
1 setlinejoin
0 setlinecap
0 0 m
-3.5 0 l

gsave
0.000 setgray
fill
grestore
stroke
grestore
} bind def
72 291.207 o
grestore
gsave
37.546875 287.410398 translate
0.000000 rotate
0.000000 0 m /minus glyphshow
8.378906 0 m /two glyphshow
14.741211 0 m /zero glyphshow
21.103516 0 m /zero glyphshow
grestore
gsave
/o {
gsave
newpath
translate
0.8 setlinewidth
1 setlinejoin
0 setlinecap
0 0 m
-3.5 0 l

gsave
0.000 setgray
fill
grestore
stroke
grestore
} bind def
72 241.789 o
grestore
gsave
37.546875 237.992216 translate
0.000000 rotate
0.000000 0 m /minus glyphshow
8.378906 0 m /one glyphshow
14.741211 0 m /five glyphshow
21.103516 0 m /zero glyphshow
grestore
gsave
/o {
gsave
newpath
translate
0.8 setlinewidth
1 setlinejoin
0 setlinecap
0 0 m
-3.5 0 l

gsave
0.000 setgray
fill
grestore
stroke
grestore
} bind def
72 192.371 o
grestore
gsave
37.546875 188.574034 translate
0.000000 rotate
0.000000 0 m /minus glyphshow
8.378906 0 m /one glyphshow
14.741211 0 m /zero glyphshow
21.103516 0 m /zero glyphshow
grestore
gsave
/o {
gsave
newpath
translate
0.8 setlinewidth
1 setlinejoin
0 setlinecap
0 0 m
-3.5 0 l

gsave
0.000 setgray
fill
grestore
stroke
grestore
} bind def
72 142.953 o
grestore
gsave
43.906250 139.155852 translate
0.000000 rotate
0.000000 0 m /minus glyphshow
8.378906 0 m /five glyphshow
14.741211 0 m /zero glyphshow
grestore
gsave
/o {
gsave
newpath
translate
0.8 setlinewidth
1 setlinejoin
0 setlinecap
0 0 m
-3.5 0 l

gsave
0.000 setgray
fill
grestore
stroke
grestore
} bind def
72 93.5345 o
grestore
gsave
58.640625 89.737670 translate
0.000000 rotate
0.000000 0 m /zero glyphshow
grestore
gsave
31.468750 182.431563 translate
90.000000 rotate
0.000000 0 m /E glyphshow
6.318359 0 m /n glyphshow
12.656250 0 m /h glyphshow
18.994141 0 m /a glyphshow
25.122070 0 m /n glyphshow
31.459961 0 m /c glyphshow
36.958008 0 m /e glyphshow
43.110352 0 m /m glyphshow
52.851562 0 m /e glyphshow
59.003906 0 m /n glyphshow
65.341797 0 m /t glyphshow
grestore
1.500 setlinewidth
2 setlinecap
0.406 0.147 0.997 setrgbcolor
gsave
446.4 326.2 72 54 clipbox
92.290909 92.907992 m
98.172332 92.690413 l
104.053755 92.803751 l
109.935178 92.585742 l
115.816601 92.666738 l
121.698024 92.485717 l
127.579447 92.549422 l
133.46087 92.434733 l
139.342292 92.515513 l
145.223715 92.477207 l
151.105138 92.625 l
156.986561 92.646393 l
162.867984 92.917809 l
168.749407 92.951092 l
174.63083 93.398146 l
180.512253 93.3679 l
186.393676 94.025947 l
192.275099 93.837208 l
198.156522 94.716536 l
204.037945 94.26763 l
209.919368 95.352881 l
215.800791 94.553787 l
221.682213 95.802725 l
227.563636 94.595807 l
233.445059 95.953243 l
239.326482 94.353355 l
245.207905 95.72956 l
251.089328 93.952789 l
256.970751 95.181303 l
262.852174 94.019739 l
268.733597 94.795572 l
274.61502 96.62192 l
280.496443 99.47982 l
286.377866 104.955578 l
292.259289 146.978873 l
298.140711 231.063949 l
304.022134 289.672768 l
309.903557 309.572074 l
315.78498 307.479335 l
321.666403 289.814659 l
327.547826 245.018747 l
333.429249 169.284452 l
339.310672 107.93172 l
345.192095 91.998751 l
351.073518 84.273606 l
356.954941 86.438183 l
362.836364 83.290295 l
368.717787 84.716073 l
374.599209 85.546139 l
380.480632 85.358001 l
386.362055 87.492299 l
392.243478 86.948843 l
398.124901 89.07708 l
404.006324 88.654381 l
409.887747 90.363837 l
415.76917 90.147902 l
421.650593 91.356206 l
427.532016 91.278531 l
433.413439 92.044616 l
439.294862 92.017561 l
445.176285 92.443615 l
451.057708 92.399626 l
456.93913 92.597823 l
462.820553 92.503034 l
468.701976 92.577923 l
474.583399 92.427131 l
480.464822 92.461608 l
486.346245 92.272233 l
492.227668 92.32234 l
498.109091 92.122116 l
stroke
grestore
1.000 setlinewidth
0 setlinecap
gsave
446.4 326.2 72 54 clipbox
/o {
gsave
newpath
translate
1.0 setlinewidth
1 setlinejoin
0 setlinecap
0 -1.5 m
0.397805 -1.5 0.77937 -1.341951 1.06066 -1.06066 c
1.341951 -0.77937 1.5 -0.397805 1.5 0 c
1.5 0.397805 1.341951 0.77937 1.06066 1.06066 c
0.77937 1.341951 0.397805 1.5 0 1.5 c
-0.397805 1.5 -0.77937 1.341951 -1.06066 1.06066 c
-1.341951 0.77937 -1.5 0.397805 -1.5 0 c
-1.5 -0.397805 -1.341951 -0.77937 -1.06066 -1.06066 c
-0.77937 -1.341951 -0.397805 -1.5 0 -1.5 c
cl

gsave
grestore
stroke
grestore
} bind def
92.2909 92.908 o
98.1723 92.6904 o
104.054 92.8038 o
109.935 92.5857 o
115.817 92.6667 o
121.698 92.4857 o
127.579 92.5494 o
133.461 92.4347 o
139.342 92.5155 o
145.224 92.4772 o
151.105 92.625 o
156.987 92.6464 o
162.868 92.9178 o
168.749 92.9511 o
174.631 93.3981 o
180.512 93.3679 o
186.394 94.0259 o
192.275 93.8372 o
198.157 94.7165 o
204.038 94.2676 o
209.919 95.3529 o
215.801 94.5538 o
221.682 95.8027 o
227.564 94.5958 o
233.445 95.9532 o
239.326 94.3534 o
245.208 95.7296 o
251.089 93.9528 o
256.971 95.1813 o
262.852 94.0197 o
268.734 94.7956 o
274.615 96.6219 o
280.496 99.4798 o
286.378 104.956 o
292.259 146.979 o
298.141 231.064 o
304.022 289.673 o
309.904 309.572 o
315.785 307.479 o
321.666 289.815 o
327.548 245.019 o
333.429 169.284 o
339.311 107.932 o
345.192 91.9988 o
351.074 84.2736 o
356.955 86.4382 o
362.836 83.2903 o
368.718 84.7161 o
374.599 85.5461 o
380.481 85.358 o
386.362 87.4923 o
392.243 86.9488 o
398.125 89.0771 o
404.006 88.6544 o
409.888 90.3638 o
415.769 90.1479 o
421.651 91.3562 o
427.532 91.2785 o
433.413 92.0446 o
439.295 92.0176 o
445.176 92.4436 o
451.058 92.3996 o
456.939 92.5978 o
462.821 92.503 o
468.702 92.5779 o
474.583 92.4271 o
480.465 92.4616 o
486.346 92.2722 o
492.228 92.3223 o
498.109 92.1221 o
grestore
1.500 setlinewidth
2 setlinecap
1.000 0.147 0.074 setrgbcolor
gsave
446.4 326.2 72 54 clipbox
92.290909 92.913575 m
98.172332 92.692779 l
104.053755 92.807788 l
109.935178 92.586593 l
115.816601 92.668847 l
121.698024 92.484999 l
127.579447 92.549913 l
133.46087 92.433166 l
139.342292 92.516049 l
145.223715 92.47629 l
151.105138 92.627471 l
156.986561 92.647529 l
162.867984 92.925054 l
168.749407 92.956569 l
174.63083 93.413273 l
180.512253 93.379428 l
186.393676 94.04991 l
192.275099 93.855092 l
198.156522 94.75216 l
204.037945 94.292679 l
209.919368 95.399117 l
215.800791 94.58275 l
221.682213 95.857993 l
227.563636 94.626224 l
233.445059 96.008553 l
239.326482 94.377605 l
245.207905 95.788824 l
251.089328 93.972202 l
256.970751 95.232163 l
262.852174 94.043713 l
268.733597 94.841945 l
274.61502 96.698192 l
280.496443 99.639067 l
286.377866 105.313105 l
292.259289 150.649663 l
298.140711 246.847703 l
304.022134 317.299271 l
309.903557 341.533181 l
315.78498 339.12781 l
321.666403 318.362666 l
327.547826 264.698054 l
333.429249 176.656869 l
339.310672 108.697026 l
345.192095 91.967171 l
351.073518 83.959545 l
356.954941 86.306884 l
362.836364 83.111541 l
368.717787 84.551175 l
374.599209 85.425087 l
380.480632 85.232799 l
386.362055 87.420533 l
392.243478 86.846215 l
398.124901 89.028494 l
404.006324 88.594368 l
409.887747 90.33557 l
415.76917 90.111485 l
421.650593 91.342394 l
427.532016 91.260617 l
433.413439 92.040485 l
439.294862 92.010884 l
445.176285 92.444318 l
451.057708 92.397848 l
456.93913 92.600376 l
462.820553 92.503007 l
468.701976 92.579415 l
474.583399 92.426062 l
480.464822 92.461178 l
486.346245 92.268918 l
492.227668 92.319769 l
498.109091 92.116766 l
stroke
grestore
1.000 setlinewidth
0 setlinecap
gsave
446.4 326.2 72 54 clipbox
/o {
gsave
newpath
translate
1.0 setlinewidth
1 setlinejoin
0 setlinecap
0 -1.5 m
0.397805 -1.5 0.77937 -1.341951 1.06066 -1.06066 c
1.341951 -0.77937 1.5 -0.397805 1.5 0 c
1.5 0.397805 1.341951 0.77937 1.06066 1.06066 c
0.77937 1.341951 0.397805 1.5 0 1.5 c
-0.397805 1.5 -0.77937 1.341951 -1.06066 1.06066 c
-1.341951 0.77937 -1.5 0.397805 -1.5 0 c
-1.5 -0.397805 -1.341951 -0.77937 -1.06066 -1.06066 c
-0.77937 -1.341951 -0.397805 -1.5 0 -1.5 c
cl

gsave
grestore
stroke
grestore
} bind def
92.2909 92.9136 o
98.1723 92.6928 o
104.054 92.8078 o
109.935 92.5866 o
115.817 92.6688 o
121.698 92.485 o
127.579 92.5499 o
133.461 92.4332 o
139.342 92.516 o
145.224 92.4763 o
151.105 92.6275 o
156.987 92.6475 o
162.868 92.9251 o
168.749 92.9566 o
174.631 93.4133 o
180.512 93.3794 o
186.394 94.0499 o
192.275 93.8551 o
198.157 94.7522 o
204.038 94.2927 o
209.919 95.3991 o
215.801 94.5828 o
221.682 95.858 o
227.564 94.6262 o
233.445 96.0086 o
239.326 94.3776 o
245.208 95.7888 o
251.089 93.9722 o
256.971 95.2322 o
262.852 94.0437 o
268.734 94.8419 o
274.615 96.6982 o
280.496 99.6391 o
286.378 105.313 o
292.259 150.65 o
298.141 246.848 o
304.022 317.299 o
309.904 341.533 o
315.785 339.128 o
321.666 318.363 o
327.548 264.698 o
333.429 176.657 o
339.311 108.697 o
345.192 91.9672 o
351.074 83.9595 o
356.955 86.3069 o
362.836 83.1115 o
368.718 84.5512 o
374.599 85.4251 o
380.481 85.2328 o
386.362 87.4205 o
392.243 86.8462 o
398.125 89.0285 o
404.006 88.5944 o
409.888 90.3356 o
415.769 90.1115 o
421.651 91.3424 o
427.532 91.2606 o
433.413 92.0405 o
439.295 92.0109 o
445.176 92.4443 o
451.058 92.3978 o
456.939 92.6004 o
462.821 92.503 o
468.702 92.5794 o
474.583 92.4261 o
480.465 92.4612 o
486.346 92.2689 o
492.228 92.3198 o
498.109 92.1168 o
grestore
0.800 setlinewidth
0 setlinejoin
2 setlinecap
[] 0 setdash
0.000 setgray
gsave
72 54 m
72 380.16 l
stroke
grestore
gsave
518.4 54 m
518.4 380.16 l
stroke
grestore
gsave
72 54 m
518.4 54 l
stroke
grestore
gsave
72 380.16 m
518.4 380.16 l
stroke
grestore
1.000 setlinewidth
0 setlinecap
0.800 setgray
gsave
451.93125 342.81625 m
511.4 342.81625 l
512.733333 342.81625 513.4 343.482917 513.4 344.81625 c
513.4 373.16 l
513.4 374.493333 512.733333 375.16 511.4 375.16 c
451.93125 375.16 l
450.597917 375.16 449.93125 374.493333 449.93125 373.16 c
449.93125 344.81625 l
449.93125 343.482917 450.597917 342.81625 451.93125 342.81625 c
cl
gsave
1.000 setgray
fill
grestore
stroke
grestore
1.500 setlinewidth
1 setlinejoin
2 setlinecap
[] 0 setdash
0.406 0.147 0.997 setrgbcolor
gsave
453.93125 367.06625 m
473.93125 367.06625 l
stroke
grestore
1.000 setlinewidth
0 setlinecap
gsave
/o {
gsave
newpath
translate
1.0 setlinewidth
1 setlinejoin
0 setlinecap
0 -1.5 m
0.397805 -1.5 0.77937 -1.341951 1.06066 -1.06066 c
1.341951 -0.77937 1.5 -0.397805 1.5 0 c
1.5 0.397805 1.341951 0.77937 1.06066 1.06066 c
0.77937 1.341951 0.397805 1.5 0 1.5 c
-0.397805 1.5 -0.77937 1.341951 -1.06066 1.06066 c
-1.341951 0.77937 -1.5 0.397805 -1.5 0 c
-1.5 -0.397805 -1.341951 -0.77937 -1.06066 -1.06066 c
-0.77937 -1.341951 -0.397805 -1.5 0 -1.5 c
cl

gsave
grestore
stroke
grestore
} bind def
463.931 367.066 o
grestore
0.000 setgray
gsave
481.931250 363.566250 translate
0.000000 rotate
0.000000 0 m /s glyphshow
5.209961 0 m /t glyphshow
9.130859 0 m /a glyphshow
15.258789 0 m /t glyphshow
19.179688 0 m /i glyphshow
21.958008 0 m /c glyphshow
grestore
1.500 setlinewidth
2 setlinecap
1.000 0.147 0.074 setrgbcolor
gsave
453.93125 352.394375 m
473.93125 352.394375 l
stroke
grestore
1.000 setlinewidth
0 setlinecap
gsave
/o {
gsave
newpath
translate
1.0 setlinewidth
1 setlinejoin
0 setlinecap
0 -1.5 m
0.397805 -1.5 0.77937 -1.341951 1.06066 -1.06066 c
1.341951 -0.77937 1.5 -0.397805 1.5 0 c
1.5 0.397805 1.341951 0.77937 1.06066 1.06066 c
0.77937 1.341951 0.397805 1.5 0 1.5 c
-0.397805 1.5 -0.77937 1.341951 -1.06066 1.06066 c
-1.341951 0.77937 -1.5 0.397805 -1.5 0 c
-1.5 -0.397805 -1.341951 -0.77937 -1.06066 -1.06066 c
-0.77937 -1.341951 -0.397805 -1.5 0 -1.5 c
cl

gsave
grestore
stroke
grestore
} bind def
463.931 352.394 o
grestore
0.000 setgray
gsave
481.931250 348.894375 translate
0.000000 rotate
0.000000 0 m /eight glyphshow
6.362305 0 m /k glyphshow
12.153320 0 m /H glyphshow
19.672852 0 m /z glyphshow
grestore

end
showpage
%%EOF
