%!PS-Adobe-3.0
%%DocumentPaperSizes: letter
%%Pages: 1
%%Title: assets/ISE_SSE/ISE_SSE_wband_fp.ps
%%Creator: matplotlib version 3.2.2, http://matplotlib.org/
%%CreationDate: Sun Sep 27 21:49:54 2020
%%Orientation: portrait
%%BoundingBox: 18.0 180.0 594.0 612.0
%%EndComments
%%BeginProlog
/mpldict 8 dict def
mpldict begin
/m { moveto } bind def
/l { lineto } bind def
/r { rlineto } bind def
/c { curveto } bind def
/cl { closepath } bind def
/box {
m
1 index 0 r
0 exch r
neg 0 r
cl
} bind def
/clipbox {
box
clip
newpath
} bind def
%!PS-Adobe-3.0 Resource-Font
%%Title: DejaVu Sans
%%Copyright: Copyright (c) 2003 by Bitstream, Inc. All Rights Reserved. Copyright (c) 2006 by Tavmjong Bah. All Rights Reserved. DejaVu changes are in public domain 
%%Creator: Converted from TrueType to type 3 by PPR
25 dict begin
/_d{bind def}bind def
/_m{moveto}_d
/_l{lineto}_d
/_cl{closepath eofill}_d
/_c{curveto}_d
/_sc{7 -1 roll{setcachedevice}{pop pop pop pop pop pop}ifelse}_d
/_e{exec}_d
/FontName /DejaVuSans def
/PaintType 0 def
/FontMatrix[.001 0 0 .001 0 0]def
/FontBBox[-1021 -463 1793 1232]def
/FontType 3 def
/Encoding [ /space /parenleft /parenright /hyphen /period /zero /one /two /three /four /six /seven /eight /nine /A /E /F /G /H /M /U /a /c /e /h /m /n /o /q /r /t /u /y /z /minus ] def
/FontInfo 10 dict dup begin
/FamilyName (DejaVu Sans) def
/FullName (DejaVu Sans) def
/Notice (Copyright (c) 2003 by Bitstream, Inc. All Rights Reserved. Copyright (c) 2006 by Tavmjong Bah. All Rights Reserved. DejaVu changes are in public domain ) def
/Weight (Book) def
/Version (Version 2.35) def
/ItalicAngle 0.0 def
/isFixedPitch false def
/UnderlinePosition -130 def
/UnderlineThickness 90 def
end readonly def
/CharStrings 36 dict dup begin
/.notdef 0 def
/space{318 0 0 0 0 0 _sc
}_d
/parenleft{390 0 86 -131 310 759 _sc
310 759 _m
266 683 234 609 213 536 _c
191 463 181 389 181 314 _c
181 238 191 164 213 91 _c
234 17 266 -56 310 -131 _c
232 -131 _l
183 -54 146 20 122 94 _c
98 168 86 241 86 314 _c
86 386 98 459 122 533 _c
146 607 182 682 232 759 _c
310 759 _l
_cl}_d
/parenright{390 0 80 -131 304 759 _sc
80 759 _m
158 759 _l
206 682 243 607 267 533 _c
291 459 304 386 304 314 _c
304 241 291 168 267 94 _c
243 20 206 -54 158 -131 _c
80 -131 _l
123 -56 155 17 177 91 _c
198 164 209 238 209 314 _c
209 389 198 463 177 536 _c
155 609 123 683 80 759 _c
_cl}_d
/hyphen{361 0 49 234 312 314 _sc
49 314 _m
312 314 _l
312 234 _l
49 234 _l
49 314 _l
_cl}_d
/period{318 0 107 0 210 124 _sc
107 124 _m
210 124 _l
210 0 _l
107 0 _l
107 124 _l
_cl}_d
/zero{636 0 66 -13 570 742 _sc
318 664 _m
267 664 229 639 203 589 _c
177 539 165 464 165 364 _c
165 264 177 189 203 139 _c
229 89 267 64 318 64 _c
369 64 407 89 433 139 _c
458 189 471 264 471 364 _c
471 464 458 539 433 589 _c
407 639 369 664 318 664 _c
318 742 _m
399 742 461 709 505 645 _c
548 580 570 486 570 364 _c
570 241 548 147 505 83 _c
461 19 399 -13 318 -13 _c
236 -13 173 19 130 83 _c
87 147 66 241 66 364 _c
66 486 87 580 130 645 _c
173 709 236 742 318 742 _c
_cl}_d
/one{636 0 110 0 544 729 _sc
124 83 _m
285 83 _l
285 639 _l
110 604 _l
110 694 _l
284 729 _l
383 729 _l
383 83 _l
544 83 _l
544 0 _l
124 0 _l
124 83 _l
_cl}_d
/two{{636 0 73 0 536 742 _sc
192 83 _m
536 83 _l
536 0 _l
73 0 _l
73 83 _l
110 121 161 173 226 239 _c
290 304 331 346 348 365 _c
380 400 402 430 414 455 _c
426 479 433 504 433 528 _c
433 566 419 598 392 622 _c
365 646 330 659 286 659 _c
255 659 222 653 188 643 _c
154 632 117 616 78 594 _c
78 694 _l
118 710 155 722 189 730 _c
223 738 255 742 284 742 _c
}_e{359 742 419 723 464 685 _c
509 647 532 597 532 534 _c
532 504 526 475 515 449 _c
504 422 484 390 454 354 _c
446 344 420 317 376 272 _c
332 227 271 164 192 83 _c
_cl}_e}_d
/three{{636 0 76 -13 556 742 _sc
406 393 _m
453 383 490 362 516 330 _c
542 298 556 258 556 212 _c
556 140 531 84 482 45 _c
432 6 362 -13 271 -13 _c
240 -13 208 -10 176 -4 _c
144 1 110 10 76 22 _c
76 117 _l
103 101 133 89 166 81 _c
198 73 232 69 268 69 _c
330 69 377 81 409 105 _c
441 129 458 165 458 212 _c
458 254 443 288 413 312 _c
383 336 341 349 287 349 _c
}_e{202 349 _l
202 430 _l
291 430 _l
339 430 376 439 402 459 _c
428 478 441 506 441 543 _c
441 580 427 609 401 629 _c
374 649 336 659 287 659 _c
260 659 231 656 200 650 _c
169 644 135 635 98 623 _c
98 711 _l
135 721 170 729 203 734 _c
235 739 266 742 296 742 _c
370 742 429 725 473 691 _c
517 657 539 611 539 553 _c
539 513 527 479 504 451 _c
481 423 448 403 406 393 _c
_cl}_e}_d
/four{636 0 49 0 580 729 _sc
378 643 _m
129 254 _l
378 254 _l
378 643 _l
352 729 _m
476 729 _l
476 254 _l
580 254 _l
580 172 _l
476 172 _l
476 0 _l
378 0 _l
378 172 _l
49 172 _l
49 267 _l
352 729 _l
_cl}_d
/six{{636 0 70 -13 573 742 _sc
330 404 _m
286 404 251 388 225 358 _c
199 328 186 286 186 234 _c
186 181 199 139 225 109 _c
251 79 286 64 330 64 _c
374 64 409 79 435 109 _c
461 139 474 181 474 234 _c
474 286 461 328 435 358 _c
409 388 374 404 330 404 _c
526 713 _m
526 623 _l
501 635 476 644 451 650 _c
425 656 400 659 376 659 _c
310 659 260 637 226 593 _c
}_e{192 549 172 482 168 394 _c
187 422 211 444 240 459 _c
269 474 301 482 336 482 _c
409 482 467 459 509 415 _c
551 371 573 310 573 234 _c
573 159 550 99 506 54 _c
462 9 403 -13 330 -13 _c
246 -13 181 19 137 83 _c
92 147 70 241 70 364 _c
70 479 97 571 152 639 _c
206 707 280 742 372 742 _c
396 742 421 739 447 735 _c
472 730 498 723 526 713 _c
_cl}_e}_d
/seven{636 0 82 0 551 729 _sc
82 729 _m
551 729 _l
551 687 _l
286 0 _l
183 0 _l
432 646 _l
82 646 _l
82 729 _l
_cl}_d
/eight{{636 0 68 -13 568 742 _sc
318 346 _m
271 346 234 333 207 308 _c
180 283 167 249 167 205 _c
167 161 180 126 207 101 _c
234 76 271 64 318 64 _c
364 64 401 76 428 102 _c
455 127 469 161 469 205 _c
469 249 455 283 429 308 _c
402 333 365 346 318 346 _c
219 388 _m
177 398 144 418 120 447 _c
96 476 85 511 85 553 _c
85 611 105 657 147 691 _c
188 725 245 742 318 742 _c
}_e{390 742 447 725 489 691 _c
530 657 551 611 551 553 _c
551 511 539 476 515 447 _c
491 418 459 398 417 388 _c
464 377 501 355 528 323 _c
554 291 568 251 568 205 _c
568 134 546 80 503 43 _c
459 5 398 -13 318 -13 _c
237 -13 175 5 132 43 _c
89 80 68 134 68 205 _c
68 251 81 291 108 323 _c
134 355 171 377 219 388 _c
183 544 _m
183 506 194 476 218 455 _c
}_e{242 434 275 424 318 424 _c
360 424 393 434 417 455 _c
441 476 453 506 453 544 _c
453 582 441 611 417 632 _c
393 653 360 664 318 664 _c
275 664 242 653 218 632 _c
194 611 183 582 183 544 _c
_cl}_e}_d
/nine{{636 0 63 -13 566 742 _sc
110 15 _m
110 105 _l
134 93 159 84 185 78 _c
210 72 235 69 260 69 _c
324 69 374 90 408 134 _c
442 178 462 244 468 334 _c
448 306 424 284 396 269 _c
367 254 335 247 300 247 _c
226 247 168 269 126 313 _c
84 357 63 417 63 494 _c
63 568 85 628 129 674 _c
173 719 232 742 306 742 _c
390 742 455 709 499 645 _c
543 580 566 486 566 364 _c
}_e{566 248 538 157 484 89 _c
429 21 356 -13 264 -13 _c
239 -13 214 -10 189 -6 _c
163 -2 137 5 110 15 _c
306 324 _m
350 324 385 339 411 369 _c
437 399 450 441 450 494 _c
450 546 437 588 411 618 _c
385 648 350 664 306 664 _c
262 664 227 648 201 618 _c
175 588 162 546 162 494 _c
162 441 175 399 201 369 _c
227 339 262 324 306 324 _c
_cl}_e}_d
/A{684 0 8 0 676 729 _sc
342 632 _m
208 269 _l
476 269 _l
342 632 _l
286 729 _m
398 729 _l
676 0 _l
573 0 _l
507 187 _l
178 187 _l
112 0 _l
8 0 _l
286 729 _l
_cl}_d
/E{632 0 98 0 568 729 _sc
98 729 _m
559 729 _l
559 646 _l
197 646 _l
197 430 _l
544 430 _l
544 347 _l
197 347 _l
197 83 _l
568 83 _l
568 0 _l
98 0 _l
98 729 _l
_cl}_d
/F{575 0 98 0 517 729 _sc
98 729 _m
517 729 _l
517 646 _l
197 646 _l
197 431 _l
486 431 _l
486 348 _l
197 348 _l
197 0 _l
98 0 _l
98 729 _l
_cl}_d
/G{{775 0 56 -13 693 742 _sc
595 104 _m
595 300 _l
434 300 _l
434 381 _l
693 381 _l
693 68 _l
655 40 613 20 567 7 _c
521 -6 472 -13 420 -13 _c
306 -13 216 20 152 86 _c
88 152 56 245 56 364 _c
56 482 88 575 152 642 _c
216 708 306 742 420 742 _c
467 742 512 736 555 724 _c
598 712 638 695 674 673 _c
674 568 _l
637 598 598 621 557 637 _c
516 653 473 661 428 661 _c
}_e{338 661 271 636 227 586 _c
182 536 160 462 160 364 _c
160 265 182 191 227 141 _c
271 91 338 67 428 67 _c
462 67 493 70 521 76 _c
549 82 573 91 595 104 _c
_cl}_e}_d
/H{752 0 98 0 654 729 _sc
98 729 _m
197 729 _l
197 430 _l
555 430 _l
555 729 _l
654 729 _l
654 0 _l
555 0 _l
555 347 _l
197 347 _l
197 0 _l
98 0 _l
98 729 _l
_cl}_d
/M{863 0 98 0 765 729 _sc
98 729 _m
245 729 _l
431 233 _l
618 729 _l
765 729 _l
765 0 _l
669 0 _l
669 640 _l
481 140 _l
382 140 _l
194 640 _l
194 0 _l
98 0 _l
98 729 _l
_cl}_d
/U{732 0 87 -13 645 729 _sc
87 729 _m
186 729 _l
186 286 _l
186 208 200 151 228 117 _c
256 83 302 66 366 66 _c
429 66 475 83 503 117 _c
531 151 546 208 546 286 _c
546 729 _l
645 729 _l
645 274 _l
645 178 621 107 574 59 _c
527 11 458 -13 366 -13 _c
274 -13 204 11 157 59 _c
110 107 87 178 87 274 _c
87 729 _l
_cl}_d
/a{{613 0 60 -13 522 560 _sc
343 275 _m
270 275 220 266 192 250 _c
164 233 150 205 150 165 _c
150 133 160 107 181 89 _c
202 70 231 61 267 61 _c
317 61 357 78 387 114 _c
417 149 432 196 432 255 _c
432 275 _l
343 275 _l
522 312 _m
522 0 _l
432 0 _l
432 83 _l
411 49 385 25 355 10 _c
325 -5 287 -13 243 -13 _c
187 -13 142 2 109 33 _c
76 64 60 106 60 159 _c
}_e{60 220 80 266 122 298 _c
163 329 224 345 306 345 _c
432 345 _l
432 354 _l
432 395 418 427 391 450 _c
364 472 326 484 277 484 _c
245 484 215 480 185 472 _c
155 464 127 453 100 439 _c
100 522 _l
132 534 164 544 195 550 _c
226 556 256 560 286 560 _c
365 560 424 539 463 498 _c
502 457 522 395 522 312 _c
_cl}_e}_d
/c{{550 0 55 -13 488 560 _sc
488 526 _m
488 442 _l
462 456 437 466 411 473 _c
385 480 360 484 334 484 _c
276 484 230 465 198 428 _c
166 391 150 339 150 273 _c
150 206 166 154 198 117 _c
230 80 276 62 334 62 _c
360 62 385 65 411 72 _c
437 79 462 90 488 104 _c
488 21 _l
462 9 436 0 410 -5 _c
383 -10 354 -13 324 -13 _c
242 -13 176 12 128 64 _c
}_e{79 115 55 185 55 273 _c
55 362 79 432 128 483 _c
177 534 244 560 330 560 _c
358 560 385 557 411 551 _c
437 545 463 537 488 526 _c
_cl}_e}_d
/e{{615 0 55 -13 562 560 _sc
562 296 _m
562 252 _l
149 252 _l
153 190 171 142 205 110 _c
238 78 284 62 344 62 _c
378 62 412 66 444 74 _c
476 82 509 95 541 113 _c
541 28 _l
509 14 476 3 442 -3 _c
408 -9 373 -13 339 -13 _c
251 -13 182 12 131 62 _c
80 112 55 181 55 268 _c
55 357 79 428 127 481 _c
175 533 241 560 323 560 _c
397 560 455 536 498 489 _c
}_e{540 441 562 377 562 296 _c
472 322 _m
471 371 457 410 431 440 _c
404 469 368 484 324 484 _c
274 484 234 469 204 441 _c
174 413 156 373 152 322 _c
472 322 _l
_cl}_e}_d
/h{634 0 91 0 549 760 _sc
549 330 _m
549 0 _l
459 0 _l
459 327 _l
459 379 448 417 428 443 _c
408 469 378 482 338 482 _c
289 482 251 466 223 435 _c
195 404 181 362 181 309 _c
181 0 _l
91 0 _l
91 760 _l
181 760 _l
181 462 _l
202 494 227 519 257 535 _c
286 551 320 560 358 560 _c
420 560 468 540 500 501 _c
532 462 549 405 549 330 _c
_cl}_d
/m{{974 0 91 0 889 560 _sc
520 442 _m
542 482 569 511 600 531 _c
631 550 668 560 711 560 _c
767 560 811 540 842 500 _c
873 460 889 403 889 330 _c
889 0 _l
799 0 _l
799 327 _l
799 379 789 418 771 444 _c
752 469 724 482 686 482 _c
639 482 602 466 575 435 _c
548 404 535 362 535 309 _c
535 0 _l
445 0 _l
445 327 _l
445 379 435 418 417 444 _c
398 469 369 482 331 482 _c
}_e{285 482 248 466 221 435 _c
194 404 181 362 181 309 _c
181 0 _l
91 0 _l
91 547 _l
181 547 _l
181 462 _l
201 495 226 520 255 536 _c
283 552 317 560 357 560 _c
397 560 430 550 458 530 _c
486 510 506 480 520 442 _c
_cl}_e}_d
/n{634 0 91 0 549 560 _sc
549 330 _m
549 0 _l
459 0 _l
459 327 _l
459 379 448 417 428 443 _c
408 469 378 482 338 482 _c
289 482 251 466 223 435 _c
195 404 181 362 181 309 _c
181 0 _l
91 0 _l
91 547 _l
181 547 _l
181 462 _l
202 494 227 519 257 535 _c
286 551 320 560 358 560 _c
420 560 468 540 500 501 _c
532 462 549 405 549 330 _c
_cl}_d
/o{612 0 55 -13 557 560 _sc
306 484 _m
258 484 220 465 192 427 _c
164 389 150 338 150 273 _c
150 207 163 156 191 118 _c
219 80 257 62 306 62 _c
354 62 392 80 420 118 _c
448 156 462 207 462 273 _c
462 337 448 389 420 427 _c
392 465 354 484 306 484 _c
306 560 _m
384 560 445 534 490 484 _c
534 433 557 363 557 273 _c
557 183 534 113 490 63 _c
445 12 384 -13 306 -13 _c
227 -13 165 12 121 63 _c
77 113 55 183 55 273 _c
55 363 77 433 121 484 _c
165 534 227 560 306 560 _c
_cl}_d
/q{{635 0 55 -207 544 560 _sc
148 273 _m
148 207 161 155 188 117 _c
215 79 253 61 301 61 _c
348 61 385 79 413 117 _c
440 155 454 207 454 273 _c
454 339 440 390 413 428 _c
385 466 348 485 301 485 _c
253 485 215 466 188 428 _c
161 390 148 339 148 273 _c
454 82 _m
435 49 411 25 382 10 _c
353 -5 319 -13 279 -13 _c
213 -13 159 13 117 65 _c
75 117 55 187 55 273 _c
}_e{55 359 75 428 117 481 _c
159 533 213 560 279 560 _c
319 560 353 552 382 536 _c
411 520 435 496 454 464 _c
454 547 _l
544 547 _l
544 -207 _l
454 -207 _l
454 82 _l
_cl}_e}_d
/r{411 0 91 0 411 560 _sc
411 463 _m
401 469 390 473 378 476 _c
366 478 353 480 339 480 _c
288 480 249 463 222 430 _c
194 397 181 350 181 288 _c
181 0 _l
91 0 _l
91 547 _l
181 547 _l
181 462 _l
199 495 224 520 254 536 _c
284 552 321 560 365 560 _c
371 560 378 559 386 559 _c
393 558 401 557 411 555 _c
411 463 _l
_cl}_d
/t{392 0 27 0 368 702 _sc
183 702 _m
183 547 _l
368 547 _l
368 477 _l
183 477 _l
183 180 _l
183 135 189 106 201 94 _c
213 81 238 75 276 75 _c
368 75 _l
368 0 _l
276 0 _l
206 0 158 13 132 39 _c
106 65 93 112 93 180 _c
93 477 _l
27 477 _l
27 547 _l
93 547 _l
93 702 _l
183 702 _l
_cl}_d
/u{634 0 85 -13 543 560 _sc
85 216 _m
85 547 _l
175 547 _l
175 219 _l
175 167 185 129 205 103 _c
225 77 255 64 296 64 _c
344 64 383 79 411 110 _c
439 141 453 183 453 237 _c
453 547 _l
543 547 _l
543 0 _l
453 0 _l
453 84 _l
431 50 405 26 377 10 _c
348 -5 315 -13 277 -13 _c
214 -13 166 6 134 45 _c
101 83 85 140 85 216 _c
311 560 _m
311 560 _l
_cl}_d
/y{592 0 30 -207 562 547 _sc
322 -50 _m
296 -114 271 -157 247 -177 _c
223 -197 191 -207 151 -207 _c
79 -207 _l
79 -132 _l
132 -132 _l
156 -132 175 -126 189 -114 _c
203 -102 218 -75 235 -31 _c
251 9 _l
30 547 _l
125 547 _l
296 119 _l
467 547 _l
562 547 _l
322 -50 _l
_cl}_d
/z{525 0 43 0 482 547 _sc
55 547 _m
482 547 _l
482 465 _l
144 72 _l
482 72 _l
482 0 _l
43 0 _l
43 82 _l
381 475 _l
55 475 _l
55 547 _l
_cl}_d
/minus{838 0 106 272 732 355 _sc
106 355 _m
732 355 _l
732 272 _l
106 272 _l
106 355 _l
_cl}_d
end readonly def

/BuildGlyph
 {exch begin
 CharStrings exch
 2 copy known not{pop /.notdef}if
 true 3 1 roll get exec
 end}_d

/BuildChar {
 1 index /Encoding get exch get
 1 index /BuildGlyph get exec
}_d

FontName currentdict end definefont pop
end
%%EndProlog
%%Page: 1 1
mpldict begin
18 180 translate
576 432 0 0 clipbox
gsave
0 0 m
576 0 l
576 432 l
0 432 l
cl
1.000 setgray
fill
grestore
gsave
72 54 m
518.4 54 l
518.4 380.16 l
72 380.16 l
cl
1.000 setgray
fill
grestore
0.800 setlinewidth
1 setlinejoin
0 setlinecap
[] 0 setdash
0.000 setgray
gsave
/o {
gsave
newpath
translate
0.8 setlinewidth
1 setlinejoin
0 setlinecap
0 0 m
0 -3.5 l

gsave
0.000 setgray
fill
grestore
stroke
grestore
} bind def
87.0881 54 o
grestore
/DejaVuSans findfont
10.000 scalefont
setfont
gsave
75.955299 39.406250 translate
0.000000 rotate
0.000000 0 m /nine glyphshow
6.362305 0 m /three glyphshow
12.724609 0 m /period glyphshow
15.903320 0 m /six glyphshow
grestore
gsave
/o {
gsave
newpath
translate
0.8 setlinewidth
1 setlinejoin
0 setlinecap
0 0 m
0 -3.5 l

gsave
0.000 setgray
fill
grestore
stroke
grestore
} bind def
139.116 54 o
grestore
gsave
127.983271 39.406250 translate
0.000000 rotate
0.000000 0 m /nine glyphshow
6.362305 0 m /three glyphshow
12.724609 0 m /period glyphshow
15.903320 0 m /seven glyphshow
grestore
gsave
/o {
gsave
newpath
translate
0.8 setlinewidth
1 setlinejoin
0 setlinecap
0 0 m
0 -3.5 l

gsave
0.000 setgray
fill
grestore
stroke
grestore
} bind def
191.144 54 o
grestore
gsave
180.011243 39.406250 translate
0.000000 rotate
0.000000 0 m /nine glyphshow
6.362305 0 m /three glyphshow
12.724609 0 m /period glyphshow
15.903320 0 m /eight glyphshow
grestore
gsave
/o {
gsave
newpath
translate
0.8 setlinewidth
1 setlinejoin
0 setlinecap
0 0 m
0 -3.5 l

gsave
0.000 setgray
fill
grestore
stroke
grestore
} bind def
243.172 54 o
grestore
gsave
232.039215 39.406250 translate
0.000000 rotate
0.000000 0 m /nine glyphshow
6.362305 0 m /three glyphshow
12.724609 0 m /period glyphshow
15.903320 0 m /nine glyphshow
grestore
gsave
/o {
gsave
newpath
translate
0.8 setlinewidth
1 setlinejoin
0 setlinecap
0 0 m
0 -3.5 l

gsave
0.000 setgray
fill
grestore
stroke
grestore
} bind def
295.2 54 o
grestore
gsave
284.067187 39.406250 translate
0.000000 rotate
0.000000 0 m /nine glyphshow
6.362305 0 m /four glyphshow
12.724609 0 m /period glyphshow
15.903320 0 m /zero glyphshow
grestore
gsave
/o {
gsave
newpath
translate
0.8 setlinewidth
1 setlinejoin
0 setlinecap
0 0 m
0 -3.5 l

gsave
0.000 setgray
fill
grestore
stroke
grestore
} bind def
347.228 54 o
grestore
gsave
336.095160 39.406250 translate
0.000000 rotate
0.000000 0 m /nine glyphshow
6.362305 0 m /four glyphshow
12.724609 0 m /period glyphshow
15.903320 0 m /one glyphshow
grestore
gsave
/o {
gsave
newpath
translate
0.8 setlinewidth
1 setlinejoin
0 setlinecap
0 0 m
0 -3.5 l

gsave
0.000 setgray
fill
grestore
stroke
grestore
} bind def
399.256 54 o
grestore
gsave
388.123132 39.406250 translate
0.000000 rotate
0.000000 0 m /nine glyphshow
6.362305 0 m /four glyphshow
12.724609 0 m /period glyphshow
15.903320 0 m /two glyphshow
grestore
gsave
/o {
gsave
newpath
translate
0.8 setlinewidth
1 setlinejoin
0 setlinecap
0 0 m
0 -3.5 l

gsave
0.000 setgray
fill
grestore
stroke
grestore
} bind def
451.284 54 o
grestore
gsave
440.151104 39.406250 translate
0.000000 rotate
0.000000 0 m /nine glyphshow
6.362305 0 m /four glyphshow
12.724609 0 m /period glyphshow
15.903320 0 m /three glyphshow
grestore
gsave
/o {
gsave
newpath
translate
0.8 setlinewidth
1 setlinejoin
0 setlinecap
0 0 m
0 -3.5 l

gsave
0.000 setgray
fill
grestore
stroke
grestore
} bind def
503.312 54 o
grestore
gsave
492.179076 39.406250 translate
0.000000 rotate
0.000000 0 m /nine glyphshow
6.362305 0 m /four glyphshow
12.724609 0 m /period glyphshow
15.903320 0 m /four glyphshow
grestore
gsave
230.082812 25.734375 translate
0.000000 rotate
0.000000 0 m /G glyphshow
7.749023 0 m /y glyphshow
13.666992 0 m /r glyphshow
17.528320 0 m /o glyphshow
23.646484 0 m /t glyphshow
27.567383 0 m /r glyphshow
31.428711 0 m /o glyphshow
37.546875 0 m /n glyphshow
43.884766 0 m /space glyphshow
47.063477 0 m /F glyphshow
52.065430 0 m /r glyphshow
55.926758 0 m /e glyphshow
62.079102 0 m /q glyphshow
68.426758 0 m /u glyphshow
74.764648 0 m /e glyphshow
80.916992 0 m /n glyphshow
87.254883 0 m /c glyphshow
92.752930 0 m /y glyphshow
98.670898 0 m /space glyphshow
101.849609 0 m /parenleft glyphshow
105.750977 0 m /G glyphshow
113.500000 0 m /H glyphshow
121.019531 0 m /z glyphshow
126.268555 0 m /parenright glyphshow
grestore
gsave
/o {
gsave
newpath
translate
0.8 setlinewidth
1 setlinejoin
0 setlinecap
0 0 m
-3.5 0 l

gsave
0.000 setgray
fill
grestore
stroke
grestore
} bind def
72 82.4291 o
grestore
gsave
37.546875 78.632219 translate
0.000000 rotate
0.000000 0 m /minus glyphshow
8.378906 0 m /two glyphshow
14.741211 0 m /zero glyphshow
21.103516 0 m /zero glyphshow
grestore
gsave
/o {
gsave
newpath
translate
0.8 setlinewidth
1 setlinejoin
0 setlinecap
0 0 m
-3.5 0 l

gsave
0.000 setgray
fill
grestore
stroke
grestore
} bind def
72 147.608 o
grestore
gsave
37.546875 143.811437 translate
0.000000 rotate
0.000000 0 m /minus glyphshow
8.378906 0 m /one glyphshow
14.741211 0 m /zero glyphshow
21.103516 0 m /zero glyphshow
grestore
gsave
/o {
gsave
newpath
translate
0.8 setlinewidth
1 setlinejoin
0 setlinecap
0 0 m
-3.5 0 l

gsave
0.000 setgray
fill
grestore
stroke
grestore
} bind def
72 212.788 o
grestore
gsave
58.640625 208.990655 translate
0.000000 rotate
0.000000 0 m /zero glyphshow
grestore
gsave
/o {
gsave
newpath
translate
0.8 setlinewidth
1 setlinejoin
0 setlinecap
0 0 m
-3.5 0 l

gsave
0.000 setgray
fill
grestore
stroke
grestore
} bind def
72 277.967 o
grestore
gsave
45.921875 274.169873 translate
0.000000 rotate
0.000000 0 m /one glyphshow
6.362305 0 m /zero glyphshow
12.724609 0 m /zero glyphshow
grestore
gsave
/o {
gsave
newpath
translate
0.8 setlinewidth
1 setlinejoin
0 setlinecap
0 0 m
-3.5 0 l

gsave
0.000 setgray
fill
grestore
stroke
grestore
} bind def
72 343.146 o
grestore
gsave
45.921875 339.349091 translate
0.000000 rotate
0.000000 0 m /two glyphshow
6.362305 0 m /zero glyphshow
12.724609 0 m /zero glyphshow
grestore
gsave
31.468750 166.720625 translate
90.000000 rotate
0.000000 0 m /E glyphshow
6.318359 0 m /n glyphshow
12.656250 0 m /h glyphshow
18.994141 0 m /a glyphshow
25.122070 0 m /n glyphshow
31.459961 0 m /c glyphshow
36.958008 0 m /e glyphshow
43.110352 0 m /m glyphshow
52.851562 0 m /e glyphshow
59.003906 0 m /n glyphshow
65.341797 0 m /t glyphshow
69.262695 0 m /space glyphshow
72.441406 0 m /parenleft glyphshow
76.342773 0 m /A glyphshow
83.058594 0 m /period glyphshow
86.237305 0 m /U glyphshow
93.556641 0 m /period glyphshow
96.735352 0 m /parenright glyphshow
grestore
1.500 setlinewidth
2 setlinecap
1.000 0.000 0.000 setrgbcolor
gsave
446.4 326.2 72 54 clipbox
92.290909 213.912122 m
97.493706 213.965466 l
102.696503 214.028161 l
107.899301 214.103636 l
113.102098 214.195837 l
118.304895 214.310303 l
123.507692 214.457824 l
128.71049 214.654096 l
133.913287 214.930758 l
139.116084 215.354791 l
144.318881 216.121841 l
149.521678 218.205985 l
154.724476 228.715851 l
159.927273 248.696882 l
165.13007 276.716884 l
170.332867 297.926095 l
175.535664 298.088862 l
180.738462 299.144435 l
185.941259 300.449681 l
191.144056 301.755184 l
196.346853 303.088914 l
201.54965 304.464405 l
206.752448 305.885059 l
211.955245 307.356708 l
217.158042 308.886241 l
222.360839 310.482094 l
227.563636 312.15476 l
232.766434 313.917166 l
237.969231 315.785042 l
243.172028 317.778193 l
248.374825 319.925305 l
253.577622 322.263231 l
258.78042 324.828224 l
263.983217 327.655757 l
269.186014 330.78204 l
274.388811 334.244071 l
279.591608 338.075945 l
284.794406 342.297517 l
289.997203 346.80284 l
295.2 350.10377 l
300.402797 345.104592 l
305.605594 337.77982 l
310.808392 311.27988 l
316.011189 286.149361 l
321.213986 245.265544 l
326.416783 217.989996 l
331.61958 214.937671 l
336.822378 214.04876 l
342.025175 213.57666 l
347.227972 213.230985 l
352.430769 212.923062 l
357.633566 212.617932 l
362.836364 212.301569 l
368.039161 211.971042 l
373.241958 211.630488 l
378.444755 211.283267 l
383.647552 210.89491 l
388.85035 210.278771 l
394.053147 208.915645 l
399.255944 205.895901 l
404.458741 200.170768 l
409.661538 191.074425 l
414.864336 178.694069 l
420.067133 163.744302 l
425.26993 147.183521 l
430.472727 129.910017 l
435.675524 112.657245 l
440.878322 95.887869 l
446.081119 80.287007 l
451.283916 68.825455 l
456.486713 87.405544 l
461.68951 123.987121 l
466.892308 189.417169 l
472.095105 206.574592 l
477.297902 209.698566 l
482.500699 210.912431 l
487.703497 211.557645 l
492.906294 211.95854 l
498.109091 212.23011 l
stroke
grestore
1.000 setlinewidth
0 setlinecap
gsave
446.4 326.2 72 54 clipbox
/o {
gsave
newpath
translate
1.0 setlinewidth
1 setlinejoin
0 setlinecap
0 -3 m
0.795609 -3 1.55874 -2.683901 2.12132 -2.12132 c
2.683901 -1.55874 3 -0.795609 3 0 c
3 0.795609 2.683901 1.55874 2.12132 2.12132 c
1.55874 2.683901 0.795609 3 0 3 c
-0.795609 3 -1.55874 2.683901 -2.12132 2.12132 c
-2.683901 1.55874 -3 0.795609 -3 0 c
-3 -0.795609 -2.683901 -1.55874 -2.12132 -2.12132 c
-1.55874 -2.683901 -0.795609 -3 0 -3 c
cl

gsave
grestore
stroke
grestore
} bind def
92.2909 213.912 o
97.4937 213.965 o
102.697 214.028 o
107.899 214.104 o
113.102 214.196 o
118.305 214.31 o
123.508 214.458 o
128.71 214.654 o
133.913 214.931 o
139.116 215.355 o
144.319 216.122 o
149.522 218.206 o
154.724 228.716 o
159.927 248.697 o
165.13 276.717 o
170.333 297.926 o
175.536 298.089 o
180.738 299.144 o
185.941 300.45 o
191.144 301.755 o
196.347 303.089 o
201.55 304.464 o
206.752 305.885 o
211.955 307.357 o
217.158 308.886 o
222.361 310.482 o
227.564 312.155 o
232.766 313.917 o
237.969 315.785 o
243.172 317.778 o
248.375 319.925 o
253.578 322.263 o
258.78 324.828 o
263.983 327.656 o
269.186 330.782 o
274.389 334.244 o
279.592 338.076 o
284.794 342.298 o
289.997 346.803 o
295.2 350.104 o
300.403 345.105 o
305.606 337.78 o
310.808 311.28 o
316.011 286.149 o
321.214 245.266 o
326.417 217.99 o
331.62 214.938 o
336.822 214.049 o
342.025 213.577 o
347.228 213.231 o
352.431 212.923 o
357.634 212.618 o
362.836 212.302 o
368.039 211.971 o
373.242 211.63 o
378.445 211.283 o
383.648 210.895 o
388.85 210.279 o
394.053 208.916 o
399.256 205.896 o
404.459 200.171 o
409.662 191.074 o
414.864 178.694 o
420.067 163.744 o
425.27 147.184 o
430.473 129.91 o
435.676 112.657 o
440.878 95.8879 o
446.081 80.287 o
451.284 68.8255 o
456.487 87.4055 o
461.69 123.987 o
466.892 189.417 o
472.095 206.575 o
477.298 209.699 o
482.501 210.912 o
487.703 211.558 o
492.906 211.959 o
498.109 212.23 o
grestore
1.500 setlinewidth
2 setlinecap
0.000 0.000 1.000 setrgbcolor
gsave
446.4 326.2 72 54 clipbox
92.290909 213.952945 m
97.493706 214.014851 l
102.696503 214.089391 l
107.899301 214.181193 l
113.102098 214.295889 l
118.304895 214.442103 l
123.507692 214.636691 l
128.71049 214.906111 l
133.913287 215.303819 l
139.116084 215.95311 l
144.318881 217.224833 l
149.521678 221.104242 l
154.724476 242.513002 l
159.927273 281.593659 l
165.13007 333.740789 l
170.332867 365.334545 l
175.535664 348.367913 l
180.738462 332.131297 l
185.941259 315.560449 l
191.144056 298.364982 l
196.346853 281.091636 l
201.54965 264.457333 l
206.752448 249.323942 l
211.955245 236.628413 l
217.158042 227.113666 l
222.360839 220.987427 l
227.563636 217.738343 l
232.766434 216.340304 l
237.969231 215.773255 l
243.172028 215.434394 l
248.374825 215.121051 l
253.577622 214.806006 l
258.78042 214.496831 l
263.983217 214.198986 l
269.186014 213.910333 l
274.388811 213.617426 l
279.591608 213.285665 l
284.794406 212.822674 l
289.997203 211.879572 l
295.2 207.398643 l
300.402797 185.666665 l
305.605594 156.144722 l
310.808392 109.586909 l
316.011189 94.547304 l
321.213986 81.891825 l
326.416783 75.150851 l
331.61958 79.352173 l
336.822378 83.948644 l
342.025175 88.190286 l
347.227972 92.03851 l
352.430769 95.509743 l
357.633566 98.640857 l
362.836364 101.469418 l
368.039161 104.031914 l
373.241958 106.363633 l
378.444755 108.499569 l
383.647552 110.47549 l
388.85035 112.326436 l
394.053147 114.076868 l
399.255944 115.742612 l
404.458741 117.336468 l
409.661538 118.868835 l
414.864336 120.34814 l
420.067133 121.781277 l
425.26993 123.173645 l
430.472727 124.529285 l
435.675524 125.853016 l
440.878322 127.135594 l
446.081119 128.523729 l
451.283916 131.254771 l
456.486713 146.481082 l
461.68951 168.212832 l
466.892308 200.519797 l
472.095105 209.032626 l
477.297902 210.767167 l
482.500699 211.508829 l
487.703497 211.93348 l
492.906294 212.212561 l
498.109091 212.410665 l
stroke
grestore
1.000 setlinewidth
0 setlinejoin
0 setlinecap
gsave
446.4 326.2 72 54 clipbox
/o {
gsave
newpath
translate
1.0 setlinewidth
0 setlinejoin
0 setlinecap
-3 -3 m
3 -3 l
3 3 l
-3 3 l
cl

gsave
grestore
stroke
grestore
} bind def
92.2909 213.953 o
97.4937 214.015 o
102.697 214.089 o
107.899 214.181 o
113.102 214.296 o
118.305 214.442 o
123.508 214.637 o
128.71 214.906 o
133.913 215.304 o
139.116 215.953 o
144.319 217.225 o
149.522 221.104 o
154.724 242.513 o
159.927 281.594 o
165.13 333.741 o
170.333 365.335 o
175.536 348.368 o
180.738 332.131 o
185.941 315.56 o
191.144 298.365 o
196.347 281.092 o
201.55 264.457 o
206.752 249.324 o
211.955 236.628 o
217.158 227.114 o
222.361 220.987 o
227.564 217.738 o
232.766 216.34 o
237.969 215.773 o
243.172 215.434 o
248.375 215.121 o
253.578 214.806 o
258.78 214.497 o
263.983 214.199 o
269.186 213.91 o
274.389 213.617 o
279.592 213.286 o
284.794 212.823 o
289.997 211.88 o
295.2 207.399 o
300.403 185.667 o
305.606 156.145 o
310.808 109.587 o
316.011 94.5473 o
321.214 81.8918 o
326.417 75.1509 o
331.62 79.3522 o
336.822 83.9486 o
342.025 88.1903 o
347.228 92.0385 o
352.431 95.5097 o
357.634 98.6409 o
362.836 101.469 o
368.039 104.032 o
373.242 106.364 o
378.445 108.5 o
383.648 110.475 o
388.85 112.326 o
394.053 114.077 o
399.256 115.743 o
404.459 117.336 o
409.662 118.869 o
414.864 120.348 o
420.067 121.781 o
425.27 123.174 o
430.473 124.529 o
435.676 125.853 o
440.878 127.136 o
446.081 128.524 o
451.284 131.255 o
456.487 146.481 o
461.69 168.213 o
466.892 200.52 o
472.095 209.033 o
477.298 210.767 o
482.501 211.509 o
487.703 211.933 o
492.906 212.213 o
498.109 212.411 o
grestore
0.800 setlinewidth
2 setlinecap
[] 0 setdash
0.000 setgray
gsave
72 54 m
72 380.16 l
stroke
grestore
gsave
518.4 54 m
518.4 380.16 l
stroke
grestore
gsave
72 54 m
518.4 54 l
stroke
grestore
gsave
72 380.16 m
518.4 380.16 l
stroke
grestore
1.000 setlinewidth
0 setlinecap
0.800 setgray
gsave
435.321875 342.81625 m
511.4 342.81625 l
512.733333 342.81625 513.4 343.482917 513.4 344.81625 c
513.4 373.16 l
513.4 374.493333 512.733333 375.16 511.4 375.16 c
435.321875 375.16 l
433.988542 375.16 433.321875 374.493333 433.321875 373.16 c
433.321875 344.81625 l
433.321875 343.482917 433.988542 342.81625 435.321875 342.81625 c
cl
gsave
1.000 setgray
fill
grestore
stroke
grestore
1.500 setlinewidth
1 setlinejoin
2 setlinecap
[] 0 setdash
1.000 0.000 0.000 setrgbcolor
gsave
437.321875 367.06625 m
457.321875 367.06625 l
stroke
grestore
1.000 setlinewidth
0 setlinecap
gsave
/o {
gsave
newpath
translate
1.0 setlinewidth
1 setlinejoin
0 setlinecap
0 -3 m
0.795609 -3 1.55874 -2.683901 2.12132 -2.12132 c
2.683901 -1.55874 3 -0.795609 3 0 c
3 0.795609 2.683901 1.55874 2.12132 2.12132 c
1.55874 2.683901 0.795609 3 0 3 c
-0.795609 3 -1.55874 2.683901 -2.12132 2.12132 c
-2.683901 1.55874 -3 0.795609 -3 0 c
-3 -0.795609 -2.683901 -1.55874 -2.12132 -2.12132 c
-1.55874 -2.683901 -0.795609 -3 0 -3 c
cl

gsave
grestore
stroke
grestore
} bind def
447.322 367.066 o
grestore
0.000 setgray
gsave
465.321875 363.566250 translate
0.000000 rotate
0.000000 0 m /three glyphshow
6.362305 0 m /zero glyphshow
12.724609 0 m /zero glyphshow
19.086914 0 m /M glyphshow
27.714844 0 m /H glyphshow
35.234375 0 m /z glyphshow
grestore
1.500 setlinewidth
2 setlinecap
0.000 0.000 1.000 setrgbcolor
gsave
437.321875 352.394375 m
457.321875 352.394375 l
stroke
grestore
1.000 setlinewidth
0 setlinejoin
0 setlinecap
gsave
/o {
gsave
newpath
translate
1.0 setlinewidth
0 setlinejoin
0 setlinecap
-3 -3 m
3 -3 l
3 3 l
-3 3 l
cl

gsave
grestore
stroke
grestore
} bind def
447.322 352.394 o
grestore
0.000 setgray
gsave
465.321875 348.894375 translate
0.000000 rotate
0.000000 0 m /hyphen glyphshow
3.608398 0 m /three glyphshow
9.970703 0 m /zero glyphshow
16.333008 0 m /zero glyphshow
22.695312 0 m /M glyphshow
31.323242 0 m /H glyphshow
38.842773 0 m /z glyphshow
grestore

end
showpage
%%EOF
